ARM GAS  C:\Users\SUZUKI~1\AppData\Local\Temp\ccTDZrzf.s 			page 1


   1              		.syntax unified
   2              		.cpu cortex-m3
   3              		.fpu softvfp
   4              		.eabi_attribute 20, 1
   5              		.eabi_attribute 21, 1
   6              		.eabi_attribute 23, 3
   7              		.eabi_attribute 24, 1
   8              		.eabi_attribute 25, 1
   9              		.eabi_attribute 26, 1
  10              		.eabi_attribute 30, 4
  11              		.eabi_attribute 18, 4
  12              		.thumb
  13              		.file	"Clock_1.c"
  14              		.section	.debug_abbrev,"",%progbits
  15              	.Ldebug_abbrev0:
  16              		.section	.debug_info,"",%progbits
  17              	.Ldebug_info0:
  18              		.section	.debug_line,"",%progbits
  19              	.Ldebug_line0:
  20 0000 5D010000 		.text
  20      02005F00 
  20      00000201 
  20      FB0E0D00 
  20      01010101 
  21              	.Ltext0:
  22              		.cfi_sections	.debug_frame
  23              		.section	.text.Clock_1_Start,"ax",%progbits
  24              		.align	1
  25              		.global	Clock_1_Start
  26              		.thumb
  27              		.thumb_func
  28              		.type	Clock_1_Start, %function
  29              	Clock_1_Start:
  30              	.LFB0:
  31              		.file 1 ".\\Generated_Source\\PSoC5\\Clock_1.c"
   1:.\Generated_Source\PSoC5/Clock_1.c **** /*******************************************************************************
   2:.\Generated_Source\PSoC5/Clock_1.c **** * File Name: Clock_1.c
   3:.\Generated_Source\PSoC5/Clock_1.c **** * Version 1.70
   4:.\Generated_Source\PSoC5/Clock_1.c **** *
   5:.\Generated_Source\PSoC5/Clock_1.c **** *  Description:
   6:.\Generated_Source\PSoC5/Clock_1.c **** *   This file provides the source code to the API for the clock component.
   7:.\Generated_Source\PSoC5/Clock_1.c **** *
   8:.\Generated_Source\PSoC5/Clock_1.c **** *  Note:
   9:.\Generated_Source\PSoC5/Clock_1.c **** *
  10:.\Generated_Source\PSoC5/Clock_1.c **** ********************************************************************************
  11:.\Generated_Source\PSoC5/Clock_1.c **** * Copyright 2008-2010, Cypress Semiconductor Corporation.  All rights reserved.
  12:.\Generated_Source\PSoC5/Clock_1.c **** * You may use this file only in accordance with the license, terms, conditions, 
  13:.\Generated_Source\PSoC5/Clock_1.c **** * disclaimers, and limitations in the end user license agreement accompanying 
  14:.\Generated_Source\PSoC5/Clock_1.c **** * the software package with which this file was provided.
  15:.\Generated_Source\PSoC5/Clock_1.c **** ********************************************************************************/
  16:.\Generated_Source\PSoC5/Clock_1.c **** 
  17:.\Generated_Source\PSoC5/Clock_1.c **** #include <cydevice_trm.h>
  18:.\Generated_Source\PSoC5/Clock_1.c **** #include "Clock_1.h"
  19:.\Generated_Source\PSoC5/Clock_1.c **** 
  20:.\Generated_Source\PSoC5/Clock_1.c **** /* Clock Distribution registers. */
  21:.\Generated_Source\PSoC5/Clock_1.c **** #define CLK_DIST_LD              (* (reg8 *) CYREG_CLKDIST_LD)
  22:.\Generated_Source\PSoC5/Clock_1.c **** #define CLK_DIST_BCFG2           (* (reg8 *) CYREG_CLKDIST_BCFG2)
ARM GAS  C:\Users\SUZUKI~1\AppData\Local\Temp\ccTDZrzf.s 			page 2


  23:.\Generated_Source\PSoC5/Clock_1.c **** #define BCFG2_MASK               (0x80u)
  24:.\Generated_Source\PSoC5/Clock_1.c **** #define CLK_DIST_DMASK           (* (reg8 *) CYREG_CLKDIST_DMASK)
  25:.\Generated_Source\PSoC5/Clock_1.c **** #define CLK_DIST_AMASK           (* (reg8 *) CYREG_CLKDIST_AMASK)
  26:.\Generated_Source\PSoC5/Clock_1.c **** 
  27:.\Generated_Source\PSoC5/Clock_1.c **** #define HAS_CLKDIST_LD_DISABLE   (CY_PSOC3 || CY_PSOC5LP)
  28:.\Generated_Source\PSoC5/Clock_1.c **** 
  29:.\Generated_Source\PSoC5/Clock_1.c **** 
  30:.\Generated_Source\PSoC5/Clock_1.c **** /*******************************************************************************
  31:.\Generated_Source\PSoC5/Clock_1.c **** * Function Name: Clock_1_Start
  32:.\Generated_Source\PSoC5/Clock_1.c **** ********************************************************************************
  33:.\Generated_Source\PSoC5/Clock_1.c **** * Summary:
  34:.\Generated_Source\PSoC5/Clock_1.c **** *  Starts the clock. Note that on startup, clocks may be already running if the
  35:.\Generated_Source\PSoC5/Clock_1.c **** *  "Start on Reset" option is enabled in the DWR.
  36:.\Generated_Source\PSoC5/Clock_1.c **** *
  37:.\Generated_Source\PSoC5/Clock_1.c **** * Parameters:
  38:.\Generated_Source\PSoC5/Clock_1.c **** *  void
  39:.\Generated_Source\PSoC5/Clock_1.c **** *
  40:.\Generated_Source\PSoC5/Clock_1.c **** * Returns:
  41:.\Generated_Source\PSoC5/Clock_1.c **** *  void
  42:.\Generated_Source\PSoC5/Clock_1.c **** *
  43:.\Generated_Source\PSoC5/Clock_1.c **** *******************************************************************************/
  44:.\Generated_Source\PSoC5/Clock_1.c **** void Clock_1_Start(void) 
  45:.\Generated_Source\PSoC5/Clock_1.c **** {
  32              		.loc 1 45 0
  33              		.cfi_startproc
  34              		@ args = 0, pretend = 0, frame = 0
  35              		@ frame_needed = 0, uses_anonymous_args = 0
  36              		@ link register save eliminated.
  46:.\Generated_Source\PSoC5/Clock_1.c ****     /* Set the bit to enable the clock. */
  47:.\Generated_Source\PSoC5/Clock_1.c ****     Clock_1_CLKEN |= Clock_1_CLKEN_MASK;
  37              		.loc 1 47 0
  38 0000 024B     		ldr	r3, .L3
  39 0002 1A78     		ldrb	r2, [r3, #0]	@ zero_extendqisi2
  40 0004 42F00102 		orr	r2, r2, #1
  41 0008 1A70     		strb	r2, [r3, #0]
  48:.\Generated_Source\PSoC5/Clock_1.c **** }
  42              		.loc 1 48 0
  43 000a 7047     		bx	lr
  44              	.L4:
  45              		.align	2
  46              	.L3:
  47 000c A2430040 		.word	1073759138
  48              		.cfi_endproc
  49              	.LFE0:
  50              		.size	Clock_1_Start, .-Clock_1_Start
  51              		.section	.text.Clock_1_Stop,"ax",%progbits
  52              		.align	1
  53              		.global	Clock_1_Stop
  54              		.thumb
  55              		.thumb_func
  56              		.type	Clock_1_Stop, %function
  57              	Clock_1_Stop:
  58              	.LFB1:
  49:.\Generated_Source\PSoC5/Clock_1.c **** 
  50:.\Generated_Source\PSoC5/Clock_1.c **** 
  51:.\Generated_Source\PSoC5/Clock_1.c **** /*******************************************************************************
  52:.\Generated_Source\PSoC5/Clock_1.c **** * Function Name: Clock_1_Stop
ARM GAS  C:\Users\SUZUKI~1\AppData\Local\Temp\ccTDZrzf.s 			page 3


  53:.\Generated_Source\PSoC5/Clock_1.c **** ********************************************************************************
  54:.\Generated_Source\PSoC5/Clock_1.c **** * Summary:
  55:.\Generated_Source\PSoC5/Clock_1.c **** *  Stops the clock and returns immediately. This API does not require the
  56:.\Generated_Source\PSoC5/Clock_1.c **** *  source clock to be running but may return before the hardware is actually
  57:.\Generated_Source\PSoC5/Clock_1.c **** *  disabled. If the settings of the clock are changed after calling this
  58:.\Generated_Source\PSoC5/Clock_1.c **** *  function, the clock may glitch when it is started. To avoid the clock
  59:.\Generated_Source\PSoC5/Clock_1.c **** *  glitch, use the StopBlock function.
  60:.\Generated_Source\PSoC5/Clock_1.c **** *
  61:.\Generated_Source\PSoC5/Clock_1.c **** * Parameters:
  62:.\Generated_Source\PSoC5/Clock_1.c **** *  void
  63:.\Generated_Source\PSoC5/Clock_1.c **** *
  64:.\Generated_Source\PSoC5/Clock_1.c **** * Returns:
  65:.\Generated_Source\PSoC5/Clock_1.c **** *  void
  66:.\Generated_Source\PSoC5/Clock_1.c **** *
  67:.\Generated_Source\PSoC5/Clock_1.c **** *******************************************************************************/
  68:.\Generated_Source\PSoC5/Clock_1.c **** void Clock_1_Stop(void) 
  69:.\Generated_Source\PSoC5/Clock_1.c **** {
  59              		.loc 1 69 0
  60              		.cfi_startproc
  61              		@ args = 0, pretend = 0, frame = 0
  62              		@ frame_needed = 0, uses_anonymous_args = 0
  63              		@ link register save eliminated.
  70:.\Generated_Source\PSoC5/Clock_1.c ****     /* Clear the bit to disable the clock. */
  71:.\Generated_Source\PSoC5/Clock_1.c ****     Clock_1_CLKEN &= ~Clock_1_CLKEN_MASK;
  64              		.loc 1 71 0
  65 0000 024B     		ldr	r3, .L7
  66 0002 1A78     		ldrb	r2, [r3, #0]	@ zero_extendqisi2
  67 0004 02F0FE02 		and	r2, r2, #254
  68 0008 1A70     		strb	r2, [r3, #0]
  72:.\Generated_Source\PSoC5/Clock_1.c **** }
  69              		.loc 1 72 0
  70 000a 7047     		bx	lr
  71              	.L8:
  72              		.align	2
  73              	.L7:
  74 000c A2430040 		.word	1073759138
  75              		.cfi_endproc
  76              	.LFE1:
  77              		.size	Clock_1_Stop, .-Clock_1_Stop
  78              		.section	.text.Clock_1_StandbyPower,"ax",%progbits
  79              		.align	1
  80              		.global	Clock_1_StandbyPower
  81              		.thumb
  82              		.thumb_func
  83              		.type	Clock_1_StandbyPower, %function
  84              	Clock_1_StandbyPower:
  85              	.LFB2:
  73:.\Generated_Source\PSoC5/Clock_1.c **** 
  74:.\Generated_Source\PSoC5/Clock_1.c **** 
  75:.\Generated_Source\PSoC5/Clock_1.c **** #if(CY_PSOC3 || CY_PSOC5LP)
  76:.\Generated_Source\PSoC5/Clock_1.c **** /*******************************************************************************
  77:.\Generated_Source\PSoC5/Clock_1.c **** * Function Name: Clock_1_StopBlock
  78:.\Generated_Source\PSoC5/Clock_1.c **** ********************************************************************************
  79:.\Generated_Source\PSoC5/Clock_1.c **** * Summary:
  80:.\Generated_Source\PSoC5/Clock_1.c **** *  Stops the clock and waits for the hardware to actually be disabled before
  81:.\Generated_Source\PSoC5/Clock_1.c **** *  returning. This ensures that the clock is never truncated (high part of the
  82:.\Generated_Source\PSoC5/Clock_1.c **** *  cycle will terminate before the clock is disabled and the API returns).
ARM GAS  C:\Users\SUZUKI~1\AppData\Local\Temp\ccTDZrzf.s 			page 4


  83:.\Generated_Source\PSoC5/Clock_1.c **** *  Note that the source clock must be running or this API will never return as
  84:.\Generated_Source\PSoC5/Clock_1.c **** *  a stopped clock cannot be disabled.
  85:.\Generated_Source\PSoC5/Clock_1.c **** *
  86:.\Generated_Source\PSoC5/Clock_1.c **** * Parameters:
  87:.\Generated_Source\PSoC5/Clock_1.c **** *  void
  88:.\Generated_Source\PSoC5/Clock_1.c **** *
  89:.\Generated_Source\PSoC5/Clock_1.c **** * Returns:
  90:.\Generated_Source\PSoC5/Clock_1.c **** *  void
  91:.\Generated_Source\PSoC5/Clock_1.c **** *
  92:.\Generated_Source\PSoC5/Clock_1.c **** *******************************************************************************/
  93:.\Generated_Source\PSoC5/Clock_1.c **** void Clock_1_StopBlock(void) 
  94:.\Generated_Source\PSoC5/Clock_1.c **** {
  95:.\Generated_Source\PSoC5/Clock_1.c ****     if (Clock_1_CLKEN & Clock_1_CLKEN_MASK)
  96:.\Generated_Source\PSoC5/Clock_1.c ****     {
  97:.\Generated_Source\PSoC5/Clock_1.c **** #if HAS_CLKDIST_LD_DISABLE
  98:.\Generated_Source\PSoC5/Clock_1.c ****         uint16 oldDivider;
  99:.\Generated_Source\PSoC5/Clock_1.c **** 
 100:.\Generated_Source\PSoC5/Clock_1.c ****         CLK_DIST_LD = 0;
 101:.\Generated_Source\PSoC5/Clock_1.c **** 
 102:.\Generated_Source\PSoC5/Clock_1.c ****         /* Clear all the mask bits except ours. */
 103:.\Generated_Source\PSoC5/Clock_1.c **** #if defined(Clock_1__CFG3)
 104:.\Generated_Source\PSoC5/Clock_1.c ****         CLK_DIST_AMASK = Clock_1_CLKEN_MASK;
 105:.\Generated_Source\PSoC5/Clock_1.c ****         CLK_DIST_DMASK = 0x00u;
 106:.\Generated_Source\PSoC5/Clock_1.c **** #else
 107:.\Generated_Source\PSoC5/Clock_1.c ****         CLK_DIST_DMASK = Clock_1_CLKEN_MASK;
 108:.\Generated_Source\PSoC5/Clock_1.c ****         CLK_DIST_AMASK = 0x00u;
 109:.\Generated_Source\PSoC5/Clock_1.c **** #endif
 110:.\Generated_Source\PSoC5/Clock_1.c **** 
 111:.\Generated_Source\PSoC5/Clock_1.c ****         /* Clear mask of bus clock. */
 112:.\Generated_Source\PSoC5/Clock_1.c ****         CLK_DIST_BCFG2 &= ~BCFG2_MASK;
 113:.\Generated_Source\PSoC5/Clock_1.c **** 
 114:.\Generated_Source\PSoC5/Clock_1.c ****         oldDivider = CY_GET_REG16(Clock_1_DIV_PTR);
 115:.\Generated_Source\PSoC5/Clock_1.c ****         CY_SET_REG16(CYREG_CLKDIST_WRK0, oldDivider);
 116:.\Generated_Source\PSoC5/Clock_1.c ****         CLK_DIST_LD = CYCLK_LD_DISABLE | CYCLK_LD_SYNC_EN | CYCLK_LD_LOAD;
 117:.\Generated_Source\PSoC5/Clock_1.c **** 
 118:.\Generated_Source\PSoC5/Clock_1.c ****         /* Wait for clock to be disabled */
 119:.\Generated_Source\PSoC5/Clock_1.c ****         while (CLK_DIST_LD & CYCLK_LD_LOAD) { }
 120:.\Generated_Source\PSoC5/Clock_1.c **** #endif
 121:.\Generated_Source\PSoC5/Clock_1.c **** 
 122:.\Generated_Source\PSoC5/Clock_1.c ****         /* Clear the bit to disable the clock. */
 123:.\Generated_Source\PSoC5/Clock_1.c ****         Clock_1_CLKEN &= ~Clock_1_CLKEN_MASK;
 124:.\Generated_Source\PSoC5/Clock_1.c **** 
 125:.\Generated_Source\PSoC5/Clock_1.c **** #if HAS_CLKDIST_LD_DISABLE
 126:.\Generated_Source\PSoC5/Clock_1.c ****         /* Clear the disable bit */
 127:.\Generated_Source\PSoC5/Clock_1.c ****         CLK_DIST_LD = 0x00u;
 128:.\Generated_Source\PSoC5/Clock_1.c ****         CY_SET_REG16(Clock_1_DIV_PTR, oldDivider);
 129:.\Generated_Source\PSoC5/Clock_1.c **** #endif
 130:.\Generated_Source\PSoC5/Clock_1.c ****     }
 131:.\Generated_Source\PSoC5/Clock_1.c **** }
 132:.\Generated_Source\PSoC5/Clock_1.c **** #endif
 133:.\Generated_Source\PSoC5/Clock_1.c **** 
 134:.\Generated_Source\PSoC5/Clock_1.c **** /*******************************************************************************
 135:.\Generated_Source\PSoC5/Clock_1.c **** * Function Name: Clock_1_StandbyPower
 136:.\Generated_Source\PSoC5/Clock_1.c **** ********************************************************************************
 137:.\Generated_Source\PSoC5/Clock_1.c **** * Summary:
 138:.\Generated_Source\PSoC5/Clock_1.c **** *  Sets whether the clock is active in standby mode.
 139:.\Generated_Source\PSoC5/Clock_1.c **** *
ARM GAS  C:\Users\SUZUKI~1\AppData\Local\Temp\ccTDZrzf.s 			page 5


 140:.\Generated_Source\PSoC5/Clock_1.c **** * Parameters:
 141:.\Generated_Source\PSoC5/Clock_1.c **** *  state:  0 to disable clock during standby, nonzero to enable.
 142:.\Generated_Source\PSoC5/Clock_1.c **** *
 143:.\Generated_Source\PSoC5/Clock_1.c **** * Returns:
 144:.\Generated_Source\PSoC5/Clock_1.c **** *  void
 145:.\Generated_Source\PSoC5/Clock_1.c **** *
 146:.\Generated_Source\PSoC5/Clock_1.c **** *******************************************************************************/
 147:.\Generated_Source\PSoC5/Clock_1.c **** void Clock_1_StandbyPower(uint8 state) 
 148:.\Generated_Source\PSoC5/Clock_1.c **** {
  86              		.loc 1 148 0
  87              		.cfi_startproc
  88              		@ args = 0, pretend = 0, frame = 0
  89              		@ frame_needed = 0, uses_anonymous_args = 0
  90              		@ link register save eliminated.
  91              	.LVL0:
 149:.\Generated_Source\PSoC5/Clock_1.c ****     if(state == 0)
  92              		.loc 1 149 0
  93 0000 20B9     		cbnz	r0, .L10
 150:.\Generated_Source\PSoC5/Clock_1.c ****     {
 151:.\Generated_Source\PSoC5/Clock_1.c ****         Clock_1_CLKSTBY &= ~Clock_1_CLKSTBY_MASK;
  94              		.loc 1 151 0
  95 0002 054B     		ldr	r3, .L15
  96 0004 1A78     		ldrb	r2, [r3, #0]	@ zero_extendqisi2
  97 0006 02F0FE02 		and	r2, r2, #254
  98 000a 03E0     		b	.L13
  99              	.L10:
 152:.\Generated_Source\PSoC5/Clock_1.c ****     }
 153:.\Generated_Source\PSoC5/Clock_1.c ****     else
 154:.\Generated_Source\PSoC5/Clock_1.c ****     {
 155:.\Generated_Source\PSoC5/Clock_1.c ****         Clock_1_CLKSTBY |= Clock_1_CLKSTBY_MASK;
 100              		.loc 1 155 0
 101 000c 024B     		ldr	r3, .L15
 102 000e 1A78     		ldrb	r2, [r3, #0]	@ zero_extendqisi2
 103 0010 42F00102 		orr	r2, r2, #1
 104              	.L13:
 105 0014 1A70     		strb	r2, [r3, #0]
 106 0016 7047     		bx	lr
 107              	.L16:
 108              		.align	2
 109              	.L15:
 110 0018 B2430040 		.word	1073759154
 111              		.cfi_endproc
 112              	.LFE2:
 113              		.size	Clock_1_StandbyPower, .-Clock_1_StandbyPower
 114              		.section	.text.Clock_1_GetDividerRegister,"ax",%progbits
 115              		.align	1
 116              		.global	Clock_1_GetDividerRegister
 117              		.thumb
 118              		.thumb_func
 119              		.type	Clock_1_GetDividerRegister, %function
 120              	Clock_1_GetDividerRegister:
 121              	.LFB4:
 156:.\Generated_Source\PSoC5/Clock_1.c ****     }
 157:.\Generated_Source\PSoC5/Clock_1.c **** }
 158:.\Generated_Source\PSoC5/Clock_1.c **** 
 159:.\Generated_Source\PSoC5/Clock_1.c **** 
 160:.\Generated_Source\PSoC5/Clock_1.c **** /*******************************************************************************
ARM GAS  C:\Users\SUZUKI~1\AppData\Local\Temp\ccTDZrzf.s 			page 6


 161:.\Generated_Source\PSoC5/Clock_1.c **** * Function Name: Clock_1_SetDividerRegister
 162:.\Generated_Source\PSoC5/Clock_1.c **** ********************************************************************************
 163:.\Generated_Source\PSoC5/Clock_1.c **** * Summary:
 164:.\Generated_Source\PSoC5/Clock_1.c **** *  Modifies the clock divider and, thus, the frequency. When the clock divider
 165:.\Generated_Source\PSoC5/Clock_1.c **** *  register is set to zero or changed from zero, the clock will be temporarily
 166:.\Generated_Source\PSoC5/Clock_1.c **** *  disabled in order to change the SSS mode bit. If the clock is enabled when
 167:.\Generated_Source\PSoC5/Clock_1.c **** *  SetDividerRegister is called, then the source clock must be running.
 168:.\Generated_Source\PSoC5/Clock_1.c **** *
 169:.\Generated_Source\PSoC5/Clock_1.c **** * Parameters:
 170:.\Generated_Source\PSoC5/Clock_1.c **** *  clkDivider:  Divider register value (0-65,535). This value is NOT the
 171:.\Generated_Source\PSoC5/Clock_1.c **** *    divider; the clock hardware divides by clkDivider plus one. For example,
 172:.\Generated_Source\PSoC5/Clock_1.c **** *    to divide the clock by 2, this parameter should be set to 1.
 173:.\Generated_Source\PSoC5/Clock_1.c **** *  restart:  If nonzero, restarts the clock divider: the current clock cycle
 174:.\Generated_Source\PSoC5/Clock_1.c **** *   will be truncated and the new divide value will take effect immediately. If
 175:.\Generated_Source\PSoC5/Clock_1.c **** *   zero, the new divide value will take effect at the end of the current clock
 176:.\Generated_Source\PSoC5/Clock_1.c **** *   cycle.
 177:.\Generated_Source\PSoC5/Clock_1.c **** *
 178:.\Generated_Source\PSoC5/Clock_1.c **** * Returns:
 179:.\Generated_Source\PSoC5/Clock_1.c **** *  void
 180:.\Generated_Source\PSoC5/Clock_1.c **** *
 181:.\Generated_Source\PSoC5/Clock_1.c **** *******************************************************************************/
 182:.\Generated_Source\PSoC5/Clock_1.c **** void Clock_1_SetDividerRegister(uint16 clkDivider, uint8 restart) 
 183:.\Generated_Source\PSoC5/Clock_1.c **** {
 184:.\Generated_Source\PSoC5/Clock_1.c ****     uint8 enabled;
 185:.\Generated_Source\PSoC5/Clock_1.c **** 
 186:.\Generated_Source\PSoC5/Clock_1.c ****     uint8 currSrc = Clock_1_GetSourceRegister();
 187:.\Generated_Source\PSoC5/Clock_1.c ****     uint16 oldDivider = Clock_1_GetDividerRegister();
 188:.\Generated_Source\PSoC5/Clock_1.c **** 
 189:.\Generated_Source\PSoC5/Clock_1.c ****     if (clkDivider != oldDivider)
 190:.\Generated_Source\PSoC5/Clock_1.c ****     {
 191:.\Generated_Source\PSoC5/Clock_1.c ****         enabled = Clock_1_CLKEN & Clock_1_CLKEN_MASK;
 192:.\Generated_Source\PSoC5/Clock_1.c **** 
 193:.\Generated_Source\PSoC5/Clock_1.c ****         if (currSrc == CYCLK_SRC_SEL_CLK_SYNC_D && (oldDivider == 0 || clkDivider == 0))
 194:.\Generated_Source\PSoC5/Clock_1.c ****         {
 195:.\Generated_Source\PSoC5/Clock_1.c ****             /* Moving to/from SSS requires correct ordering to prevent halting the clock    */
 196:.\Generated_Source\PSoC5/Clock_1.c ****             if (oldDivider == 0 && clkDivider != 0)
 197:.\Generated_Source\PSoC5/Clock_1.c ****             {
 198:.\Generated_Source\PSoC5/Clock_1.c ****                 /* Moving away from SSS, set the divider first so when SSS is cleared we    */
 199:.\Generated_Source\PSoC5/Clock_1.c ****                 /* don't halt the clock.  Using the shadow load isn't required as the       */
 200:.\Generated_Source\PSoC5/Clock_1.c ****                 /* divider is ignored while SSS is set.                                     */
 201:.\Generated_Source\PSoC5/Clock_1.c ****                 CY_SET_REG16(Clock_1_DIV_PTR, clkDivider);
 202:.\Generated_Source\PSoC5/Clock_1.c ****                 Clock_1_MOD_SRC &= ~CYCLK_SSS;
 203:.\Generated_Source\PSoC5/Clock_1.c ****             }
 204:.\Generated_Source\PSoC5/Clock_1.c ****             else
 205:.\Generated_Source\PSoC5/Clock_1.c ****             {
 206:.\Generated_Source\PSoC5/Clock_1.c ****                 /* Moving to SSS, set SSS which then ignores the divider and we can set     */
 207:.\Generated_Source\PSoC5/Clock_1.c ****                 /* it without bothering with the shadow load.                               */
 208:.\Generated_Source\PSoC5/Clock_1.c ****                 Clock_1_MOD_SRC |= CYCLK_SSS;
 209:.\Generated_Source\PSoC5/Clock_1.c ****                 CY_SET_REG16(Clock_1_DIV_PTR, clkDivider);
 210:.\Generated_Source\PSoC5/Clock_1.c ****             }
 211:.\Generated_Source\PSoC5/Clock_1.c ****         }
 212:.\Generated_Source\PSoC5/Clock_1.c ****         else
 213:.\Generated_Source\PSoC5/Clock_1.c ****         {
 214:.\Generated_Source\PSoC5/Clock_1.c ****             if (enabled)
 215:.\Generated_Source\PSoC5/Clock_1.c ****             {
 216:.\Generated_Source\PSoC5/Clock_1.c ****                 CLK_DIST_LD = 0x00u;
 217:.\Generated_Source\PSoC5/Clock_1.c **** 
ARM GAS  C:\Users\SUZUKI~1\AppData\Local\Temp\ccTDZrzf.s 			page 7


 218:.\Generated_Source\PSoC5/Clock_1.c ****                 /* Clear all the mask bits except ours. */
 219:.\Generated_Source\PSoC5/Clock_1.c **** #if defined(Clock_1__CFG3)
 220:.\Generated_Source\PSoC5/Clock_1.c ****                 CLK_DIST_AMASK = Clock_1_CLKEN_MASK;
 221:.\Generated_Source\PSoC5/Clock_1.c ****                 CLK_DIST_DMASK = 0x00u;
 222:.\Generated_Source\PSoC5/Clock_1.c **** #else
 223:.\Generated_Source\PSoC5/Clock_1.c ****                 CLK_DIST_DMASK = Clock_1_CLKEN_MASK;
 224:.\Generated_Source\PSoC5/Clock_1.c ****                 CLK_DIST_AMASK = 0x00u;
 225:.\Generated_Source\PSoC5/Clock_1.c **** #endif
 226:.\Generated_Source\PSoC5/Clock_1.c ****                 /* Clear mask of bus clock. */
 227:.\Generated_Source\PSoC5/Clock_1.c ****                 CLK_DIST_BCFG2 &= ~BCFG2_MASK;
 228:.\Generated_Source\PSoC5/Clock_1.c **** 
 229:.\Generated_Source\PSoC5/Clock_1.c **** #if HAS_CLKDIST_LD_DISABLE
 230:.\Generated_Source\PSoC5/Clock_1.c ****                 CY_SET_REG16(CYREG_CLKDIST_WRK0, oldDivider);
 231:.\Generated_Source\PSoC5/Clock_1.c ****                 CLK_DIST_LD = CYCLK_LD_DISABLE|CYCLK_LD_SYNC_EN|CYCLK_LD_LOAD;
 232:.\Generated_Source\PSoC5/Clock_1.c **** 
 233:.\Generated_Source\PSoC5/Clock_1.c ****                 /* Wait for clock to be disabled */
 234:.\Generated_Source\PSoC5/Clock_1.c ****                 while (CLK_DIST_LD & CYCLK_LD_LOAD) { }
 235:.\Generated_Source\PSoC5/Clock_1.c **** #endif
 236:.\Generated_Source\PSoC5/Clock_1.c **** 
 237:.\Generated_Source\PSoC5/Clock_1.c ****                 Clock_1_CLKEN &= ~Clock_1_CLKEN_MASK;
 238:.\Generated_Source\PSoC5/Clock_1.c **** 
 239:.\Generated_Source\PSoC5/Clock_1.c **** #if HAS_CLKDIST_LD_DISABLE
 240:.\Generated_Source\PSoC5/Clock_1.c ****                 /* Clear the disable bit */
 241:.\Generated_Source\PSoC5/Clock_1.c ****                 CLK_DIST_LD = 0x00u;
 242:.\Generated_Source\PSoC5/Clock_1.c **** #endif
 243:.\Generated_Source\PSoC5/Clock_1.c ****             }
 244:.\Generated_Source\PSoC5/Clock_1.c **** 
 245:.\Generated_Source\PSoC5/Clock_1.c ****             /* Load divide value. */
 246:.\Generated_Source\PSoC5/Clock_1.c ****             if (Clock_1_CLKEN & Clock_1_CLKEN_MASK)
 247:.\Generated_Source\PSoC5/Clock_1.c ****             {
 248:.\Generated_Source\PSoC5/Clock_1.c ****                 /* If the clock is still enabled, use the shadow registers */
 249:.\Generated_Source\PSoC5/Clock_1.c ****                 CY_SET_REG16(CYREG_CLKDIST_WRK0, clkDivider);
 250:.\Generated_Source\PSoC5/Clock_1.c **** 
 251:.\Generated_Source\PSoC5/Clock_1.c ****                 CLK_DIST_LD = (CYCLK_LD_LOAD | (restart ? CYCLK_LD_SYNC_EN : 0x00u));
 252:.\Generated_Source\PSoC5/Clock_1.c ****                 while (CLK_DIST_LD & CYCLK_LD_LOAD) { }
 253:.\Generated_Source\PSoC5/Clock_1.c ****             }
 254:.\Generated_Source\PSoC5/Clock_1.c ****             else
 255:.\Generated_Source\PSoC5/Clock_1.c ****             {
 256:.\Generated_Source\PSoC5/Clock_1.c ****                 /* If the clock is disabled, set the divider directly */
 257:.\Generated_Source\PSoC5/Clock_1.c ****                 CY_SET_REG16(Clock_1_DIV_PTR, clkDivider);
 258:.\Generated_Source\PSoC5/Clock_1.c ****             }
 259:.\Generated_Source\PSoC5/Clock_1.c **** 
 260:.\Generated_Source\PSoC5/Clock_1.c ****             Clock_1_CLKEN |= enabled;
 261:.\Generated_Source\PSoC5/Clock_1.c ****         }
 262:.\Generated_Source\PSoC5/Clock_1.c ****     }
 263:.\Generated_Source\PSoC5/Clock_1.c **** }
 264:.\Generated_Source\PSoC5/Clock_1.c **** 
 265:.\Generated_Source\PSoC5/Clock_1.c **** 
 266:.\Generated_Source\PSoC5/Clock_1.c **** /*******************************************************************************
 267:.\Generated_Source\PSoC5/Clock_1.c **** * Function Name: Clock_1_GetDividerRegister
 268:.\Generated_Source\PSoC5/Clock_1.c **** ********************************************************************************
 269:.\Generated_Source\PSoC5/Clock_1.c **** * Summary:
 270:.\Generated_Source\PSoC5/Clock_1.c **** *  Gets the clock divider register value.
 271:.\Generated_Source\PSoC5/Clock_1.c **** *
 272:.\Generated_Source\PSoC5/Clock_1.c **** * Parameters:
 273:.\Generated_Source\PSoC5/Clock_1.c **** *  void
 274:.\Generated_Source\PSoC5/Clock_1.c **** *
ARM GAS  C:\Users\SUZUKI~1\AppData\Local\Temp\ccTDZrzf.s 			page 8


 275:.\Generated_Source\PSoC5/Clock_1.c **** * Returns:
 276:.\Generated_Source\PSoC5/Clock_1.c **** *  Divide value of the clock minus 1. For example, if the clock is set to
 277:.\Generated_Source\PSoC5/Clock_1.c **** *  divide by 2, the return value will be 1.
 278:.\Generated_Source\PSoC5/Clock_1.c **** *
 279:.\Generated_Source\PSoC5/Clock_1.c **** *******************************************************************************/
 280:.\Generated_Source\PSoC5/Clock_1.c **** uint16 Clock_1_GetDividerRegister(void) 
 281:.\Generated_Source\PSoC5/Clock_1.c **** {
 122              		.loc 1 281 0
 123              		.cfi_startproc
 124              		@ args = 0, pretend = 0, frame = 0
 125              		@ frame_needed = 0, uses_anonymous_args = 0
 126              		@ link register save eliminated.
 282:.\Generated_Source\PSoC5/Clock_1.c ****     return CY_GET_REG16(Clock_1_DIV_PTR);
 127              		.loc 1 282 0
 128 0000 014B     		ldr	r3, .L19
 129 0002 1888     		ldrh	r0, [r3, #0]
 283:.\Generated_Source\PSoC5/Clock_1.c **** }
 130              		.loc 1 283 0
 131 0004 80B2     		uxth	r0, r0
 132 0006 7047     		bx	lr
 133              	.L20:
 134              		.align	2
 135              	.L19:
 136 0008 80400040 		.word	1073758336
 137              		.cfi_endproc
 138              	.LFE4:
 139              		.size	Clock_1_GetDividerRegister, .-Clock_1_GetDividerRegister
 140              		.section	.text.Clock_1_SetModeRegister,"ax",%progbits
 141              		.align	1
 142              		.global	Clock_1_SetModeRegister
 143              		.thumb
 144              		.thumb_func
 145              		.type	Clock_1_SetModeRegister, %function
 146              	Clock_1_SetModeRegister:
 147              	.LFB5:
 284:.\Generated_Source\PSoC5/Clock_1.c **** 
 285:.\Generated_Source\PSoC5/Clock_1.c **** 
 286:.\Generated_Source\PSoC5/Clock_1.c **** /*******************************************************************************
 287:.\Generated_Source\PSoC5/Clock_1.c **** * Function Name: Clock_1_SetModeRegister
 288:.\Generated_Source\PSoC5/Clock_1.c **** ********************************************************************************
 289:.\Generated_Source\PSoC5/Clock_1.c **** * Summary:
 290:.\Generated_Source\PSoC5/Clock_1.c **** *  Sets flags that control the operating mode of the clock. This function only
 291:.\Generated_Source\PSoC5/Clock_1.c **** *  changes flags from 0 to 1; flags that are already 1 will remain unchanged.
 292:.\Generated_Source\PSoC5/Clock_1.c **** *  To clear flags, use the ClearModeRegister function. The clock must be
 293:.\Generated_Source\PSoC5/Clock_1.c **** *  disabled before changing the mode.
 294:.\Generated_Source\PSoC5/Clock_1.c **** *
 295:.\Generated_Source\PSoC5/Clock_1.c **** * Parameters:
 296:.\Generated_Source\PSoC5/Clock_1.c **** *  clkMode: Bit mask containing the bits to set. For PSoC 3 and PSoC 5,
 297:.\Generated_Source\PSoC5/Clock_1.c **** *   clkMode should be a set of the following optional bits or'ed together.
 298:.\Generated_Source\PSoC5/Clock_1.c **** *   - CYCLK_EARLY Enable early phase mode. Rising edge of output clock will
 299:.\Generated_Source\PSoC5/Clock_1.c **** *                 occur when the divider count reaches half of the divide
 300:.\Generated_Source\PSoC5/Clock_1.c **** *                 value.
 301:.\Generated_Source\PSoC5/Clock_1.c **** *   - CYCLK_DUTY  Enable 50% duty cycle output. When enabled, the output clock
 302:.\Generated_Source\PSoC5/Clock_1.c **** *                 is asserted for approximately half of its period. When
 303:.\Generated_Source\PSoC5/Clock_1.c **** *                 disabled, the output clock is asserted for one period of the
 304:.\Generated_Source\PSoC5/Clock_1.c **** *                 source clock.
 305:.\Generated_Source\PSoC5/Clock_1.c **** *   - CYCLK_SYNC  Enable output synchronization to master clock. This should
ARM GAS  C:\Users\SUZUKI~1\AppData\Local\Temp\ccTDZrzf.s 			page 9


 306:.\Generated_Source\PSoC5/Clock_1.c **** *                 be enabled for all synchronous clocks.
 307:.\Generated_Source\PSoC5/Clock_1.c **** *   See the Technical Reference Manual for details about setting the mode of
 308:.\Generated_Source\PSoC5/Clock_1.c **** *   the clock. Specifically, see the CLKDIST.DCFG.CFG2 register.
 309:.\Generated_Source\PSoC5/Clock_1.c **** *
 310:.\Generated_Source\PSoC5/Clock_1.c **** * Returns:
 311:.\Generated_Source\PSoC5/Clock_1.c **** *  void
 312:.\Generated_Source\PSoC5/Clock_1.c **** *
 313:.\Generated_Source\PSoC5/Clock_1.c **** *******************************************************************************/
 314:.\Generated_Source\PSoC5/Clock_1.c **** void Clock_1_SetModeRegister(uint8 clkMode) 
 315:.\Generated_Source\PSoC5/Clock_1.c **** {
 148              		.loc 1 315 0
 149              		.cfi_startproc
 150              		@ args = 0, pretend = 0, frame = 0
 151              		@ frame_needed = 0, uses_anonymous_args = 0
 152              		@ link register save eliminated.
 153              	.LVL1:
 316:.\Generated_Source\PSoC5/Clock_1.c ****     Clock_1_MOD_SRC |= clkMode & Clock_1_MODE_MASK;
 154              		.loc 1 316 0
 155 0000 034B     		ldr	r3, .L23
 156 0002 00F0F800 		and	r0, r0, #248
 157              	.LVL2:
 158 0006 1A78     		ldrb	r2, [r3, #0]	@ zero_extendqisi2
 159 0008 0243     		orrs	r2, r2, r0
 160 000a 1A70     		strb	r2, [r3, #0]
 317:.\Generated_Source\PSoC5/Clock_1.c **** }
 161              		.loc 1 317 0
 162 000c 7047     		bx	lr
 163              	.L24:
 164 000e 00BF     		.align	2
 165              	.L23:
 166 0010 82400040 		.word	1073758338
 167              		.cfi_endproc
 168              	.LFE5:
 169              		.size	Clock_1_SetModeRegister, .-Clock_1_SetModeRegister
 170              		.section	.text.Clock_1_ClearModeRegister,"ax",%progbits
 171              		.align	1
 172              		.global	Clock_1_ClearModeRegister
 173              		.thumb
 174              		.thumb_func
 175              		.type	Clock_1_ClearModeRegister, %function
 176              	Clock_1_ClearModeRegister:
 177              	.LFB6:
 318:.\Generated_Source\PSoC5/Clock_1.c **** 
 319:.\Generated_Source\PSoC5/Clock_1.c **** 
 320:.\Generated_Source\PSoC5/Clock_1.c **** /*******************************************************************************
 321:.\Generated_Source\PSoC5/Clock_1.c **** * Function Name: Clock_1_ClearModeRegister
 322:.\Generated_Source\PSoC5/Clock_1.c **** ********************************************************************************
 323:.\Generated_Source\PSoC5/Clock_1.c **** * Summary:
 324:.\Generated_Source\PSoC5/Clock_1.c **** *  Clears flags that control the operating mode of the clock. This function
 325:.\Generated_Source\PSoC5/Clock_1.c **** *  only changes flags from 1 to 0; flags that are already 0 will remain
 326:.\Generated_Source\PSoC5/Clock_1.c **** *  unchanged. To set flags, use the SetModeRegister function. The clock must be
 327:.\Generated_Source\PSoC5/Clock_1.c **** *  disabled before changing the mode.
 328:.\Generated_Source\PSoC5/Clock_1.c **** *
 329:.\Generated_Source\PSoC5/Clock_1.c **** * Parameters:
 330:.\Generated_Source\PSoC5/Clock_1.c **** *  clkMode: Bit mask containing the bits to clear. For PSoC 3 and PSoC 5,
 331:.\Generated_Source\PSoC5/Clock_1.c **** *   clkMode should be a set of the following optional bits or'ed together.
 332:.\Generated_Source\PSoC5/Clock_1.c **** *   - CYCLK_EARLY Enable early phase mode. Rising edge of output clock will
ARM GAS  C:\Users\SUZUKI~1\AppData\Local\Temp\ccTDZrzf.s 			page 10


 333:.\Generated_Source\PSoC5/Clock_1.c **** *                 occur when the divider count reaches half of the divide
 334:.\Generated_Source\PSoC5/Clock_1.c **** *                 value.
 335:.\Generated_Source\PSoC5/Clock_1.c **** *   - CYCLK_DUTY  Enable 50% duty cycle output. When enabled, the output clock
 336:.\Generated_Source\PSoC5/Clock_1.c **** *                 is asserted for approximately half of its period. When
 337:.\Generated_Source\PSoC5/Clock_1.c **** *                 disabled, the output clock is asserted for one period of the
 338:.\Generated_Source\PSoC5/Clock_1.c **** *                 source clock.
 339:.\Generated_Source\PSoC5/Clock_1.c **** *   - CYCLK_SYNC  Enable output synchronization to master clock. This should
 340:.\Generated_Source\PSoC5/Clock_1.c **** *                 be enabled for all synchronous clocks.
 341:.\Generated_Source\PSoC5/Clock_1.c **** *   See the Technical Reference Manual for details about setting the mode of
 342:.\Generated_Source\PSoC5/Clock_1.c **** *   the clock. Specifically, see the CLKDIST.DCFG.CFG2 register.
 343:.\Generated_Source\PSoC5/Clock_1.c **** *
 344:.\Generated_Source\PSoC5/Clock_1.c **** * Returns:
 345:.\Generated_Source\PSoC5/Clock_1.c **** *  void
 346:.\Generated_Source\PSoC5/Clock_1.c **** *
 347:.\Generated_Source\PSoC5/Clock_1.c **** *******************************************************************************/
 348:.\Generated_Source\PSoC5/Clock_1.c **** void Clock_1_ClearModeRegister(uint8 clkMode) 
 349:.\Generated_Source\PSoC5/Clock_1.c **** {
 178              		.loc 1 349 0
 179              		.cfi_startproc
 180              		@ args = 0, pretend = 0, frame = 0
 181              		@ frame_needed = 0, uses_anonymous_args = 0
 182              		@ link register save eliminated.
 183              	.LVL3:
 350:.\Generated_Source\PSoC5/Clock_1.c ****     Clock_1_MOD_SRC &= ~clkMode | ~Clock_1_MODE_MASK;
 184              		.loc 1 350 0
 185 0000 034B     		ldr	r3, .L27
 186 0002 C043     		mvns	r0, r0
 187              	.LVL4:
 188 0004 1A78     		ldrb	r2, [r3, #0]	@ zero_extendqisi2
 189 0006 40F00700 		orr	r0, r0, #7
 190 000a 0240     		ands	r2, r2, r0
 191 000c 1A70     		strb	r2, [r3, #0]
 351:.\Generated_Source\PSoC5/Clock_1.c **** }
 192              		.loc 1 351 0
 193 000e 7047     		bx	lr
 194              	.L28:
 195              		.align	2
 196              	.L27:
 197 0010 82400040 		.word	1073758338
 198              		.cfi_endproc
 199              	.LFE6:
 200              		.size	Clock_1_ClearModeRegister, .-Clock_1_ClearModeRegister
 201              		.section	.text.Clock_1_GetModeRegister,"ax",%progbits
 202              		.align	1
 203              		.global	Clock_1_GetModeRegister
 204              		.thumb
 205              		.thumb_func
 206              		.type	Clock_1_GetModeRegister, %function
 207              	Clock_1_GetModeRegister:
 208              	.LFB7:
 352:.\Generated_Source\PSoC5/Clock_1.c **** 
 353:.\Generated_Source\PSoC5/Clock_1.c **** 
 354:.\Generated_Source\PSoC5/Clock_1.c **** /*******************************************************************************
 355:.\Generated_Source\PSoC5/Clock_1.c **** * Function Name: Clock_1_GetModeRegister
 356:.\Generated_Source\PSoC5/Clock_1.c **** ********************************************************************************
 357:.\Generated_Source\PSoC5/Clock_1.c **** * Summary:
 358:.\Generated_Source\PSoC5/Clock_1.c **** *  Gets the clock mode register value.
ARM GAS  C:\Users\SUZUKI~1\AppData\Local\Temp\ccTDZrzf.s 			page 11


 359:.\Generated_Source\PSoC5/Clock_1.c **** *
 360:.\Generated_Source\PSoC5/Clock_1.c **** * Parameters:
 361:.\Generated_Source\PSoC5/Clock_1.c **** *  void
 362:.\Generated_Source\PSoC5/Clock_1.c **** *
 363:.\Generated_Source\PSoC5/Clock_1.c **** * Returns:
 364:.\Generated_Source\PSoC5/Clock_1.c **** *  Bit mask representing the enabled mode bits. See the SetModeRegister and
 365:.\Generated_Source\PSoC5/Clock_1.c **** *  ClearModeRegister descriptions for details about the mode bits.
 366:.\Generated_Source\PSoC5/Clock_1.c **** *
 367:.\Generated_Source\PSoC5/Clock_1.c **** *******************************************************************************/
 368:.\Generated_Source\PSoC5/Clock_1.c **** uint8 Clock_1_GetModeRegister(void) 
 369:.\Generated_Source\PSoC5/Clock_1.c **** {
 209              		.loc 1 369 0
 210              		.cfi_startproc
 211              		@ args = 0, pretend = 0, frame = 0
 212              		@ frame_needed = 0, uses_anonymous_args = 0
 213              		@ link register save eliminated.
 370:.\Generated_Source\PSoC5/Clock_1.c ****     return Clock_1_MOD_SRC & Clock_1_MODE_MASK;
 214              		.loc 1 370 0
 215 0000 024B     		ldr	r3, .L31
 216 0002 1878     		ldrb	r0, [r3, #0]	@ zero_extendqisi2
 371:.\Generated_Source\PSoC5/Clock_1.c **** }
 217              		.loc 1 371 0
 218 0004 00F0F800 		and	r0, r0, #248
 219 0008 7047     		bx	lr
 220              	.L32:
 221 000a 00BF     		.align	2
 222              	.L31:
 223 000c 82400040 		.word	1073758338
 224              		.cfi_endproc
 225              	.LFE7:
 226              		.size	Clock_1_GetModeRegister, .-Clock_1_GetModeRegister
 227              		.section	.text.Clock_1_GetSourceRegister,"ax",%progbits
 228              		.align	1
 229              		.global	Clock_1_GetSourceRegister
 230              		.thumb
 231              		.thumb_func
 232              		.type	Clock_1_GetSourceRegister, %function
 233              	Clock_1_GetSourceRegister:
 234              	.LFB9:
 372:.\Generated_Source\PSoC5/Clock_1.c **** 
 373:.\Generated_Source\PSoC5/Clock_1.c **** 
 374:.\Generated_Source\PSoC5/Clock_1.c **** /*******************************************************************************
 375:.\Generated_Source\PSoC5/Clock_1.c **** * Function Name: Clock_1_SetSourceRegister
 376:.\Generated_Source\PSoC5/Clock_1.c **** ********************************************************************************
 377:.\Generated_Source\PSoC5/Clock_1.c **** * Summary:
 378:.\Generated_Source\PSoC5/Clock_1.c **** *  Sets the input source of the clock. The clock must be disabled before
 379:.\Generated_Source\PSoC5/Clock_1.c **** *  changing the source. The old and new clock sources must be running.
 380:.\Generated_Source\PSoC5/Clock_1.c **** *
 381:.\Generated_Source\PSoC5/Clock_1.c **** * Parameters:
 382:.\Generated_Source\PSoC5/Clock_1.c **** *  clkSource:  For PSoC 3 and PSoC 5 devices, clkSource should be one of the
 383:.\Generated_Source\PSoC5/Clock_1.c **** *   following input sources:
 384:.\Generated_Source\PSoC5/Clock_1.c **** *   - CYCLK_SRC_SEL_SYNC_DIG
 385:.\Generated_Source\PSoC5/Clock_1.c **** *   - CYCLK_SRC_SEL_IMO
 386:.\Generated_Source\PSoC5/Clock_1.c **** *   - CYCLK_SRC_SEL_XTALM
 387:.\Generated_Source\PSoC5/Clock_1.c **** *   - CYCLK_SRC_SEL_ILO
 388:.\Generated_Source\PSoC5/Clock_1.c **** *   - CYCLK_SRC_SEL_PLL
 389:.\Generated_Source\PSoC5/Clock_1.c **** *   - CYCLK_SRC_SEL_XTALK
ARM GAS  C:\Users\SUZUKI~1\AppData\Local\Temp\ccTDZrzf.s 			page 12


 390:.\Generated_Source\PSoC5/Clock_1.c **** *   - CYCLK_SRC_SEL_DSI_G
 391:.\Generated_Source\PSoC5/Clock_1.c **** *   - CYCLK_SRC_SEL_DSI_D/CYCLK_SRC_SEL_DSI_A
 392:.\Generated_Source\PSoC5/Clock_1.c **** *   See the Technical Reference Manual for details on clock sources.
 393:.\Generated_Source\PSoC5/Clock_1.c **** *
 394:.\Generated_Source\PSoC5/Clock_1.c **** * Returns:
 395:.\Generated_Source\PSoC5/Clock_1.c **** *  void
 396:.\Generated_Source\PSoC5/Clock_1.c **** *
 397:.\Generated_Source\PSoC5/Clock_1.c **** *******************************************************************************/
 398:.\Generated_Source\PSoC5/Clock_1.c **** void Clock_1_SetSourceRegister(uint8 clkSource) 
 399:.\Generated_Source\PSoC5/Clock_1.c **** {
 400:.\Generated_Source\PSoC5/Clock_1.c ****     uint16 currDiv = Clock_1_GetDividerRegister();
 401:.\Generated_Source\PSoC5/Clock_1.c ****     uint8 oldSrc = Clock_1_GetSourceRegister();
 402:.\Generated_Source\PSoC5/Clock_1.c **** 
 403:.\Generated_Source\PSoC5/Clock_1.c ****     if (oldSrc != CYCLK_SRC_SEL_CLK_SYNC_D && clkSource == CYCLK_SRC_SEL_CLK_SYNC_D && currDiv == 0
 404:.\Generated_Source\PSoC5/Clock_1.c ****     {
 405:.\Generated_Source\PSoC5/Clock_1.c ****         /* Switching to Master and divider is 1, set SSS, which will output master, */
 406:.\Generated_Source\PSoC5/Clock_1.c ****         /* then set the source so we are consistent.                                */
 407:.\Generated_Source\PSoC5/Clock_1.c ****         Clock_1_MOD_SRC |= CYCLK_SSS;
 408:.\Generated_Source\PSoC5/Clock_1.c ****         Clock_1_MOD_SRC =
 409:.\Generated_Source\PSoC5/Clock_1.c ****             (Clock_1_MOD_SRC & ~Clock_1_SRC_SEL_MSK) | clkSource;
 410:.\Generated_Source\PSoC5/Clock_1.c ****     }
 411:.\Generated_Source\PSoC5/Clock_1.c ****     else if (oldSrc == CYCLK_SRC_SEL_CLK_SYNC_D && clkSource != CYCLK_SRC_SEL_CLK_SYNC_D && currDiv
 412:.\Generated_Source\PSoC5/Clock_1.c ****     {
 413:.\Generated_Source\PSoC5/Clock_1.c ****         /* Switching from Master to not and divider is 1, set source, so we don't   */
 414:.\Generated_Source\PSoC5/Clock_1.c ****         /* lock when we clear SSS.                                                  */
 415:.\Generated_Source\PSoC5/Clock_1.c ****         Clock_1_MOD_SRC =
 416:.\Generated_Source\PSoC5/Clock_1.c ****             (Clock_1_MOD_SRC & ~Clock_1_SRC_SEL_MSK) | clkSource;
 417:.\Generated_Source\PSoC5/Clock_1.c ****         Clock_1_MOD_SRC &= ~CYCLK_SSS;
 418:.\Generated_Source\PSoC5/Clock_1.c ****     }
 419:.\Generated_Source\PSoC5/Clock_1.c ****     else
 420:.\Generated_Source\PSoC5/Clock_1.c ****     {
 421:.\Generated_Source\PSoC5/Clock_1.c ****         Clock_1_MOD_SRC =
 422:.\Generated_Source\PSoC5/Clock_1.c ****             (Clock_1_MOD_SRC & ~Clock_1_SRC_SEL_MSK) | clkSource;
 423:.\Generated_Source\PSoC5/Clock_1.c ****     }
 424:.\Generated_Source\PSoC5/Clock_1.c **** }
 425:.\Generated_Source\PSoC5/Clock_1.c **** 
 426:.\Generated_Source\PSoC5/Clock_1.c **** 
 427:.\Generated_Source\PSoC5/Clock_1.c **** /*******************************************************************************
 428:.\Generated_Source\PSoC5/Clock_1.c **** * Function Name: Clock_1_GetSourceRegister
 429:.\Generated_Source\PSoC5/Clock_1.c **** ********************************************************************************
 430:.\Generated_Source\PSoC5/Clock_1.c **** * Summary:
 431:.\Generated_Source\PSoC5/Clock_1.c **** *  Gets the input source of the clock.
 432:.\Generated_Source\PSoC5/Clock_1.c **** *
 433:.\Generated_Source\PSoC5/Clock_1.c **** * Parameters:
 434:.\Generated_Source\PSoC5/Clock_1.c **** *  void
 435:.\Generated_Source\PSoC5/Clock_1.c **** *
 436:.\Generated_Source\PSoC5/Clock_1.c **** * Returns:
 437:.\Generated_Source\PSoC5/Clock_1.c **** *  The input source of the clock. See SetSourceRegister for details.
 438:.\Generated_Source\PSoC5/Clock_1.c **** *
 439:.\Generated_Source\PSoC5/Clock_1.c **** *******************************************************************************/
 440:.\Generated_Source\PSoC5/Clock_1.c **** uint8 Clock_1_GetSourceRegister(void) 
 441:.\Generated_Source\PSoC5/Clock_1.c **** {
 235              		.loc 1 441 0
 236              		.cfi_startproc
 237              		@ args = 0, pretend = 0, frame = 0
 238              		@ frame_needed = 0, uses_anonymous_args = 0
 239              		@ link register save eliminated.
ARM GAS  C:\Users\SUZUKI~1\AppData\Local\Temp\ccTDZrzf.s 			page 13


 442:.\Generated_Source\PSoC5/Clock_1.c ****     return Clock_1_MOD_SRC & Clock_1_SRC_SEL_MSK;
 240              		.loc 1 442 0
 241 0000 024B     		ldr	r3, .L35
 242 0002 1878     		ldrb	r0, [r3, #0]	@ zero_extendqisi2
 443:.\Generated_Source\PSoC5/Clock_1.c **** }
 243              		.loc 1 443 0
 244 0004 00F00700 		and	r0, r0, #7
 245 0008 7047     		bx	lr
 246              	.L36:
 247 000a 00BF     		.align	2
 248              	.L35:
 249 000c 82400040 		.word	1073758338
 250              		.cfi_endproc
 251              	.LFE9:
 252              		.size	Clock_1_GetSourceRegister, .-Clock_1_GetSourceRegister
 253              		.section	.text.Clock_1_SetSourceRegister,"ax",%progbits
 254              		.align	1
 255              		.global	Clock_1_SetSourceRegister
 256              		.thumb
 257              		.thumb_func
 258              		.type	Clock_1_SetSourceRegister, %function
 259              	Clock_1_SetSourceRegister:
 260              	.LFB8:
 261              		.loc 1 399 0
 262              		.cfi_startproc
 263              		@ args = 0, pretend = 0, frame = 0
 264              		@ frame_needed = 0, uses_anonymous_args = 0
 265              	.LVL5:
 266 0000 38B5     		push	{r3, r4, r5, lr}
 267              	.LCFI0:
 268              		.cfi_def_cfa_offset 16
 269              	.LBB6:
 270              	.LBB7:
 271              		.loc 1 282 0
 272 0002 134B     		ldr	r3, .L43
 273              		.cfi_offset 14, -4
 274              		.cfi_offset 5, -8
 275              		.cfi_offset 4, -12
 276              		.cfi_offset 3, -16
 277              	.LBE7:
 278              	.LBE6:
 279              		.loc 1 399 0
 280 0004 0446     		mov	r4, r0
 281              	.LBB9:
 282              	.LBB8:
 283              		.loc 1 282 0
 284 0006 1D88     		ldrh	r5, [r3, #0]
 285 0008 ADB2     		uxth	r5, r5
 286              	.LVL6:
 287              	.LBE8:
 288              	.LBE9:
 289              		.loc 1 401 0
 290 000a FFF7FEFF 		bl	Clock_1_GetSourceRegister
 291              	.LVL7:
 292              		.loc 1 403 0
 293 000e 50B1     		cbz	r0, .L38
 294 0010 B4B9     		cbnz	r4, .L39
ARM GAS  C:\Users\SUZUKI~1\AppData\Local\Temp\ccTDZrzf.s 			page 14


 295 0012 ADB9     		cbnz	r5, .L39
 296              		.loc 1 407 0
 297 0014 0F4B     		ldr	r3, .L43+4
 298 0016 1A78     		ldrb	r2, [r3, #0]	@ zero_extendqisi2
 299 0018 42F04002 		orr	r2, r2, #64
 300 001c 1A70     		strb	r2, [r3, #0]
 301              		.loc 1 409 0
 302 001e 1A78     		ldrb	r2, [r3, #0]	@ zero_extendqisi2
 303              		.loc 1 408 0
 304 0020 02F0F802 		and	r2, r2, #248
 305 0024 0AE0     		b	.L42
 306              	.L38:
 307              		.loc 1 411 0
 308 0026 5CB1     		cbz	r4, .L39
 309 0028 55B9     		cbnz	r5, .L39
 310              		.loc 1 416 0
 311 002a 0A4B     		ldr	r3, .L43+4
 312 002c 1A78     		ldrb	r2, [r3, #0]	@ zero_extendqisi2
 313              		.loc 1 415 0
 314 002e 02F0F802 		and	r2, r2, #248
 315 0032 1443     		orrs	r4, r4, r2
 316              	.LVL8:
 317 0034 1C70     		strb	r4, [r3, #0]
 318              		.loc 1 417 0
 319 0036 1A78     		ldrb	r2, [r3, #0]	@ zero_extendqisi2
 320 0038 02F0BF02 		and	r2, r2, #191
 321              	.LVL9:
 322              	.L42:
 323 003c 1A70     		strb	r2, [r3, #0]
 324              		.loc 1 411 0
 325 003e 38BD     		pop	{r3, r4, r5, pc}
 326              	.L39:
 327              		.loc 1 422 0
 328 0040 044B     		ldr	r3, .L43+4
 329 0042 1A78     		ldrb	r2, [r3, #0]	@ zero_extendqisi2
 330              		.loc 1 421 0
 331 0044 02F0F802 		and	r2, r2, #248
 332 0048 1443     		orrs	r4, r4, r2
 333              	.LVL10:
 334 004a 1C70     		strb	r4, [r3, #0]
 335 004c 38BD     		pop	{r3, r4, r5, pc}
 336              	.L44:
 337 004e 00BF     		.align	2
 338              	.L43:
 339 0050 80400040 		.word	1073758336
 340 0054 82400040 		.word	1073758338
 341              		.cfi_endproc
 342              	.LFE8:
 343              		.size	Clock_1_SetSourceRegister, .-Clock_1_SetSourceRegister
 344              		.section	.text.Clock_1_SetDividerRegister,"ax",%progbits
 345              		.align	1
 346              		.global	Clock_1_SetDividerRegister
 347              		.thumb
 348              		.thumb_func
 349              		.type	Clock_1_SetDividerRegister, %function
 350              	Clock_1_SetDividerRegister:
 351              	.LFB3:
ARM GAS  C:\Users\SUZUKI~1\AppData\Local\Temp\ccTDZrzf.s 			page 15


 352              		.loc 1 183 0
 353              		.cfi_startproc
 354              		@ args = 0, pretend = 0, frame = 0
 355              		@ frame_needed = 0, uses_anonymous_args = 0
 356              	.LVL11:
 357 0000 38B5     		push	{r3, r4, r5, lr}
 358              	.LCFI1:
 359              		.cfi_def_cfa_offset 16
 360              		.loc 1 183 0
 361 0002 0446     		mov	r4, r0
 362              		.cfi_offset 14, -4
 363              		.cfi_offset 5, -8
 364              		.cfi_offset 4, -12
 365              		.cfi_offset 3, -16
 366 0004 0D46     		mov	r5, r1
 367              		.loc 1 186 0
 368 0006 FFF7FEFF 		bl	Clock_1_GetSourceRegister
 369              	.LVL12:
 370              	.LBB10:
 371              	.LBB11:
 372              		.loc 1 282 0
 373 000a 254A     		ldr	r2, .L57
 374 000c 1188     		ldrh	r1, [r2, #0]
 375 000e 89B2     		uxth	r1, r1
 376              	.LVL13:
 377              	.LBE11:
 378              	.LBE10:
 379              		.loc 1 189 0
 380 0010 8C42     		cmp	r4, r1
 381 0012 44D0     		beq	.L56
 382              		.loc 1 191 0
 383 0014 234B     		ldr	r3, .L57+4
 384 0016 1B78     		ldrb	r3, [r3, #0]	@ zero_extendqisi2
 385              		.loc 1 193 0
 386 0018 90B9     		cbnz	r0, .L47
 387 001a 09B1     		cbz	r1, .L48
 388 001c 44B1     		cbz	r4, .L49
 389 001e 0FE0     		b	.L47
 390              	.L48:
 391              		.loc 1 196 0
 392 0020 34B1     		cbz	r4, .L49
 393              		.loc 1 202 0
 394 0022 214B     		ldr	r3, .L57+8
 395              		.loc 1 201 0
 396 0024 1480     		strh	r4, [r2, #0]	@ movhi
 397              		.loc 1 202 0
 398 0026 1A78     		ldrb	r2, [r3, #0]	@ zero_extendqisi2
 399 0028 02F0BF02 		and	r2, r2, #191
 400 002c 1A70     		strb	r2, [r3, #0]
 401              		.loc 1 196 0
 402 002e 38BD     		pop	{r3, r4, r5, pc}
 403              	.L49:
 404              		.loc 1 208 0
 405 0030 1D4B     		ldr	r3, .L57+8
 406 0032 1A78     		ldrb	r2, [r3, #0]	@ zero_extendqisi2
 407 0034 42F04002 		orr	r2, r2, #64
 408 0038 1A70     		strb	r2, [r3, #0]
ARM GAS  C:\Users\SUZUKI~1\AppData\Local\Temp\ccTDZrzf.s 			page 16


 409              		.loc 1 209 0
 410 003a 023B     		subs	r3, r3, #2
 411 003c 1C80     		strh	r4, [r3, #0]	@ movhi
 412 003e 38BD     		pop	{r3, r4, r5, pc}
 413              	.L47:
 414              		.loc 1 214 0
 415 0040 13F00101 		ands	r1, r3, #1
 416              	.LVL14:
 417 0044 11D0     		beq	.L50
 418              		.loc 1 216 0
 419 0046 194A     		ldr	r2, .L57+12
 420 0048 0023     		movs	r3, #0
 421 004a 1370     		strb	r3, [r2, #0]
 422              		.loc 1 223 0
 423 004c 0120     		movs	r0, #1
 424 004e 0F32     		adds	r2, r2, #15
 425 0050 1070     		strb	r0, [r2, #0]
 426              		.loc 1 224 0
 427 0052 0432     		adds	r2, r2, #4
 428 0054 1370     		strb	r3, [r2, #0]
 429              		.loc 1 227 0
 430 0056 164B     		ldr	r3, .L57+16
 431 0058 1A78     		ldrb	r2, [r3, #0]	@ zero_extendqisi2
 432 005a 02F07F02 		and	r2, r2, #127
 433 005e 1A70     		strb	r2, [r3, #0]
 434              		.loc 1 237 0
 435 0060 104B     		ldr	r3, .L57+4
 436 0062 1A78     		ldrb	r2, [r3, #0]	@ zero_extendqisi2
 437 0064 02F0FE02 		and	r2, r2, #254
 438 0068 1A70     		strb	r2, [r3, #0]
 439              	.L50:
 440              		.loc 1 246 0
 441 006a 0E4B     		ldr	r3, .L57+4
 442 006c 1B78     		ldrb	r3, [r3, #0]	@ zero_extendqisi2
 443 006e 13F0010F 		tst	r3, #1
 444 0072 0DD0     		beq	.L51
 445              		.loc 1 249 0
 446 0074 0F4B     		ldr	r3, .L57+20
 447              		.loc 1 251 0
 448 0076 002D     		cmp	r5, #0
 449 0078 14BF     		ite	ne
 450 007a 0325     		movne	r5, #3
 451 007c 0125     		moveq	r5, #1
 452              	.LVL15:
 453              		.loc 1 249 0
 454 007e 1C80     		strh	r4, [r3, #0]	@ movhi
 455              		.loc 1 251 0
 456 0080 013B     		subs	r3, r3, #1
 457 0082 1D70     		strb	r5, [r3, #0]
 458              	.L54:
 459              		.loc 1 252 0
 460 0084 094B     		ldr	r3, .L57+12
 461 0086 1B78     		ldrb	r3, [r3, #0]	@ zero_extendqisi2
 462 0088 13F0010F 		tst	r3, #1
 463 008c FAD1     		bne	.L54
 464 008e 01E0     		b	.L55
 465              	.LVL16:
ARM GAS  C:\Users\SUZUKI~1\AppData\Local\Temp\ccTDZrzf.s 			page 17


 466              	.L51:
 467              		.loc 1 257 0
 468 0090 034B     		ldr	r3, .L57
 469 0092 1C80     		strh	r4, [r3, #0]	@ movhi
 470              	.L55:
 471              		.loc 1 260 0
 472 0094 034B     		ldr	r3, .L57+4
 473 0096 1A78     		ldrb	r2, [r3, #0]	@ zero_extendqisi2
 474 0098 41EA0202 		orr	r2, r1, r2
 475 009c 1A70     		strb	r2, [r3, #0]
 476              	.LVL17:
 477              	.L56:
 478 009e 38BD     		pop	{r3, r4, r5, pc}
 479              	.L58:
 480              		.align	2
 481              	.L57:
 482 00a0 80400040 		.word	1073758336
 483 00a4 A2430040 		.word	1073759138
 484 00a8 82400040 		.word	1073758338
 485 00ac 01400040 		.word	1073758209
 486 00b0 08400040 		.word	1073758216
 487 00b4 02400040 		.word	1073758210
 488              		.cfi_endproc
 489              	.LFE3:
 490              		.size	Clock_1_SetDividerRegister, .-Clock_1_SetDividerRegister
 491              		.text
 492              	.Letext0:
 493              		.section	.debug_loc,"",%progbits
 494              	.Ldebug_loc0:
 495              	.LLST5:
 496 0000 00000000 		.4byte	.LVL1
 497 0004 06000000 		.4byte	.LVL2
 498 0008 0100     		.2byte	0x1
 499 000a 50       		.byte	0x50
 500 000b 00000000 		.4byte	0x0
 501 000f 00000000 		.4byte	0x0
 502              	.LLST7:
 503 0013 00000000 		.4byte	.LVL3
 504 0017 04000000 		.4byte	.LVL4
 505 001b 0100     		.2byte	0x1
 506 001d 50       		.byte	0x50
 507 001e 00000000 		.4byte	0x0
 508 0022 00000000 		.4byte	0x0
 509              	.LLST10:
 510 0026 00000000 		.4byte	.LFB8
 511 002a 02000000 		.4byte	.LCFI0
 512 002e 0100     		.2byte	0x1
 513 0030 5D       		.byte	0x5d
 514 0031 02000000 		.4byte	.LCFI0
 515 0035 58000000 		.4byte	.LFE8
 516 0039 0200     		.2byte	0x2
 517 003b 7D       		.byte	0x7d
 518 003c 10       		.sleb128 16
 519 003d 00000000 		.4byte	0x0
 520 0041 00000000 		.4byte	0x0
 521              	.LLST11:
 522 0045 00000000 		.4byte	.LVL5
ARM GAS  C:\Users\SUZUKI~1\AppData\Local\Temp\ccTDZrzf.s 			page 18


 523 0049 0E000000 		.4byte	.LVL7
 524 004d 0100     		.2byte	0x1
 525 004f 50       		.byte	0x50
 526 0050 0E000000 		.4byte	.LVL7
 527 0054 34000000 		.4byte	.LVL8
 528 0058 0100     		.2byte	0x1
 529 005a 54       		.byte	0x54
 530 005b 3C000000 		.4byte	.LVL9
 531 005f 4A000000 		.4byte	.LVL10
 532 0063 0100     		.2byte	0x1
 533 0065 54       		.byte	0x54
 534 0066 00000000 		.4byte	0x0
 535 006a 00000000 		.4byte	0x0
 536              	.LLST12:
 537 006e 00000000 		.4byte	.LFB3
 538 0072 02000000 		.4byte	.LCFI1
 539 0076 0100     		.2byte	0x1
 540 0078 5D       		.byte	0x5d
 541 0079 02000000 		.4byte	.LCFI1
 542 007d B8000000 		.4byte	.LFE3
 543 0081 0200     		.2byte	0x2
 544 0083 7D       		.byte	0x7d
 545 0084 10       		.sleb128 16
 546 0085 00000000 		.4byte	0x0
 547 0089 00000000 		.4byte	0x0
 548              	.LLST13:
 549 008d 00000000 		.4byte	.LVL11
 550 0091 0A000000 		.4byte	.LVL12
 551 0095 0100     		.2byte	0x1
 552 0097 50       		.byte	0x50
 553 0098 0A000000 		.4byte	.LVL12
 554 009c B8000000 		.4byte	.LFE3
 555 00a0 0100     		.2byte	0x1
 556 00a2 54       		.byte	0x54
 557 00a3 00000000 		.4byte	0x0
 558 00a7 00000000 		.4byte	0x0
 559              	.LLST14:
 560 00ab 00000000 		.4byte	.LVL11
 561 00af 0A000000 		.4byte	.LVL12
 562 00b3 0100     		.2byte	0x1
 563 00b5 51       		.byte	0x51
 564 00b6 0A000000 		.4byte	.LVL12
 565 00ba 7E000000 		.4byte	.LVL15
 566 00be 0100     		.2byte	0x1
 567 00c0 55       		.byte	0x55
 568 00c1 90000000 		.4byte	.LVL16
 569 00c5 B8000000 		.4byte	.LFE3
 570 00c9 0100     		.2byte	0x1
 571 00cb 55       		.byte	0x55
 572 00cc 00000000 		.4byte	0x0
 573 00d0 00000000 		.4byte	0x0
 574              	.LLST15:
 575 00d4 10000000 		.4byte	.LVL13
 576 00d8 44000000 		.4byte	.LVL14
 577 00dc 0100     		.2byte	0x1
 578 00de 51       		.byte	0x51
 579 00df 9E000000 		.4byte	.LVL17
ARM GAS  C:\Users\SUZUKI~1\AppData\Local\Temp\ccTDZrzf.s 			page 19


 580 00e3 B8000000 		.4byte	.LFE3
 581 00e7 0100     		.2byte	0x1
 582 00e9 51       		.byte	0x51
 583 00ea 00000000 		.4byte	0x0
 584 00ee 00000000 		.4byte	0x0
 585              		.file 2 "./Generated_Source/PSoC5/cytypes.h"
 586              		.section	.debug_info
 587 0000 33020000 		.4byte	0x233
 588 0004 0200     		.2byte	0x2
 589 0006 00000000 		.4byte	.Ldebug_abbrev0
 590 000a 04       		.byte	0x4
 591 000b 01       		.uleb128 0x1
 592 000c A1010000 		.4byte	.LASF30
 593 0010 01       		.byte	0x1
 594 0011 3A000000 		.4byte	.LASF31
 595 0015 A1000000 		.4byte	.LASF32
 596 0019 00000000 		.4byte	0x0
 597 001d 00000000 		.4byte	0x0
 598 0021 18000000 		.4byte	.Ldebug_ranges0+0x18
 599 0025 00000000 		.4byte	.Ldebug_line0
 600 0029 02       		.uleb128 0x2
 601 002a 01       		.byte	0x1
 602 002b 06       		.byte	0x6
 603 002c F7010000 		.4byte	.LASF0
 604 0030 02       		.uleb128 0x2
 605 0031 01       		.byte	0x1
 606 0032 08       		.byte	0x8
 607 0033 85000000 		.4byte	.LASF1
 608 0037 02       		.uleb128 0x2
 609 0038 02       		.byte	0x2
 610 0039 05       		.byte	0x5
 611 003a BA010000 		.4byte	.LASF2
 612 003e 02       		.uleb128 0x2
 613 003f 02       		.byte	0x2
 614 0040 07       		.byte	0x7
 615 0041 E7000000 		.4byte	.LASF3
 616 0045 02       		.uleb128 0x2
 617 0046 04       		.byte	0x4
 618 0047 05       		.byte	0x5
 619 0048 E4010000 		.4byte	.LASF4
 620 004c 02       		.uleb128 0x2
 621 004d 04       		.byte	0x4
 622 004e 07       		.byte	0x7
 623 004f D5000000 		.4byte	.LASF5
 624 0053 02       		.uleb128 0x2
 625 0054 08       		.byte	0x8
 626 0055 05       		.byte	0x5
 627 0056 00000000 		.4byte	.LASF6
 628 005a 02       		.uleb128 0x2
 629 005b 08       		.byte	0x8
 630 005c 07       		.byte	0x7
 631 005d 5A010000 		.4byte	.LASF7
 632 0061 03       		.uleb128 0x3
 633 0062 04       		.byte	0x4
 634 0063 05       		.byte	0x5
 635 0064 696E7400 		.ascii	"int\000"
 636 0068 02       		.uleb128 0x2
ARM GAS  C:\Users\SUZUKI~1\AppData\Local\Temp\ccTDZrzf.s 			page 20


 637 0069 04       		.byte	0x4
 638 006a 07       		.byte	0x7
 639 006b 45010000 		.4byte	.LASF8
 640 006f 02       		.uleb128 0x2
 641 0070 01       		.byte	0x1
 642 0071 08       		.byte	0x8
 643 0072 AD010000 		.4byte	.LASF9
 644 0076 04       		.uleb128 0x4
 645 0077 C4010000 		.4byte	.LASF10
 646 007b 02       		.byte	0x2
 647 007c 60       		.byte	0x60
 648 007d 30000000 		.4byte	0x30
 649 0081 04       		.uleb128 0x4
 650 0082 1C010000 		.4byte	.LASF11
 651 0086 02       		.byte	0x2
 652 0087 61       		.byte	0x61
 653 0088 3E000000 		.4byte	0x3e
 654 008c 05       		.uleb128 0x5
 655 008d 01       		.byte	0x1
 656 008e 0E000000 		.4byte	.LASF33
 657 0092 01       		.byte	0x1
 658 0093 1801     		.2byte	0x118
 659 0095 01       		.byte	0x1
 660 0096 81000000 		.4byte	0x81
 661 009a 01       		.byte	0x1
 662 009b 06       		.uleb128 0x6
 663 009c 01       		.byte	0x1
 664 009d 93000000 		.4byte	.LASF12
 665 00a1 01       		.byte	0x1
 666 00a2 2C       		.byte	0x2c
 667 00a3 01       		.byte	0x1
 668 00a4 00000000 		.4byte	.LFB0
 669 00a8 10000000 		.4byte	.LFE0
 670 00ac 01       		.byte	0x1
 671 00ad 5D       		.byte	0x5d
 672 00ae 06       		.uleb128 0x6
 673 00af 01       		.byte	0x1
 674 00b0 78000000 		.4byte	.LASF13
 675 00b4 01       		.byte	0x1
 676 00b5 44       		.byte	0x44
 677 00b6 01       		.byte	0x1
 678 00b7 00000000 		.4byte	.LFB1
 679 00bb 10000000 		.4byte	.LFE1
 680 00bf 01       		.byte	0x1
 681 00c0 5D       		.byte	0x5d
 682 00c1 07       		.uleb128 0x7
 683 00c2 01       		.byte	0x1
 684 00c3 03020000 		.4byte	.LASF14
 685 00c7 01       		.byte	0x1
 686 00c8 93       		.byte	0x93
 687 00c9 01       		.byte	0x1
 688 00ca 00000000 		.4byte	.LFB2
 689 00ce 1C000000 		.4byte	.LFE2
 690 00d2 01       		.byte	0x1
 691 00d3 5D       		.byte	0x5d
 692 00d4 E6000000 		.4byte	0xe6
 693 00d8 08       		.uleb128 0x8
ARM GAS  C:\Users\SUZUKI~1\AppData\Local\Temp\ccTDZrzf.s 			page 21


 694 00d9 29000000 		.4byte	.LASF16
 695 00dd 01       		.byte	0x1
 696 00de 93       		.byte	0x93
 697 00df 76000000 		.4byte	0x76
 698 00e3 01       		.byte	0x1
 699 00e4 50       		.byte	0x50
 700 00e5 00       		.byte	0x0
 701 00e6 09       		.uleb128 0x9
 702 00e7 8C000000 		.4byte	0x8c
 703 00eb 00000000 		.4byte	.LFB4
 704 00ef 0C000000 		.4byte	.LFE4
 705 00f3 01       		.byte	0x1
 706 00f4 5D       		.byte	0x5d
 707 00f5 0A       		.uleb128 0xa
 708 00f6 01       		.byte	0x1
 709 00f7 89010000 		.4byte	.LASF15
 710 00fb 01       		.byte	0x1
 711 00fc 3A01     		.2byte	0x13a
 712 00fe 01       		.byte	0x1
 713 00ff 00000000 		.4byte	.LFB5
 714 0103 14000000 		.4byte	.LFE5
 715 0107 01       		.byte	0x1
 716 0108 5D       		.byte	0x5d
 717 0109 1E010000 		.4byte	0x11e
 718 010d 0B       		.uleb128 0xb
 719 010e 23010000 		.4byte	.LASF17
 720 0112 01       		.byte	0x1
 721 0113 3A01     		.2byte	0x13a
 722 0115 76000000 		.4byte	0x76
 723 0119 00000000 		.4byte	.LLST5
 724 011d 00       		.byte	0x0
 725 011e 0A       		.uleb128 0xa
 726 011f 01       		.byte	0x1
 727 0120 2B010000 		.4byte	.LASF18
 728 0124 01       		.byte	0x1
 729 0125 5C01     		.2byte	0x15c
 730 0127 01       		.byte	0x1
 731 0128 00000000 		.4byte	.LFB6
 732 012c 14000000 		.4byte	.LFE6
 733 0130 01       		.byte	0x1
 734 0131 5D       		.byte	0x5d
 735 0132 47010000 		.4byte	0x147
 736 0136 0B       		.uleb128 0xb
 737 0137 23010000 		.4byte	.LASF17
 738 013b 01       		.byte	0x1
 739 013c 5C01     		.2byte	0x15c
 740 013e 76000000 		.4byte	0x76
 741 0142 13000000 		.4byte	.LLST7
 742 0146 00       		.byte	0x0
 743 0147 0C       		.uleb128 0xc
 744 0148 01       		.byte	0x1
 745 0149 71010000 		.4byte	.LASF19
 746 014d 01       		.byte	0x1
 747 014e 7001     		.2byte	0x170
 748 0150 01       		.byte	0x1
 749 0151 76000000 		.4byte	0x76
 750 0155 00000000 		.4byte	.LFB7
ARM GAS  C:\Users\SUZUKI~1\AppData\Local\Temp\ccTDZrzf.s 			page 22


 751 0159 10000000 		.4byte	.LFE7
 752 015d 01       		.byte	0x1
 753 015e 5D       		.byte	0x5d
 754 015f 0C       		.uleb128 0xc
 755 0160 01       		.byte	0x1
 756 0161 18020000 		.4byte	.LASF20
 757 0165 01       		.byte	0x1
 758 0166 B801     		.2byte	0x1b8
 759 0168 01       		.byte	0x1
 760 0169 76000000 		.4byte	0x76
 761 016d 00000000 		.4byte	.LFB9
 762 0171 10000000 		.4byte	.LFE9
 763 0175 01       		.byte	0x1
 764 0176 5D       		.byte	0x5d
 765 0177 0D       		.uleb128 0xd
 766 0178 01       		.byte	0x1
 767 0179 CA010000 		.4byte	.LASF21
 768 017d 01       		.byte	0x1
 769 017e 8E01     		.2byte	0x18e
 770 0180 01       		.byte	0x1
 771 0181 00000000 		.4byte	.LFB8
 772 0185 58000000 		.4byte	.LFE8
 773 0189 26000000 		.4byte	.LLST10
 774 018d CC010000 		.4byte	0x1cc
 775 0191 0B       		.uleb128 0xb
 776 0192 ED010000 		.4byte	.LASF22
 777 0196 01       		.byte	0x1
 778 0197 8E01     		.2byte	0x18e
 779 0199 76000000 		.4byte	0x76
 780 019d 45000000 		.4byte	.LLST11
 781 01a1 0E       		.uleb128 0xe
 782 01a2 B2010000 		.4byte	.LASF25
 783 01a6 01       		.byte	0x1
 784 01a7 9001     		.2byte	0x190
 785 01a9 81000000 		.4byte	0x81
 786 01ad 01       		.byte	0x1
 787 01ae 55       		.byte	0x55
 788 01af 0F       		.uleb128 0xf
 789 01b0 0D010000 		.4byte	.LASF27
 790 01b4 01       		.byte	0x1
 791 01b5 9101     		.2byte	0x191
 792 01b7 76000000 		.4byte	0x76
 793 01bb 10       		.uleb128 0x10
 794 01bc 8C000000 		.4byte	0x8c
 795 01c0 02000000 		.4byte	.LBB6
 796 01c4 00000000 		.4byte	.Ldebug_ranges0+0x0
 797 01c8 01       		.byte	0x1
 798 01c9 9001     		.2byte	0x190
 799 01cb 00       		.byte	0x0
 800 01cc 11       		.uleb128 0x11
 801 01cd 01       		.byte	0x1
 802 01ce 5D000000 		.4byte	.LASF34
 803 01d2 01       		.byte	0x1
 804 01d3 B6       		.byte	0xb6
 805 01d4 01       		.byte	0x1
 806 01d5 00000000 		.4byte	.LFB3
 807 01d9 B8000000 		.4byte	.LFE3
ARM GAS  C:\Users\SUZUKI~1\AppData\Local\Temp\ccTDZrzf.s 			page 23


 808 01dd 6E000000 		.4byte	.LLST12
 809 01e1 12       		.uleb128 0x12
 810 01e2 02010000 		.4byte	.LASF23
 811 01e6 01       		.byte	0x1
 812 01e7 B6       		.byte	0xb6
 813 01e8 81000000 		.4byte	0x81
 814 01ec 8D000000 		.4byte	.LLST13
 815 01f0 12       		.uleb128 0x12
 816 01f1 14010000 		.4byte	.LASF24
 817 01f5 01       		.byte	0x1
 818 01f6 B6       		.byte	0xb6
 819 01f7 76000000 		.4byte	0x76
 820 01fb AB000000 		.4byte	.LLST14
 821 01ff 13       		.uleb128 0x13
 822 0200 FA000000 		.4byte	.LASF26
 823 0204 01       		.byte	0x1
 824 0205 B8       		.byte	0xb8
 825 0206 76000000 		.4byte	0x76
 826 020a 01       		.byte	0x1
 827 020b 51       		.byte	0x51
 828 020c 14       		.uleb128 0x14
 829 020d 52010000 		.4byte	.LASF28
 830 0211 01       		.byte	0x1
 831 0212 BA       		.byte	0xba
 832 0213 76000000 		.4byte	0x76
 833 0217 15       		.uleb128 0x15
 834 0218 2F000000 		.4byte	.LASF29
 835 021c 01       		.byte	0x1
 836 021d BB       		.byte	0xbb
 837 021e 81000000 		.4byte	0x81
 838 0222 D4000000 		.4byte	.LLST15
 839 0226 16       		.uleb128 0x16
 840 0227 8C000000 		.4byte	0x8c
 841 022b 0A000000 		.4byte	.LBB10
 842 022f 10000000 		.4byte	.LBE10
 843 0233 01       		.byte	0x1
 844 0234 BB       		.byte	0xbb
 845 0235 00       		.byte	0x0
 846 0236 00       		.byte	0x0
 847              		.section	.debug_abbrev
 848 0000 01       		.uleb128 0x1
 849 0001 11       		.uleb128 0x11
 850 0002 01       		.byte	0x1
 851 0003 25       		.uleb128 0x25
 852 0004 0E       		.uleb128 0xe
 853 0005 13       		.uleb128 0x13
 854 0006 0B       		.uleb128 0xb
 855 0007 03       		.uleb128 0x3
 856 0008 0E       		.uleb128 0xe
 857 0009 1B       		.uleb128 0x1b
 858 000a 0E       		.uleb128 0xe
 859 000b 11       		.uleb128 0x11
 860 000c 01       		.uleb128 0x1
 861 000d 52       		.uleb128 0x52
 862 000e 01       		.uleb128 0x1
 863 000f 55       		.uleb128 0x55
 864 0010 06       		.uleb128 0x6
ARM GAS  C:\Users\SUZUKI~1\AppData\Local\Temp\ccTDZrzf.s 			page 24


 865 0011 10       		.uleb128 0x10
 866 0012 06       		.uleb128 0x6
 867 0013 00       		.byte	0x0
 868 0014 00       		.byte	0x0
 869 0015 02       		.uleb128 0x2
 870 0016 24       		.uleb128 0x24
 871 0017 00       		.byte	0x0
 872 0018 0B       		.uleb128 0xb
 873 0019 0B       		.uleb128 0xb
 874 001a 3E       		.uleb128 0x3e
 875 001b 0B       		.uleb128 0xb
 876 001c 03       		.uleb128 0x3
 877 001d 0E       		.uleb128 0xe
 878 001e 00       		.byte	0x0
 879 001f 00       		.byte	0x0
 880 0020 03       		.uleb128 0x3
 881 0021 24       		.uleb128 0x24
 882 0022 00       		.byte	0x0
 883 0023 0B       		.uleb128 0xb
 884 0024 0B       		.uleb128 0xb
 885 0025 3E       		.uleb128 0x3e
 886 0026 0B       		.uleb128 0xb
 887 0027 03       		.uleb128 0x3
 888 0028 08       		.uleb128 0x8
 889 0029 00       		.byte	0x0
 890 002a 00       		.byte	0x0
 891 002b 04       		.uleb128 0x4
 892 002c 16       		.uleb128 0x16
 893 002d 00       		.byte	0x0
 894 002e 03       		.uleb128 0x3
 895 002f 0E       		.uleb128 0xe
 896 0030 3A       		.uleb128 0x3a
 897 0031 0B       		.uleb128 0xb
 898 0032 3B       		.uleb128 0x3b
 899 0033 0B       		.uleb128 0xb
 900 0034 49       		.uleb128 0x49
 901 0035 13       		.uleb128 0x13
 902 0036 00       		.byte	0x0
 903 0037 00       		.byte	0x0
 904 0038 05       		.uleb128 0x5
 905 0039 2E       		.uleb128 0x2e
 906 003a 00       		.byte	0x0
 907 003b 3F       		.uleb128 0x3f
 908 003c 0C       		.uleb128 0xc
 909 003d 03       		.uleb128 0x3
 910 003e 0E       		.uleb128 0xe
 911 003f 3A       		.uleb128 0x3a
 912 0040 0B       		.uleb128 0xb
 913 0041 3B       		.uleb128 0x3b
 914 0042 05       		.uleb128 0x5
 915 0043 27       		.uleb128 0x27
 916 0044 0C       		.uleb128 0xc
 917 0045 49       		.uleb128 0x49
 918 0046 13       		.uleb128 0x13
 919 0047 20       		.uleb128 0x20
 920 0048 0B       		.uleb128 0xb
 921 0049 00       		.byte	0x0
ARM GAS  C:\Users\SUZUKI~1\AppData\Local\Temp\ccTDZrzf.s 			page 25


 922 004a 00       		.byte	0x0
 923 004b 06       		.uleb128 0x6
 924 004c 2E       		.uleb128 0x2e
 925 004d 00       		.byte	0x0
 926 004e 3F       		.uleb128 0x3f
 927 004f 0C       		.uleb128 0xc
 928 0050 03       		.uleb128 0x3
 929 0051 0E       		.uleb128 0xe
 930 0052 3A       		.uleb128 0x3a
 931 0053 0B       		.uleb128 0xb
 932 0054 3B       		.uleb128 0x3b
 933 0055 0B       		.uleb128 0xb
 934 0056 27       		.uleb128 0x27
 935 0057 0C       		.uleb128 0xc
 936 0058 11       		.uleb128 0x11
 937 0059 01       		.uleb128 0x1
 938 005a 12       		.uleb128 0x12
 939 005b 01       		.uleb128 0x1
 940 005c 40       		.uleb128 0x40
 941 005d 0A       		.uleb128 0xa
 942 005e 00       		.byte	0x0
 943 005f 00       		.byte	0x0
 944 0060 07       		.uleb128 0x7
 945 0061 2E       		.uleb128 0x2e
 946 0062 01       		.byte	0x1
 947 0063 3F       		.uleb128 0x3f
 948 0064 0C       		.uleb128 0xc
 949 0065 03       		.uleb128 0x3
 950 0066 0E       		.uleb128 0xe
 951 0067 3A       		.uleb128 0x3a
 952 0068 0B       		.uleb128 0xb
 953 0069 3B       		.uleb128 0x3b
 954 006a 0B       		.uleb128 0xb
 955 006b 27       		.uleb128 0x27
 956 006c 0C       		.uleb128 0xc
 957 006d 11       		.uleb128 0x11
 958 006e 01       		.uleb128 0x1
 959 006f 12       		.uleb128 0x12
 960 0070 01       		.uleb128 0x1
 961 0071 40       		.uleb128 0x40
 962 0072 0A       		.uleb128 0xa
 963 0073 01       		.uleb128 0x1
 964 0074 13       		.uleb128 0x13
 965 0075 00       		.byte	0x0
 966 0076 00       		.byte	0x0
 967 0077 08       		.uleb128 0x8
 968 0078 05       		.uleb128 0x5
 969 0079 00       		.byte	0x0
 970 007a 03       		.uleb128 0x3
 971 007b 0E       		.uleb128 0xe
 972 007c 3A       		.uleb128 0x3a
 973 007d 0B       		.uleb128 0xb
 974 007e 3B       		.uleb128 0x3b
 975 007f 0B       		.uleb128 0xb
 976 0080 49       		.uleb128 0x49
 977 0081 13       		.uleb128 0x13
 978 0082 02       		.uleb128 0x2
ARM GAS  C:\Users\SUZUKI~1\AppData\Local\Temp\ccTDZrzf.s 			page 26


 979 0083 0A       		.uleb128 0xa
 980 0084 00       		.byte	0x0
 981 0085 00       		.byte	0x0
 982 0086 09       		.uleb128 0x9
 983 0087 2E       		.uleb128 0x2e
 984 0088 00       		.byte	0x0
 985 0089 31       		.uleb128 0x31
 986 008a 13       		.uleb128 0x13
 987 008b 11       		.uleb128 0x11
 988 008c 01       		.uleb128 0x1
 989 008d 12       		.uleb128 0x12
 990 008e 01       		.uleb128 0x1
 991 008f 40       		.uleb128 0x40
 992 0090 0A       		.uleb128 0xa
 993 0091 00       		.byte	0x0
 994 0092 00       		.byte	0x0
 995 0093 0A       		.uleb128 0xa
 996 0094 2E       		.uleb128 0x2e
 997 0095 01       		.byte	0x1
 998 0096 3F       		.uleb128 0x3f
 999 0097 0C       		.uleb128 0xc
 1000 0098 03       		.uleb128 0x3
 1001 0099 0E       		.uleb128 0xe
 1002 009a 3A       		.uleb128 0x3a
 1003 009b 0B       		.uleb128 0xb
 1004 009c 3B       		.uleb128 0x3b
 1005 009d 05       		.uleb128 0x5
 1006 009e 27       		.uleb128 0x27
 1007 009f 0C       		.uleb128 0xc
 1008 00a0 11       		.uleb128 0x11
 1009 00a1 01       		.uleb128 0x1
 1010 00a2 12       		.uleb128 0x12
 1011 00a3 01       		.uleb128 0x1
 1012 00a4 40       		.uleb128 0x40
 1013 00a5 0A       		.uleb128 0xa
 1014 00a6 01       		.uleb128 0x1
 1015 00a7 13       		.uleb128 0x13
 1016 00a8 00       		.byte	0x0
 1017 00a9 00       		.byte	0x0
 1018 00aa 0B       		.uleb128 0xb
 1019 00ab 05       		.uleb128 0x5
 1020 00ac 00       		.byte	0x0
 1021 00ad 03       		.uleb128 0x3
 1022 00ae 0E       		.uleb128 0xe
 1023 00af 3A       		.uleb128 0x3a
 1024 00b0 0B       		.uleb128 0xb
 1025 00b1 3B       		.uleb128 0x3b
 1026 00b2 05       		.uleb128 0x5
 1027 00b3 49       		.uleb128 0x49
 1028 00b4 13       		.uleb128 0x13
 1029 00b5 02       		.uleb128 0x2
 1030 00b6 06       		.uleb128 0x6
 1031 00b7 00       		.byte	0x0
 1032 00b8 00       		.byte	0x0
 1033 00b9 0C       		.uleb128 0xc
 1034 00ba 2E       		.uleb128 0x2e
 1035 00bb 00       		.byte	0x0
ARM GAS  C:\Users\SUZUKI~1\AppData\Local\Temp\ccTDZrzf.s 			page 27


 1036 00bc 3F       		.uleb128 0x3f
 1037 00bd 0C       		.uleb128 0xc
 1038 00be 03       		.uleb128 0x3
 1039 00bf 0E       		.uleb128 0xe
 1040 00c0 3A       		.uleb128 0x3a
 1041 00c1 0B       		.uleb128 0xb
 1042 00c2 3B       		.uleb128 0x3b
 1043 00c3 05       		.uleb128 0x5
 1044 00c4 27       		.uleb128 0x27
 1045 00c5 0C       		.uleb128 0xc
 1046 00c6 49       		.uleb128 0x49
 1047 00c7 13       		.uleb128 0x13
 1048 00c8 11       		.uleb128 0x11
 1049 00c9 01       		.uleb128 0x1
 1050 00ca 12       		.uleb128 0x12
 1051 00cb 01       		.uleb128 0x1
 1052 00cc 40       		.uleb128 0x40
 1053 00cd 0A       		.uleb128 0xa
 1054 00ce 00       		.byte	0x0
 1055 00cf 00       		.byte	0x0
 1056 00d0 0D       		.uleb128 0xd
 1057 00d1 2E       		.uleb128 0x2e
 1058 00d2 01       		.byte	0x1
 1059 00d3 3F       		.uleb128 0x3f
 1060 00d4 0C       		.uleb128 0xc
 1061 00d5 03       		.uleb128 0x3
 1062 00d6 0E       		.uleb128 0xe
 1063 00d7 3A       		.uleb128 0x3a
 1064 00d8 0B       		.uleb128 0xb
 1065 00d9 3B       		.uleb128 0x3b
 1066 00da 05       		.uleb128 0x5
 1067 00db 27       		.uleb128 0x27
 1068 00dc 0C       		.uleb128 0xc
 1069 00dd 11       		.uleb128 0x11
 1070 00de 01       		.uleb128 0x1
 1071 00df 12       		.uleb128 0x12
 1072 00e0 01       		.uleb128 0x1
 1073 00e1 40       		.uleb128 0x40
 1074 00e2 06       		.uleb128 0x6
 1075 00e3 01       		.uleb128 0x1
 1076 00e4 13       		.uleb128 0x13
 1077 00e5 00       		.byte	0x0
 1078 00e6 00       		.byte	0x0
 1079 00e7 0E       		.uleb128 0xe
 1080 00e8 34       		.uleb128 0x34
 1081 00e9 00       		.byte	0x0
 1082 00ea 03       		.uleb128 0x3
 1083 00eb 0E       		.uleb128 0xe
 1084 00ec 3A       		.uleb128 0x3a
 1085 00ed 0B       		.uleb128 0xb
 1086 00ee 3B       		.uleb128 0x3b
 1087 00ef 05       		.uleb128 0x5
 1088 00f0 49       		.uleb128 0x49
 1089 00f1 13       		.uleb128 0x13
 1090 00f2 02       		.uleb128 0x2
 1091 00f3 0A       		.uleb128 0xa
 1092 00f4 00       		.byte	0x0
ARM GAS  C:\Users\SUZUKI~1\AppData\Local\Temp\ccTDZrzf.s 			page 28


 1093 00f5 00       		.byte	0x0
 1094 00f6 0F       		.uleb128 0xf
 1095 00f7 34       		.uleb128 0x34
 1096 00f8 00       		.byte	0x0
 1097 00f9 03       		.uleb128 0x3
 1098 00fa 0E       		.uleb128 0xe
 1099 00fb 3A       		.uleb128 0x3a
 1100 00fc 0B       		.uleb128 0xb
 1101 00fd 3B       		.uleb128 0x3b
 1102 00fe 05       		.uleb128 0x5
 1103 00ff 49       		.uleb128 0x49
 1104 0100 13       		.uleb128 0x13
 1105 0101 00       		.byte	0x0
 1106 0102 00       		.byte	0x0
 1107 0103 10       		.uleb128 0x10
 1108 0104 1D       		.uleb128 0x1d
 1109 0105 00       		.byte	0x0
 1110 0106 31       		.uleb128 0x31
 1111 0107 13       		.uleb128 0x13
 1112 0108 52       		.uleb128 0x52
 1113 0109 01       		.uleb128 0x1
 1114 010a 55       		.uleb128 0x55
 1115 010b 06       		.uleb128 0x6
 1116 010c 58       		.uleb128 0x58
 1117 010d 0B       		.uleb128 0xb
 1118 010e 59       		.uleb128 0x59
 1119 010f 05       		.uleb128 0x5
 1120 0110 00       		.byte	0x0
 1121 0111 00       		.byte	0x0
 1122 0112 11       		.uleb128 0x11
 1123 0113 2E       		.uleb128 0x2e
 1124 0114 01       		.byte	0x1
 1125 0115 3F       		.uleb128 0x3f
 1126 0116 0C       		.uleb128 0xc
 1127 0117 03       		.uleb128 0x3
 1128 0118 0E       		.uleb128 0xe
 1129 0119 3A       		.uleb128 0x3a
 1130 011a 0B       		.uleb128 0xb
 1131 011b 3B       		.uleb128 0x3b
 1132 011c 0B       		.uleb128 0xb
 1133 011d 27       		.uleb128 0x27
 1134 011e 0C       		.uleb128 0xc
 1135 011f 11       		.uleb128 0x11
 1136 0120 01       		.uleb128 0x1
 1137 0121 12       		.uleb128 0x12
 1138 0122 01       		.uleb128 0x1
 1139 0123 40       		.uleb128 0x40
 1140 0124 06       		.uleb128 0x6
 1141 0125 00       		.byte	0x0
 1142 0126 00       		.byte	0x0
 1143 0127 12       		.uleb128 0x12
 1144 0128 05       		.uleb128 0x5
 1145 0129 00       		.byte	0x0
 1146 012a 03       		.uleb128 0x3
 1147 012b 0E       		.uleb128 0xe
 1148 012c 3A       		.uleb128 0x3a
 1149 012d 0B       		.uleb128 0xb
ARM GAS  C:\Users\SUZUKI~1\AppData\Local\Temp\ccTDZrzf.s 			page 29


 1150 012e 3B       		.uleb128 0x3b
 1151 012f 0B       		.uleb128 0xb
 1152 0130 49       		.uleb128 0x49
 1153 0131 13       		.uleb128 0x13
 1154 0132 02       		.uleb128 0x2
 1155 0133 06       		.uleb128 0x6
 1156 0134 00       		.byte	0x0
 1157 0135 00       		.byte	0x0
 1158 0136 13       		.uleb128 0x13
 1159 0137 34       		.uleb128 0x34
 1160 0138 00       		.byte	0x0
 1161 0139 03       		.uleb128 0x3
 1162 013a 0E       		.uleb128 0xe
 1163 013b 3A       		.uleb128 0x3a
 1164 013c 0B       		.uleb128 0xb
 1165 013d 3B       		.uleb128 0x3b
 1166 013e 0B       		.uleb128 0xb
 1167 013f 49       		.uleb128 0x49
 1168 0140 13       		.uleb128 0x13
 1169 0141 02       		.uleb128 0x2
 1170 0142 0A       		.uleb128 0xa
 1171 0143 00       		.byte	0x0
 1172 0144 00       		.byte	0x0
 1173 0145 14       		.uleb128 0x14
 1174 0146 34       		.uleb128 0x34
 1175 0147 00       		.byte	0x0
 1176 0148 03       		.uleb128 0x3
 1177 0149 0E       		.uleb128 0xe
 1178 014a 3A       		.uleb128 0x3a
 1179 014b 0B       		.uleb128 0xb
 1180 014c 3B       		.uleb128 0x3b
 1181 014d 0B       		.uleb128 0xb
 1182 014e 49       		.uleb128 0x49
 1183 014f 13       		.uleb128 0x13
 1184 0150 00       		.byte	0x0
 1185 0151 00       		.byte	0x0
 1186 0152 15       		.uleb128 0x15
 1187 0153 34       		.uleb128 0x34
 1188 0154 00       		.byte	0x0
 1189 0155 03       		.uleb128 0x3
 1190 0156 0E       		.uleb128 0xe
 1191 0157 3A       		.uleb128 0x3a
 1192 0158 0B       		.uleb128 0xb
 1193 0159 3B       		.uleb128 0x3b
 1194 015a 0B       		.uleb128 0xb
 1195 015b 49       		.uleb128 0x49
 1196 015c 13       		.uleb128 0x13
 1197 015d 02       		.uleb128 0x2
 1198 015e 06       		.uleb128 0x6
 1199 015f 00       		.byte	0x0
 1200 0160 00       		.byte	0x0
 1201 0161 16       		.uleb128 0x16
 1202 0162 1D       		.uleb128 0x1d
 1203 0163 00       		.byte	0x0
 1204 0164 31       		.uleb128 0x31
 1205 0165 13       		.uleb128 0x13
 1206 0166 11       		.uleb128 0x11
ARM GAS  C:\Users\SUZUKI~1\AppData\Local\Temp\ccTDZrzf.s 			page 30


 1207 0167 01       		.uleb128 0x1
 1208 0168 12       		.uleb128 0x12
 1209 0169 01       		.uleb128 0x1
 1210 016a 58       		.uleb128 0x58
 1211 016b 0B       		.uleb128 0xb
 1212 016c 59       		.uleb128 0x59
 1213 016d 0B       		.uleb128 0xb
 1214 016e 00       		.byte	0x0
 1215 016f 00       		.byte	0x0
 1216 0170 00       		.byte	0x0
 1217              		.section	.debug_pubnames,"",%progbits
 1218 0000 1A010000 		.4byte	0x11a
 1219 0004 0200     		.2byte	0x2
 1220 0006 00000000 		.4byte	.Ldebug_info0
 1221 000a 37020000 		.4byte	0x237
 1222 000e 9B000000 		.4byte	0x9b
 1223 0012 436C6F63 		.ascii	"Clock_1_Start\000"
 1223      6B5F315F 
 1223      53746172 
 1223      7400
 1224 0020 AE000000 		.4byte	0xae
 1225 0024 436C6F63 		.ascii	"Clock_1_Stop\000"
 1225      6B5F315F 
 1225      53746F70 
 1225      00
 1226 0031 C1000000 		.4byte	0xc1
 1227 0035 436C6F63 		.ascii	"Clock_1_StandbyPower\000"
 1227      6B5F315F 
 1227      5374616E 
 1227      64627950 
 1227      6F776572 
 1228 004a E6000000 		.4byte	0xe6
 1229 004e 436C6F63 		.ascii	"Clock_1_GetDividerRegister\000"
 1229      6B5F315F 
 1229      47657444 
 1229      69766964 
 1229      65725265 
 1230 0069 F5000000 		.4byte	0xf5
 1231 006d 436C6F63 		.ascii	"Clock_1_SetModeRegister\000"
 1231      6B5F315F 
 1231      5365744D 
 1231      6F646552 
 1231      65676973 
 1232 0085 1E010000 		.4byte	0x11e
 1233 0089 436C6F63 		.ascii	"Clock_1_ClearModeRegister\000"
 1233      6B5F315F 
 1233      436C6561 
 1233      724D6F64 
 1233      65526567 
 1234 00a3 47010000 		.4byte	0x147
 1235 00a7 436C6F63 		.ascii	"Clock_1_GetModeRegister\000"
 1235      6B5F315F 
 1235      4765744D 
 1235      6F646552 
 1235      65676973 
 1236 00bf 5F010000 		.4byte	0x15f
 1237 00c3 436C6F63 		.ascii	"Clock_1_GetSourceRegister\000"
ARM GAS  C:\Users\SUZUKI~1\AppData\Local\Temp\ccTDZrzf.s 			page 31


 1237      6B5F315F 
 1237      47657453 
 1237      6F757263 
 1237      65526567 
 1238 00dd 77010000 		.4byte	0x177
 1239 00e1 436C6F63 		.ascii	"Clock_1_SetSourceRegister\000"
 1239      6B5F315F 
 1239      53657453 
 1239      6F757263 
 1239      65526567 
 1240 00fb CC010000 		.4byte	0x1cc
 1241 00ff 436C6F63 		.ascii	"Clock_1_SetDividerRegister\000"
 1241      6B5F315F 
 1241      53657444 
 1241      69766964 
 1241      65725265 
 1242 011a 00000000 		.4byte	0x0
 1243              		.section	.debug_aranges,"",%progbits
 1244 0000 64000000 		.4byte	0x64
 1245 0004 0200     		.2byte	0x2
 1246 0006 00000000 		.4byte	.Ldebug_info0
 1247 000a 04       		.byte	0x4
 1248 000b 00       		.byte	0x0
 1249 000c 0000     		.2byte	0x0
 1250 000e 0000     		.2byte	0x0
 1251 0010 00000000 		.4byte	.LFB0
 1252 0014 10000000 		.4byte	.LFE0-.LFB0
 1253 0018 00000000 		.4byte	.LFB1
 1254 001c 10000000 		.4byte	.LFE1-.LFB1
 1255 0020 00000000 		.4byte	.LFB2
 1256 0024 1C000000 		.4byte	.LFE2-.LFB2
 1257 0028 00000000 		.4byte	.LFB4
 1258 002c 0C000000 		.4byte	.LFE4-.LFB4
 1259 0030 00000000 		.4byte	.LFB5
 1260 0034 14000000 		.4byte	.LFE5-.LFB5
 1261 0038 00000000 		.4byte	.LFB6
 1262 003c 14000000 		.4byte	.LFE6-.LFB6
 1263 0040 00000000 		.4byte	.LFB7
 1264 0044 10000000 		.4byte	.LFE7-.LFB7
 1265 0048 00000000 		.4byte	.LFB9
 1266 004c 10000000 		.4byte	.LFE9-.LFB9
 1267 0050 00000000 		.4byte	.LFB8
 1268 0054 58000000 		.4byte	.LFE8-.LFB8
 1269 0058 00000000 		.4byte	.LFB3
 1270 005c B8000000 		.4byte	.LFE3-.LFB3
 1271 0060 00000000 		.4byte	0x0
 1272 0064 00000000 		.4byte	0x0
 1273              		.section	.debug_ranges,"",%progbits
 1274              	.Ldebug_ranges0:
 1275 0000 02000000 		.4byte	.LBB6
 1276 0004 04000000 		.4byte	.LBE6
 1277 0008 06000000 		.4byte	.LBB9
 1278 000c 0A000000 		.4byte	.LBE9
 1279 0010 00000000 		.4byte	0x0
 1280 0014 00000000 		.4byte	0x0
 1281 0018 00000000 		.4byte	.Ltext0
 1282 001c 00000000 		.4byte	.Letext0
ARM GAS  C:\Users\SUZUKI~1\AppData\Local\Temp\ccTDZrzf.s 			page 32


 1283 0020 00000000 		.4byte	.LFB0
 1284 0024 10000000 		.4byte	.LFE0
 1285 0028 00000000 		.4byte	.LFB1
 1286 002c 10000000 		.4byte	.LFE1
 1287 0030 00000000 		.4byte	.LFB2
 1288 0034 1C000000 		.4byte	.LFE2
 1289 0038 00000000 		.4byte	.LFB4
 1290 003c 0C000000 		.4byte	.LFE4
 1291 0040 00000000 		.4byte	.LFB5
 1292 0044 14000000 		.4byte	.LFE5
 1293 0048 00000000 		.4byte	.LFB6
 1294 004c 14000000 		.4byte	.LFE6
 1295 0050 00000000 		.4byte	.LFB7
 1296 0054 10000000 		.4byte	.LFE7
 1297 0058 00000000 		.4byte	.LFB9
 1298 005c 10000000 		.4byte	.LFE9
 1299 0060 00000000 		.4byte	.LFB8
 1300 0064 58000000 		.4byte	.LFE8
 1301 0068 00000000 		.4byte	.LFB3
 1302 006c B8000000 		.4byte	.LFE3
 1303 0070 00000000 		.4byte	0x0
 1304 0074 00000000 		.4byte	0x0
 1305              		.section	.debug_str,"MS",%progbits,1
 1306              	.LASF6:
 1307 0000 6C6F6E67 		.ascii	"long long int\000"
 1307      206C6F6E 
 1307      6720696E 
 1307      7400
 1308              	.LASF33:
 1309 000e 436C6F63 		.ascii	"Clock_1_GetDividerRegister\000"
 1309      6B5F315F 
 1309      47657444 
 1309      69766964 
 1309      65725265 
 1310              	.LASF16:
 1311 0029 73746174 		.ascii	"state\000"
 1311      6500
 1312              	.LASF29:
 1313 002f 6F6C6444 		.ascii	"oldDivider\000"
 1313      69766964 
 1313      657200
 1314              	.LASF31:
 1315 003a 2E5C4765 		.ascii	".\\Generated_Source\\PSoC5\\Clock_1.c\000"
 1315      6E657261 
 1315      7465645F 
 1315      536F7572 
 1315      63655C50 
 1316              	.LASF34:
 1317 005d 436C6F63 		.ascii	"Clock_1_SetDividerRegister\000"
 1317      6B5F315F 
 1317      53657444 
 1317      69766964 
 1317      65725265 
 1318              	.LASF13:
 1319 0078 436C6F63 		.ascii	"Clock_1_Stop\000"
 1319      6B5F315F 
 1319      53746F70 
ARM GAS  C:\Users\SUZUKI~1\AppData\Local\Temp\ccTDZrzf.s 			page 33


 1319      00
 1320              	.LASF1:
 1321 0085 756E7369 		.ascii	"unsigned char\000"
 1321      676E6564 
 1321      20636861 
 1321      7200
 1322              	.LASF12:
 1323 0093 436C6F63 		.ascii	"Clock_1_Start\000"
 1323      6B5F315F 
 1323      53746172 
 1323      7400
 1324              	.LASF32:
 1325 00a1 463A5C44 		.ascii	"F:\\Documents\\PSoC_Creator\\ledmatrix\\ledmatrix.c"
 1325      6F63756D 
 1325      656E7473 
 1325      5C50536F 
 1325      435F4372 
 1326 00d0 7964736E 		.ascii	"ydsn\000"
 1326      00
 1327              	.LASF5:
 1328 00d5 6C6F6E67 		.ascii	"long unsigned int\000"
 1328      20756E73 
 1328      69676E65 
 1328      6420696E 
 1328      7400
 1329              	.LASF3:
 1330 00e7 73686F72 		.ascii	"short unsigned int\000"
 1330      7420756E 
 1330      7369676E 
 1330      65642069 
 1330      6E7400
 1331              	.LASF26:
 1332 00fa 656E6162 		.ascii	"enabled\000"
 1332      6C656400 
 1333              	.LASF23:
 1334 0102 636C6B44 		.ascii	"clkDivider\000"
 1334      69766964 
 1334      657200
 1335              	.LASF27:
 1336 010d 6F6C6453 		.ascii	"oldSrc\000"
 1336      726300
 1337              	.LASF24:
 1338 0114 72657374 		.ascii	"restart\000"
 1338      61727400 
 1339              	.LASF11:
 1340 011c 75696E74 		.ascii	"uint16\000"
 1340      313600
 1341              	.LASF17:
 1342 0123 636C6B4D 		.ascii	"clkMode\000"
 1342      6F646500 
 1343              	.LASF18:
 1344 012b 436C6F63 		.ascii	"Clock_1_ClearModeRegister\000"
 1344      6B5F315F 
 1344      436C6561 
 1344      724D6F64 
 1344      65526567 
 1345              	.LASF8:
ARM GAS  C:\Users\SUZUKI~1\AppData\Local\Temp\ccTDZrzf.s 			page 34


 1346 0145 756E7369 		.ascii	"unsigned int\000"
 1346      676E6564 
 1346      20696E74 
 1346      00
 1347              	.LASF28:
 1348 0152 63757272 		.ascii	"currSrc\000"
 1348      53726300 
 1349              	.LASF7:
 1350 015a 6C6F6E67 		.ascii	"long long unsigned int\000"
 1350      206C6F6E 
 1350      6720756E 
 1350      7369676E 
 1350      65642069 
 1351              	.LASF19:
 1352 0171 436C6F63 		.ascii	"Clock_1_GetModeRegister\000"
 1352      6B5F315F 
 1352      4765744D 
 1352      6F646552 
 1352      65676973 
 1353              	.LASF15:
 1354 0189 436C6F63 		.ascii	"Clock_1_SetModeRegister\000"
 1354      6B5F315F 
 1354      5365744D 
 1354      6F646552 
 1354      65676973 
 1355              	.LASF30:
 1356 01a1 474E5520 		.ascii	"GNU C 4.4.1\000"
 1356      4320342E 
 1356      342E3100 
 1357              	.LASF9:
 1358 01ad 63686172 		.ascii	"char\000"
 1358      00
 1359              	.LASF25:
 1360 01b2 63757272 		.ascii	"currDiv\000"
 1360      44697600 
 1361              	.LASF2:
 1362 01ba 73686F72 		.ascii	"short int\000"
 1362      7420696E 
 1362      7400
 1363              	.LASF10:
 1364 01c4 75696E74 		.ascii	"uint8\000"
 1364      3800
 1365              	.LASF21:
 1366 01ca 436C6F63 		.ascii	"Clock_1_SetSourceRegister\000"
 1366      6B5F315F 
 1366      53657453 
 1366      6F757263 
 1366      65526567 
 1367              	.LASF4:
 1368 01e4 6C6F6E67 		.ascii	"long int\000"
 1368      20696E74 
 1368      00
 1369              	.LASF22:
 1370 01ed 636C6B53 		.ascii	"clkSource\000"
 1370      6F757263 
 1370      6500
 1371              	.LASF0:
ARM GAS  C:\Users\SUZUKI~1\AppData\Local\Temp\ccTDZrzf.s 			page 35


 1372 01f7 7369676E 		.ascii	"signed char\000"
 1372      65642063 
 1372      68617200 
 1373              	.LASF14:
 1374 0203 436C6F63 		.ascii	"Clock_1_StandbyPower\000"
 1374      6B5F315F 
 1374      5374616E 
 1374      64627950 
 1374      6F776572 
 1375              	.LASF20:
 1376 0218 436C6F63 		.ascii	"Clock_1_GetSourceRegister\000"
 1376      6B5F315F 
 1376      47657453 
 1376      6F757263 
 1376      65526567 
 1377              		.ident	"GCC: (Sourcery G++ Lite 2010q1-188) 4.4.1"
