ARM GAS  C:\Users\SUZUKI~1\AppData\Local\Temp\cc1MPOMd.s 			page 1


   1              		.syntax unified
   2              		.cpu cortex-m3
   3              		.fpu softvfp
   4              		.eabi_attribute 20, 1
   5              		.eabi_attribute 21, 1
   6              		.eabi_attribute 23, 3
   7              		.eabi_attribute 24, 1
   8              		.eabi_attribute 25, 1
   9              		.eabi_attribute 26, 1
  10              		.eabi_attribute 30, 4
  11              		.eabi_attribute 18, 4
  12              		.thumb
  13              		.file	"Cm3Start.c"
  14              		.section	.debug_abbrev,"",%progbits
  15              	.Ldebug_abbrev0:
  16              		.section	.debug_info,"",%progbits
  17              	.Ldebug_info0:
  18              		.section	.debug_line,"",%progbits
  19              	.Ldebug_line0:
  20 0000 CB000000 		.text
  20      02008500 
  20      00000201 
  20      FB0E0D00 
  20      01010101 
  21              	.Ltext0:
  22              		.cfi_sections	.debug_frame
  23              		.section	.text.IntDefaultHandler,"ax",%progbits
  24              		.align	1
  25              		.global	IntDefaultHandler
  26              		.thumb
  27              		.thumb_func
  28              		.type	IntDefaultHandler, %function
  29              	IntDefaultHandler:
  30              	.LFB0:
  31              		.file 1 ".\\Generated_Source\\PSoC5\\Cm3Start.c"
   1:.\Generated_Source\PSoC5/Cm3Start.c **** /*******************************************************************************
   2:.\Generated_Source\PSoC5/Cm3Start.c **** * File Name: Cm3Start.c
   3:.\Generated_Source\PSoC5/Cm3Start.c **** * Version 3.10
   4:.\Generated_Source\PSoC5/Cm3Start.c **** *
   5:.\Generated_Source\PSoC5/Cm3Start.c **** *  Description:
   6:.\Generated_Source\PSoC5/Cm3Start.c **** *  Startup code for the ARM CM3.
   7:.\Generated_Source\PSoC5/Cm3Start.c **** *
   8:.\Generated_Source\PSoC5/Cm3Start.c **** ********************************************************************************
   9:.\Generated_Source\PSoC5/Cm3Start.c **** * Copyright 2008-2012, Cypress Semiconductor Corporation. All rights reserved.
  10:.\Generated_Source\PSoC5/Cm3Start.c **** * You may use this file only in accordance with the license, terms, conditions,
  11:.\Generated_Source\PSoC5/Cm3Start.c **** * disclaimers, and limitations in the end user license agreement accompanying
  12:.\Generated_Source\PSoC5/Cm3Start.c **** * the software package with which this file was provided.
  13:.\Generated_Source\PSoC5/Cm3Start.c **** *******************************************************************************/
  14:.\Generated_Source\PSoC5/Cm3Start.c **** 
  15:.\Generated_Source\PSoC5/Cm3Start.c **** #include "cydevice_trm.h"
  16:.\Generated_Source\PSoC5/Cm3Start.c **** #include "cytypes.h"
  17:.\Generated_Source\PSoC5/Cm3Start.c **** #include "cyfitter_cfg.h"
  18:.\Generated_Source\PSoC5/Cm3Start.c **** #include "CyLib.h"
  19:.\Generated_Source\PSoC5/Cm3Start.c **** #include "CyDmac.h"
  20:.\Generated_Source\PSoC5/Cm3Start.c **** #include "cyfitter.h"
  21:.\Generated_Source\PSoC5/Cm3Start.c **** 
  22:.\Generated_Source\PSoC5/Cm3Start.c **** 
ARM GAS  C:\Users\SUZUKI~1\AppData\Local\Temp\cc1MPOMd.s 			page 2


  23:.\Generated_Source\PSoC5/Cm3Start.c **** #define NUM_INTERRUPTS              32
  24:.\Generated_Source\PSoC5/Cm3Start.c **** #define NUM_VECTORS                 (CYINT_IRQ_BASE+NUM_INTERRUPTS)
  25:.\Generated_Source\PSoC5/Cm3Start.c **** #define NVIC_APINT                  ((reg32 *) CYREG_NVIC_APPLN_INTR)
  26:.\Generated_Source\PSoC5/Cm3Start.c **** #define NVIC_CFG_CTRL               ((reg32 *) CYREG_NVIC_CFG_CONTROL)
  27:.\Generated_Source\PSoC5/Cm3Start.c **** #define NVIC_APINT_PRIGROUP_3_5     0x00000400  /* Priority group 3.5 split */
  28:.\Generated_Source\PSoC5/Cm3Start.c **** #define NVIC_APINT_VECTKEY          0x05FA0000  /* This key is required in order to write the NVIC_
  29:.\Generated_Source\PSoC5/Cm3Start.c **** #define NVIC_CFG_STACKALIGN         0x00000200  /* This specifies that the exception stack must be 
  30:.\Generated_Source\PSoC5/Cm3Start.c **** 
  31:.\Generated_Source\PSoC5/Cm3Start.c **** /* Extern functions */
  32:.\Generated_Source\PSoC5/Cm3Start.c **** extern void CyBtldr_CheckLaunch(void);
  33:.\Generated_Source\PSoC5/Cm3Start.c **** 
  34:.\Generated_Source\PSoC5/Cm3Start.c **** /* Function prototypes */
  35:.\Generated_Source\PSoC5/Cm3Start.c **** void initialize_psoc(void);
  36:.\Generated_Source\PSoC5/Cm3Start.c **** 
  37:.\Generated_Source\PSoC5/Cm3Start.c **** 
  38:.\Generated_Source\PSoC5/Cm3Start.c **** /*******************************************************************************
  39:.\Generated_Source\PSoC5/Cm3Start.c **** * Default Ram Interrupt Vector table storage area. Must be 256-byte aligned.
  40:.\Generated_Source\PSoC5/Cm3Start.c **** *******************************************************************************/
  41:.\Generated_Source\PSoC5/Cm3Start.c **** __attribute__ ((section(".ramvectors")))
  42:.\Generated_Source\PSoC5/Cm3Start.c **** #if defined(__ARMCC_VERSION)
  43:.\Generated_Source\PSoC5/Cm3Start.c **** __align(256)
  44:.\Generated_Source\PSoC5/Cm3Start.c **** #elif defined (__GNUC__)
  45:.\Generated_Source\PSoC5/Cm3Start.c **** __attribute__ ((aligned(256)))
  46:.\Generated_Source\PSoC5/Cm3Start.c **** #endif
  47:.\Generated_Source\PSoC5/Cm3Start.c **** cyisraddress CyRamVectors[NUM_VECTORS];
  48:.\Generated_Source\PSoC5/Cm3Start.c **** 
  49:.\Generated_Source\PSoC5/Cm3Start.c **** 
  50:.\Generated_Source\PSoC5/Cm3Start.c **** /*******************************************************************************
  51:.\Generated_Source\PSoC5/Cm3Start.c **** * Function Name: IntDefaultHandler
  52:.\Generated_Source\PSoC5/Cm3Start.c **** ********************************************************************************
  53:.\Generated_Source\PSoC5/Cm3Start.c **** * Summary:
  54:.\Generated_Source\PSoC5/Cm3Start.c **** *  This function is called for all interrupts, other than reset, that get
  55:.\Generated_Source\PSoC5/Cm3Start.c **** *  called before the system is setup.
  56:.\Generated_Source\PSoC5/Cm3Start.c **** *
  57:.\Generated_Source\PSoC5/Cm3Start.c **** * Parameters:
  58:.\Generated_Source\PSoC5/Cm3Start.c **** *  None
  59:.\Generated_Source\PSoC5/Cm3Start.c **** *
  60:.\Generated_Source\PSoC5/Cm3Start.c **** * Return:
  61:.\Generated_Source\PSoC5/Cm3Start.c **** *  None
  62:.\Generated_Source\PSoC5/Cm3Start.c **** *
  63:.\Generated_Source\PSoC5/Cm3Start.c **** * Theory:
  64:.\Generated_Source\PSoC5/Cm3Start.c **** *  Any value other than zero is acceptable.
  65:.\Generated_Source\PSoC5/Cm3Start.c **** *
  66:.\Generated_Source\PSoC5/Cm3Start.c **** *******************************************************************************/
  67:.\Generated_Source\PSoC5/Cm3Start.c **** CY_ISR(IntDefaultHandler)
  68:.\Generated_Source\PSoC5/Cm3Start.c **** {
  32              		.loc 1 68 0
  33              		.cfi_startproc
  34              		@ args = 0, pretend = 0, frame = 0
  35              		@ frame_needed = 0, uses_anonymous_args = 0
  36              		@ link register save eliminated.
  37              	.L2:
  38 0000 FEE7     		b	.L2
  39              		.cfi_endproc
  40              	.LFE0:
  41              		.size	IntDefaultHandler, .-IntDefaultHandler
  42              		.section	.text.Reset,"ax",%progbits
ARM GAS  C:\Users\SUZUKI~1\AppData\Local\Temp\cc1MPOMd.s 			page 3


  43              		.align	1
  44              		.global	Reset
  45              		.thumb
  46              		.thumb_func
  47              		.type	Reset, %function
  48              	Reset:
  49              	.LFB1:
  69:.\Generated_Source\PSoC5/Cm3Start.c ****     /***************************************************************************
  70:.\Generated_Source\PSoC5/Cm3Start.c ****     * We should never get here. If we do, a serious problem occured, so go into
  71:.\Generated_Source\PSoC5/Cm3Start.c ****     * an infinite loop.
  72:.\Generated_Source\PSoC5/Cm3Start.c ****     ***************************************************************************/
  73:.\Generated_Source\PSoC5/Cm3Start.c ****     while(1);
  74:.\Generated_Source\PSoC5/Cm3Start.c **** }
  75:.\Generated_Source\PSoC5/Cm3Start.c **** 
  76:.\Generated_Source\PSoC5/Cm3Start.c **** #if defined(__ARMCC_VERSION)
  77:.\Generated_Source\PSoC5/Cm3Start.c **** 
  78:.\Generated_Source\PSoC5/Cm3Start.c **** /* Local function for the device reset. */
  79:.\Generated_Source\PSoC5/Cm3Start.c **** extern void Reset(void);
  80:.\Generated_Source\PSoC5/Cm3Start.c **** 
  81:.\Generated_Source\PSoC5/Cm3Start.c **** /* Application entry point. */
  82:.\Generated_Source\PSoC5/Cm3Start.c **** extern void $Super$$main(void);
  83:.\Generated_Source\PSoC5/Cm3Start.c **** 
  84:.\Generated_Source\PSoC5/Cm3Start.c **** /* Linker-generated Stack Base addresses, Two Region and One Region */
  85:.\Generated_Source\PSoC5/Cm3Start.c **** extern unsigned long Image$$ARM_LIB_STACK$$ZI$$Limit;
  86:.\Generated_Source\PSoC5/Cm3Start.c **** 
  87:.\Generated_Source\PSoC5/Cm3Start.c **** /* RealView C Library initialization. */
  88:.\Generated_Source\PSoC5/Cm3Start.c **** extern int __main(void);
  89:.\Generated_Source\PSoC5/Cm3Start.c **** 
  90:.\Generated_Source\PSoC5/Cm3Start.c **** /*******************************************************************************
  91:.\Generated_Source\PSoC5/Cm3Start.c **** *
  92:.\Generated_Source\PSoC5/Cm3Start.c **** * Default Rom Interrupt Vector table.
  93:.\Generated_Source\PSoC5/Cm3Start.c **** *
  94:.\Generated_Source\PSoC5/Cm3Start.c **** *******************************************************************************/
  95:.\Generated_Source\PSoC5/Cm3Start.c **** #pragma diag_suppress 1296
  96:.\Generated_Source\PSoC5/Cm3Start.c **** __attribute__ ((section(".romvectors")))
  97:.\Generated_Source\PSoC5/Cm3Start.c **** const cyisraddress RomVectors[NUM_VECTORS] =
  98:.\Generated_Source\PSoC5/Cm3Start.c **** {
  99:.\Generated_Source\PSoC5/Cm3Start.c ****     (cyisraddress)(uint32)&Image$$ARM_LIB_STACK$$ZI$$Limit,             /* The initial stack pointe
 100:.\Generated_Source\PSoC5/Cm3Start.c ****     (cyisraddress)Reset,                                                /* The reset handler       
 101:.\Generated_Source\PSoC5/Cm3Start.c ****     IntDefaultHandler,                                                  /* The NMI handler         
 102:.\Generated_Source\PSoC5/Cm3Start.c ****     IntDefaultHandler,                                                  /* The hard fault handler  
 103:.\Generated_Source\PSoC5/Cm3Start.c ****     IntDefaultHandler,                                                  /* The MPU fault handler   
 104:.\Generated_Source\PSoC5/Cm3Start.c ****     IntDefaultHandler,                                                  /* The bus fault handler   
 105:.\Generated_Source\PSoC5/Cm3Start.c ****     IntDefaultHandler,                                                  /* The usage fault handler 
 106:.\Generated_Source\PSoC5/Cm3Start.c ****     IntDefaultHandler,                                                  /* Reserved                
 107:.\Generated_Source\PSoC5/Cm3Start.c ****     IntDefaultHandler,                                                  /* Reserved                
 108:.\Generated_Source\PSoC5/Cm3Start.c ****     IntDefaultHandler,                                                  /* Reserved                
 109:.\Generated_Source\PSoC5/Cm3Start.c ****     IntDefaultHandler,                                                  /* Reserved                
 110:.\Generated_Source\PSoC5/Cm3Start.c ****     IntDefaultHandler,                                                  /* SVCall handler          
 111:.\Generated_Source\PSoC5/Cm3Start.c ****     IntDefaultHandler,                                                  /* Debug monitor handler   
 112:.\Generated_Source\PSoC5/Cm3Start.c ****     IntDefaultHandler,                                                  /* Reserved                
 113:.\Generated_Source\PSoC5/Cm3Start.c ****     IntDefaultHandler,                                                  /* The PendSV handler      
 114:.\Generated_Source\PSoC5/Cm3Start.c ****     IntDefaultHandler,                                                  /* The SysTick handler     
 115:.\Generated_Source\PSoC5/Cm3Start.c ****     IntDefaultHandler,                                                  /* External Interrupt(0)   
 116:.\Generated_Source\PSoC5/Cm3Start.c ****     IntDefaultHandler,                                                  /* External Interrupt(1)   
 117:.\Generated_Source\PSoC5/Cm3Start.c ****     IntDefaultHandler,                                                  /* External Interrupt(2)   
 118:.\Generated_Source\PSoC5/Cm3Start.c ****     IntDefaultHandler,                                                  /* External Interrupt(3)   
ARM GAS  C:\Users\SUZUKI~1\AppData\Local\Temp\cc1MPOMd.s 			page 4


 119:.\Generated_Source\PSoC5/Cm3Start.c ****     IntDefaultHandler,                                                  /* External Interrupt(4)   
 120:.\Generated_Source\PSoC5/Cm3Start.c ****     IntDefaultHandler,                                                  /* External Interrupt(5)   
 121:.\Generated_Source\PSoC5/Cm3Start.c ****     IntDefaultHandler,                                                  /* External Interrupt(6)   
 122:.\Generated_Source\PSoC5/Cm3Start.c ****     IntDefaultHandler,                                                  /* External Interrupt(7)   
 123:.\Generated_Source\PSoC5/Cm3Start.c ****     IntDefaultHandler,                                                  /* External Interrupt(8)   
 124:.\Generated_Source\PSoC5/Cm3Start.c ****     IntDefaultHandler,                                                  /* External Interrupt(9)   
 125:.\Generated_Source\PSoC5/Cm3Start.c ****     IntDefaultHandler,                                                  /* External Interrupt(A)   
 126:.\Generated_Source\PSoC5/Cm3Start.c ****     IntDefaultHandler,                                                  /* External Interrupt(B)   
 127:.\Generated_Source\PSoC5/Cm3Start.c ****     IntDefaultHandler,                                                  /* External Interrupt(C)   
 128:.\Generated_Source\PSoC5/Cm3Start.c ****     IntDefaultHandler,                                                  /* External Interrupt(D)   
 129:.\Generated_Source\PSoC5/Cm3Start.c ****     IntDefaultHandler,                                                  /* External Interrupt(E)   
 130:.\Generated_Source\PSoC5/Cm3Start.c ****     IntDefaultHandler,                                                  /* External Interrupt(F)   
 131:.\Generated_Source\PSoC5/Cm3Start.c ****     IntDefaultHandler,                                                  /* External Interrupt(10)  
 132:.\Generated_Source\PSoC5/Cm3Start.c ****     IntDefaultHandler,                                                  /* External Interrupt(11)  
 133:.\Generated_Source\PSoC5/Cm3Start.c ****     IntDefaultHandler,                                                  /* External Interrupt(12)  
 134:.\Generated_Source\PSoC5/Cm3Start.c ****     IntDefaultHandler,                                                  /* External Interrupt(13)  
 135:.\Generated_Source\PSoC5/Cm3Start.c ****     IntDefaultHandler,                                                  /* External Interrupt(14)  
 136:.\Generated_Source\PSoC5/Cm3Start.c ****     IntDefaultHandler,                                                  /* External Interrupt(15)  
 137:.\Generated_Source\PSoC5/Cm3Start.c ****     IntDefaultHandler,                                                  /* External Interrupt(16)  
 138:.\Generated_Source\PSoC5/Cm3Start.c ****     IntDefaultHandler,                                                  /* External Interrupt(17)  
 139:.\Generated_Source\PSoC5/Cm3Start.c ****     IntDefaultHandler,                                                  /* External Interrupt(18)  
 140:.\Generated_Source\PSoC5/Cm3Start.c ****     IntDefaultHandler,                                                  /* External Interrupt(19)  
 141:.\Generated_Source\PSoC5/Cm3Start.c ****     IntDefaultHandler,                                                  /* External Interrupt(1A)  
 142:.\Generated_Source\PSoC5/Cm3Start.c ****     IntDefaultHandler,                                                  /* External Interrupt(1B)  
 143:.\Generated_Source\PSoC5/Cm3Start.c ****     IntDefaultHandler,                                                  /* External Interrupt(1C)  
 144:.\Generated_Source\PSoC5/Cm3Start.c ****     IntDefaultHandler,                                                  /* External Interrupt(1D)  
 145:.\Generated_Source\PSoC5/Cm3Start.c ****     IntDefaultHandler,                                                  /* External Interrupt(1E)  
 146:.\Generated_Source\PSoC5/Cm3Start.c ****     IntDefaultHandler                                                   /* External Interrupt(1F)  
 147:.\Generated_Source\PSoC5/Cm3Start.c **** };
 148:.\Generated_Source\PSoC5/Cm3Start.c **** 
 149:.\Generated_Source\PSoC5/Cm3Start.c **** 
 150:.\Generated_Source\PSoC5/Cm3Start.c **** /*******************************************************************************
 151:.\Generated_Source\PSoC5/Cm3Start.c **** * Function Name: Reset
 152:.\Generated_Source\PSoC5/Cm3Start.c **** ********************************************************************************
 153:.\Generated_Source\PSoC5/Cm3Start.c **** * Summary:
 154:.\Generated_Source\PSoC5/Cm3Start.c **** *  This function handles the reset interrupt for the RVDS/MDK toolchains.
 155:.\Generated_Source\PSoC5/Cm3Start.c **** *  This is the first bit of code that is executed at startup.
 156:.\Generated_Source\PSoC5/Cm3Start.c **** *
 157:.\Generated_Source\PSoC5/Cm3Start.c **** * Parameters:
 158:.\Generated_Source\PSoC5/Cm3Start.c **** *  None
 159:.\Generated_Source\PSoC5/Cm3Start.c **** *
 160:.\Generated_Source\PSoC5/Cm3Start.c **** * Return:
 161:.\Generated_Source\PSoC5/Cm3Start.c **** *  None
 162:.\Generated_Source\PSoC5/Cm3Start.c **** *
 163:.\Generated_Source\PSoC5/Cm3Start.c **** *******************************************************************************/
 164:.\Generated_Source\PSoC5/Cm3Start.c **** __asm void Reset(void)
 165:.\Generated_Source\PSoC5/Cm3Start.c **** {
 166:.\Generated_Source\PSoC5/Cm3Start.c ****     PRESERVE8
 167:.\Generated_Source\PSoC5/Cm3Start.c ****     EXTERN __main
 168:.\Generated_Source\PSoC5/Cm3Start.c ****     EXTERN CyResetStatus
 169:.\Generated_Source\PSoC5/Cm3Start.c **** 
 170:.\Generated_Source\PSoC5/Cm3Start.c ****     #if(CYDEV_BOOTLOADER_ENABLE)
 171:.\Generated_Source\PSoC5/Cm3Start.c ****         EXTERN CyBtldr_CheckLaunch
 172:.\Generated_Source\PSoC5/Cm3Start.c ****     #endif  /* (CYDEV_BOOTLOADER_ENABLE) */
 173:.\Generated_Source\PSoC5/Cm3Start.c **** 
 174:.\Generated_Source\PSoC5/Cm3Start.c **** 
 175:.\Generated_Source\PSoC5/Cm3Start.c ****     #if(CYDEV_PROJ_TYPE != CYDEV_PROJ_TYPE_LOADABLE)
ARM GAS  C:\Users\SUZUKI~1\AppData\Local\Temp\cc1MPOMd.s 			page 5


 176:.\Generated_Source\PSoC5/Cm3Start.c ****         #if(CYDEV_DEBUGGING_ENABLE)
 177:.\Generated_Source\PSoC5/Cm3Start.c ****     ldr  r3, =0x400046e8 /* CYDEV_DEBUG_ENABLE_REGISTER */
 178:.\Generated_Source\PSoC5/Cm3Start.c ****             ldrb r4, [r3, #0]
 179:.\Generated_Source\PSoC5/Cm3Start.c ****             orr  r4, r4, #01
 180:.\Generated_Source\PSoC5/Cm3Start.c ****             strb r4, [r3, #0]
 181:.\Generated_Source\PSoC5/Cm3Start.c **** debugEnabled
 182:.\Generated_Source\PSoC5/Cm3Start.c ****         #endif    /* (CYDEV_DEBUGGING_ENABLE) */
 183:.\Generated_Source\PSoC5/Cm3Start.c **** 
 184:.\Generated_Source\PSoC5/Cm3Start.c ****     ldr  r3, =0x400046f8 /* CYREG_RESET_SR0 */
 185:.\Generated_Source\PSoC5/Cm3Start.c ****         ldrb r2, [r3, #0]
 186:.\Generated_Source\PSoC5/Cm3Start.c **** 
 187:.\Generated_Source\PSoC5/Cm3Start.c ****     #endif  /* (CYDEV_PROJ_TYPE != CYDEV_PROJ_TYPE_LOADABLE) */
 188:.\Generated_Source\PSoC5/Cm3Start.c **** 
 189:.\Generated_Source\PSoC5/Cm3Start.c ****     ldr  r3, =0x400076BC /* CYREG_PHUB_CFGMEM23_CFG1 */
 190:.\Generated_Source\PSoC5/Cm3Start.c ****     strb r2, [r3, #0]
 191:.\Generated_Source\PSoC5/Cm3Start.c **** 
 192:.\Generated_Source\PSoC5/Cm3Start.c ****     #if(CYDEV_BOOTLOADER_ENABLE)
 193:.\Generated_Source\PSoC5/Cm3Start.c ****         bl CyBtldr_CheckLaunch
 194:.\Generated_Source\PSoC5/Cm3Start.c ****     #endif /* (CYDEV_BOOTLOADER_ENABLE) */
 195:.\Generated_Source\PSoC5/Cm3Start.c **** 
 196:.\Generated_Source\PSoC5/Cm3Start.c ****     /* Let RealView setup the libraries. */
 197:.\Generated_Source\PSoC5/Cm3Start.c ****     bl __main
 198:.\Generated_Source\PSoC5/Cm3Start.c **** 
 199:.\Generated_Source\PSoC5/Cm3Start.c ****     ALIGN
 200:.\Generated_Source\PSoC5/Cm3Start.c **** }
 201:.\Generated_Source\PSoC5/Cm3Start.c **** 
 202:.\Generated_Source\PSoC5/Cm3Start.c **** 
 203:.\Generated_Source\PSoC5/Cm3Start.c **** /*******************************************************************************
 204:.\Generated_Source\PSoC5/Cm3Start.c **** * Function Name: $Sub$$main
 205:.\Generated_Source\PSoC5/Cm3Start.c **** ********************************************************************************
 206:.\Generated_Source\PSoC5/Cm3Start.c **** * Summary:
 207:.\Generated_Source\PSoC5/Cm3Start.c **** *  This function is called imediatly before the users main
 208:.\Generated_Source\PSoC5/Cm3Start.c **** *
 209:.\Generated_Source\PSoC5/Cm3Start.c **** * Parameters:
 210:.\Generated_Source\PSoC5/Cm3Start.c **** *  None
 211:.\Generated_Source\PSoC5/Cm3Start.c **** *
 212:.\Generated_Source\PSoC5/Cm3Start.c **** * Return:
 213:.\Generated_Source\PSoC5/Cm3Start.c **** *  None
 214:.\Generated_Source\PSoC5/Cm3Start.c **** *
 215:.\Generated_Source\PSoC5/Cm3Start.c **** *******************************************************************************/
 216:.\Generated_Source\PSoC5/Cm3Start.c **** void $Sub$$main(void)
 217:.\Generated_Source\PSoC5/Cm3Start.c **** {
 218:.\Generated_Source\PSoC5/Cm3Start.c ****     initialize_psoc();
 219:.\Generated_Source\PSoC5/Cm3Start.c **** 
 220:.\Generated_Source\PSoC5/Cm3Start.c ****     /* Call original main */
 221:.\Generated_Source\PSoC5/Cm3Start.c ****     $Super$$main();
 222:.\Generated_Source\PSoC5/Cm3Start.c **** 
 223:.\Generated_Source\PSoC5/Cm3Start.c ****     /* If main returns it is undefined what we should do. */
 224:.\Generated_Source\PSoC5/Cm3Start.c ****     while (1);
 225:.\Generated_Source\PSoC5/Cm3Start.c **** }
 226:.\Generated_Source\PSoC5/Cm3Start.c **** 
 227:.\Generated_Source\PSoC5/Cm3Start.c **** #elif defined(__GNUC__)
 228:.\Generated_Source\PSoC5/Cm3Start.c **** 
 229:.\Generated_Source\PSoC5/Cm3Start.c **** extern unsigned long __cs3_interrupt_vector;
 230:.\Generated_Source\PSoC5/Cm3Start.c **** extern void __cs3_start_c(void);
 231:.\Generated_Source\PSoC5/Cm3Start.c **** 
 232:.\Generated_Source\PSoC5/Cm3Start.c **** #define RomVectors (cyisraddress)(&__cs3_interrupt_vector)
ARM GAS  C:\Users\SUZUKI~1\AppData\Local\Temp\cc1MPOMd.s 			page 6


 233:.\Generated_Source\PSoC5/Cm3Start.c **** 
 234:.\Generated_Source\PSoC5/Cm3Start.c **** 
 235:.\Generated_Source\PSoC5/Cm3Start.c **** /*******************************************************************************
 236:.\Generated_Source\PSoC5/Cm3Start.c **** * Function Name: Reset
 237:.\Generated_Source\PSoC5/Cm3Start.c **** ********************************************************************************
 238:.\Generated_Source\PSoC5/Cm3Start.c **** * Summary:
 239:.\Generated_Source\PSoC5/Cm3Start.c **** *  This function handles the reset interrupt for the GCC toolchain.  This is the
 240:.\Generated_Source\PSoC5/Cm3Start.c **** *  first bit of code that is executed at startup.
 241:.\Generated_Source\PSoC5/Cm3Start.c **** *
 242:.\Generated_Source\PSoC5/Cm3Start.c **** * Parameters:
 243:.\Generated_Source\PSoC5/Cm3Start.c **** *  None
 244:.\Generated_Source\PSoC5/Cm3Start.c **** *
 245:.\Generated_Source\PSoC5/Cm3Start.c **** * Return:
 246:.\Generated_Source\PSoC5/Cm3Start.c **** *  None
 247:.\Generated_Source\PSoC5/Cm3Start.c **** *
 248:.\Generated_Source\PSoC5/Cm3Start.c **** *******************************************************************************/
 249:.\Generated_Source\PSoC5/Cm3Start.c **** __attribute__ ((naked))
 250:.\Generated_Source\PSoC5/Cm3Start.c **** void Reset(void)
 251:.\Generated_Source\PSoC5/Cm3Start.c **** {
  50              		.loc 1 251 0
  51              		.cfi_startproc
  52              		@ Naked Function: prologue and epilogue provided by programmer.
  53              		@ args = 0, pretend = 0, frame = 0
  54              		@ frame_needed = 0, uses_anonymous_args = 0
 252:.\Generated_Source\PSoC5/Cm3Start.c ****     __asm volatile(
  55              		.loc 1 252 0
  56              	@ 252 ".\Generated_Source\PSoC5\Cm3Start.c" 1
  57 0000 054B     		    ldr  r3, =#1073759976
  58 0002 1C78     	    ldrb r4, [r3, #0]
  59 0004 44F00104 	    orr  r4, r4, #01
  60 0008 1C70     	    strb r4, [r3, #0]
  61              	debugEnabled:
  62 000a 044B     	    ldr  r3, =#1073759992
  63 000c 1A78     	    ldrb r2, [r3, #0]
  64 000e D2B2     	    uxtb r2, r2
  65 0010 034B     	    ldr  r3, =#1073772220
  66 0012 1A70     	    strb r2, [r3, #0]
  67 0014 FFF7FEFF 	    bl __cs3_start_c
  68              	
  69              	@ 0 "" 2
 253:.\Generated_Source\PSoC5/Cm3Start.c **** #if(CYDEV_PROJ_TYPE != CYDEV_PROJ_TYPE_LOADABLE)
 254:.\Generated_Source\PSoC5/Cm3Start.c **** 
 255:.\Generated_Source\PSoC5/Cm3Start.c ****   #if(CYDEV_DEBUGGING_ENABLE)
 256:.\Generated_Source\PSoC5/Cm3Start.c ****     "    ldr  r3, =%0\n"
 257:.\Generated_Source\PSoC5/Cm3Start.c ****     "    ldrb r4, [r3, #0]\n"
 258:.\Generated_Source\PSoC5/Cm3Start.c ****     "    orr  r4, r4, #01\n"
 259:.\Generated_Source\PSoC5/Cm3Start.c ****     "    strb r4, [r3, #0]\n"
 260:.\Generated_Source\PSoC5/Cm3Start.c ****     "debugEnabled:\n"
 261:.\Generated_Source\PSoC5/Cm3Start.c ****   #endif    /* (CYDEV_DEBUGGING_ENABLE) */
 262:.\Generated_Source\PSoC5/Cm3Start.c **** 
 263:.\Generated_Source\PSoC5/Cm3Start.c ****     "    ldr  r3, =%1\n"
 264:.\Generated_Source\PSoC5/Cm3Start.c ****     "    ldrb r2, [r3, #0]\n"
 265:.\Generated_Source\PSoC5/Cm3Start.c ****     "    uxtb r2, r2\n"
 266:.\Generated_Source\PSoC5/Cm3Start.c **** #endif  /* (CYDEV_PROJ_TYPE != CYDEV_PROJ_TYPE_LOADABLE) */
 267:.\Generated_Source\PSoC5/Cm3Start.c **** 
 268:.\Generated_Source\PSoC5/Cm3Start.c ****     "    ldr  r3, =%2\n"
 269:.\Generated_Source\PSoC5/Cm3Start.c ****     "    strb r2, [r3, #0]\n"
ARM GAS  C:\Users\SUZUKI~1\AppData\Local\Temp\cc1MPOMd.s 			page 7


 270:.\Generated_Source\PSoC5/Cm3Start.c **** 
 271:.\Generated_Source\PSoC5/Cm3Start.c **** #if(CYDEV_BOOTLOADER_ENABLE)
 272:.\Generated_Source\PSoC5/Cm3Start.c ****     "    bl CyBtldr_CheckLaunch\n"
 273:.\Generated_Source\PSoC5/Cm3Start.c **** #endif /* (CYDEV_BOOTLOADER_ENABLE) */
 274:.\Generated_Source\PSoC5/Cm3Start.c **** 
 275:.\Generated_Source\PSoC5/Cm3Start.c ****     /*  Switch to C initialization phase */
 276:.\Generated_Source\PSoC5/Cm3Start.c ****     "    bl __cs3_start_c\n" : : "i" (CYDEV_DEBUG_ENABLE_REGISTER), "i" (CYREG_RESET_SR0), "i" (CYR
 277:.\Generated_Source\PSoC5/Cm3Start.c **** }
  70              		.loc 1 277 0
  71              		.thumb
  72              		.cfi_endproc
  73              	.LFE1:
  74              		.size	Reset, .-Reset
  75              		.section	.text.initialize_psoc,"ax",%progbits
  76              		.align	1
  77              		.global	initialize_psoc
  78              		.thumb
  79              		.thumb_func
  80              		.type	initialize_psoc, %function
  81              	initialize_psoc:
  82              	.LFB2:
 278:.\Generated_Source\PSoC5/Cm3Start.c **** 
 279:.\Generated_Source\PSoC5/Cm3Start.c **** #endif /* __GNUC__ */
 280:.\Generated_Source\PSoC5/Cm3Start.c **** 
 281:.\Generated_Source\PSoC5/Cm3Start.c **** /*******************************************************************************
 282:.\Generated_Source\PSoC5/Cm3Start.c **** * Function Name: initialize_psoc
 283:.\Generated_Source\PSoC5/Cm3Start.c **** ********************************************************************************
 284:.\Generated_Source\PSoC5/Cm3Start.c **** * Summary:
 285:.\Generated_Source\PSoC5/Cm3Start.c **** *  This function used to initialize the PSoC chip before calling main.
 286:.\Generated_Source\PSoC5/Cm3Start.c **** *
 287:.\Generated_Source\PSoC5/Cm3Start.c **** * Parameters:
 288:.\Generated_Source\PSoC5/Cm3Start.c **** *  None
 289:.\Generated_Source\PSoC5/Cm3Start.c **** *
 290:.\Generated_Source\PSoC5/Cm3Start.c **** * Return:
 291:.\Generated_Source\PSoC5/Cm3Start.c **** *  None
 292:.\Generated_Source\PSoC5/Cm3Start.c **** *
 293:.\Generated_Source\PSoC5/Cm3Start.c **** *******************************************************************************/
 294:.\Generated_Source\PSoC5/Cm3Start.c **** #if (defined(__GNUC__) && !defined(__ARMCC_VERSION))
 295:.\Generated_Source\PSoC5/Cm3Start.c **** __attribute__ ((constructor(101)))
 296:.\Generated_Source\PSoC5/Cm3Start.c **** #endif
 297:.\Generated_Source\PSoC5/Cm3Start.c **** 
 298:.\Generated_Source\PSoC5/Cm3Start.c **** void initialize_psoc(void)
 299:.\Generated_Source\PSoC5/Cm3Start.c **** {
  83              		.loc 1 299 0
  84              		.cfi_startproc
  85              		@ args = 0, pretend = 0, frame = 0
  86              		@ frame_needed = 0, uses_anonymous_args = 0
  87              		@ link register save eliminated.
 300:.\Generated_Source\PSoC5/Cm3Start.c ****     unsigned long index;
 301:.\Generated_Source\PSoC5/Cm3Start.c **** 
 302:.\Generated_Source\PSoC5/Cm3Start.c ****     /* Set Priority group 5. */
 303:.\Generated_Source\PSoC5/Cm3Start.c **** 
 304:.\Generated_Source\PSoC5/Cm3Start.c ****     /* Writes to NVIC_APINT register require the VECTKEY in the upper half */
 305:.\Generated_Source\PSoC5/Cm3Start.c ****     *NVIC_APINT = NVIC_APINT_VECTKEY | NVIC_APINT_PRIGROUP_3_5;
  88              		.loc 1 305 0
  89 0000 0B4A     		ldr	r2, .L10
  90 0002 0C4B     		ldr	r3, .L10+4
ARM GAS  C:\Users\SUZUKI~1\AppData\Local\Temp\cc1MPOMd.s 			page 8


  91 0004 1A60     		str	r2, [r3, #0]
 306:.\Generated_Source\PSoC5/Cm3Start.c ****     *NVIC_CFG_CTRL |= NVIC_CFG_STACKALIGN;
  92              		.loc 1 306 0
  93 0006 0833     		adds	r3, r3, #8
  94 0008 1A68     		ldr	r2, [r3, #0]
  95 000a 42F40072 		orr	r2, r2, #512
  96 000e 1A60     		str	r2, [r3, #0]
  97 0010 0023     		movs	r3, #0
  98              	.L7:
 307:.\Generated_Source\PSoC5/Cm3Start.c **** 
 308:.\Generated_Source\PSoC5/Cm3Start.c ****     /* Set Ram interrupt vectors to default functions. */
 309:.\Generated_Source\PSoC5/Cm3Start.c ****     for(index = 0; index < NUM_VECTORS; index++)
 310:.\Generated_Source\PSoC5/Cm3Start.c ****     {
 311:.\Generated_Source\PSoC5/Cm3Start.c ****         CyRamVectors[index] = RomVectors[index];
  99              		.loc 1 311 0
 100 0012 0949     		ldr	r1, .L10+8
 101 0014 094A     		ldr	r2, .L10+12
 102 0016 5958     		ldr	r1, [r3, r1]
 103 0018 D150     		str	r1, [r2, r3]
 104 001a 0433     		adds	r3, r3, #4
 105              		.loc 1 309 0
 106 001c C02B     		cmp	r3, #192
 107 001e F8D1     		bne	.L7
 312:.\Generated_Source\PSoC5/Cm3Start.c ****     }
 313:.\Generated_Source\PSoC5/Cm3Start.c **** 
 314:.\Generated_Source\PSoC5/Cm3Start.c ****     /* Was stored in CFGMEM to avoid being cleared while SRAM gets cleared */
 315:.\Generated_Source\PSoC5/Cm3Start.c ****     CyResetStatus = CY_GET_REG8(CYREG_PHUB_CFGMEM23_CFG1);
 108              		.loc 1 315 0
 109 0020 074B     		ldr	r3, .L10+16
 110 0022 1978     		ldrb	r1, [r3, #0]	@ zero_extendqisi2
 111 0024 074B     		ldr	r3, .L10+20
 112 0026 1970     		strb	r1, [r3, #0]
 316:.\Generated_Source\PSoC5/Cm3Start.c **** 
 317:.\Generated_Source\PSoC5/Cm3Start.c ****     /* Point NVIC at the RAM vector table. */
 318:.\Generated_Source\PSoC5/Cm3Start.c ****     *CYINT_VECT_TABLE = CyRamVectors;
 113              		.loc 1 318 0
 114 0028 074B     		ldr	r3, .L10+24
 115 002a 1A60     		str	r2, [r3, #0]
 319:.\Generated_Source\PSoC5/Cm3Start.c **** 
 320:.\Generated_Source\PSoC5/Cm3Start.c ****     /* Initialize the configuration registers. */
 321:.\Generated_Source\PSoC5/Cm3Start.c ****     cyfitter_cfg();
 322:.\Generated_Source\PSoC5/Cm3Start.c **** 
 323:.\Generated_Source\PSoC5/Cm3Start.c ****     #if(0u != DMA_CHANNELS_USED__MASK0)
 324:.\Generated_Source\PSoC5/Cm3Start.c **** 
 325:.\Generated_Source\PSoC5/Cm3Start.c ****         /* Setup DMA - only necessary if the design contains a DMA component. */
 326:.\Generated_Source\PSoC5/Cm3Start.c ****         CyDmacConfigure();
 327:.\Generated_Source\PSoC5/Cm3Start.c **** 
 328:.\Generated_Source\PSoC5/Cm3Start.c ****     #endif  /* (0u != DMA_CHANNELS_USED__MASK0) */
 329:.\Generated_Source\PSoC5/Cm3Start.c **** }
 116              		.loc 1 329 0
 117              		.loc 1 321 0
 118 002c FFF7FEBF 		b	cyfitter_cfg
 119              	.L11:
 120              		.align	2
 121              	.L10:
 122 0030 0004FA05 		.word	100271104
 123 0034 0CED00E0 		.word	-536810228
ARM GAS  C:\Users\SUZUKI~1\AppData\Local\Temp\cc1MPOMd.s 			page 9


 124 0038 00000000 		.word	__cs3_interrupt_vector
 125 003c 00000000 		.word	.LANCHOR0
 126 0040 BC760040 		.word	1073772220
 127 0044 00000000 		.word	CyResetStatus
 128 0048 08ED00E0 		.word	-536810232
 129              		.cfi_endproc
 130              	.LFE2:
 131              		.size	initialize_psoc, .-initialize_psoc
 132              		.section	.init_array,"aw",%init_array
 133              		.align	2
 134 0000 00000000 		.word	initialize_psoc(target1)
 135              		.global	CyRamVectors
 136              		.section	.ramvectors,"aw",%progbits
 137              		.align	8
 138              		.set	.LANCHOR0,. + 0
 139              		.type	CyRamVectors, %object
 140              		.size	CyRamVectors, 192
 141              	CyRamVectors:
 142 0000 00000000 		.space	192
 142      00000000 
 142      00000000 
 142      00000000 
 142      00000000 
 143 00c0 00000000 		.text
 143      00000000 
 143      00000000 
 143      00000000 
 143      00000000 
 144              	.Letext0:
 145              		.file 2 "./Generated_Source/PSoC5/cytypes.h"
 146              		.file 3 ".\\Generated_Source\\PSoC5\\/CyLib.h"
 147              		.section	.debug_info
 148 0000 1C010000 		.4byte	0x11c
 149 0004 0200     		.2byte	0x2
 150 0006 00000000 		.4byte	.Ldebug_abbrev0
 151 000a 04       		.byte	0x4
 152 000b 01       		.uleb128 0x1
 153 000c 81000000 		.4byte	.LASF17
 154 0010 01       		.byte	0x1
 155 0011 3C010000 		.4byte	.LASF18
 156 0015 A0000000 		.4byte	.LASF19
 157 0019 00000000 		.4byte	0x0
 158 001d 00000000 		.4byte	0x0
 159 0021 00000000 		.4byte	.Ldebug_ranges0+0x0
 160 0025 00000000 		.4byte	.Ldebug_line0
 161 0029 02       		.uleb128 0x2
 162 002a 01       		.byte	0x1
 163 002b 06       		.byte	0x6
 164 002c 1D010000 		.4byte	.LASF0
 165 0030 02       		.uleb128 0x2
 166 0031 01       		.byte	0x1
 167 0032 08       		.byte	0x8
 168 0033 8D000000 		.4byte	.LASF1
 169 0037 02       		.uleb128 0x2
 170 0038 02       		.byte	0x2
 171 0039 05       		.byte	0x5
 172 003a EA000000 		.4byte	.LASF2
ARM GAS  C:\Users\SUZUKI~1\AppData\Local\Temp\cc1MPOMd.s 			page 10


 173 003e 02       		.uleb128 0x2
 174 003f 02       		.byte	0x2
 175 0040 07       		.byte	0x7
 176 0041 0A010000 		.4byte	.LASF3
 177 0045 02       		.uleb128 0x2
 178 0046 04       		.byte	0x4
 179 0047 05       		.byte	0x5
 180 0048 D4000000 		.4byte	.LASF4
 181 004c 02       		.uleb128 0x2
 182 004d 04       		.byte	0x4
 183 004e 07       		.byte	0x7
 184 004f 58000000 		.4byte	.LASF5
 185 0053 02       		.uleb128 0x2
 186 0054 08       		.byte	0x8
 187 0055 05       		.byte	0x5
 188 0056 00000000 		.4byte	.LASF6
 189 005a 02       		.uleb128 0x2
 190 005b 08       		.byte	0x8
 191 005c 07       		.byte	0x7
 192 005d 6A000000 		.4byte	.LASF7
 193 0061 03       		.uleb128 0x3
 194 0062 04       		.byte	0x4
 195 0063 05       		.byte	0x5
 196 0064 696E7400 		.ascii	"int\000"
 197 0068 02       		.uleb128 0x2
 198 0069 04       		.byte	0x4
 199 006a 07       		.byte	0x7
 200 006b 0E000000 		.4byte	.LASF8
 201 006f 02       		.uleb128 0x2
 202 0070 01       		.byte	0x1
 203 0071 08       		.byte	0x8
 204 0072 9B000000 		.4byte	.LASF9
 205 0076 04       		.uleb128 0x4
 206 0077 52000000 		.4byte	.LASF10
 207 007b 02       		.byte	0x2
 208 007c 60       		.byte	0x60
 209 007d 30000000 		.4byte	0x30
 210 0081 05       		.uleb128 0x5
 211 0082 DD000000 		.4byte	.LASF11
 212 0086 02       		.byte	0x2
 213 0087 2B01     		.2byte	0x12b
 214 0089 8D000000 		.4byte	0x8d
 215 008d 06       		.uleb128 0x6
 216 008e 04       		.byte	0x4
 217 008f 93000000 		.4byte	0x93
 218 0093 07       		.uleb128 0x7
 219 0094 01       		.byte	0x1
 220 0095 08       		.uleb128 0x8
 221 0096 04       		.byte	0x4
 222 0097 07       		.byte	0x7
 223 0098 09       		.uleb128 0x9
 224 0099 01       		.byte	0x1
 225 009a 1B000000 		.4byte	.LASF12
 226 009e 01       		.byte	0x1
 227 009f 43       		.byte	0x43
 228 00a0 01       		.byte	0x1
 229 00a1 00000000 		.4byte	.LFB0
ARM GAS  C:\Users\SUZUKI~1\AppData\Local\Temp\cc1MPOMd.s 			page 11


 230 00a5 02000000 		.4byte	.LFE0
 231 00a9 01       		.byte	0x1
 232 00aa 5D       		.byte	0x5d
 233 00ab 09       		.uleb128 0x9
 234 00ac 01       		.byte	0x1
 235 00ad 36010000 		.4byte	.LASF13
 236 00b1 01       		.byte	0x1
 237 00b2 FA       		.byte	0xfa
 238 00b3 01       		.byte	0x1
 239 00b4 00000000 		.4byte	.LFB1
 240 00b8 18000000 		.4byte	.LFE1
 241 00bc 01       		.byte	0x1
 242 00bd 5D       		.byte	0x5d
 243 00be 0A       		.uleb128 0xa
 244 00bf 01       		.byte	0x1
 245 00c0 FA000000 		.4byte	.LASF20
 246 00c4 01       		.byte	0x1
 247 00c5 2A01     		.2byte	0x12a
 248 00c7 01       		.byte	0x1
 249 00c8 00000000 		.4byte	.LFB2
 250 00cc 4C000000 		.4byte	.LFE2
 251 00d0 01       		.byte	0x1
 252 00d1 5D       		.byte	0x5d
 253 00d2 E3000000 		.4byte	0xe3
 254 00d6 0B       		.uleb128 0xb
 255 00d7 F4000000 		.4byte	.LASF21
 256 00db 01       		.byte	0x1
 257 00dc 2C01     		.2byte	0x12c
 258 00de 4C000000 		.4byte	0x4c
 259 00e2 00       		.byte	0x0
 260 00e3 0C       		.uleb128 0xc
 261 00e4 44000000 		.4byte	.LASF14
 262 00e8 03       		.byte	0x3
 263 00e9 26       		.byte	0x26
 264 00ea 76000000 		.4byte	0x76
 265 00ee 01       		.byte	0x1
 266 00ef 01       		.byte	0x1
 267 00f0 0D       		.uleb128 0xd
 268 00f1 81000000 		.4byte	0x81
 269 00f5 00010000 		.4byte	0x100
 270 00f9 0E       		.uleb128 0xe
 271 00fa 95000000 		.4byte	0x95
 272 00fe 2F       		.byte	0x2f
 273 00ff 00       		.byte	0x0
 274 0100 0F       		.uleb128 0xf
 275 0101 29010000 		.4byte	.LASF15
 276 0105 01       		.byte	0x1
 277 0106 2F       		.byte	0x2f
 278 0107 F0000000 		.4byte	0xf0
 279 010b 01       		.byte	0x1
 280 010c 05       		.byte	0x5
 281 010d 03       		.byte	0x3
 282 010e 00000000 		.4byte	CyRamVectors
 283 0112 0C       		.uleb128 0xc
 284 0113 2D000000 		.4byte	.LASF16
 285 0117 01       		.byte	0x1
 286 0118 E5       		.byte	0xe5
ARM GAS  C:\Users\SUZUKI~1\AppData\Local\Temp\cc1MPOMd.s 			page 12


 287 0119 4C000000 		.4byte	0x4c
 288 011d 01       		.byte	0x1
 289 011e 01       		.byte	0x1
 290 011f 00       		.byte	0x0
 291              		.section	.debug_abbrev
 292 0000 01       		.uleb128 0x1
 293 0001 11       		.uleb128 0x11
 294 0002 01       		.byte	0x1
 295 0003 25       		.uleb128 0x25
 296 0004 0E       		.uleb128 0xe
 297 0005 13       		.uleb128 0x13
 298 0006 0B       		.uleb128 0xb
 299 0007 03       		.uleb128 0x3
 300 0008 0E       		.uleb128 0xe
 301 0009 1B       		.uleb128 0x1b
 302 000a 0E       		.uleb128 0xe
 303 000b 11       		.uleb128 0x11
 304 000c 01       		.uleb128 0x1
 305 000d 52       		.uleb128 0x52
 306 000e 01       		.uleb128 0x1
 307 000f 55       		.uleb128 0x55
 308 0010 06       		.uleb128 0x6
 309 0011 10       		.uleb128 0x10
 310 0012 06       		.uleb128 0x6
 311 0013 00       		.byte	0x0
 312 0014 00       		.byte	0x0
 313 0015 02       		.uleb128 0x2
 314 0016 24       		.uleb128 0x24
 315 0017 00       		.byte	0x0
 316 0018 0B       		.uleb128 0xb
 317 0019 0B       		.uleb128 0xb
 318 001a 3E       		.uleb128 0x3e
 319 001b 0B       		.uleb128 0xb
 320 001c 03       		.uleb128 0x3
 321 001d 0E       		.uleb128 0xe
 322 001e 00       		.byte	0x0
 323 001f 00       		.byte	0x0
 324 0020 03       		.uleb128 0x3
 325 0021 24       		.uleb128 0x24
 326 0022 00       		.byte	0x0
 327 0023 0B       		.uleb128 0xb
 328 0024 0B       		.uleb128 0xb
 329 0025 3E       		.uleb128 0x3e
 330 0026 0B       		.uleb128 0xb
 331 0027 03       		.uleb128 0x3
 332 0028 08       		.uleb128 0x8
 333 0029 00       		.byte	0x0
 334 002a 00       		.byte	0x0
 335 002b 04       		.uleb128 0x4
 336 002c 16       		.uleb128 0x16
 337 002d 00       		.byte	0x0
 338 002e 03       		.uleb128 0x3
 339 002f 0E       		.uleb128 0xe
 340 0030 3A       		.uleb128 0x3a
 341 0031 0B       		.uleb128 0xb
 342 0032 3B       		.uleb128 0x3b
 343 0033 0B       		.uleb128 0xb
ARM GAS  C:\Users\SUZUKI~1\AppData\Local\Temp\cc1MPOMd.s 			page 13


 344 0034 49       		.uleb128 0x49
 345 0035 13       		.uleb128 0x13
 346 0036 00       		.byte	0x0
 347 0037 00       		.byte	0x0
 348 0038 05       		.uleb128 0x5
 349 0039 16       		.uleb128 0x16
 350 003a 00       		.byte	0x0
 351 003b 03       		.uleb128 0x3
 352 003c 0E       		.uleb128 0xe
 353 003d 3A       		.uleb128 0x3a
 354 003e 0B       		.uleb128 0xb
 355 003f 3B       		.uleb128 0x3b
 356 0040 05       		.uleb128 0x5
 357 0041 49       		.uleb128 0x49
 358 0042 13       		.uleb128 0x13
 359 0043 00       		.byte	0x0
 360 0044 00       		.byte	0x0
 361 0045 06       		.uleb128 0x6
 362 0046 0F       		.uleb128 0xf
 363 0047 00       		.byte	0x0
 364 0048 0B       		.uleb128 0xb
 365 0049 0B       		.uleb128 0xb
 366 004a 49       		.uleb128 0x49
 367 004b 13       		.uleb128 0x13
 368 004c 00       		.byte	0x0
 369 004d 00       		.byte	0x0
 370 004e 07       		.uleb128 0x7
 371 004f 15       		.uleb128 0x15
 372 0050 00       		.byte	0x0
 373 0051 27       		.uleb128 0x27
 374 0052 0C       		.uleb128 0xc
 375 0053 00       		.byte	0x0
 376 0054 00       		.byte	0x0
 377 0055 08       		.uleb128 0x8
 378 0056 24       		.uleb128 0x24
 379 0057 00       		.byte	0x0
 380 0058 0B       		.uleb128 0xb
 381 0059 0B       		.uleb128 0xb
 382 005a 3E       		.uleb128 0x3e
 383 005b 0B       		.uleb128 0xb
 384 005c 00       		.byte	0x0
 385 005d 00       		.byte	0x0
 386 005e 09       		.uleb128 0x9
 387 005f 2E       		.uleb128 0x2e
 388 0060 00       		.byte	0x0
 389 0061 3F       		.uleb128 0x3f
 390 0062 0C       		.uleb128 0xc
 391 0063 03       		.uleb128 0x3
 392 0064 0E       		.uleb128 0xe
 393 0065 3A       		.uleb128 0x3a
 394 0066 0B       		.uleb128 0xb
 395 0067 3B       		.uleb128 0x3b
 396 0068 0B       		.uleb128 0xb
 397 0069 27       		.uleb128 0x27
 398 006a 0C       		.uleb128 0xc
 399 006b 11       		.uleb128 0x11
 400 006c 01       		.uleb128 0x1
ARM GAS  C:\Users\SUZUKI~1\AppData\Local\Temp\cc1MPOMd.s 			page 14


 401 006d 12       		.uleb128 0x12
 402 006e 01       		.uleb128 0x1
 403 006f 40       		.uleb128 0x40
 404 0070 0A       		.uleb128 0xa
 405 0071 00       		.byte	0x0
 406 0072 00       		.byte	0x0
 407 0073 0A       		.uleb128 0xa
 408 0074 2E       		.uleb128 0x2e
 409 0075 01       		.byte	0x1
 410 0076 3F       		.uleb128 0x3f
 411 0077 0C       		.uleb128 0xc
 412 0078 03       		.uleb128 0x3
 413 0079 0E       		.uleb128 0xe
 414 007a 3A       		.uleb128 0x3a
 415 007b 0B       		.uleb128 0xb
 416 007c 3B       		.uleb128 0x3b
 417 007d 05       		.uleb128 0x5
 418 007e 27       		.uleb128 0x27
 419 007f 0C       		.uleb128 0xc
 420 0080 11       		.uleb128 0x11
 421 0081 01       		.uleb128 0x1
 422 0082 12       		.uleb128 0x12
 423 0083 01       		.uleb128 0x1
 424 0084 40       		.uleb128 0x40
 425 0085 0A       		.uleb128 0xa
 426 0086 01       		.uleb128 0x1
 427 0087 13       		.uleb128 0x13
 428 0088 00       		.byte	0x0
 429 0089 00       		.byte	0x0
 430 008a 0B       		.uleb128 0xb
 431 008b 34       		.uleb128 0x34
 432 008c 00       		.byte	0x0
 433 008d 03       		.uleb128 0x3
 434 008e 0E       		.uleb128 0xe
 435 008f 3A       		.uleb128 0x3a
 436 0090 0B       		.uleb128 0xb
 437 0091 3B       		.uleb128 0x3b
 438 0092 05       		.uleb128 0x5
 439 0093 49       		.uleb128 0x49
 440 0094 13       		.uleb128 0x13
 441 0095 00       		.byte	0x0
 442 0096 00       		.byte	0x0
 443 0097 0C       		.uleb128 0xc
 444 0098 34       		.uleb128 0x34
 445 0099 00       		.byte	0x0
 446 009a 03       		.uleb128 0x3
 447 009b 0E       		.uleb128 0xe
 448 009c 3A       		.uleb128 0x3a
 449 009d 0B       		.uleb128 0xb
 450 009e 3B       		.uleb128 0x3b
 451 009f 0B       		.uleb128 0xb
 452 00a0 49       		.uleb128 0x49
 453 00a1 13       		.uleb128 0x13
 454 00a2 3F       		.uleb128 0x3f
 455 00a3 0C       		.uleb128 0xc
 456 00a4 3C       		.uleb128 0x3c
 457 00a5 0C       		.uleb128 0xc
ARM GAS  C:\Users\SUZUKI~1\AppData\Local\Temp\cc1MPOMd.s 			page 15


 458 00a6 00       		.byte	0x0
 459 00a7 00       		.byte	0x0
 460 00a8 0D       		.uleb128 0xd
 461 00a9 01       		.uleb128 0x1
 462 00aa 01       		.byte	0x1
 463 00ab 49       		.uleb128 0x49
 464 00ac 13       		.uleb128 0x13
 465 00ad 01       		.uleb128 0x1
 466 00ae 13       		.uleb128 0x13
 467 00af 00       		.byte	0x0
 468 00b0 00       		.byte	0x0
 469 00b1 0E       		.uleb128 0xe
 470 00b2 21       		.uleb128 0x21
 471 00b3 00       		.byte	0x0
 472 00b4 49       		.uleb128 0x49
 473 00b5 13       		.uleb128 0x13
 474 00b6 2F       		.uleb128 0x2f
 475 00b7 0B       		.uleb128 0xb
 476 00b8 00       		.byte	0x0
 477 00b9 00       		.byte	0x0
 478 00ba 0F       		.uleb128 0xf
 479 00bb 34       		.uleb128 0x34
 480 00bc 00       		.byte	0x0
 481 00bd 03       		.uleb128 0x3
 482 00be 0E       		.uleb128 0xe
 483 00bf 3A       		.uleb128 0x3a
 484 00c0 0B       		.uleb128 0xb
 485 00c1 3B       		.uleb128 0x3b
 486 00c2 0B       		.uleb128 0xb
 487 00c3 49       		.uleb128 0x49
 488 00c4 13       		.uleb128 0x13
 489 00c5 3F       		.uleb128 0x3f
 490 00c6 0C       		.uleb128 0xc
 491 00c7 02       		.uleb128 0x2
 492 00c8 0A       		.uleb128 0xa
 493 00c9 00       		.byte	0x0
 494 00ca 00       		.byte	0x0
 495 00cb 00       		.byte	0x0
 496              		.section	.debug_pubnames,"",%progbits
 497 0000 53000000 		.4byte	0x53
 498 0004 0200     		.2byte	0x2
 499 0006 00000000 		.4byte	.Ldebug_info0
 500 000a 20010000 		.4byte	0x120
 501 000e 98000000 		.4byte	0x98
 502 0012 496E7444 		.ascii	"IntDefaultHandler\000"
 502      65666175 
 502      6C744861 
 502      6E646C65 
 502      7200
 503 0024 AB000000 		.4byte	0xab
 504 0028 52657365 		.ascii	"Reset\000"
 504      7400
 505 002e BE000000 		.4byte	0xbe
 506 0032 696E6974 		.ascii	"initialize_psoc\000"
 506      69616C69 
 506      7A655F70 
 506      736F6300 
ARM GAS  C:\Users\SUZUKI~1\AppData\Local\Temp\cc1MPOMd.s 			page 16


 507 0042 00010000 		.4byte	0x100
 508 0046 43795261 		.ascii	"CyRamVectors\000"
 508      6D566563 
 508      746F7273 
 508      00
 509 0053 00000000 		.4byte	0x0
 510              		.section	.debug_aranges,"",%progbits
 511 0000 2C000000 		.4byte	0x2c
 512 0004 0200     		.2byte	0x2
 513 0006 00000000 		.4byte	.Ldebug_info0
 514 000a 04       		.byte	0x4
 515 000b 00       		.byte	0x0
 516 000c 0000     		.2byte	0x0
 517 000e 0000     		.2byte	0x0
 518 0010 00000000 		.4byte	.LFB0
 519 0014 02000000 		.4byte	.LFE0-.LFB0
 520 0018 00000000 		.4byte	.LFB1
 521 001c 18000000 		.4byte	.LFE1-.LFB1
 522 0020 00000000 		.4byte	.LFB2
 523 0024 4C000000 		.4byte	.LFE2-.LFB2
 524 0028 00000000 		.4byte	0x0
 525 002c 00000000 		.4byte	0x0
 526              		.section	.debug_ranges,"",%progbits
 527              	.Ldebug_ranges0:
 528 0000 00000000 		.4byte	.Ltext0
 529 0004 00000000 		.4byte	.Letext0
 530 0008 00000000 		.4byte	.LFB0
 531 000c 02000000 		.4byte	.LFE0
 532 0010 00000000 		.4byte	.LFB1
 533 0014 18000000 		.4byte	.LFE1
 534 0018 00000000 		.4byte	.LFB2
 535 001c 4C000000 		.4byte	.LFE2
 536 0020 00000000 		.4byte	0x0
 537 0024 00000000 		.4byte	0x0
 538              		.section	.debug_str,"MS",%progbits,1
 539              	.LASF6:
 540 0000 6C6F6E67 		.ascii	"long long int\000"
 540      206C6F6E 
 540      6720696E 
 540      7400
 541              	.LASF8:
 542 000e 756E7369 		.ascii	"unsigned int\000"
 542      676E6564 
 542      20696E74 
 542      00
 543              	.LASF12:
 544 001b 496E7444 		.ascii	"IntDefaultHandler\000"
 544      65666175 
 544      6C744861 
 544      6E646C65 
 544      7200
 545              	.LASF16:
 546 002d 5F5F6373 		.ascii	"__cs3_interrupt_vector\000"
 546      335F696E 
 546      74657272 
 546      7570745F 
 546      76656374 
ARM GAS  C:\Users\SUZUKI~1\AppData\Local\Temp\cc1MPOMd.s 			page 17


 547              	.LASF14:
 548 0044 43795265 		.ascii	"CyResetStatus\000"
 548      73657453 
 548      74617475 
 548      7300
 549              	.LASF10:
 550 0052 75696E74 		.ascii	"uint8\000"
 550      3800
 551              	.LASF5:
 552 0058 6C6F6E67 		.ascii	"long unsigned int\000"
 552      20756E73 
 552      69676E65 
 552      6420696E 
 552      7400
 553              	.LASF7:
 554 006a 6C6F6E67 		.ascii	"long long unsigned int\000"
 554      206C6F6E 
 554      6720756E 
 554      7369676E 
 554      65642069 
 555              	.LASF17:
 556 0081 474E5520 		.ascii	"GNU C 4.4.1\000"
 556      4320342E 
 556      342E3100 
 557              	.LASF1:
 558 008d 756E7369 		.ascii	"unsigned char\000"
 558      676E6564 
 558      20636861 
 558      7200
 559              	.LASF9:
 560 009b 63686172 		.ascii	"char\000"
 560      00
 561              	.LASF19:
 562 00a0 463A5C44 		.ascii	"F:\\Documents\\PSoC_Creator\\ledmatrix\\ledmatrix.c"
 562      6F63756D 
 562      656E7473 
 562      5C50536F 
 562      435F4372 
 563 00cf 7964736E 		.ascii	"ydsn\000"
 563      00
 564              	.LASF4:
 565 00d4 6C6F6E67 		.ascii	"long int\000"
 565      20696E74 
 565      00
 566              	.LASF11:
 567 00dd 63796973 		.ascii	"cyisraddress\000"
 567      72616464 
 567      72657373 
 567      00
 568              	.LASF2:
 569 00ea 73686F72 		.ascii	"short int\000"
 569      7420696E 
 569      7400
 570              	.LASF21:
 571 00f4 696E6465 		.ascii	"index\000"
 571      7800
 572              	.LASF20:
ARM GAS  C:\Users\SUZUKI~1\AppData\Local\Temp\cc1MPOMd.s 			page 18


 573 00fa 696E6974 		.ascii	"initialize_psoc\000"
 573      69616C69 
 573      7A655F70 
 573      736F6300 
 574              	.LASF3:
 575 010a 73686F72 		.ascii	"short unsigned int\000"
 575      7420756E 
 575      7369676E 
 575      65642069 
 575      6E7400
 576              	.LASF0:
 577 011d 7369676E 		.ascii	"signed char\000"
 577      65642063 
 577      68617200 
 578              	.LASF15:
 579 0129 43795261 		.ascii	"CyRamVectors\000"
 579      6D566563 
 579      746F7273 
 579      00
 580              	.LASF13:
 581 0136 52657365 		.ascii	"Reset\000"
 581      7400
 582              	.LASF18:
 583 013c 2E5C4765 		.ascii	".\\Generated_Source\\PSoC5\\Cm3Start.c\000"
 583      6E657261 
 583      7465645F 
 583      536F7572 
 583      63655C50 
 584              		.ident	"GCC: (Sourcery G++ Lite 2010q1-188) 4.4.1"
