ARM GAS  C:\Users\SUZUKI~1\AppData\Local\Temp\cc6YlRhH.s 			page 1


   1              		.syntax unified
   2              		.cpu cortex-m3
   3              		.fpu softvfp
   4              		.eabi_attribute 20, 1
   5              		.eabi_attribute 21, 1
   6              		.eabi_attribute 23, 3
   7              		.eabi_attribute 24, 1
   8              		.eabi_attribute 25, 1
   9              		.eabi_attribute 26, 1
  10              		.eabi_attribute 30, 4
  11              		.eabi_attribute 18, 4
  12              		.thumb
  13              		.file	"DelayCounter_PM.c"
  14              		.section	.debug_abbrev,"",%progbits
  15              	.Ldebug_abbrev0:
  16              		.section	.debug_info,"",%progbits
  17              	.Ldebug_info0:
  18              		.section	.debug_line,"",%progbits
  19              	.Ldebug_line0:
  20 0000 DF000000 		.text
  20      02007A00 
  20      00000201 
  20      FB0E0D00 
  20      01010101 
  21              	.Ltext0:
  22              		.cfi_sections	.debug_frame
  23              		.section	.text.DelayCounter_RestoreConfig,"ax",%progbits
  24              		.align	1
  25              		.global	DelayCounter_RestoreConfig
  26              		.thumb
  27              		.thumb_func
  28              		.type	DelayCounter_RestoreConfig, %function
  29              	DelayCounter_RestoreConfig:
  30              	.LFB1:
  31              		.file 1 ".\\Generated_Source\\PSoC5\\DelayCounter_PM.c"
   1:.\Generated_Source\PSoC5/DelayCounter_PM.c **** /*******************************************************************************
   2:.\Generated_Source\PSoC5/DelayCounter_PM.c **** * File Name: DelayCounter_PM.c  
   3:.\Generated_Source\PSoC5/DelayCounter_PM.c **** * Version 2.20
   4:.\Generated_Source\PSoC5/DelayCounter_PM.c **** *
   5:.\Generated_Source\PSoC5/DelayCounter_PM.c **** *  Description:
   6:.\Generated_Source\PSoC5/DelayCounter_PM.c **** *    This file provides the power management source code to API for the
   7:.\Generated_Source\PSoC5/DelayCounter_PM.c **** *    Counter.  
   8:.\Generated_Source\PSoC5/DelayCounter_PM.c **** *
   9:.\Generated_Source\PSoC5/DelayCounter_PM.c **** *   Note:
  10:.\Generated_Source\PSoC5/DelayCounter_PM.c **** *     None
  11:.\Generated_Source\PSoC5/DelayCounter_PM.c **** *
  12:.\Generated_Source\PSoC5/DelayCounter_PM.c **** *******************************************************************************
  13:.\Generated_Source\PSoC5/DelayCounter_PM.c **** * Copyright 2008-2012, Cypress Semiconductor Corporation.  All rights reserved.
  14:.\Generated_Source\PSoC5/DelayCounter_PM.c **** * You may use this file only in accordance with the license, terms, conditions, 
  15:.\Generated_Source\PSoC5/DelayCounter_PM.c **** * disclaimers, and limitations in the end user license agreement accompanying 
  16:.\Generated_Source\PSoC5/DelayCounter_PM.c **** * the software package with which this file was provided.
  17:.\Generated_Source\PSoC5/DelayCounter_PM.c **** ********************************************************************************/
  18:.\Generated_Source\PSoC5/DelayCounter_PM.c **** 
  19:.\Generated_Source\PSoC5/DelayCounter_PM.c **** #include "DelayCounter.h"
  20:.\Generated_Source\PSoC5/DelayCounter_PM.c **** 
  21:.\Generated_Source\PSoC5/DelayCounter_PM.c **** static DelayCounter_backupStruct DelayCounter_backup;
  22:.\Generated_Source\PSoC5/DelayCounter_PM.c **** 
ARM GAS  C:\Users\SUZUKI~1\AppData\Local\Temp\cc6YlRhH.s 			page 2


  23:.\Generated_Source\PSoC5/DelayCounter_PM.c **** 
  24:.\Generated_Source\PSoC5/DelayCounter_PM.c **** /*******************************************************************************
  25:.\Generated_Source\PSoC5/DelayCounter_PM.c **** * Function Name: DelayCounter_SaveConfig
  26:.\Generated_Source\PSoC5/DelayCounter_PM.c **** ********************************************************************************
  27:.\Generated_Source\PSoC5/DelayCounter_PM.c **** * Summary:
  28:.\Generated_Source\PSoC5/DelayCounter_PM.c **** *     Save the current user configuration
  29:.\Generated_Source\PSoC5/DelayCounter_PM.c **** *
  30:.\Generated_Source\PSoC5/DelayCounter_PM.c **** * Parameters:  
  31:.\Generated_Source\PSoC5/DelayCounter_PM.c **** *  void
  32:.\Generated_Source\PSoC5/DelayCounter_PM.c **** *
  33:.\Generated_Source\PSoC5/DelayCounter_PM.c **** * Return: 
  34:.\Generated_Source\PSoC5/DelayCounter_PM.c **** *  void
  35:.\Generated_Source\PSoC5/DelayCounter_PM.c **** *
  36:.\Generated_Source\PSoC5/DelayCounter_PM.c **** * Global variables:
  37:.\Generated_Source\PSoC5/DelayCounter_PM.c **** *  DelayCounter_backup:  Variables of this global structure are modified to 
  38:.\Generated_Source\PSoC5/DelayCounter_PM.c **** *  store the values of non retention configuration registers when Sleep() API is 
  39:.\Generated_Source\PSoC5/DelayCounter_PM.c **** *  called.
  40:.\Generated_Source\PSoC5/DelayCounter_PM.c **** *
  41:.\Generated_Source\PSoC5/DelayCounter_PM.c **** *******************************************************************************/
  42:.\Generated_Source\PSoC5/DelayCounter_PM.c **** void DelayCounter_SaveConfig(void) 
  43:.\Generated_Source\PSoC5/DelayCounter_PM.c **** {
  44:.\Generated_Source\PSoC5/DelayCounter_PM.c ****     #if (!DelayCounter_UsingFixedFunction)
  45:.\Generated_Source\PSoC5/DelayCounter_PM.c ****         /* Backup the UDB non-rentention registers for PSoC5A */
  46:.\Generated_Source\PSoC5/DelayCounter_PM.c ****         #if (CY_PSOC5A)
  47:.\Generated_Source\PSoC5/DelayCounter_PM.c ****             DelayCounter_backup.CounterUdb = DelayCounter_ReadCounter();
  48:.\Generated_Source\PSoC5/DelayCounter_PM.c ****             DelayCounter_backup.CounterPeriod = DelayCounter_ReadPeriod();
  49:.\Generated_Source\PSoC5/DelayCounter_PM.c ****             DelayCounter_backup.CompareValue = DelayCounter_ReadCompare();
  50:.\Generated_Source\PSoC5/DelayCounter_PM.c ****             DelayCounter_backup.InterruptMaskValue = DelayCounter_STATUS_MASK;
  51:.\Generated_Source\PSoC5/DelayCounter_PM.c ****         #endif /* (CY_PSOC5A) */
  52:.\Generated_Source\PSoC5/DelayCounter_PM.c ****         
  53:.\Generated_Source\PSoC5/DelayCounter_PM.c ****         #if (CY_PSOC3 || CY_PSOC5LP)
  54:.\Generated_Source\PSoC5/DelayCounter_PM.c ****             DelayCounter_backup.CounterUdb = DelayCounter_ReadCounter();
  55:.\Generated_Source\PSoC5/DelayCounter_PM.c ****             DelayCounter_backup.InterruptMaskValue = DelayCounter_STATUS_MASK;
  56:.\Generated_Source\PSoC5/DelayCounter_PM.c ****         #endif /* (CY_PSOC3 || CY_PSOC5LP) */
  57:.\Generated_Source\PSoC5/DelayCounter_PM.c ****         
  58:.\Generated_Source\PSoC5/DelayCounter_PM.c ****         #if(!DelayCounter_ControlRegRemoved)
  59:.\Generated_Source\PSoC5/DelayCounter_PM.c ****             DelayCounter_backup.CounterControlRegister = DelayCounter_ReadControlRegister();
  60:.\Generated_Source\PSoC5/DelayCounter_PM.c ****         #endif /* (!DelayCounter_ControlRegRemoved) */
  61:.\Generated_Source\PSoC5/DelayCounter_PM.c ****     #endif /* (!DelayCounter_UsingFixedFunction) */
  62:.\Generated_Source\PSoC5/DelayCounter_PM.c **** }
  63:.\Generated_Source\PSoC5/DelayCounter_PM.c **** 
  64:.\Generated_Source\PSoC5/DelayCounter_PM.c **** 
  65:.\Generated_Source\PSoC5/DelayCounter_PM.c **** /*******************************************************************************
  66:.\Generated_Source\PSoC5/DelayCounter_PM.c **** * Function Name: DelayCounter_RestoreConfig
  67:.\Generated_Source\PSoC5/DelayCounter_PM.c **** ********************************************************************************
  68:.\Generated_Source\PSoC5/DelayCounter_PM.c **** *
  69:.\Generated_Source\PSoC5/DelayCounter_PM.c **** * Summary:
  70:.\Generated_Source\PSoC5/DelayCounter_PM.c **** *  Restores the current user configuration.
  71:.\Generated_Source\PSoC5/DelayCounter_PM.c **** *
  72:.\Generated_Source\PSoC5/DelayCounter_PM.c **** * Parameters:  
  73:.\Generated_Source\PSoC5/DelayCounter_PM.c **** *  void
  74:.\Generated_Source\PSoC5/DelayCounter_PM.c **** *
  75:.\Generated_Source\PSoC5/DelayCounter_PM.c **** * Return: 
  76:.\Generated_Source\PSoC5/DelayCounter_PM.c **** *  void
  77:.\Generated_Source\PSoC5/DelayCounter_PM.c **** *
  78:.\Generated_Source\PSoC5/DelayCounter_PM.c **** * Global variables:
  79:.\Generated_Source\PSoC5/DelayCounter_PM.c **** *  DelayCounter_backup:  Variables of this global structure are used to 
ARM GAS  C:\Users\SUZUKI~1\AppData\Local\Temp\cc6YlRhH.s 			page 3


  80:.\Generated_Source\PSoC5/DelayCounter_PM.c **** *  restore the values of non retention registers on wakeup from sleep mode.
  81:.\Generated_Source\PSoC5/DelayCounter_PM.c **** *
  82:.\Generated_Source\PSoC5/DelayCounter_PM.c **** *******************************************************************************/
  83:.\Generated_Source\PSoC5/DelayCounter_PM.c **** void DelayCounter_RestoreConfig(void) 
  84:.\Generated_Source\PSoC5/DelayCounter_PM.c **** {      
  32              		.loc 1 84 0
  33              		.cfi_startproc
  34              		@ args = 0, pretend = 0, frame = 0
  35              		@ frame_needed = 0, uses_anonymous_args = 0
  36 0000 10B5     		push	{r4, lr}
  37              	.LCFI0:
  38              		.cfi_def_cfa_offset 8
  85:.\Generated_Source\PSoC5/DelayCounter_PM.c ****     #if (!DelayCounter_UsingFixedFunction)     
  86:.\Generated_Source\PSoC5/DelayCounter_PM.c ****         /* Restore the UDB non-rentention registers for PSoC5A */
  87:.\Generated_Source\PSoC5/DelayCounter_PM.c ****         #if (CY_PSOC5A)
  88:.\Generated_Source\PSoC5/DelayCounter_PM.c ****             /* Interrupt State Backup for Critical Region*/
  89:.\Generated_Source\PSoC5/DelayCounter_PM.c ****             uint8 DelayCounter_interruptState;
  90:.\Generated_Source\PSoC5/DelayCounter_PM.c ****         
  91:.\Generated_Source\PSoC5/DelayCounter_PM.c ****             DelayCounter_WriteCounter(DelayCounter_backup.CounterUdb);
  39              		.loc 1 91 0
  40 0002 0D4C     		ldr	r4, .L3
  41              		.cfi_offset 14, -4
  42              		.cfi_offset 4, -8
  43 0004 6088     		ldrh	r0, [r4, #2]
  44 0006 FFF7FEFF 		bl	DelayCounter_WriteCounter
  92:.\Generated_Source\PSoC5/DelayCounter_PM.c ****             DelayCounter_WritePeriod(DelayCounter_backup.CounterPeriod);
  45              		.loc 1 92 0
  46 000a A088     		ldrh	r0, [r4, #4]
  47 000c FFF7FEFF 		bl	DelayCounter_WritePeriod
  93:.\Generated_Source\PSoC5/DelayCounter_PM.c ****             DelayCounter_WriteCompare(DelayCounter_backup.CompareValue);
  48              		.loc 1 93 0
  49 0010 E088     		ldrh	r0, [r4, #6]
  50 0012 FFF7FEFF 		bl	DelayCounter_WriteCompare
  94:.\Generated_Source\PSoC5/DelayCounter_PM.c ****             /* Enter Critical Region*/
  95:.\Generated_Source\PSoC5/DelayCounter_PM.c ****             DelayCounter_interruptState = CyEnterCriticalSection();
  51              		.loc 1 95 0
  52 0016 FFF7FEFF 		bl	CyEnterCriticalSection
  96:.\Generated_Source\PSoC5/DelayCounter_PM.c ****         
  97:.\Generated_Source\PSoC5/DelayCounter_PM.c ****             DelayCounter_STATUS_AUX_CTRL |= DelayCounter_STATUS_ACTL_INT_EN_MASK;
  53              		.loc 1 97 0
  54 001a 084B     		ldr	r3, .L3+4
  55 001c 1A78     		ldrb	r2, [r3, #0]	@ zero_extendqisi2
  56 001e 42F01002 		orr	r2, r2, #16
  57 0022 1A70     		strb	r2, [r3, #0]
  98:.\Generated_Source\PSoC5/DelayCounter_PM.c ****             /* Exit Critical Region*/
  99:.\Generated_Source\PSoC5/DelayCounter_PM.c ****             CyExitCriticalSection(DelayCounter_interruptState);
  58              		.loc 1 99 0
  59 0024 FFF7FEFF 		bl	CyExitCriticalSection
 100:.\Generated_Source\PSoC5/DelayCounter_PM.c ****             DelayCounter_STATUS_MASK = DelayCounter_backup.InterruptMaskValue;
  60              		.loc 1 100 0
  61 0028 227A     		ldrb	r2, [r4, #8]	@ zero_extendqisi2
  62 002a 054B     		ldr	r3, .L3+8
  63 002c 1A70     		strb	r2, [r3, #0]
 101:.\Generated_Source\PSoC5/DelayCounter_PM.c ****         #endif  /* (CY_PSOC5A) */
 102:.\Generated_Source\PSoC5/DelayCounter_PM.c ****         
 103:.\Generated_Source\PSoC5/DelayCounter_PM.c ****         #if (CY_PSOC3 || CY_PSOC5LP)
 104:.\Generated_Source\PSoC5/DelayCounter_PM.c ****             DelayCounter_WriteCounter(DelayCounter_backup.CounterUdb);
ARM GAS  C:\Users\SUZUKI~1\AppData\Local\Temp\cc6YlRhH.s 			page 4


 105:.\Generated_Source\PSoC5/DelayCounter_PM.c ****             DelayCounter_STATUS_MASK = DelayCounter_backup.InterruptMaskValue;
 106:.\Generated_Source\PSoC5/DelayCounter_PM.c ****         #endif /* (CY_PSOC3 || CY_PSOC5LP) */
 107:.\Generated_Source\PSoC5/DelayCounter_PM.c ****         
 108:.\Generated_Source\PSoC5/DelayCounter_PM.c ****         #if(!DelayCounter_ControlRegRemoved)
 109:.\Generated_Source\PSoC5/DelayCounter_PM.c ****             DelayCounter_WriteControlRegister(DelayCounter_backup.CounterControlRegister);
  64              		.loc 1 109 0
  65 002e 607A     		ldrb	r0, [r4, #9]	@ zero_extendqisi2
 110:.\Generated_Source\PSoC5/DelayCounter_PM.c ****         #endif /* (!DelayCounter_ControlRegRemoved) */
 111:.\Generated_Source\PSoC5/DelayCounter_PM.c ****     #endif /* (!DelayCounter_UsingFixedFunction) */
 112:.\Generated_Source\PSoC5/DelayCounter_PM.c **** }
  66              		.loc 1 112 0
  67 0030 BDE81040 		pop	{r4, lr}
  68              		.loc 1 109 0
  69 0034 FFF7FEBF 		b	DelayCounter_WriteControlRegister
  70              	.L4:
  71              		.align	2
  72              	.L3:
  73 0038 00000000 		.word	.LANCHOR0
  74 003c 95650040 		.word	1073767829
  75 0040 85650040 		.word	1073767813
  76              		.cfi_endproc
  77              	.LFE1:
  78              		.size	DelayCounter_RestoreConfig, .-DelayCounter_RestoreConfig
  79              		.section	.text.DelayCounter_Wakeup,"ax",%progbits
  80              		.align	1
  81              		.global	DelayCounter_Wakeup
  82              		.thumb
  83              		.thumb_func
  84              		.type	DelayCounter_Wakeup, %function
  85              	DelayCounter_Wakeup:
  86              	.LFB3:
 113:.\Generated_Source\PSoC5/DelayCounter_PM.c **** 
 114:.\Generated_Source\PSoC5/DelayCounter_PM.c **** 
 115:.\Generated_Source\PSoC5/DelayCounter_PM.c **** /*******************************************************************************
 116:.\Generated_Source\PSoC5/DelayCounter_PM.c **** * Function Name: DelayCounter_Sleep
 117:.\Generated_Source\PSoC5/DelayCounter_PM.c **** ********************************************************************************
 118:.\Generated_Source\PSoC5/DelayCounter_PM.c **** * Summary:
 119:.\Generated_Source\PSoC5/DelayCounter_PM.c **** *     Stop and Save the user configuration
 120:.\Generated_Source\PSoC5/DelayCounter_PM.c **** *
 121:.\Generated_Source\PSoC5/DelayCounter_PM.c **** * Parameters:  
 122:.\Generated_Source\PSoC5/DelayCounter_PM.c **** *  void
 123:.\Generated_Source\PSoC5/DelayCounter_PM.c **** *
 124:.\Generated_Source\PSoC5/DelayCounter_PM.c **** * Return: 
 125:.\Generated_Source\PSoC5/DelayCounter_PM.c **** *  void
 126:.\Generated_Source\PSoC5/DelayCounter_PM.c **** *
 127:.\Generated_Source\PSoC5/DelayCounter_PM.c **** * Global variables:
 128:.\Generated_Source\PSoC5/DelayCounter_PM.c **** *  DelayCounter_backup.enableState:  Is modified depending on the enable 
 129:.\Generated_Source\PSoC5/DelayCounter_PM.c **** *  state of the block before entering sleep mode.
 130:.\Generated_Source\PSoC5/DelayCounter_PM.c **** *
 131:.\Generated_Source\PSoC5/DelayCounter_PM.c **** *******************************************************************************/
 132:.\Generated_Source\PSoC5/DelayCounter_PM.c **** void DelayCounter_Sleep(void) 
 133:.\Generated_Source\PSoC5/DelayCounter_PM.c **** {
 134:.\Generated_Source\PSoC5/DelayCounter_PM.c ****     #if(!DelayCounter_ControlRegRemoved)
 135:.\Generated_Source\PSoC5/DelayCounter_PM.c ****         /* Save Counter's enable state */
 136:.\Generated_Source\PSoC5/DelayCounter_PM.c ****         if(DelayCounter_CTRL_ENABLE == (DelayCounter_CONTROL & DelayCounter_CTRL_ENABLE))
 137:.\Generated_Source\PSoC5/DelayCounter_PM.c ****         {
 138:.\Generated_Source\PSoC5/DelayCounter_PM.c ****             /* Counter is enabled */
ARM GAS  C:\Users\SUZUKI~1\AppData\Local\Temp\cc6YlRhH.s 			page 5


 139:.\Generated_Source\PSoC5/DelayCounter_PM.c ****             DelayCounter_backup.CounterEnableState = 1u;
 140:.\Generated_Source\PSoC5/DelayCounter_PM.c ****         }
 141:.\Generated_Source\PSoC5/DelayCounter_PM.c ****         else
 142:.\Generated_Source\PSoC5/DelayCounter_PM.c ****         {
 143:.\Generated_Source\PSoC5/DelayCounter_PM.c ****             /* Counter is disabled */
 144:.\Generated_Source\PSoC5/DelayCounter_PM.c ****             DelayCounter_backup.CounterEnableState = 0u;
 145:.\Generated_Source\PSoC5/DelayCounter_PM.c ****         }
 146:.\Generated_Source\PSoC5/DelayCounter_PM.c ****     #endif /* (!DelayCounter_ControlRegRemoved) */
 147:.\Generated_Source\PSoC5/DelayCounter_PM.c ****     DelayCounter_Stop();
 148:.\Generated_Source\PSoC5/DelayCounter_PM.c ****     DelayCounter_SaveConfig();
 149:.\Generated_Source\PSoC5/DelayCounter_PM.c **** }
 150:.\Generated_Source\PSoC5/DelayCounter_PM.c **** 
 151:.\Generated_Source\PSoC5/DelayCounter_PM.c **** 
 152:.\Generated_Source\PSoC5/DelayCounter_PM.c **** /*******************************************************************************
 153:.\Generated_Source\PSoC5/DelayCounter_PM.c **** * Function Name: DelayCounter_Wakeup
 154:.\Generated_Source\PSoC5/DelayCounter_PM.c **** ********************************************************************************
 155:.\Generated_Source\PSoC5/DelayCounter_PM.c **** *
 156:.\Generated_Source\PSoC5/DelayCounter_PM.c **** * Summary:
 157:.\Generated_Source\PSoC5/DelayCounter_PM.c **** *  Restores and enables the user configuration
 158:.\Generated_Source\PSoC5/DelayCounter_PM.c **** *  
 159:.\Generated_Source\PSoC5/DelayCounter_PM.c **** * Parameters:  
 160:.\Generated_Source\PSoC5/DelayCounter_PM.c **** *  void
 161:.\Generated_Source\PSoC5/DelayCounter_PM.c **** *
 162:.\Generated_Source\PSoC5/DelayCounter_PM.c **** * Return: 
 163:.\Generated_Source\PSoC5/DelayCounter_PM.c **** *  void
 164:.\Generated_Source\PSoC5/DelayCounter_PM.c **** *
 165:.\Generated_Source\PSoC5/DelayCounter_PM.c **** * Global variables:
 166:.\Generated_Source\PSoC5/DelayCounter_PM.c **** *  DelayCounter_backup.enableState:  Is used to restore the enable state of 
 167:.\Generated_Source\PSoC5/DelayCounter_PM.c **** *  block on wakeup from sleep mode.
 168:.\Generated_Source\PSoC5/DelayCounter_PM.c **** *
 169:.\Generated_Source\PSoC5/DelayCounter_PM.c **** *******************************************************************************/
 170:.\Generated_Source\PSoC5/DelayCounter_PM.c **** void DelayCounter_Wakeup(void) 
 171:.\Generated_Source\PSoC5/DelayCounter_PM.c **** {
  87              		.loc 1 171 0
  88              		.cfi_startproc
  89              		@ args = 0, pretend = 0, frame = 0
  90              		@ frame_needed = 0, uses_anonymous_args = 0
  91 0000 10B5     		push	{r4, lr}
  92              	.LCFI1:
  93              		.cfi_def_cfa_offset 8
 172:.\Generated_Source\PSoC5/DelayCounter_PM.c ****     DelayCounter_RestoreConfig();
  94              		.loc 1 172 0
  95              		.cfi_offset 14, -4
  96              		.cfi_offset 4, -8
  97 0002 FFF7FEFF 		bl	DelayCounter_RestoreConfig
 173:.\Generated_Source\PSoC5/DelayCounter_PM.c ****     #if(!DelayCounter_ControlRegRemoved)
 174:.\Generated_Source\PSoC5/DelayCounter_PM.c ****         if(DelayCounter_backup.CounterEnableState == 1u)
  98              		.loc 1 174 0
  99 0006 044B     		ldr	r3, .L9
 100 0008 1B78     		ldrb	r3, [r3, #0]	@ zero_extendqisi2
 101 000a 012B     		cmp	r3, #1
 102 000c 03D1     		bne	.L7
 175:.\Generated_Source\PSoC5/DelayCounter_PM.c ****         {
 176:.\Generated_Source\PSoC5/DelayCounter_PM.c ****             /* Enable Counter's operation */
 177:.\Generated_Source\PSoC5/DelayCounter_PM.c ****             DelayCounter_Enable();
 178:.\Generated_Source\PSoC5/DelayCounter_PM.c ****         } /* Do nothing if Counter was disabled before */    
 179:.\Generated_Source\PSoC5/DelayCounter_PM.c ****     #endif /* (!DelayCounter_ControlRegRemoved) */
ARM GAS  C:\Users\SUZUKI~1\AppData\Local\Temp\cc6YlRhH.s 			page 6


 180:.\Generated_Source\PSoC5/DelayCounter_PM.c ****     
 181:.\Generated_Source\PSoC5/DelayCounter_PM.c **** }
 103              		.loc 1 181 0
 104 000e BDE81040 		pop	{r4, lr}
 105              		.loc 1 177 0
 106 0012 FFF7FEBF 		b	DelayCounter_Enable
 107              	.L7:
 108 0016 10BD     		pop	{r4, pc}
 109              	.L10:
 110              		.align	2
 111              	.L9:
 112 0018 00000000 		.word	.LANCHOR0
 113              		.cfi_endproc
 114              	.LFE3:
 115              		.size	DelayCounter_Wakeup, .-DelayCounter_Wakeup
 116              		.section	.text.DelayCounter_SaveConfig,"ax",%progbits
 117              		.align	1
 118              		.global	DelayCounter_SaveConfig
 119              		.thumb
 120              		.thumb_func
 121              		.type	DelayCounter_SaveConfig, %function
 122              	DelayCounter_SaveConfig:
 123              	.LFB0:
 124              		.loc 1 43 0
 125              		.cfi_startproc
 126              		@ args = 0, pretend = 0, frame = 0
 127              		@ frame_needed = 0, uses_anonymous_args = 0
 128 0000 10B5     		push	{r4, lr}
 129              	.LCFI2:
 130              		.cfi_def_cfa_offset 8
 131              		.loc 1 47 0
 132              		.cfi_offset 14, -4
 133              		.cfi_offset 4, -8
 134 0002 FFF7FEFF 		bl	DelayCounter_ReadCounter
 135 0006 074C     		ldr	r4, .L13
 136 0008 6080     		strh	r0, [r4, #2]	@ movhi
 137              		.loc 1 48 0
 138 000a FFF7FEFF 		bl	DelayCounter_ReadPeriod
 139 000e A080     		strh	r0, [r4, #4]	@ movhi
 140              		.loc 1 49 0
 141 0010 FFF7FEFF 		bl	DelayCounter_ReadCompare
 142              		.loc 1 50 0
 143 0014 044B     		ldr	r3, .L13+4
 144              		.loc 1 49 0
 145 0016 E080     		strh	r0, [r4, #6]	@ movhi
 146              		.loc 1 50 0
 147 0018 1B78     		ldrb	r3, [r3, #0]	@ zero_extendqisi2
 148 001a 2372     		strb	r3, [r4, #8]
 149              		.loc 1 59 0
 150 001c FFF7FEFF 		bl	DelayCounter_ReadControlRegister
 151 0020 6072     		strb	r0, [r4, #9]
 152              		.loc 1 62 0
 153 0022 10BD     		pop	{r4, pc}
 154              	.L14:
 155              		.align	2
 156              	.L13:
 157 0024 00000000 		.word	.LANCHOR0
ARM GAS  C:\Users\SUZUKI~1\AppData\Local\Temp\cc6YlRhH.s 			page 7


 158 0028 85650040 		.word	1073767813
 159              		.cfi_endproc
 160              	.LFE0:
 161              		.size	DelayCounter_SaveConfig, .-DelayCounter_SaveConfig
 162              		.section	.text.DelayCounter_Sleep,"ax",%progbits
 163              		.align	1
 164              		.global	DelayCounter_Sleep
 165              		.thumb
 166              		.thumb_func
 167              		.type	DelayCounter_Sleep, %function
 168              	DelayCounter_Sleep:
 169              	.LFB2:
 170              		.loc 1 133 0
 171              		.cfi_startproc
 172              		@ args = 0, pretend = 0, frame = 0
 173              		@ frame_needed = 0, uses_anonymous_args = 0
 174 0000 10B5     		push	{r4, lr}
 175              	.LCFI3:
 176              		.cfi_def_cfa_offset 8
 177              		.loc 1 136 0
 178 0002 084B     		ldr	r3, .L20
 179 0004 1B78     		ldrb	r3, [r3, #0]	@ zero_extendqisi2
 180 0006 13F0800F 		tst	r3, #128
 181 000a 074B     		ldr	r3, .L20+4
 182 000c 01D0     		beq	.L16
 183              		.cfi_offset 14, -4
 184              		.cfi_offset 4, -8
 185              		.loc 1 139 0
 186 000e 0122     		movs	r2, #1
 187 0010 00E0     		b	.L19
 188              	.L16:
 189              		.loc 1 144 0
 190 0012 0022     		movs	r2, #0
 191              	.L19:
 192 0014 1A70     		strb	r2, [r3, #0]
 193              		.loc 1 147 0
 194 0016 FFF7FEFF 		bl	DelayCounter_Stop
 195              		.loc 1 149 0
 196 001a BDE81040 		pop	{r4, lr}
 197              		.loc 1 148 0
 198 001e FFF7FEBF 		b	DelayCounter_SaveConfig
 199              	.L21:
 200 0022 00BF     		.align	2
 201              	.L20:
 202 0024 7B650040 		.word	1073767803
 203 0028 00000000 		.word	.LANCHOR0
 204              		.cfi_endproc
 205              	.LFE2:
 206              		.size	DelayCounter_Sleep, .-DelayCounter_Sleep
 207              		.bss
 208              		.align	2
 209              		.set	.LANCHOR0,. + 0
 210              		.type	DelayCounter_backup, %object
 211              		.size	DelayCounter_backup, 10
 212              	DelayCounter_backup:
 213 0000 00000000 		.space	10
 213      00000000 
ARM GAS  C:\Users\SUZUKI~1\AppData\Local\Temp\cc6YlRhH.s 			page 8


 213      0000
 214 000a 0000     		.text
 215              	.Letext0:
 216              		.section	.debug_loc,"",%progbits
 217              	.Ldebug_loc0:
 218              	.LLST0:
 219 0000 00000000 		.4byte	.LFB1
 220 0004 02000000 		.4byte	.LCFI0
 221 0008 0100     		.2byte	0x1
 222 000a 5D       		.byte	0x5d
 223 000b 02000000 		.4byte	.LCFI0
 224 000f 44000000 		.4byte	.LFE1
 225 0013 0200     		.2byte	0x2
 226 0015 7D       		.byte	0x7d
 227 0016 08       		.sleb128 8
 228 0017 00000000 		.4byte	0x0
 229 001b 00000000 		.4byte	0x0
 230              	.LLST1:
 231 001f 00000000 		.4byte	.LFB3
 232 0023 02000000 		.4byte	.LCFI1
 233 0027 0100     		.2byte	0x1
 234 0029 5D       		.byte	0x5d
 235 002a 02000000 		.4byte	.LCFI1
 236 002e 1C000000 		.4byte	.LFE3
 237 0032 0200     		.2byte	0x2
 238 0034 7D       		.byte	0x7d
 239 0035 08       		.sleb128 8
 240 0036 00000000 		.4byte	0x0
 241 003a 00000000 		.4byte	0x0
 242              	.LLST2:
 243 003e 00000000 		.4byte	.LFB0
 244 0042 02000000 		.4byte	.LCFI2
 245 0046 0100     		.2byte	0x1
 246 0048 5D       		.byte	0x5d
 247 0049 02000000 		.4byte	.LCFI2
 248 004d 2C000000 		.4byte	.LFE0
 249 0051 0200     		.2byte	0x2
 250 0053 7D       		.byte	0x7d
 251 0054 08       		.sleb128 8
 252 0055 00000000 		.4byte	0x0
 253 0059 00000000 		.4byte	0x0
 254              	.LLST3:
 255 005d 00000000 		.4byte	.LFB2
 256 0061 02000000 		.4byte	.LCFI3
 257 0065 0100     		.2byte	0x1
 258 0067 5D       		.byte	0x5d
 259 0068 02000000 		.4byte	.LCFI3
 260 006c 2C000000 		.4byte	.LFE2
 261 0070 0200     		.2byte	0x2
 262 0072 7D       		.byte	0x7d
 263 0073 08       		.sleb128 8
 264 0074 00000000 		.4byte	0x0
 265 0078 00000000 		.4byte	0x0
 266              		.file 2 ".\\Generated_Source\\PSoC5\\/cytypes.h"
 267              		.file 3 ".\\Generated_Source\\PSoC5\\/DelayCounter.h"
 268              		.section	.debug_info
 269 0000 6D010000 		.4byte	0x16d
ARM GAS  C:\Users\SUZUKI~1\AppData\Local\Temp\cc6YlRhH.s 			page 9


 270 0004 0200     		.2byte	0x2
 271 0006 00000000 		.4byte	.Ldebug_abbrev0
 272 000a 04       		.byte	0x4
 273 000b 01       		.uleb128 0x1
 274 000c A8000000 		.4byte	.LASF22
 275 0010 01       		.byte	0x1
 276 0011 C2000000 		.4byte	.LASF23
 277 0015 F2000000 		.4byte	.LASF24
 278 0019 00000000 		.4byte	0x0
 279 001d 00000000 		.4byte	0x0
 280 0021 00000000 		.4byte	.Ldebug_ranges0+0x0
 281 0025 00000000 		.4byte	.Ldebug_line0
 282 0029 02       		.uleb128 0x2
 283 002a 01       		.byte	0x1
 284 002b 06       		.byte	0x6
 285 002c 9D010000 		.4byte	.LASF0
 286 0030 02       		.uleb128 0x2
 287 0031 01       		.byte	0x1
 288 0032 08       		.byte	0x8
 289 0033 B4000000 		.4byte	.LASF1
 290 0037 02       		.uleb128 0x2
 291 0038 02       		.byte	0x2
 292 0039 05       		.byte	0x5
 293 003a EC010000 		.4byte	.LASF2
 294 003e 02       		.uleb128 0x2
 295 003f 02       		.byte	0x2
 296 0040 07       		.byte	0x7
 297 0041 8A010000 		.4byte	.LASF3
 298 0045 02       		.uleb128 0x2
 299 0046 04       		.byte	0x4
 300 0047 05       		.byte	0x5
 301 0048 34010000 		.4byte	.LASF4
 302 004c 02       		.uleb128 0x2
 303 004d 04       		.byte	0x4
 304 004e 07       		.byte	0x7
 305 004f 64000000 		.4byte	.LASF5
 306 0053 02       		.uleb128 0x2
 307 0054 08       		.byte	0x8
 308 0055 05       		.byte	0x5
 309 0056 00000000 		.4byte	.LASF6
 310 005a 02       		.uleb128 0x2
 311 005b 08       		.byte	0x8
 312 005c 07       		.byte	0x7
 313 005d 76000000 		.4byte	.LASF7
 314 0061 03       		.uleb128 0x3
 315 0062 04       		.byte	0x4
 316 0063 05       		.byte	0x5
 317 0064 696E7400 		.ascii	"int\000"
 318 0068 02       		.uleb128 0x2
 319 0069 04       		.byte	0x4
 320 006a 07       		.byte	0x7
 321 006b 1B000000 		.4byte	.LASF8
 322 006f 02       		.uleb128 0x2
 323 0070 01       		.byte	0x1
 324 0071 08       		.byte	0x8
 325 0072 ED000000 		.4byte	.LASF9
 326 0076 04       		.uleb128 0x4
ARM GAS  C:\Users\SUZUKI~1\AppData\Local\Temp\cc6YlRhH.s 			page 10


 327 0077 5E000000 		.4byte	.LASF10
 328 007b 02       		.byte	0x2
 329 007c 60       		.byte	0x60
 330 007d 30000000 		.4byte	0x30
 331 0081 04       		.uleb128 0x4
 332 0082 F6010000 		.4byte	.LASF11
 333 0086 02       		.byte	0x2
 334 0087 61       		.byte	0x61
 335 0088 3E000000 		.4byte	0x3e
 336 008c 05       		.uleb128 0x5
 337 008d 04       		.byte	0x4
 338 008e 07       		.byte	0x7
 339 008f 06       		.uleb128 0x6
 340 0090 28000000 		.4byte	.LASF18
 341 0094 0A       		.byte	0xa
 342 0095 03       		.byte	0x3
 343 0096 37       		.byte	0x37
 344 0097 F0000000 		.4byte	0xf0
 345 009b 07       		.uleb128 0x7
 346 009c 50010000 		.4byte	.LASF12
 347 00a0 03       		.byte	0x3
 348 00a1 39       		.byte	0x39
 349 00a2 76000000 		.4byte	0x76
 350 00a6 02       		.byte	0x2
 351 00a7 23       		.byte	0x23
 352 00a8 00       		.uleb128 0x0
 353 00a9 07       		.uleb128 0x7
 354 00aa FD010000 		.4byte	.LASF13
 355 00ae 03       		.byte	0x3
 356 00af 3B       		.byte	0x3b
 357 00b0 81000000 		.4byte	0x81
 358 00b4 02       		.byte	0x2
 359 00b5 23       		.byte	0x23
 360 00b6 02       		.uleb128 0x2
 361 00b7 07       		.uleb128 0x7
 362 00b8 26010000 		.4byte	.LASF14
 363 00bc 03       		.byte	0x3
 364 00bd 3C       		.byte	0x3c
 365 00be 81000000 		.4byte	0x81
 366 00c2 02       		.byte	0x2
 367 00c3 23       		.byte	0x23
 368 00c4 04       		.uleb128 0x4
 369 00c5 07       		.uleb128 0x7
 370 00c6 0E000000 		.4byte	.LASF15
 371 00ca 03       		.byte	0x3
 372 00cb 3D       		.byte	0x3d
 373 00cc 81000000 		.4byte	0x81
 374 00d0 02       		.byte	0x2
 375 00d1 23       		.byte	0x23
 376 00d2 06       		.uleb128 0x6
 377 00d3 07       		.uleb128 0x7
 378 00d4 3D010000 		.4byte	.LASF16
 379 00d8 03       		.byte	0x3
 380 00d9 3E       		.byte	0x3e
 381 00da 76000000 		.4byte	0x76
 382 00de 02       		.byte	0x2
 383 00df 23       		.byte	0x23
ARM GAS  C:\Users\SUZUKI~1\AppData\Local\Temp\cc6YlRhH.s 			page 11


 384 00e0 08       		.uleb128 0x8
 385 00e1 07       		.uleb128 0x7
 386 00e2 D5010000 		.4byte	.LASF17
 387 00e6 03       		.byte	0x3
 388 00e7 47       		.byte	0x47
 389 00e8 76000000 		.4byte	0x76
 390 00ec 02       		.byte	0x2
 391 00ed 23       		.byte	0x23
 392 00ee 09       		.uleb128 0x9
 393 00ef 00       		.byte	0x0
 394 00f0 04       		.uleb128 0x4
 395 00f1 28000000 		.4byte	.LASF18
 396 00f5 03       		.byte	0x3
 397 00f6 49       		.byte	0x49
 398 00f7 8F000000 		.4byte	0x8f
 399 00fb 08       		.uleb128 0x8
 400 00fc 01       		.byte	0x1
 401 00fd 8D000000 		.4byte	.LASF25
 402 0101 01       		.byte	0x1
 403 0102 53       		.byte	0x53
 404 0103 01       		.byte	0x1
 405 0104 00000000 		.4byte	.LFB1
 406 0108 44000000 		.4byte	.LFE1
 407 010c 00000000 		.4byte	.LLST0
 408 0110 20010000 		.4byte	0x120
 409 0114 09       		.uleb128 0x9
 410 0115 42000000 		.4byte	.LASF26
 411 0119 01       		.byte	0x1
 412 011a 59       		.byte	0x59
 413 011b 76000000 		.4byte	0x76
 414 011f 00       		.byte	0x0
 415 0120 0A       		.uleb128 0xa
 416 0121 01       		.byte	0x1
 417 0122 C1010000 		.4byte	.LASF19
 418 0126 01       		.byte	0x1
 419 0127 AA       		.byte	0xaa
 420 0128 01       		.byte	0x1
 421 0129 00000000 		.4byte	.LFB3
 422 012d 1C000000 		.4byte	.LFE3
 423 0131 1F000000 		.4byte	.LLST1
 424 0135 0A       		.uleb128 0xa
 425 0136 01       		.byte	0x1
 426 0137 A9010000 		.4byte	.LASF20
 427 013b 01       		.byte	0x1
 428 013c 2A       		.byte	0x2a
 429 013d 01       		.byte	0x1
 430 013e 00000000 		.4byte	.LFB0
 431 0142 2C000000 		.4byte	.LFE0
 432 0146 3E000000 		.4byte	.LLST2
 433 014a 0A       		.uleb128 0xa
 434 014b 01       		.byte	0x1
 435 014c 63010000 		.4byte	.LASF21
 436 0150 01       		.byte	0x1
 437 0151 84       		.byte	0x84
 438 0152 01       		.byte	0x1
 439 0153 00000000 		.4byte	.LFB2
 440 0157 2C000000 		.4byte	.LFE2
ARM GAS  C:\Users\SUZUKI~1\AppData\Local\Temp\cc6YlRhH.s 			page 12


 441 015b 5D000000 		.4byte	.LLST3
 442 015f 0B       		.uleb128 0xb
 443 0160 76010000 		.4byte	.LASF27
 444 0164 01       		.byte	0x1
 445 0165 15       		.byte	0x15
 446 0166 F0000000 		.4byte	0xf0
 447 016a 05       		.byte	0x5
 448 016b 03       		.byte	0x3
 449 016c 00000000 		.4byte	DelayCounter_backup
 450 0170 00       		.byte	0x0
 451              		.section	.debug_abbrev
 452 0000 01       		.uleb128 0x1
 453 0001 11       		.uleb128 0x11
 454 0002 01       		.byte	0x1
 455 0003 25       		.uleb128 0x25
 456 0004 0E       		.uleb128 0xe
 457 0005 13       		.uleb128 0x13
 458 0006 0B       		.uleb128 0xb
 459 0007 03       		.uleb128 0x3
 460 0008 0E       		.uleb128 0xe
 461 0009 1B       		.uleb128 0x1b
 462 000a 0E       		.uleb128 0xe
 463 000b 11       		.uleb128 0x11
 464 000c 01       		.uleb128 0x1
 465 000d 52       		.uleb128 0x52
 466 000e 01       		.uleb128 0x1
 467 000f 55       		.uleb128 0x55
 468 0010 06       		.uleb128 0x6
 469 0011 10       		.uleb128 0x10
 470 0012 06       		.uleb128 0x6
 471 0013 00       		.byte	0x0
 472 0014 00       		.byte	0x0
 473 0015 02       		.uleb128 0x2
 474 0016 24       		.uleb128 0x24
 475 0017 00       		.byte	0x0
 476 0018 0B       		.uleb128 0xb
 477 0019 0B       		.uleb128 0xb
 478 001a 3E       		.uleb128 0x3e
 479 001b 0B       		.uleb128 0xb
 480 001c 03       		.uleb128 0x3
 481 001d 0E       		.uleb128 0xe
 482 001e 00       		.byte	0x0
 483 001f 00       		.byte	0x0
 484 0020 03       		.uleb128 0x3
 485 0021 24       		.uleb128 0x24
 486 0022 00       		.byte	0x0
 487 0023 0B       		.uleb128 0xb
 488 0024 0B       		.uleb128 0xb
 489 0025 3E       		.uleb128 0x3e
 490 0026 0B       		.uleb128 0xb
 491 0027 03       		.uleb128 0x3
 492 0028 08       		.uleb128 0x8
 493 0029 00       		.byte	0x0
 494 002a 00       		.byte	0x0
 495 002b 04       		.uleb128 0x4
 496 002c 16       		.uleb128 0x16
 497 002d 00       		.byte	0x0
ARM GAS  C:\Users\SUZUKI~1\AppData\Local\Temp\cc6YlRhH.s 			page 13


 498 002e 03       		.uleb128 0x3
 499 002f 0E       		.uleb128 0xe
 500 0030 3A       		.uleb128 0x3a
 501 0031 0B       		.uleb128 0xb
 502 0032 3B       		.uleb128 0x3b
 503 0033 0B       		.uleb128 0xb
 504 0034 49       		.uleb128 0x49
 505 0035 13       		.uleb128 0x13
 506 0036 00       		.byte	0x0
 507 0037 00       		.byte	0x0
 508 0038 05       		.uleb128 0x5
 509 0039 24       		.uleb128 0x24
 510 003a 00       		.byte	0x0
 511 003b 0B       		.uleb128 0xb
 512 003c 0B       		.uleb128 0xb
 513 003d 3E       		.uleb128 0x3e
 514 003e 0B       		.uleb128 0xb
 515 003f 00       		.byte	0x0
 516 0040 00       		.byte	0x0
 517 0041 06       		.uleb128 0x6
 518 0042 13       		.uleb128 0x13
 519 0043 01       		.byte	0x1
 520 0044 03       		.uleb128 0x3
 521 0045 0E       		.uleb128 0xe
 522 0046 0B       		.uleb128 0xb
 523 0047 0B       		.uleb128 0xb
 524 0048 3A       		.uleb128 0x3a
 525 0049 0B       		.uleb128 0xb
 526 004a 3B       		.uleb128 0x3b
 527 004b 0B       		.uleb128 0xb
 528 004c 01       		.uleb128 0x1
 529 004d 13       		.uleb128 0x13
 530 004e 00       		.byte	0x0
 531 004f 00       		.byte	0x0
 532 0050 07       		.uleb128 0x7
 533 0051 0D       		.uleb128 0xd
 534 0052 00       		.byte	0x0
 535 0053 03       		.uleb128 0x3
 536 0054 0E       		.uleb128 0xe
 537 0055 3A       		.uleb128 0x3a
 538 0056 0B       		.uleb128 0xb
 539 0057 3B       		.uleb128 0x3b
 540 0058 0B       		.uleb128 0xb
 541 0059 49       		.uleb128 0x49
 542 005a 13       		.uleb128 0x13
 543 005b 38       		.uleb128 0x38
 544 005c 0A       		.uleb128 0xa
 545 005d 00       		.byte	0x0
 546 005e 00       		.byte	0x0
 547 005f 08       		.uleb128 0x8
 548 0060 2E       		.uleb128 0x2e
 549 0061 01       		.byte	0x1
 550 0062 3F       		.uleb128 0x3f
 551 0063 0C       		.uleb128 0xc
 552 0064 03       		.uleb128 0x3
 553 0065 0E       		.uleb128 0xe
 554 0066 3A       		.uleb128 0x3a
ARM GAS  C:\Users\SUZUKI~1\AppData\Local\Temp\cc6YlRhH.s 			page 14


 555 0067 0B       		.uleb128 0xb
 556 0068 3B       		.uleb128 0x3b
 557 0069 0B       		.uleb128 0xb
 558 006a 27       		.uleb128 0x27
 559 006b 0C       		.uleb128 0xc
 560 006c 11       		.uleb128 0x11
 561 006d 01       		.uleb128 0x1
 562 006e 12       		.uleb128 0x12
 563 006f 01       		.uleb128 0x1
 564 0070 40       		.uleb128 0x40
 565 0071 06       		.uleb128 0x6
 566 0072 01       		.uleb128 0x1
 567 0073 13       		.uleb128 0x13
 568 0074 00       		.byte	0x0
 569 0075 00       		.byte	0x0
 570 0076 09       		.uleb128 0x9
 571 0077 34       		.uleb128 0x34
 572 0078 00       		.byte	0x0
 573 0079 03       		.uleb128 0x3
 574 007a 0E       		.uleb128 0xe
 575 007b 3A       		.uleb128 0x3a
 576 007c 0B       		.uleb128 0xb
 577 007d 3B       		.uleb128 0x3b
 578 007e 0B       		.uleb128 0xb
 579 007f 49       		.uleb128 0x49
 580 0080 13       		.uleb128 0x13
 581 0081 00       		.byte	0x0
 582 0082 00       		.byte	0x0
 583 0083 0A       		.uleb128 0xa
 584 0084 2E       		.uleb128 0x2e
 585 0085 00       		.byte	0x0
 586 0086 3F       		.uleb128 0x3f
 587 0087 0C       		.uleb128 0xc
 588 0088 03       		.uleb128 0x3
 589 0089 0E       		.uleb128 0xe
 590 008a 3A       		.uleb128 0x3a
 591 008b 0B       		.uleb128 0xb
 592 008c 3B       		.uleb128 0x3b
 593 008d 0B       		.uleb128 0xb
 594 008e 27       		.uleb128 0x27
 595 008f 0C       		.uleb128 0xc
 596 0090 11       		.uleb128 0x11
 597 0091 01       		.uleb128 0x1
 598 0092 12       		.uleb128 0x12
 599 0093 01       		.uleb128 0x1
 600 0094 40       		.uleb128 0x40
 601 0095 06       		.uleb128 0x6
 602 0096 00       		.byte	0x0
 603 0097 00       		.byte	0x0
 604 0098 0B       		.uleb128 0xb
 605 0099 34       		.uleb128 0x34
 606 009a 00       		.byte	0x0
 607 009b 03       		.uleb128 0x3
 608 009c 0E       		.uleb128 0xe
 609 009d 3A       		.uleb128 0x3a
 610 009e 0B       		.uleb128 0xb
 611 009f 3B       		.uleb128 0x3b
ARM GAS  C:\Users\SUZUKI~1\AppData\Local\Temp\cc6YlRhH.s 			page 15


 612 00a0 0B       		.uleb128 0xb
 613 00a1 49       		.uleb128 0x49
 614 00a2 13       		.uleb128 0x13
 615 00a3 02       		.uleb128 0x2
 616 00a4 0A       		.uleb128 0xa
 617 00a5 00       		.byte	0x0
 618 00a6 00       		.byte	0x0
 619 00a7 00       		.byte	0x0
 620              		.section	.debug_pubnames,"",%progbits
 621 0000 78000000 		.4byte	0x78
 622 0004 0200     		.2byte	0x2
 623 0006 00000000 		.4byte	.Ldebug_info0
 624 000a 71010000 		.4byte	0x171
 625 000e FB000000 		.4byte	0xfb
 626 0012 44656C61 		.ascii	"DelayCounter_RestoreConfig\000"
 626      79436F75 
 626      6E746572 
 626      5F526573 
 626      746F7265 
 627 002d 20010000 		.4byte	0x120
 628 0031 44656C61 		.ascii	"DelayCounter_Wakeup\000"
 628      79436F75 
 628      6E746572 
 628      5F57616B 
 628      65757000 
 629 0045 35010000 		.4byte	0x135
 630 0049 44656C61 		.ascii	"DelayCounter_SaveConfig\000"
 630      79436F75 
 630      6E746572 
 630      5F536176 
 630      65436F6E 
 631 0061 4A010000 		.4byte	0x14a
 632 0065 44656C61 		.ascii	"DelayCounter_Sleep\000"
 632      79436F75 
 632      6E746572 
 632      5F536C65 
 632      657000
 633 0078 00000000 		.4byte	0x0
 634              		.section	.debug_aranges,"",%progbits
 635 0000 34000000 		.4byte	0x34
 636 0004 0200     		.2byte	0x2
 637 0006 00000000 		.4byte	.Ldebug_info0
 638 000a 04       		.byte	0x4
 639 000b 00       		.byte	0x0
 640 000c 0000     		.2byte	0x0
 641 000e 0000     		.2byte	0x0
 642 0010 00000000 		.4byte	.LFB1
 643 0014 44000000 		.4byte	.LFE1-.LFB1
 644 0018 00000000 		.4byte	.LFB3
 645 001c 1C000000 		.4byte	.LFE3-.LFB3
 646 0020 00000000 		.4byte	.LFB0
 647 0024 2C000000 		.4byte	.LFE0-.LFB0
 648 0028 00000000 		.4byte	.LFB2
 649 002c 2C000000 		.4byte	.LFE2-.LFB2
 650 0030 00000000 		.4byte	0x0
 651 0034 00000000 		.4byte	0x0
 652              		.section	.debug_ranges,"",%progbits
ARM GAS  C:\Users\SUZUKI~1\AppData\Local\Temp\cc6YlRhH.s 			page 16


 653              	.Ldebug_ranges0:
 654 0000 00000000 		.4byte	.Ltext0
 655 0004 00000000 		.4byte	.Letext0
 656 0008 00000000 		.4byte	.LFB1
 657 000c 44000000 		.4byte	.LFE1
 658 0010 00000000 		.4byte	.LFB3
 659 0014 1C000000 		.4byte	.LFE3
 660 0018 00000000 		.4byte	.LFB0
 661 001c 2C000000 		.4byte	.LFE0
 662 0020 00000000 		.4byte	.LFB2
 663 0024 2C000000 		.4byte	.LFE2
 664 0028 00000000 		.4byte	0x0
 665 002c 00000000 		.4byte	0x0
 666              		.section	.debug_str,"MS",%progbits,1
 667              	.LASF6:
 668 0000 6C6F6E67 		.ascii	"long long int\000"
 668      206C6F6E 
 668      6720696E 
 668      7400
 669              	.LASF15:
 670 000e 436F6D70 		.ascii	"CompareValue\000"
 670      61726556 
 670      616C7565 
 670      00
 671              	.LASF8:
 672 001b 756E7369 		.ascii	"unsigned int\000"
 672      676E6564 
 672      20696E74 
 672      00
 673              	.LASF18:
 674 0028 44656C61 		.ascii	"DelayCounter_backupStruct\000"
 674      79436F75 
 674      6E746572 
 674      5F626163 
 674      6B757053 
 675              	.LASF26:
 676 0042 44656C61 		.ascii	"DelayCounter_interruptState\000"
 676      79436F75 
 676      6E746572 
 676      5F696E74 
 676      65727275 
 677              	.LASF10:
 678 005e 75696E74 		.ascii	"uint8\000"
 678      3800
 679              	.LASF5:
 680 0064 6C6F6E67 		.ascii	"long unsigned int\000"
 680      20756E73 
 680      69676E65 
 680      6420696E 
 680      7400
 681              	.LASF7:
 682 0076 6C6F6E67 		.ascii	"long long unsigned int\000"
 682      206C6F6E 
 682      6720756E 
 682      7369676E 
 682      65642069 
 683              	.LASF25:
ARM GAS  C:\Users\SUZUKI~1\AppData\Local\Temp\cc6YlRhH.s 			page 17


 684 008d 44656C61 		.ascii	"DelayCounter_RestoreConfig\000"
 684      79436F75 
 684      6E746572 
 684      5F526573 
 684      746F7265 
 685              	.LASF22:
 686 00a8 474E5520 		.ascii	"GNU C 4.4.1\000"
 686      4320342E 
 686      342E3100 
 687              	.LASF1:
 688 00b4 756E7369 		.ascii	"unsigned char\000"
 688      676E6564 
 688      20636861 
 688      7200
 689              	.LASF23:
 690 00c2 2E5C4765 		.ascii	".\\Generated_Source\\PSoC5\\DelayCounter_PM.c\000"
 690      6E657261 
 690      7465645F 
 690      536F7572 
 690      63655C50 
 691              	.LASF9:
 692 00ed 63686172 		.ascii	"char\000"
 692      00
 693              	.LASF24:
 694 00f2 463A5C44 		.ascii	"F:\\Documents\\PSoC_Creator\\ledmatrix\\ledmatrix.c"
 694      6F63756D 
 694      656E7473 
 694      5C50536F 
 694      435F4372 
 695 0121 7964736E 		.ascii	"ydsn\000"
 695      00
 696              	.LASF14:
 697 0126 436F756E 		.ascii	"CounterPeriod\000"
 697      74657250 
 697      6572696F 
 697      6400
 698              	.LASF4:
 699 0134 6C6F6E67 		.ascii	"long int\000"
 699      20696E74 
 699      00
 700              	.LASF16:
 701 013d 496E7465 		.ascii	"InterruptMaskValue\000"
 701      72727570 
 701      744D6173 
 701      6B56616C 
 701      756500
 702              	.LASF12:
 703 0150 436F756E 		.ascii	"CounterEnableState\000"
 703      74657245 
 703      6E61626C 
 703      65537461 
 703      746500
 704              	.LASF21:
 705 0163 44656C61 		.ascii	"DelayCounter_Sleep\000"
 705      79436F75 
 705      6E746572 
 705      5F536C65 
ARM GAS  C:\Users\SUZUKI~1\AppData\Local\Temp\cc6YlRhH.s 			page 18


 705      657000
 706              	.LASF27:
 707 0176 44656C61 		.ascii	"DelayCounter_backup\000"
 707      79436F75 
 707      6E746572 
 707      5F626163 
 707      6B757000 
 708              	.LASF3:
 709 018a 73686F72 		.ascii	"short unsigned int\000"
 709      7420756E 
 709      7369676E 
 709      65642069 
 709      6E7400
 710              	.LASF0:
 711 019d 7369676E 		.ascii	"signed char\000"
 711      65642063 
 711      68617200 
 712              	.LASF20:
 713 01a9 44656C61 		.ascii	"DelayCounter_SaveConfig\000"
 713      79436F75 
 713      6E746572 
 713      5F536176 
 713      65436F6E 
 714              	.LASF19:
 715 01c1 44656C61 		.ascii	"DelayCounter_Wakeup\000"
 715      79436F75 
 715      6E746572 
 715      5F57616B 
 715      65757000 
 716              	.LASF17:
 717 01d5 436F756E 		.ascii	"CounterControlRegister\000"
 717      74657243 
 717      6F6E7472 
 717      6F6C5265 
 717      67697374 
 718              	.LASF2:
 719 01ec 73686F72 		.ascii	"short int\000"
 719      7420696E 
 719      7400
 720              	.LASF11:
 721 01f6 75696E74 		.ascii	"uint16\000"
 721      313600
 722              	.LASF13:
 723 01fd 436F756E 		.ascii	"CounterUdb\000"
 723      74657255 
 723      646200
 724              		.ident	"GCC: (Sourcery G++ Lite 2010q1-188) 4.4.1"
