ARM GAS  C:\Users\SUZUKI~1\AppData\Local\Temp\cch2c756.s 			page 1


   1              		.syntax unified
   2              		.cpu cortex-m3
   3              		.fpu softvfp
   4              		.eabi_attribute 20, 1
   5              		.eabi_attribute 21, 1
   6              		.eabi_attribute 23, 3
   7              		.eabi_attribute 24, 1
   8              		.eabi_attribute 25, 1
   9              		.eabi_attribute 26, 1
  10              		.eabi_attribute 30, 4
  11              		.eabi_attribute 18, 4
  12              		.thumb
  13              		.file	"RCK.c"
  14              		.section	.debug_abbrev,"",%progbits
  15              	.Ldebug_abbrev0:
  16              		.section	.debug_info,"",%progbits
  17              	.Ldebug_info0:
  18              		.section	.debug_line,"",%progbits
  19              	.Ldebug_line0:
  20 0000 AB000000 		.text
  20      02005C00 
  20      00000201 
  20      FB0E0D00 
  20      01010101 
  21              	.Ltext0:
  22              		.cfi_sections	.debug_frame
  23              		.section	.text.RCK_Write,"ax",%progbits
  24              		.align	1
  25              		.global	RCK_Write
  26              		.thumb
  27              		.thumb_func
  28              		.type	RCK_Write, %function
  29              	RCK_Write:
  30              	.LFB0:
  31              		.file 1 ".\\Generated_Source\\PSoC5\\RCK.c"
   1:.\Generated_Source\PSoC5/RCK.c **** /*******************************************************************************
   2:.\Generated_Source\PSoC5/RCK.c **** * File Name: RCK.c  
   3:.\Generated_Source\PSoC5/RCK.c **** * Version 1.70
   4:.\Generated_Source\PSoC5/RCK.c **** *
   5:.\Generated_Source\PSoC5/RCK.c **** * Description:
   6:.\Generated_Source\PSoC5/RCK.c **** *  This file contains API to enable firmware control of a Pins component.
   7:.\Generated_Source\PSoC5/RCK.c **** *
   8:.\Generated_Source\PSoC5/RCK.c **** * Note:
   9:.\Generated_Source\PSoC5/RCK.c **** *
  10:.\Generated_Source\PSoC5/RCK.c **** ********************************************************************************
  11:.\Generated_Source\PSoC5/RCK.c **** * Copyright 2008-2010, Cypress Semiconductor Corporation.  All rights reserved.
  12:.\Generated_Source\PSoC5/RCK.c **** * You may use this file only in accordance with the license, terms, conditions, 
  13:.\Generated_Source\PSoC5/RCK.c **** * disclaimers, and limitations in the end user license agreement accompanying 
  14:.\Generated_Source\PSoC5/RCK.c **** * the software package with which this file was provided.
  15:.\Generated_Source\PSoC5/RCK.c **** ********************************************************************************/
  16:.\Generated_Source\PSoC5/RCK.c **** 
  17:.\Generated_Source\PSoC5/RCK.c **** #include "cytypes.h"
  18:.\Generated_Source\PSoC5/RCK.c **** #include "RCK.h"
  19:.\Generated_Source\PSoC5/RCK.c **** 
  20:.\Generated_Source\PSoC5/RCK.c **** /* APIs are not generated for P15[7:6] */
  21:.\Generated_Source\PSoC5/RCK.c **** #if !(CY_PSOC5A &&\
  22:.\Generated_Source\PSoC5/RCK.c **** 	 RCK__PORT == 15 && (RCK__MASK & 0xC0))
ARM GAS  C:\Users\SUZUKI~1\AppData\Local\Temp\cch2c756.s 			page 2


  23:.\Generated_Source\PSoC5/RCK.c **** 
  24:.\Generated_Source\PSoC5/RCK.c **** /*******************************************************************************
  25:.\Generated_Source\PSoC5/RCK.c **** * Function Name: RCK_Write
  26:.\Generated_Source\PSoC5/RCK.c **** ********************************************************************************
  27:.\Generated_Source\PSoC5/RCK.c **** * Summary:
  28:.\Generated_Source\PSoC5/RCK.c **** *  Assign a new value to the digital port's data output register.  
  29:.\Generated_Source\PSoC5/RCK.c **** *
  30:.\Generated_Source\PSoC5/RCK.c **** * Parameters:  
  31:.\Generated_Source\PSoC5/RCK.c **** *  prtValue:  The value to be assigned to the Digital Port. 
  32:.\Generated_Source\PSoC5/RCK.c **** *
  33:.\Generated_Source\PSoC5/RCK.c **** * Return: 
  34:.\Generated_Source\PSoC5/RCK.c **** *  void 
  35:.\Generated_Source\PSoC5/RCK.c **** *  
  36:.\Generated_Source\PSoC5/RCK.c **** *******************************************************************************/
  37:.\Generated_Source\PSoC5/RCK.c **** void RCK_Write(uint8 value) 
  38:.\Generated_Source\PSoC5/RCK.c **** {
  32              		.loc 1 38 0
  33              		.cfi_startproc
  34              		@ args = 0, pretend = 0, frame = 0
  35              		@ frame_needed = 0, uses_anonymous_args = 0
  36              		@ link register save eliminated.
  37              	.LVL0:
  39:.\Generated_Source\PSoC5/RCK.c ****     uint8 staticBits = RCK_DR & ~RCK_MASK;
  38              		.loc 1 39 0
  39 0000 054B     		ldr	r3, .L3
  40:.\Generated_Source\PSoC5/RCK.c ****     RCK_DR = staticBits | ((value << RCK_SHIFT) & RCK_MASK);
  40              		.loc 1 40 0
  41 0002 8000     		lsls	r0, r0, #2
  42              	.LVL1:
  43              		.loc 1 39 0
  44 0004 1A78     		ldrb	r2, [r3, #0]	@ zero_extendqisi2
  45              		.loc 1 40 0
  46 0006 00F00400 		and	r0, r0, #4
  47 000a 02F0FB02 		and	r2, r2, #251
  48 000e 40EA0202 		orr	r2, r0, r2
  49 0012 1A70     		strb	r2, [r3, #0]
  41:.\Generated_Source\PSoC5/RCK.c **** }
  50              		.loc 1 41 0
  51 0014 7047     		bx	lr
  52              	.L4:
  53 0016 00BF     		.align	2
  54              	.L3:
  55 0018 20510040 		.word	1073762592
  56              		.cfi_endproc
  57              	.LFE0:
  58              		.size	RCK_Write, .-RCK_Write
  59              		.section	.text.RCK_SetDriveMode,"ax",%progbits
  60              		.align	1
  61              		.global	RCK_SetDriveMode
  62              		.thumb
  63              		.thumb_func
  64              		.type	RCK_SetDriveMode, %function
  65              	RCK_SetDriveMode:
  66              	.LFB1:
  42:.\Generated_Source\PSoC5/RCK.c **** 
  43:.\Generated_Source\PSoC5/RCK.c **** 
  44:.\Generated_Source\PSoC5/RCK.c **** /*******************************************************************************
ARM GAS  C:\Users\SUZUKI~1\AppData\Local\Temp\cch2c756.s 			page 3


  45:.\Generated_Source\PSoC5/RCK.c **** * Function Name: RCK_SetDriveMode
  46:.\Generated_Source\PSoC5/RCK.c **** ********************************************************************************
  47:.\Generated_Source\PSoC5/RCK.c **** * Summary:
  48:.\Generated_Source\PSoC5/RCK.c **** *  Change the drive mode on the pins of the port.
  49:.\Generated_Source\PSoC5/RCK.c **** * 
  50:.\Generated_Source\PSoC5/RCK.c **** * Parameters:  
  51:.\Generated_Source\PSoC5/RCK.c **** *  mode:  Change the pins to this drive mode.
  52:.\Generated_Source\PSoC5/RCK.c **** *
  53:.\Generated_Source\PSoC5/RCK.c **** * Return: 
  54:.\Generated_Source\PSoC5/RCK.c **** *  void
  55:.\Generated_Source\PSoC5/RCK.c **** *
  56:.\Generated_Source\PSoC5/RCK.c **** *******************************************************************************/
  57:.\Generated_Source\PSoC5/RCK.c **** void RCK_SetDriveMode(uint8 mode) 
  58:.\Generated_Source\PSoC5/RCK.c **** {
  67              		.loc 1 58 0
  68              		.cfi_startproc
  69              		@ args = 0, pretend = 0, frame = 0
  70              		@ frame_needed = 0, uses_anonymous_args = 0
  71              		@ link register save eliminated.
  72              	.LVL2:
  59:.\Generated_Source\PSoC5/RCK.c **** 	CyPins_SetPinDriveMode(RCK_0, mode);
  73              		.loc 1 59 0
  74 0000 044B     		ldr	r3, .L7
  75 0002 00F00E00 		and	r0, r0, #14
  76              	.LVL3:
  77 0006 1A78     		ldrb	r2, [r3, #0]	@ zero_extendqisi2
  78 0008 02F0F102 		and	r2, r2, #241
  79 000c 40EA0202 		orr	r2, r0, r2
  80 0010 1A70     		strb	r2, [r3, #0]
  60:.\Generated_Source\PSoC5/RCK.c **** }
  81              		.loc 1 60 0
  82 0012 7047     		bx	lr
  83              	.L8:
  84              		.align	2
  85              	.L7:
  86 0014 12500040 		.word	1073762322
  87              		.cfi_endproc
  88              	.LFE1:
  89              		.size	RCK_SetDriveMode, .-RCK_SetDriveMode
  90              		.section	.text.RCK_Read,"ax",%progbits
  91              		.align	1
  92              		.global	RCK_Read
  93              		.thumb
  94              		.thumb_func
  95              		.type	RCK_Read, %function
  96              	RCK_Read:
  97              	.LFB2:
  61:.\Generated_Source\PSoC5/RCK.c **** 
  62:.\Generated_Source\PSoC5/RCK.c **** 
  63:.\Generated_Source\PSoC5/RCK.c **** /*******************************************************************************
  64:.\Generated_Source\PSoC5/RCK.c **** * Function Name: RCK_Read
  65:.\Generated_Source\PSoC5/RCK.c **** ********************************************************************************
  66:.\Generated_Source\PSoC5/RCK.c **** * Summary:
  67:.\Generated_Source\PSoC5/RCK.c **** *  Read the current value on the pins of the Digital Port in right justified 
  68:.\Generated_Source\PSoC5/RCK.c **** *  form.
  69:.\Generated_Source\PSoC5/RCK.c **** *
  70:.\Generated_Source\PSoC5/RCK.c **** * Parameters:  
ARM GAS  C:\Users\SUZUKI~1\AppData\Local\Temp\cch2c756.s 			page 4


  71:.\Generated_Source\PSoC5/RCK.c **** *  void 
  72:.\Generated_Source\PSoC5/RCK.c **** *
  73:.\Generated_Source\PSoC5/RCK.c **** * Return: 
  74:.\Generated_Source\PSoC5/RCK.c **** *  Returns the current value of the Digital Port as a right justified number
  75:.\Generated_Source\PSoC5/RCK.c **** *  
  76:.\Generated_Source\PSoC5/RCK.c **** * Note:
  77:.\Generated_Source\PSoC5/RCK.c **** *  Macro RCK_ReadPS calls this function. 
  78:.\Generated_Source\PSoC5/RCK.c **** *  
  79:.\Generated_Source\PSoC5/RCK.c **** *******************************************************************************/
  80:.\Generated_Source\PSoC5/RCK.c **** uint8 RCK_Read(void) 
  81:.\Generated_Source\PSoC5/RCK.c **** {
  98              		.loc 1 81 0
  99              		.cfi_startproc
 100              		@ args = 0, pretend = 0, frame = 0
 101              		@ frame_needed = 0, uses_anonymous_args = 0
 102              		@ link register save eliminated.
  82:.\Generated_Source\PSoC5/RCK.c ****     return (RCK_PS & RCK_MASK) >> RCK_SHIFT;
 103              		.loc 1 82 0
 104 0000 024B     		ldr	r3, .L11
 105 0002 1878     		ldrb	r0, [r3, #0]	@ zero_extendqisi2
  83:.\Generated_Source\PSoC5/RCK.c **** }
 106              		.loc 1 83 0
 107 0004 C0F38000 		ubfx	r0, r0, #2, #1
 108 0008 7047     		bx	lr
 109              	.L12:
 110 000a 00BF     		.align	2
 111              	.L11:
 112 000c 21510040 		.word	1073762593
 113              		.cfi_endproc
 114              	.LFE2:
 115              		.size	RCK_Read, .-RCK_Read
 116              		.section	.text.RCK_ReadDataReg,"ax",%progbits
 117              		.align	1
 118              		.global	RCK_ReadDataReg
 119              		.thumb
 120              		.thumb_func
 121              		.type	RCK_ReadDataReg, %function
 122              	RCK_ReadDataReg:
 123              	.LFB3:
  84:.\Generated_Source\PSoC5/RCK.c **** 
  85:.\Generated_Source\PSoC5/RCK.c **** 
  86:.\Generated_Source\PSoC5/RCK.c **** /*******************************************************************************
  87:.\Generated_Source\PSoC5/RCK.c **** * Function Name: RCK_ReadDataReg
  88:.\Generated_Source\PSoC5/RCK.c **** ********************************************************************************
  89:.\Generated_Source\PSoC5/RCK.c **** * Summary:
  90:.\Generated_Source\PSoC5/RCK.c **** *  Read the current value assigned to a Digital Port's data output register
  91:.\Generated_Source\PSoC5/RCK.c **** *
  92:.\Generated_Source\PSoC5/RCK.c **** * Parameters:  
  93:.\Generated_Source\PSoC5/RCK.c **** *  void 
  94:.\Generated_Source\PSoC5/RCK.c **** *
  95:.\Generated_Source\PSoC5/RCK.c **** * Return: 
  96:.\Generated_Source\PSoC5/RCK.c **** *  Returns the current value assigned to the Digital Port's data output register
  97:.\Generated_Source\PSoC5/RCK.c **** *  
  98:.\Generated_Source\PSoC5/RCK.c **** *******************************************************************************/
  99:.\Generated_Source\PSoC5/RCK.c **** uint8 RCK_ReadDataReg(void) 
 100:.\Generated_Source\PSoC5/RCK.c **** {
 124              		.loc 1 100 0
ARM GAS  C:\Users\SUZUKI~1\AppData\Local\Temp\cch2c756.s 			page 5


 125              		.cfi_startproc
 126              		@ args = 0, pretend = 0, frame = 0
 127              		@ frame_needed = 0, uses_anonymous_args = 0
 128              		@ link register save eliminated.
 101:.\Generated_Source\PSoC5/RCK.c ****     return (RCK_DR & RCK_MASK) >> RCK_SHIFT;
 129              		.loc 1 101 0
 130 0000 024B     		ldr	r3, .L15
 131 0002 1878     		ldrb	r0, [r3, #0]	@ zero_extendqisi2
 102:.\Generated_Source\PSoC5/RCK.c **** }
 132              		.loc 1 102 0
 133 0004 C0F38000 		ubfx	r0, r0, #2, #1
 134 0008 7047     		bx	lr
 135              	.L16:
 136 000a 00BF     		.align	2
 137              	.L15:
 138 000c 20510040 		.word	1073762592
 139              		.cfi_endproc
 140              	.LFE3:
 141              		.size	RCK_ReadDataReg, .-RCK_ReadDataReg
 142              		.text
 143              	.Letext0:
 144              		.section	.debug_loc,"",%progbits
 145              	.Ldebug_loc0:
 146              	.LLST1:
 147 0000 00000000 		.4byte	.LVL0
 148 0004 04000000 		.4byte	.LVL1
 149 0008 0100     		.2byte	0x1
 150 000a 50       		.byte	0x50
 151 000b 00000000 		.4byte	0x0
 152 000f 00000000 		.4byte	0x0
 153              	.LLST3:
 154 0013 00000000 		.4byte	.LVL2
 155 0017 06000000 		.4byte	.LVL3
 156 001b 0100     		.2byte	0x1
 157 001d 50       		.byte	0x50
 158 001e 00000000 		.4byte	0x0
 159 0022 00000000 		.4byte	0x0
 160              		.file 2 ".\\Generated_Source\\PSoC5\\/cytypes.h"
 161              		.section	.debug_info
 162 0000 05010000 		.4byte	0x105
 163 0004 0200     		.2byte	0x2
 164 0006 00000000 		.4byte	.Ldebug_abbrev0
 165 000a 04       		.byte	0x4
 166 000b 01       		.uleb128 0x1
 167 000c E3000000 		.4byte	.LASF16
 168 0010 01       		.byte	0x1
 169 0011 04010000 		.4byte	.LASF17
 170 0015 57000000 		.4byte	.LASF18
 171 0019 00000000 		.4byte	0x0
 172 001d 00000000 		.4byte	0x0
 173 0021 00000000 		.4byte	.Ldebug_ranges0+0x0
 174 0025 00000000 		.4byte	.Ldebug_line0
 175 0029 02       		.uleb128 0x2
 176 002a 01       		.byte	0x1
 177 002b 06       		.byte	0x6
 178 002c 2C010000 		.4byte	.LASF0
 179 0030 02       		.uleb128 0x2
ARM GAS  C:\Users\SUZUKI~1\AppData\Local\Temp\cch2c756.s 			page 6


 180 0031 01       		.byte	0x1
 181 0032 08       		.byte	0x8
 182 0033 49000000 		.4byte	.LASF1
 183 0037 02       		.uleb128 0x2
 184 0038 02       		.byte	0x2
 185 0039 05       		.byte	0x5
 186 003a F4000000 		.4byte	.LASF2
 187 003e 02       		.uleb128 0x2
 188 003f 02       		.byte	0x2
 189 0040 07       		.byte	0x7
 190 0041 9D000000 		.4byte	.LASF3
 191 0045 02       		.uleb128 0x2
 192 0046 04       		.byte	0x4
 193 0047 05       		.byte	0x5
 194 0048 23010000 		.4byte	.LASF4
 195 004c 02       		.uleb128 0x2
 196 004d 04       		.byte	0x4
 197 004e 07       		.byte	0x7
 198 004f 8B000000 		.4byte	.LASF5
 199 0053 02       		.uleb128 0x2
 200 0054 08       		.byte	0x8
 201 0055 05       		.byte	0x5
 202 0056 00000000 		.4byte	.LASF6
 203 005a 02       		.uleb128 0x2
 204 005b 08       		.byte	0x8
 205 005c 07       		.byte	0x7
 206 005d C7000000 		.4byte	.LASF7
 207 0061 03       		.uleb128 0x3
 208 0062 04       		.byte	0x4
 209 0063 05       		.byte	0x5
 210 0064 696E7400 		.ascii	"int\000"
 211 0068 02       		.uleb128 0x2
 212 0069 04       		.byte	0x4
 213 006a 07       		.byte	0x7
 214 006b BA000000 		.4byte	.LASF8
 215 006f 02       		.uleb128 0x2
 216 0070 01       		.byte	0x1
 217 0071 08       		.byte	0x8
 218 0072 EF000000 		.4byte	.LASF9
 219 0076 04       		.uleb128 0x4
 220 0077 FE000000 		.4byte	.LASF19
 221 007b 02       		.byte	0x2
 222 007c 60       		.byte	0x60
 223 007d 30000000 		.4byte	0x30
 224 0081 05       		.uleb128 0x5
 225 0082 01       		.byte	0x1
 226 0083 B0000000 		.4byte	.LASF10
 227 0087 01       		.byte	0x1
 228 0088 25       		.byte	0x25
 229 0089 01       		.byte	0x1
 230 008a 00000000 		.4byte	.LFB0
 231 008e 1C000000 		.4byte	.LFE0
 232 0092 01       		.byte	0x1
 233 0093 5D       		.byte	0x5d
 234 0094 B3000000 		.4byte	0xb3
 235 0098 06       		.uleb128 0x6
 236 0099 1F000000 		.4byte	.LASF12
ARM GAS  C:\Users\SUZUKI~1\AppData\Local\Temp\cch2c756.s 			page 7


 237 009d 01       		.byte	0x1
 238 009e 25       		.byte	0x25
 239 009f 76000000 		.4byte	0x76
 240 00a3 00000000 		.4byte	.LLST1
 241 00a7 07       		.uleb128 0x7
 242 00a8 25000000 		.4byte	.LASF20
 243 00ac 01       		.byte	0x1
 244 00ad 27       		.byte	0x27
 245 00ae 76000000 		.4byte	0x76
 246 00b2 00       		.byte	0x0
 247 00b3 05       		.uleb128 0x5
 248 00b4 01       		.byte	0x1
 249 00b5 0E000000 		.4byte	.LASF11
 250 00b9 01       		.byte	0x1
 251 00ba 39       		.byte	0x39
 252 00bb 01       		.byte	0x1
 253 00bc 00000000 		.4byte	.LFB1
 254 00c0 18000000 		.4byte	.LFE1
 255 00c4 01       		.byte	0x1
 256 00c5 5D       		.byte	0x5d
 257 00c6 DA000000 		.4byte	0xda
 258 00ca 06       		.uleb128 0x6
 259 00cb DE000000 		.4byte	.LASF13
 260 00cf 01       		.byte	0x1
 261 00d0 39       		.byte	0x39
 262 00d1 76000000 		.4byte	0x76
 263 00d5 13000000 		.4byte	.LLST3
 264 00d9 00       		.byte	0x0
 265 00da 08       		.uleb128 0x8
 266 00db 01       		.byte	0x1
 267 00dc 40000000 		.4byte	.LASF14
 268 00e0 01       		.byte	0x1
 269 00e1 50       		.byte	0x50
 270 00e2 01       		.byte	0x1
 271 00e3 76000000 		.4byte	0x76
 272 00e7 00000000 		.4byte	.LFB2
 273 00eb 10000000 		.4byte	.LFE2
 274 00ef 01       		.byte	0x1
 275 00f0 5D       		.byte	0x5d
 276 00f1 08       		.uleb128 0x8
 277 00f2 01       		.byte	0x1
 278 00f3 30000000 		.4byte	.LASF15
 279 00f7 01       		.byte	0x1
 280 00f8 63       		.byte	0x63
 281 00f9 01       		.byte	0x1
 282 00fa 76000000 		.4byte	0x76
 283 00fe 00000000 		.4byte	.LFB3
 284 0102 10000000 		.4byte	.LFE3
 285 0106 01       		.byte	0x1
 286 0107 5D       		.byte	0x5d
 287 0108 00       		.byte	0x0
 288              		.section	.debug_abbrev
 289 0000 01       		.uleb128 0x1
 290 0001 11       		.uleb128 0x11
 291 0002 01       		.byte	0x1
 292 0003 25       		.uleb128 0x25
 293 0004 0E       		.uleb128 0xe
ARM GAS  C:\Users\SUZUKI~1\AppData\Local\Temp\cch2c756.s 			page 8


 294 0005 13       		.uleb128 0x13
 295 0006 0B       		.uleb128 0xb
 296 0007 03       		.uleb128 0x3
 297 0008 0E       		.uleb128 0xe
 298 0009 1B       		.uleb128 0x1b
 299 000a 0E       		.uleb128 0xe
 300 000b 11       		.uleb128 0x11
 301 000c 01       		.uleb128 0x1
 302 000d 52       		.uleb128 0x52
 303 000e 01       		.uleb128 0x1
 304 000f 55       		.uleb128 0x55
 305 0010 06       		.uleb128 0x6
 306 0011 10       		.uleb128 0x10
 307 0012 06       		.uleb128 0x6
 308 0013 00       		.byte	0x0
 309 0014 00       		.byte	0x0
 310 0015 02       		.uleb128 0x2
 311 0016 24       		.uleb128 0x24
 312 0017 00       		.byte	0x0
 313 0018 0B       		.uleb128 0xb
 314 0019 0B       		.uleb128 0xb
 315 001a 3E       		.uleb128 0x3e
 316 001b 0B       		.uleb128 0xb
 317 001c 03       		.uleb128 0x3
 318 001d 0E       		.uleb128 0xe
 319 001e 00       		.byte	0x0
 320 001f 00       		.byte	0x0
 321 0020 03       		.uleb128 0x3
 322 0021 24       		.uleb128 0x24
 323 0022 00       		.byte	0x0
 324 0023 0B       		.uleb128 0xb
 325 0024 0B       		.uleb128 0xb
 326 0025 3E       		.uleb128 0x3e
 327 0026 0B       		.uleb128 0xb
 328 0027 03       		.uleb128 0x3
 329 0028 08       		.uleb128 0x8
 330 0029 00       		.byte	0x0
 331 002a 00       		.byte	0x0
 332 002b 04       		.uleb128 0x4
 333 002c 16       		.uleb128 0x16
 334 002d 00       		.byte	0x0
 335 002e 03       		.uleb128 0x3
 336 002f 0E       		.uleb128 0xe
 337 0030 3A       		.uleb128 0x3a
 338 0031 0B       		.uleb128 0xb
 339 0032 3B       		.uleb128 0x3b
 340 0033 0B       		.uleb128 0xb
 341 0034 49       		.uleb128 0x49
 342 0035 13       		.uleb128 0x13
 343 0036 00       		.byte	0x0
 344 0037 00       		.byte	0x0
 345 0038 05       		.uleb128 0x5
 346 0039 2E       		.uleb128 0x2e
 347 003a 01       		.byte	0x1
 348 003b 3F       		.uleb128 0x3f
 349 003c 0C       		.uleb128 0xc
 350 003d 03       		.uleb128 0x3
ARM GAS  C:\Users\SUZUKI~1\AppData\Local\Temp\cch2c756.s 			page 9


 351 003e 0E       		.uleb128 0xe
 352 003f 3A       		.uleb128 0x3a
 353 0040 0B       		.uleb128 0xb
 354 0041 3B       		.uleb128 0x3b
 355 0042 0B       		.uleb128 0xb
 356 0043 27       		.uleb128 0x27
 357 0044 0C       		.uleb128 0xc
 358 0045 11       		.uleb128 0x11
 359 0046 01       		.uleb128 0x1
 360 0047 12       		.uleb128 0x12
 361 0048 01       		.uleb128 0x1
 362 0049 40       		.uleb128 0x40
 363 004a 0A       		.uleb128 0xa
 364 004b 01       		.uleb128 0x1
 365 004c 13       		.uleb128 0x13
 366 004d 00       		.byte	0x0
 367 004e 00       		.byte	0x0
 368 004f 06       		.uleb128 0x6
 369 0050 05       		.uleb128 0x5
 370 0051 00       		.byte	0x0
 371 0052 03       		.uleb128 0x3
 372 0053 0E       		.uleb128 0xe
 373 0054 3A       		.uleb128 0x3a
 374 0055 0B       		.uleb128 0xb
 375 0056 3B       		.uleb128 0x3b
 376 0057 0B       		.uleb128 0xb
 377 0058 49       		.uleb128 0x49
 378 0059 13       		.uleb128 0x13
 379 005a 02       		.uleb128 0x2
 380 005b 06       		.uleb128 0x6
 381 005c 00       		.byte	0x0
 382 005d 00       		.byte	0x0
 383 005e 07       		.uleb128 0x7
 384 005f 34       		.uleb128 0x34
 385 0060 00       		.byte	0x0
 386 0061 03       		.uleb128 0x3
 387 0062 0E       		.uleb128 0xe
 388 0063 3A       		.uleb128 0x3a
 389 0064 0B       		.uleb128 0xb
 390 0065 3B       		.uleb128 0x3b
 391 0066 0B       		.uleb128 0xb
 392 0067 49       		.uleb128 0x49
 393 0068 13       		.uleb128 0x13
 394 0069 00       		.byte	0x0
 395 006a 00       		.byte	0x0
 396 006b 08       		.uleb128 0x8
 397 006c 2E       		.uleb128 0x2e
 398 006d 00       		.byte	0x0
 399 006e 3F       		.uleb128 0x3f
 400 006f 0C       		.uleb128 0xc
 401 0070 03       		.uleb128 0x3
 402 0071 0E       		.uleb128 0xe
 403 0072 3A       		.uleb128 0x3a
 404 0073 0B       		.uleb128 0xb
 405 0074 3B       		.uleb128 0x3b
 406 0075 0B       		.uleb128 0xb
 407 0076 27       		.uleb128 0x27
ARM GAS  C:\Users\SUZUKI~1\AppData\Local\Temp\cch2c756.s 			page 10


 408 0077 0C       		.uleb128 0xc
 409 0078 49       		.uleb128 0x49
 410 0079 13       		.uleb128 0x13
 411 007a 11       		.uleb128 0x11
 412 007b 01       		.uleb128 0x1
 413 007c 12       		.uleb128 0x12
 414 007d 01       		.uleb128 0x1
 415 007e 40       		.uleb128 0x40
 416 007f 0A       		.uleb128 0xa
 417 0080 00       		.byte	0x0
 418 0081 00       		.byte	0x0
 419 0082 00       		.byte	0x0
 420              		.section	.debug_pubnames,"",%progbits
 421 0000 52000000 		.4byte	0x52
 422 0004 0200     		.2byte	0x2
 423 0006 00000000 		.4byte	.Ldebug_info0
 424 000a 09010000 		.4byte	0x109
 425 000e 81000000 		.4byte	0x81
 426 0012 52434B5F 		.ascii	"RCK_Write\000"
 426      57726974 
 426      6500
 427 001c B3000000 		.4byte	0xb3
 428 0020 52434B5F 		.ascii	"RCK_SetDriveMode\000"
 428      53657444 
 428      72697665 
 428      4D6F6465 
 428      00
 429 0031 DA000000 		.4byte	0xda
 430 0035 52434B5F 		.ascii	"RCK_Read\000"
 430      52656164 
 430      00
 431 003e F1000000 		.4byte	0xf1
 432 0042 52434B5F 		.ascii	"RCK_ReadDataReg\000"
 432      52656164 
 432      44617461 
 432      52656700 
 433 0052 00000000 		.4byte	0x0
 434              		.section	.debug_aranges,"",%progbits
 435 0000 34000000 		.4byte	0x34
 436 0004 0200     		.2byte	0x2
 437 0006 00000000 		.4byte	.Ldebug_info0
 438 000a 04       		.byte	0x4
 439 000b 00       		.byte	0x0
 440 000c 0000     		.2byte	0x0
 441 000e 0000     		.2byte	0x0
 442 0010 00000000 		.4byte	.LFB0
 443 0014 1C000000 		.4byte	.LFE0-.LFB0
 444 0018 00000000 		.4byte	.LFB1
 445 001c 18000000 		.4byte	.LFE1-.LFB1
 446 0020 00000000 		.4byte	.LFB2
 447 0024 10000000 		.4byte	.LFE2-.LFB2
 448 0028 00000000 		.4byte	.LFB3
 449 002c 10000000 		.4byte	.LFE3-.LFB3
 450 0030 00000000 		.4byte	0x0
 451 0034 00000000 		.4byte	0x0
 452              		.section	.debug_ranges,"",%progbits
 453              	.Ldebug_ranges0:
ARM GAS  C:\Users\SUZUKI~1\AppData\Local\Temp\cch2c756.s 			page 11


 454 0000 00000000 		.4byte	.Ltext0
 455 0004 00000000 		.4byte	.Letext0
 456 0008 00000000 		.4byte	.LFB0
 457 000c 1C000000 		.4byte	.LFE0
 458 0010 00000000 		.4byte	.LFB1
 459 0014 18000000 		.4byte	.LFE1
 460 0018 00000000 		.4byte	.LFB2
 461 001c 10000000 		.4byte	.LFE2
 462 0020 00000000 		.4byte	.LFB3
 463 0024 10000000 		.4byte	.LFE3
 464 0028 00000000 		.4byte	0x0
 465 002c 00000000 		.4byte	0x0
 466              		.section	.debug_str,"MS",%progbits,1
 467              	.LASF6:
 468 0000 6C6F6E67 		.ascii	"long long int\000"
 468      206C6F6E 
 468      6720696E 
 468      7400
 469              	.LASF11:
 470 000e 52434B5F 		.ascii	"RCK_SetDriveMode\000"
 470      53657444 
 470      72697665 
 470      4D6F6465 
 470      00
 471              	.LASF12:
 472 001f 76616C75 		.ascii	"value\000"
 472      6500
 473              	.LASF20:
 474 0025 73746174 		.ascii	"staticBits\000"
 474      69634269 
 474      747300
 475              	.LASF15:
 476 0030 52434B5F 		.ascii	"RCK_ReadDataReg\000"
 476      52656164 
 476      44617461 
 476      52656700 
 477              	.LASF14:
 478 0040 52434B5F 		.ascii	"RCK_Read\000"
 478      52656164 
 478      00
 479              	.LASF1:
 480 0049 756E7369 		.ascii	"unsigned char\000"
 480      676E6564 
 480      20636861 
 480      7200
 481              	.LASF18:
 482 0057 463A5C44 		.ascii	"F:\\Documents\\PSoC_Creator\\ledmatrix\\ledmatrix.c"
 482      6F63756D 
 482      656E7473 
 482      5C50536F 
 482      435F4372 
 483 0086 7964736E 		.ascii	"ydsn\000"
 483      00
 484              	.LASF5:
 485 008b 6C6F6E67 		.ascii	"long unsigned int\000"
 485      20756E73 
 485      69676E65 
ARM GAS  C:\Users\SUZUKI~1\AppData\Local\Temp\cch2c756.s 			page 12


 485      6420696E 
 485      7400
 486              	.LASF3:
 487 009d 73686F72 		.ascii	"short unsigned int\000"
 487      7420756E 
 487      7369676E 
 487      65642069 
 487      6E7400
 488              	.LASF10:
 489 00b0 52434B5F 		.ascii	"RCK_Write\000"
 489      57726974 
 489      6500
 490              	.LASF8:
 491 00ba 756E7369 		.ascii	"unsigned int\000"
 491      676E6564 
 491      20696E74 
 491      00
 492              	.LASF7:
 493 00c7 6C6F6E67 		.ascii	"long long unsigned int\000"
 493      206C6F6E 
 493      6720756E 
 493      7369676E 
 493      65642069 
 494              	.LASF13:
 495 00de 6D6F6465 		.ascii	"mode\000"
 495      00
 496              	.LASF16:
 497 00e3 474E5520 		.ascii	"GNU C 4.4.1\000"
 497      4320342E 
 497      342E3100 
 498              	.LASF9:
 499 00ef 63686172 		.ascii	"char\000"
 499      00
 500              	.LASF2:
 501 00f4 73686F72 		.ascii	"short int\000"
 501      7420696E 
 501      7400
 502              	.LASF19:
 503 00fe 75696E74 		.ascii	"uint8\000"
 503      3800
 504              	.LASF17:
 505 0104 2E5C4765 		.ascii	".\\Generated_Source\\PSoC5\\RCK.c\000"
 505      6E657261 
 505      7465645F 
 505      536F7572 
 505      63655C50 
 506              	.LASF4:
 507 0123 6C6F6E67 		.ascii	"long int\000"
 507      20696E74 
 507      00
 508              	.LASF0:
 509 012c 7369676E 		.ascii	"signed char\000"
 509      65642063 
 509      68617200 
 510              		.ident	"GCC: (Sourcery G++ Lite 2010q1-188) 4.4.1"
