:20000000010101400107014004090140010B0140010D0140010F014023180140171901402C
:20002000351A0140321B01400440014002410140014201400243014006440140034501407B
:20004000034601400B470140094C01400E4D01400350014001510140E208E4808E108F01AE
:200060009508E480950895088504020F04020809100C1C07200C240C300F38025804900193
:200080009402AE03B003BE01C024C50BC70EC811C9FFCAFFCBFFD004D804DA04E250E4C086
:2000A000E650E910EA50EB10EC30ED10EE50EFB0051507800BA00E020F80138017091880B0
:2000C0001C404044482051048C209480950896209701A840C070C29CC431D005E8010001AE
:2000E000021008080C680F041022144417071B061C68246828082C083102320F34613501DB
:200100003610370438083A833BAE3E0458045909821D860D8A058E018F0F920293039707C2
:200120009E1D9F01A21DA30FA61DAA1DAE1DB004B102B210B301B408B508B603B704BAA872
:20014000BBAABE01D804D90400200102030105550A010BA00E8112021328176918041903F5
:200160001A011B441C201D541E821F502040210822102301260227692D0231083210374988
:2001800038403F807B04804085088F049404962097A19D159F09A601A740C0FBC29DC4F786
:2001A000CA80CCD6CE18DE04E002E4043C208410CE20E2101308C4109B088B089B085320B6
:2001C00057045A105F20D407D60496109F20A72496109F20A724520255108B028E108F2033
:2001E00096109F20A724D403E002E4098D109F20A108A302A510A704A908AA02E40851087D
:20020000530155105702830487208F019F20A118A302A704D407D604E002100112101C015F
:2002200010010000000F0F000F000000000C0C000C000000000F0F000F0000000A03000022
:20024000000000000309000000000000080400000000000000000000000000000000000086
:00000001FF
