G00
G90
G71
G40
M48
T01C0.400
T02C0.900
T03C1.000
T04C2.300
T05C3.200
%
G81
T01
X122873Y113983
X164148Y121603
X164148Y122555
X164148Y120650
X140653Y110173
X139700Y110173
X162560Y101600
X173673Y108903
X172403Y108903
X141288Y107633
X166688Y109538
X154940Y127635
X153670Y127635
X135255Y123508
X155893Y98743
X173673Y110173
X142240Y126365
X152083Y127635
X170815Y127635
X169228Y128588
X170180Y129540
X167323Y106680
X167958Y107633
X167323Y108585
X148273Y110808
X142558Y104775
X140653Y106680
X145733Y100965
X145733Y101918
X157163Y95250
X153035Y93663
X127635Y100013
X172403Y113665
X167958Y113348
X145733Y124143
X139700Y111125
X144145Y126365
X167958Y114300
X152083Y93663
X155893Y97790
X154623Y92075
X161608Y101600
X130810Y92075
X126683Y100013
X133985Y112713
X129223Y109855
X122555Y100013
X128270Y108903
X127635Y108268
X134620Y113348
X128588Y100013
X131763Y92075
X163513Y101600
X155893Y93028
X140335Y130175
X137795Y117475
X147955Y122555
X145415Y130175
X150495Y125095
X150495Y114935
X155575Y114935
X153035Y112395
X163195Y131445
X161925Y122555
X161925Y125095
X180975Y114935
X180975Y125095
X178435Y109855
X183515Y109855
X175895Y92075
X183515Y97155
X153035Y106045
X153035Y97155
X163195Y92075
X165735Y97155
X158115Y88900
X120015Y109220
X122555Y109220
X132715Y109220
X133985Y109220
X127635Y114935
X120015Y94615
X120015Y86995
X137795Y104775
X130175Y103505
X133350Y103505
X121603Y103505
X124778Y103505
X178435Y130810
X141605Y105728
X140970Y103188
X141923Y103188
X147955Y86995
X141923Y92075
X138430Y90488
X139383Y90488
X138430Y94298
X144145Y95250
X146050Y95250
X136843Y95250
X132715Y97155
X125095Y89535
X140335Y86995
X150495Y95250
X137795Y97155
X178435Y98108
X130493Y131128
X162243Y90488
X159385Y88900
X140335Y100013
X172085Y106363
X171768Y104140
X142875Y121285
X141605Y123825
X130175Y123825
X130175Y122238
X153670Y121920
X154940Y121920
X126365Y126048
X130175Y121285
X141605Y124778
X142558Y122555
X172403Y105093
X173673Y106363
X172403Y107633
X138430Y100013
X161290Y90488
X137795Y135255
X130493Y132398
X137795Y95250
X143193Y95250
X145098Y95250
X136208Y94298
X140335Y90488
X142875Y92075
X140970Y92075
X147955Y88900
X140970Y102235
X140970Y104140
X144780Y100965
X120015Y103505
X123190Y103505
X134938Y103505
X131763Y103505
X135255Y122555
X135255Y86995
X120015Y92075
X130175Y111443
X127635Y112395
X135255Y109220
X123825Y109220
X121285Y109220
X160655Y88900
X165735Y86995
X160655Y97155
X158115Y92075
X158115Y106045
X147955Y106045
X180975Y89535
X178435Y94615
X180975Y104775
X180975Y132715
X178435Y120015
X175895Y114935
X161925Y123825
X165418Y131445
X158115Y112395
X158115Y117475
X153035Y117475
X147955Y117475
X150495Y130175
X147955Y127635
X140335Y115570
X137795Y122555
X135255Y132715
X155893Y99695
X153988Y93663
X167958Y112395
X143193Y126365
X135255Y113983
X141605Y119698
X158750Y110808
X139383Y100013
X132715Y92075
X155575Y92075
X163195Y90488
T02
X125095Y123825
X125095Y110808
X123095Y121325
X123095Y123825
X175260Y96202
X181610Y100012
X181610Y96202
X120015Y110808
X125095Y121325
X175260Y100012
T03
X165798Y135254
X168339Y135254
X170878Y135254
X175958Y135255
X178498Y135255
X181038Y135255
X160655Y86994
X158115Y86994
X155576Y86994
X150495Y86994
X122556Y135255
X125096Y135255
X127636Y135255
X125096Y132715
X127636Y132715
X122556Y132715
X153035Y86994
X163195Y86995
X173418Y135254
X163258Y135254
X143891Y135254
X148971Y135254
X154051Y135255
X159131Y135255
X174308Y121603
X174308Y126683
X174308Y129224
X174308Y124144
X174308Y119064
X178435Y86994
X173356Y86994
X168275Y86994
X170815Y86994
X175895Y86994
X180975Y86995
X156591Y135255
X151511Y135254
X146432Y135254
X141351Y135254
T04
X120295Y128625
X120295Y116525
T05
X131445Y86995
X183515Y120015
X183515Y92075
X132715Y135255
M30
%
