ARM GAS  C:\Users\SUZUKI~1\AppData\Local\Temp\cc8hWMzg.s 			page 1


   1              		.syntax unified
   2              		.cpu cortex-m3
   3              		.fpu softvfp
   4              		.eabi_attribute 20, 1
   5              		.eabi_attribute 21, 1
   6              		.eabi_attribute 23, 3
   7              		.eabi_attribute 24, 1
   8              		.eabi_attribute 25, 1
   9              		.eabi_attribute 26, 1
  10              		.eabi_attribute 30, 4
  11              		.eabi_attribute 18, 4
  12              		.thumb
  13              		.file	"cyutils.c"
  14              		.section	.debug_abbrev,"",%progbits
  15              	.Ldebug_abbrev0:
  16              		.section	.debug_info,"",%progbits
  17              	.Ldebug_info0:
  18              		.section	.debug_line,"",%progbits
  19              	.Ldebug_line0:
  20 0000 7D000000 		.text
  20      02006000 
  20      00000201 
  20      FB0E0D00 
  20      01010101 
  21              	.Ltext0:
  22              		.cfi_sections	.debug_frame
  23              		.section	.text.CySetReg24,"ax",%progbits
  24              		.align	1
  25              		.global	CySetReg24
  26              		.thumb
  27              		.thumb_func
  28              		.type	CySetReg24, %function
  29              	CySetReg24:
  30              	.LFB0:
  31              		.file 1 ".\\Generated_Source\\PSoC5\\cyutils.c"
   1:.\Generated_Source\PSoC5/cyutils.c **** /*******************************************************************************
   2:.\Generated_Source\PSoC5/cyutils.c **** * FILENAME: cyutils.c
   3:.\Generated_Source\PSoC5/cyutils.c **** * Version 3.10
   4:.\Generated_Source\PSoC5/cyutils.c **** *
   5:.\Generated_Source\PSoC5/cyutils.c **** *  Description:
   6:.\Generated_Source\PSoC5/cyutils.c **** *   CyUtils provides function to handle 24-bit value writes.
   7:.\Generated_Source\PSoC5/cyutils.c **** *
   8:.\Generated_Source\PSoC5/cyutils.c **** ********************************************************************************
   9:.\Generated_Source\PSoC5/cyutils.c **** * Copyright 2008-2012, Cypress Semiconductor Corporation.  All rights reserved.
  10:.\Generated_Source\PSoC5/cyutils.c **** * You may use this file only in accordance with the license, terms, conditions,
  11:.\Generated_Source\PSoC5/cyutils.c **** * disclaimers, and limitations in the end user license agreement accompanying
  12:.\Generated_Source\PSoC5/cyutils.c **** * the software package with which this file was provided.
  13:.\Generated_Source\PSoC5/cyutils.c **** *******************************************************************************/
  14:.\Generated_Source\PSoC5/cyutils.c **** 
  15:.\Generated_Source\PSoC5/cyutils.c **** #include "cytypes.h"
  16:.\Generated_Source\PSoC5/cyutils.c **** 
  17:.\Generated_Source\PSoC5/cyutils.c **** #if defined(__GNUC__) || defined(__ARMCC_VERSION)
  18:.\Generated_Source\PSoC5/cyutils.c **** 
  19:.\Generated_Source\PSoC5/cyutils.c ****     /***************************************************************************
  20:.\Generated_Source\PSoC5/cyutils.c ****     * Function Name: CySetReg24
  21:.\Generated_Source\PSoC5/cyutils.c ****     ****************************************************************************
  22:.\Generated_Source\PSoC5/cyutils.c ****     *
ARM GAS  C:\Users\SUZUKI~1\AppData\Local\Temp\cc8hWMzg.s 			page 2


  23:.\Generated_Source\PSoC5/cyutils.c ****     * Summary:
  24:.\Generated_Source\PSoC5/cyutils.c ****     *  Writes the 24-bit value to the specified register.
  25:.\Generated_Source\PSoC5/cyutils.c ****     *
  26:.\Generated_Source\PSoC5/cyutils.c ****     * Parameters:
  27:.\Generated_Source\PSoC5/cyutils.c ****     *  addr : adress where data must be written
  28:.\Generated_Source\PSoC5/cyutils.c ****     *  value: data that must be written
  29:.\Generated_Source\PSoC5/cyutils.c ****     *
  30:.\Generated_Source\PSoC5/cyutils.c ****     * Return:
  31:.\Generated_Source\PSoC5/cyutils.c ****     *  None
  32:.\Generated_Source\PSoC5/cyutils.c ****     *
  33:.\Generated_Source\PSoC5/cyutils.c ****     * Reentrant:
  34:.\Generated_Source\PSoC5/cyutils.c ****     *  No
  35:.\Generated_Source\PSoC5/cyutils.c ****     *
  36:.\Generated_Source\PSoC5/cyutils.c ****     ***************************************************************************/
  37:.\Generated_Source\PSoC5/cyutils.c ****     void CySetReg24(uint8 volatile *addr, uint32 value)
  38:.\Generated_Source\PSoC5/cyutils.c ****     {
  32              		.loc 1 38 0
  33              		.cfi_startproc
  34              		@ args = 0, pretend = 0, frame = 0
  35              		@ frame_needed = 0, uses_anonymous_args = 0
  36              		@ link register save eliminated.
  37              	.LVL0:
  39:.\Generated_Source\PSoC5/cyutils.c ****         *addr = (uint8)value;
  38              		.loc 1 39 0
  39 0000 CAB2     		uxtb	r2, r1
  40 0002 0346     		mov	r3, r0
  41 0004 03F8012B 		strb	r2, [r3], #1
  40:.\Generated_Source\PSoC5/cyutils.c ****         addr++;
  41:.\Generated_Source\PSoC5/cyutils.c ****         value >>= 8;
  42              		.loc 1 41 0
  43 0008 0A0A     		lsrs	r2, r1, #8
  44              	.LVL1:
  42:.\Generated_Source\PSoC5/cyutils.c ****         *addr = (uint8)value;
  43:.\Generated_Source\PSoC5/cyutils.c ****         addr++;
  44:.\Generated_Source\PSoC5/cyutils.c ****         value >>= 8;
  45:.\Generated_Source\PSoC5/cyutils.c ****         *addr = (uint8)value;
  45              		.loc 1 45 0
  46 000a 090C     		lsrs	r1, r1, #16
  47              		.loc 1 42 0
  48 000c D2B2     		uxtb	r2, r2
  49              	.LVL2:
  50              		.loc 1 45 0
  51 000e C9B2     		uxtb	r1, r1
  52              		.loc 1 42 0
  53 0010 4270     		strb	r2, [r0, #1]
  54              		.loc 1 45 0
  55 0012 5970     		strb	r1, [r3, #1]
  46:.\Generated_Source\PSoC5/cyutils.c ****     }
  56              		.loc 1 46 0
  57 0014 7047     		bx	lr
  58              		.cfi_endproc
  59              	.LFE0:
  60              		.size	CySetReg24, .-CySetReg24
  61              		.text
  62              	.Letext0:
  63              		.section	.debug_loc,"",%progbits
  64              	.Ldebug_loc0:
ARM GAS  C:\Users\SUZUKI~1\AppData\Local\Temp\cc8hWMzg.s 			page 3


  65              	.LLST1:
  66 0000 00000000 		.4byte	.LVL0
  67 0004 0A000000 		.4byte	.LVL1
  68 0008 0100     		.2byte	0x1
  69 000a 51       		.byte	0x51
  70 000b 0A000000 		.4byte	.LVL1
  71 000f 0E000000 		.4byte	.LVL2
  72 0013 0100     		.2byte	0x1
  73 0015 52       		.byte	0x52
  74 0016 00000000 		.4byte	0x0
  75 001a 00000000 		.4byte	0x0
  76              		.file 2 ".\\Generated_Source\\PSoC5\\/cytypes.h"
  77              		.section	.debug_info
  78 0000 C8000000 		.4byte	0xc8
  79 0004 0200     		.2byte	0x2
  80 0006 00000000 		.4byte	.Ldebug_abbrev0
  81 000a 04       		.byte	0x4
  82 000b 01       		.uleb128 0x1
  83 000c DF000000 		.4byte	.LASF14
  84 0010 01       		.byte	0x1
  85 0011 14000000 		.4byte	.LASF15
  86 0015 A5000000 		.4byte	.LASF16
  87 0019 00000000 		.4byte	0x0
  88 001d 00000000 		.4byte	0x0
  89 0021 00000000 		.4byte	.Ldebug_ranges0+0x0
  90 0025 00000000 		.4byte	.Ldebug_line0
  91 0029 02       		.uleb128 0x2
  92 002a 01       		.byte	0x1
  93 002b 06       		.byte	0x6
  94 002c 09010000 		.4byte	.LASF0
  95 0030 02       		.uleb128 0x2
  96 0031 01       		.byte	0x1
  97 0032 08       		.byte	0x8
  98 0033 47000000 		.4byte	.LASF1
  99 0037 02       		.uleb128 0x2
 100 0038 02       		.byte	0x2
 101 0039 05       		.byte	0x5
 102 003a F0000000 		.4byte	.LASF2
 103 003e 02       		.uleb128 0x2
 104 003f 02       		.byte	0x2
 105 0040 07       		.byte	0x7
 106 0041 67000000 		.4byte	.LASF3
 107 0045 02       		.uleb128 0x2
 108 0046 04       		.byte	0x4
 109 0047 05       		.byte	0x5
 110 0048 00010000 		.4byte	.LASF4
 111 004c 02       		.uleb128 0x2
 112 004d 04       		.byte	0x4
 113 004e 07       		.byte	0x7
 114 004f 55000000 		.4byte	.LASF5
 115 0053 02       		.uleb128 0x2
 116 0054 08       		.byte	0x8
 117 0055 05       		.byte	0x5
 118 0056 00000000 		.4byte	.LASF6
 119 005a 02       		.uleb128 0x2
 120 005b 08       		.byte	0x8
 121 005c 07       		.byte	0x7
ARM GAS  C:\Users\SUZUKI~1\AppData\Local\Temp\cc8hWMzg.s 			page 4


 122 005d 8E000000 		.4byte	.LASF7
 123 0061 03       		.uleb128 0x3
 124 0062 04       		.byte	0x4
 125 0063 05       		.byte	0x5
 126 0064 696E7400 		.ascii	"int\000"
 127 0068 02       		.uleb128 0x2
 128 0069 04       		.byte	0x4
 129 006a 07       		.byte	0x7
 130 006b 81000000 		.4byte	.LASF8
 131 006f 02       		.uleb128 0x2
 132 0070 01       		.byte	0x1
 133 0071 08       		.byte	0x8
 134 0072 EB000000 		.4byte	.LASF9
 135 0076 04       		.uleb128 0x4
 136 0077 FA000000 		.4byte	.LASF10
 137 007b 02       		.byte	0x2
 138 007c 60       		.byte	0x60
 139 007d 30000000 		.4byte	0x30
 140 0081 04       		.uleb128 0x4
 141 0082 7A000000 		.4byte	.LASF11
 142 0086 02       		.byte	0x2
 143 0087 62       		.byte	0x62
 144 0088 4C000000 		.4byte	0x4c
 145 008c 05       		.uleb128 0x5
 146 008d 76000000 		.4byte	0x76
 147 0091 06       		.uleb128 0x6
 148 0092 01       		.byte	0x1
 149 0093 37000000 		.4byte	.LASF17
 150 0097 01       		.byte	0x1
 151 0098 25       		.byte	0x25
 152 0099 01       		.byte	0x1
 153 009a 00000000 		.4byte	.LFB0
 154 009e 16000000 		.4byte	.LFE0
 155 00a2 01       		.byte	0x1
 156 00a3 5D       		.byte	0x5d
 157 00a4 C5000000 		.4byte	0xc5
 158 00a8 07       		.uleb128 0x7
 159 00a9 42000000 		.4byte	.LASF12
 160 00ad 01       		.byte	0x1
 161 00ae 25       		.byte	0x25
 162 00af C5000000 		.4byte	0xc5
 163 00b3 01       		.byte	0x1
 164 00b4 50       		.byte	0x50
 165 00b5 08       		.uleb128 0x8
 166 00b6 0E000000 		.4byte	.LASF13
 167 00ba 01       		.byte	0x1
 168 00bb 25       		.byte	0x25
 169 00bc 81000000 		.4byte	0x81
 170 00c0 00000000 		.4byte	.LLST1
 171 00c4 00       		.byte	0x0
 172 00c5 09       		.uleb128 0x9
 173 00c6 04       		.byte	0x4
 174 00c7 8C000000 		.4byte	0x8c
 175 00cb 00       		.byte	0x0
 176              		.section	.debug_abbrev
 177 0000 01       		.uleb128 0x1
 178 0001 11       		.uleb128 0x11
ARM GAS  C:\Users\SUZUKI~1\AppData\Local\Temp\cc8hWMzg.s 			page 5


 179 0002 01       		.byte	0x1
 180 0003 25       		.uleb128 0x25
 181 0004 0E       		.uleb128 0xe
 182 0005 13       		.uleb128 0x13
 183 0006 0B       		.uleb128 0xb
 184 0007 03       		.uleb128 0x3
 185 0008 0E       		.uleb128 0xe
 186 0009 1B       		.uleb128 0x1b
 187 000a 0E       		.uleb128 0xe
 188 000b 11       		.uleb128 0x11
 189 000c 01       		.uleb128 0x1
 190 000d 52       		.uleb128 0x52
 191 000e 01       		.uleb128 0x1
 192 000f 55       		.uleb128 0x55
 193 0010 06       		.uleb128 0x6
 194 0011 10       		.uleb128 0x10
 195 0012 06       		.uleb128 0x6
 196 0013 00       		.byte	0x0
 197 0014 00       		.byte	0x0
 198 0015 02       		.uleb128 0x2
 199 0016 24       		.uleb128 0x24
 200 0017 00       		.byte	0x0
 201 0018 0B       		.uleb128 0xb
 202 0019 0B       		.uleb128 0xb
 203 001a 3E       		.uleb128 0x3e
 204 001b 0B       		.uleb128 0xb
 205 001c 03       		.uleb128 0x3
 206 001d 0E       		.uleb128 0xe
 207 001e 00       		.byte	0x0
 208 001f 00       		.byte	0x0
 209 0020 03       		.uleb128 0x3
 210 0021 24       		.uleb128 0x24
 211 0022 00       		.byte	0x0
 212 0023 0B       		.uleb128 0xb
 213 0024 0B       		.uleb128 0xb
 214 0025 3E       		.uleb128 0x3e
 215 0026 0B       		.uleb128 0xb
 216 0027 03       		.uleb128 0x3
 217 0028 08       		.uleb128 0x8
 218 0029 00       		.byte	0x0
 219 002a 00       		.byte	0x0
 220 002b 04       		.uleb128 0x4
 221 002c 16       		.uleb128 0x16
 222 002d 00       		.byte	0x0
 223 002e 03       		.uleb128 0x3
 224 002f 0E       		.uleb128 0xe
 225 0030 3A       		.uleb128 0x3a
 226 0031 0B       		.uleb128 0xb
 227 0032 3B       		.uleb128 0x3b
 228 0033 0B       		.uleb128 0xb
 229 0034 49       		.uleb128 0x49
 230 0035 13       		.uleb128 0x13
 231 0036 00       		.byte	0x0
 232 0037 00       		.byte	0x0
 233 0038 05       		.uleb128 0x5
 234 0039 35       		.uleb128 0x35
 235 003a 00       		.byte	0x0
ARM GAS  C:\Users\SUZUKI~1\AppData\Local\Temp\cc8hWMzg.s 			page 6


 236 003b 49       		.uleb128 0x49
 237 003c 13       		.uleb128 0x13
 238 003d 00       		.byte	0x0
 239 003e 00       		.byte	0x0
 240 003f 06       		.uleb128 0x6
 241 0040 2E       		.uleb128 0x2e
 242 0041 01       		.byte	0x1
 243 0042 3F       		.uleb128 0x3f
 244 0043 0C       		.uleb128 0xc
 245 0044 03       		.uleb128 0x3
 246 0045 0E       		.uleb128 0xe
 247 0046 3A       		.uleb128 0x3a
 248 0047 0B       		.uleb128 0xb
 249 0048 3B       		.uleb128 0x3b
 250 0049 0B       		.uleb128 0xb
 251 004a 27       		.uleb128 0x27
 252 004b 0C       		.uleb128 0xc
 253 004c 11       		.uleb128 0x11
 254 004d 01       		.uleb128 0x1
 255 004e 12       		.uleb128 0x12
 256 004f 01       		.uleb128 0x1
 257 0050 40       		.uleb128 0x40
 258 0051 0A       		.uleb128 0xa
 259 0052 01       		.uleb128 0x1
 260 0053 13       		.uleb128 0x13
 261 0054 00       		.byte	0x0
 262 0055 00       		.byte	0x0
 263 0056 07       		.uleb128 0x7
 264 0057 05       		.uleb128 0x5
 265 0058 00       		.byte	0x0
 266 0059 03       		.uleb128 0x3
 267 005a 0E       		.uleb128 0xe
 268 005b 3A       		.uleb128 0x3a
 269 005c 0B       		.uleb128 0xb
 270 005d 3B       		.uleb128 0x3b
 271 005e 0B       		.uleb128 0xb
 272 005f 49       		.uleb128 0x49
 273 0060 13       		.uleb128 0x13
 274 0061 02       		.uleb128 0x2
 275 0062 0A       		.uleb128 0xa
 276 0063 00       		.byte	0x0
 277 0064 00       		.byte	0x0
 278 0065 08       		.uleb128 0x8
 279 0066 05       		.uleb128 0x5
 280 0067 00       		.byte	0x0
 281 0068 03       		.uleb128 0x3
 282 0069 0E       		.uleb128 0xe
 283 006a 3A       		.uleb128 0x3a
 284 006b 0B       		.uleb128 0xb
 285 006c 3B       		.uleb128 0x3b
 286 006d 0B       		.uleb128 0xb
 287 006e 49       		.uleb128 0x49
 288 006f 13       		.uleb128 0x13
 289 0070 02       		.uleb128 0x2
 290 0071 06       		.uleb128 0x6
 291 0072 00       		.byte	0x0
 292 0073 00       		.byte	0x0
ARM GAS  C:\Users\SUZUKI~1\AppData\Local\Temp\cc8hWMzg.s 			page 7


 293 0074 09       		.uleb128 0x9
 294 0075 0F       		.uleb128 0xf
 295 0076 00       		.byte	0x0
 296 0077 0B       		.uleb128 0xb
 297 0078 0B       		.uleb128 0xb
 298 0079 49       		.uleb128 0x49
 299 007a 13       		.uleb128 0x13
 300 007b 00       		.byte	0x0
 301 007c 00       		.byte	0x0
 302 007d 00       		.byte	0x0
 303              		.section	.debug_pubnames,"",%progbits
 304 0000 1D000000 		.4byte	0x1d
 305 0004 0200     		.2byte	0x2
 306 0006 00000000 		.4byte	.Ldebug_info0
 307 000a CC000000 		.4byte	0xcc
 308 000e 91000000 		.4byte	0x91
 309 0012 43795365 		.ascii	"CySetReg24\000"
 309      74526567 
 309      323400
 310 001d 00000000 		.4byte	0x0
 311              		.section	.debug_aranges,"",%progbits
 312 0000 1C000000 		.4byte	0x1c
 313 0004 0200     		.2byte	0x2
 314 0006 00000000 		.4byte	.Ldebug_info0
 315 000a 04       		.byte	0x4
 316 000b 00       		.byte	0x0
 317 000c 0000     		.2byte	0x0
 318 000e 0000     		.2byte	0x0
 319 0010 00000000 		.4byte	.LFB0
 320 0014 16000000 		.4byte	.LFE0-.LFB0
 321 0018 00000000 		.4byte	0x0
 322 001c 00000000 		.4byte	0x0
 323              		.section	.debug_ranges,"",%progbits
 324              	.Ldebug_ranges0:
 325 0000 00000000 		.4byte	.Ltext0
 326 0004 00000000 		.4byte	.Letext0
 327 0008 00000000 		.4byte	.LFB0
 328 000c 16000000 		.4byte	.LFE0
 329 0010 00000000 		.4byte	0x0
 330 0014 00000000 		.4byte	0x0
 331              		.section	.debug_str,"MS",%progbits,1
 332              	.LASF6:
 333 0000 6C6F6E67 		.ascii	"long long int\000"
 333      206C6F6E 
 333      6720696E 
 333      7400
 334              	.LASF13:
 335 000e 76616C75 		.ascii	"value\000"
 335      6500
 336              	.LASF15:
 337 0014 2E5C4765 		.ascii	".\\Generated_Source\\PSoC5\\cyutils.c\000"
 337      6E657261 
 337      7465645F 
 337      536F7572 
 337      63655C50 
 338              	.LASF17:
 339 0037 43795365 		.ascii	"CySetReg24\000"
ARM GAS  C:\Users\SUZUKI~1\AppData\Local\Temp\cc8hWMzg.s 			page 8


 339      74526567 
 339      323400
 340              	.LASF12:
 341 0042 61646472 		.ascii	"addr\000"
 341      00
 342              	.LASF1:
 343 0047 756E7369 		.ascii	"unsigned char\000"
 343      676E6564 
 343      20636861 
 343      7200
 344              	.LASF5:
 345 0055 6C6F6E67 		.ascii	"long unsigned int\000"
 345      20756E73 
 345      69676E65 
 345      6420696E 
 345      7400
 346              	.LASF3:
 347 0067 73686F72 		.ascii	"short unsigned int\000"
 347      7420756E 
 347      7369676E 
 347      65642069 
 347      6E7400
 348              	.LASF11:
 349 007a 75696E74 		.ascii	"uint32\000"
 349      333200
 350              	.LASF8:
 351 0081 756E7369 		.ascii	"unsigned int\000"
 351      676E6564 
 351      20696E74 
 351      00
 352              	.LASF7:
 353 008e 6C6F6E67 		.ascii	"long long unsigned int\000"
 353      206C6F6E 
 353      6720756E 
 353      7369676E 
 353      65642069 
 354              	.LASF16:
 355 00a5 463A5C44 		.ascii	"F:\\Documents\\PSoC_Creator\\ledmatrix\\ledmatrixno"
 355      6F63756D 
 355      656E7473 
 355      5C50536F 
 355      435F4372 
 356 00d4 6E646D61 		.ascii	"ndma.cydsn\000"
 356      2E637964 
 356      736E00
 357              	.LASF14:
 358 00df 474E5520 		.ascii	"GNU C 4.4.1\000"
 358      4320342E 
 358      342E3100 
 359              	.LASF9:
 360 00eb 63686172 		.ascii	"char\000"
 360      00
 361              	.LASF2:
 362 00f0 73686F72 		.ascii	"short int\000"
 362      7420696E 
 362      7400
 363              	.LASF10:
ARM GAS  C:\Users\SUZUKI~1\AppData\Local\Temp\cc8hWMzg.s 			page 9


 364 00fa 75696E74 		.ascii	"uint8\000"
 364      3800
 365              	.LASF4:
 366 0100 6C6F6E67 		.ascii	"long int\000"
 366      20696E74 
 366      00
 367              	.LASF0:
 368 0109 7369676E 		.ascii	"signed char\000"
 368      65642063 
 368      68617200 
 369              		.ident	"GCC: (Sourcery G++ Lite 2010q1-188) 4.4.1"
