ARM GAS  C:\Users\SUZUKI~1\AppData\Local\Temp\cc8w2xZG.s 			page 1


   1              		.syntax unified
   2              		.cpu cortex-m3
   3              		.fpu softvfp
   4              		.eabi_attribute 20, 1
   5              		.eabi_attribute 21, 1
   6              		.eabi_attribute 23, 3
   7              		.eabi_attribute 24, 1
   8              		.eabi_attribute 25, 1
   9              		.eabi_attribute 26, 1
  10              		.eabi_attribute 30, 4
  11              		.eabi_attribute 18, 4
  12              		.thumb
  13              		.file	"fifo.c"
  14              		.section	.debug_abbrev,"",%progbits
  15              	.Ldebug_abbrev0:
  16              		.section	.debug_info,"",%progbits
  17              	.Ldebug_info0:
  18              		.section	.debug_line,"",%progbits
  19              	.Ldebug_line0:
  20 0000 BA000000 		.text
  20      02005300 
  20      00000201 
  20      FB0E0D00 
  20      01010101 
  21              	.Ltext0:
  22              		.cfi_sections	.debug_frame
  23              		.section	.text.fifoGetContentSize,"ax",%progbits
  24              		.align	1
  25              		.global	fifoGetContentSize
  26              		.thumb
  27              		.thumb_func
  28              		.type	fifoGetContentSize, %function
  29              	fifoGetContentSize:
  30              	.LFB32:
  31              		.file 1 ".\\fifo.c"
   1:.\fifo.c      **** /* ========================================
   2:.\fifo.c      ****  *
   3:.\fifo.c      ****  * Copyright YOUR COMPANY, THE YEAR
   4:.\fifo.c      ****  * All Rights Reserved
   5:.\fifo.c      ****  * UNPUBLISHED, LICENSED SOFTWARE.
   6:.\fifo.c      ****  *
   7:.\fifo.c      ****  * CONFIDENTIAL AND PROPRIETARY INFORMATION
   8:.\fifo.c      ****  * WHICH IS THE PROPERTY OF your company.
   9:.\fifo.c      ****  *
  10:.\fifo.c      ****  * ========================================
  11:.\fifo.c      **** */
  12:.\fifo.c      **** 
  13:.\fifo.c      **** #include "fifo.h"
  14:.\fifo.c      **** #include "utf8.h"
  15:.\fifo.c      **** 
  16:.\fifo.c      **** // fifo用
  17:.\fifo.c      **** static int16 fifo[FIFO_SIZE];		// アルファベットも16bitで格納する。
  18:.\fifo.c      **** static int32 rptr = 0, wptr = 0;
  19:.\fifo.c      **** 
  20:.\fifo.c      **** inline int16 fifoGetChar(void)
  21:.\fifo.c      **** {
  22:.\fifo.c      **** 	register int16 c;
ARM GAS  C:\Users\SUZUKI~1\AppData\Local\Temp\cc8w2xZG.s 			page 2


  23:.\fifo.c      **** 	if(fifoGetContentSize()) {
  24:.\fifo.c      **** 		c = fifo[rptr];
  25:.\fifo.c      **** 		rptr = (rptr+1) % FIFO_SIZE;
  26:.\fifo.c      **** 	} else {
  27:.\fifo.c      **** 		c = 0;
  28:.\fifo.c      **** 	}
  29:.\fifo.c      **** 	return c;
  30:.\fifo.c      **** }
  31:.\fifo.c      **** 
  32:.\fifo.c      **** inline void fifoPushChar(int16 c)
  33:.\fifo.c      **** {
  34:.\fifo.c      **** 	if(fifoGetVacancySize()) {
  35:.\fifo.c      **** 		fifo[wptr] = c;
  36:.\fifo.c      **** 		wptr = (wptr+1) % FIFO_SIZE;
  37:.\fifo.c      **** 	}
  38:.\fifo.c      **** 	return;
  39:.\fifo.c      **** }
  40:.\fifo.c      **** 
  41:.\fifo.c      **** /*
  42:.\fifo.c      **** UTF-8をデコードしてからFIFOにプッシュする。
  43:.\fifo.c      **** */
  44:.\fifo.c      **** inline void fifoPushString(char *str)
  45:.\fifo.c      **** {
  46:.\fifo.c      **** 	char c;
  47:.\fifo.c      **** 	int16 uni;
  48:.\fifo.c      **** 	while(c = *str++) {
  49:.\fifo.c      **** //		fifoPushChar(c);
  50:.\fifo.c      **** 		if((uni = parseUtf8(c)) != 0) {
  51:.\fifo.c      **** 			fifoPushChar(uni);
  52:.\fifo.c      **** 		}
  53:.\fifo.c      **** 	}
  54:.\fifo.c      **** 	return;
  55:.\fifo.c      **** }
  56:.\fifo.c      **** 
  57:.\fifo.c      **** inline uint16 fifoGetContentSize(void)
  58:.\fifo.c      **** {
  32              		.loc 1 58 0
  33              		.cfi_startproc
  34              		@ args = 0, pretend = 0, frame = 0
  35              		@ frame_needed = 0, uses_anonymous_args = 0
  36              		@ link register save eliminated.
  37              		.loc 1 58 0
  38 0000 084B     		ldr	r3, .L5
  39 0002 0948     		ldr	r0, .L5+4
  40 0004 1A68     		ldr	r2, [r3, #0]
  41 0006 5B68     		ldr	r3, [r3, #4]
  42 0008 D31A     		subs	r3, r2, r3
  43 000a 03EA0000 		and	r0, r3, r0
  44 000e 0028     		cmp	r0, #0
  45 0010 05DA     		bge	.L2
  46 0012 0138     		subs	r0, r0, #1
  47 0014 6FEA0060 		mvn	r0, r0, lsl #24
  48 0018 6FEA1060 		mvn	r0, r0, lsr #24
  49 001c 0130     		adds	r0, r0, #1
  50              	.L2:
  59:.\fifo.c      **** 	return((wptr - rptr) % FIFO_SIZE);
  60:.\fifo.c      **** }
ARM GAS  C:\Users\SUZUKI~1\AppData\Local\Temp\cc8w2xZG.s 			page 3


  51              		.loc 1 60 0
  52 001e 80B2     		uxth	r0, r0
  53 0020 7047     		bx	lr
  54              	.L6:
  55 0022 00BF     		.align	2
  56              	.L5:
  57 0024 00000000 		.word	.LANCHOR0
  58 0028 FF000080 		.word	-2147483393
  59              		.cfi_endproc
  60              	.LFE32:
  61              		.size	fifoGetContentSize, .-fifoGetContentSize
  62              		.section	.text.fifoGetChar,"ax",%progbits
  63              		.align	1
  64              		.global	fifoGetChar
  65              		.thumb
  66              		.thumb_func
  67              		.type	fifoGetChar, %function
  68              	fifoGetChar:
  69              	.LFB29:
  70              		.loc 1 21 0
  71              		.cfi_startproc
  72              		@ args = 0, pretend = 0, frame = 0
  73              		@ frame_needed = 0, uses_anonymous_args = 0
  74 0000 08B5     		push	{r3, lr}
  75              	.LCFI0:
  76              		.cfi_def_cfa_offset 8
  77              		.loc 1 23 0
  78              		.cfi_offset 14, -4
  79              		.cfi_offset 3, -8
  80 0002 FFF7FEFF 		bl	fifoGetContentSize
  81 0006 0346     		mov	r3, r0
  82 0008 88B1     		cbz	r0, .L9
  83              		.loc 1 24 0
  84 000a 0A49     		ldr	r1, .L12
  85 000c 4A68     		ldr	r2, [r1, #4]
  86              		.loc 1 25 0
  87 000e 501C     		adds	r0, r2, #1
  88              		.loc 1 24 0
  89 0010 01EB4203 		add	r3, r1, r2, lsl #1
  90              		.loc 1 25 0
  91 0014 084A     		ldr	r2, .L12+4
  92              		.loc 1 24 0
  93 0016 1B89     		ldrh	r3, [r3, #8]
  94              	.LVL0:
  95              		.loc 1 25 0
  96 0018 00EA0202 		and	r2, r0, r2
  97 001c 002A     		cmp	r2, #0
  98 001e 05DA     		bge	.L10
  99 0020 013A     		subs	r2, r2, #1
 100 0022 6FEA0262 		mvn	r2, r2, lsl #24
 101 0026 6FEA1262 		mvn	r2, r2, lsr #24
 102 002a 0132     		adds	r2, r2, #1
 103              	.L10:
 104 002c 4A60     		str	r2, [r1, #4]
 105              	.L9:
 106              		.loc 1 30 0
 107 002e 18B2     		sxth	r0, r3
ARM GAS  C:\Users\SUZUKI~1\AppData\Local\Temp\cc8w2xZG.s 			page 4


 108 0030 08BD     		pop	{r3, pc}
 109              	.L13:
 110 0032 00BF     		.align	2
 111              	.L12:
 112 0034 00000000 		.word	.LANCHOR0
 113 0038 FF000080 		.word	-2147483393
 114              		.cfi_endproc
 115              	.LFE29:
 116              		.size	fifoGetChar, .-fifoGetChar
 117              		.section	.text.fifoGetVacancySize,"ax",%progbits
 118              		.align	1
 119              		.global	fifoGetVacancySize
 120              		.thumb
 121              		.thumb_func
 122              		.type	fifoGetVacancySize, %function
 123              	fifoGetVacancySize:
 124              	.LFB33:
  61:.\fifo.c      **** 
  62:.\fifo.c      **** inline uint16 fifoGetVacancySize(void)
  63:.\fifo.c      **** {
 125              		.loc 1 63 0
 126              		.cfi_startproc
 127              		@ args = 0, pretend = 0, frame = 0
 128              		@ frame_needed = 0, uses_anonymous_args = 0
 129              		@ link register save eliminated.
  64:.\fifo.c      **** 	int32 offset;
  65:.\fifo.c      **** 	offset = (wptr >= rptr) ? FIFO_SIZE : 0;
 130              		.loc 1 65 0
 131 0000 054A     		ldr	r2, .L18
 132 0002 1368     		ldr	r3, [r2, #0]
 133 0004 5268     		ldr	r2, [r2, #4]
 134 0006 9342     		cmp	r3, r2
 135 0008 ACBF     		ite	ge
 136 000a 4FF48071 		movge	r1, #256
 137 000e 0021     		movlt	r1, #0
 138              	.LVL1:
 139 0010 D31A     		subs	r3, r2, r3
 140 0012 5818     		adds	r0, r3, r1
  66:.\fifo.c      **** 	return(rptr + offset - wptr);
  67:.\fifo.c      **** }
 141              		.loc 1 67 0
 142 0014 80B2     		uxth	r0, r0
 143 0016 7047     		bx	lr
 144              	.L19:
 145              		.align	2
 146              	.L18:
 147 0018 00000000 		.word	.LANCHOR0
 148              		.cfi_endproc
 149              	.LFE33:
 150              		.size	fifoGetVacancySize, .-fifoGetVacancySize
 151              		.section	.text.fifoPushChar,"ax",%progbits
 152              		.align	1
 153              		.global	fifoPushChar
 154              		.thumb
 155              		.thumb_func
 156              		.type	fifoPushChar, %function
 157              	fifoPushChar:
ARM GAS  C:\Users\SUZUKI~1\AppData\Local\Temp\cc8w2xZG.s 			page 5


 158              	.LFB30:
 159              		.loc 1 33 0
 160              		.cfi_startproc
 161              		@ args = 0, pretend = 0, frame = 0
 162              		@ frame_needed = 0, uses_anonymous_args = 0
 163              	.LVL2:
 164 0000 10B5     		push	{r4, lr}
 165              	.LCFI1:
 166              		.cfi_def_cfa_offset 8
 167              		.loc 1 33 0
 168 0002 0446     		mov	r4, r0
 169              		.cfi_offset 14, -4
 170              		.cfi_offset 4, -8
 171              		.loc 1 34 0
 172 0004 FFF7FEFF 		bl	fifoGetVacancySize
 173              	.LVL3:
 174 0008 88B1     		cbz	r0, .L23
 175              		.loc 1 35 0
 176 000a 094A     		ldr	r2, .L24
 177 000c 1368     		ldr	r3, [r2, #0]
 178 000e 02EB4301 		add	r1, r2, r3, lsl #1
 179 0012 0C81     		strh	r4, [r1, #8]	@ movhi
 180              		.loc 1 36 0
 181 0014 591C     		adds	r1, r3, #1
 182 0016 074B     		ldr	r3, .L24+4
 183 0018 01EA0303 		and	r3, r1, r3
 184 001c 002B     		cmp	r3, #0
 185 001e 05DA     		bge	.L22
 186 0020 013B     		subs	r3, r3, #1
 187 0022 6FEA0363 		mvn	r3, r3, lsl #24
 188 0026 6FEA1363 		mvn	r3, r3, lsr #24
 189 002a 0133     		adds	r3, r3, #1
 190              	.L22:
 191 002c 1360     		str	r3, [r2, #0]
 192              	.L23:
 193 002e 10BD     		pop	{r4, pc}
 194              	.L25:
 195              		.align	2
 196              	.L24:
 197 0030 00000000 		.word	.LANCHOR0
 198 0034 FF000080 		.word	-2147483393
 199              		.cfi_endproc
 200              	.LFE30:
 201              		.size	fifoPushChar, .-fifoPushChar
 202              		.section	.text.fifoPushString,"ax",%progbits
 203              		.align	1
 204              		.global	fifoPushString
 205              		.thumb
 206              		.thumb_func
 207              		.type	fifoPushString, %function
 208              	fifoPushString:
 209              	.LFB31:
 210              		.loc 1 45 0
 211              		.cfi_startproc
 212              		@ args = 0, pretend = 0, frame = 0
 213              		@ frame_needed = 0, uses_anonymous_args = 0
 214              	.LVL4:
ARM GAS  C:\Users\SUZUKI~1\AppData\Local\Temp\cc8w2xZG.s 			page 6


 215 0000 38B5     		push	{r3, r4, r5, lr}
 216              	.LCFI2:
 217              		.cfi_def_cfa_offset 16
 218              		.loc 1 45 0
 219 0002 0546     		mov	r5, r0
 220              		.cfi_offset 14, -4
 221              		.cfi_offset 5, -8
 222              		.cfi_offset 4, -12
 223              		.cfi_offset 3, -16
 224 0004 0024     		movs	r4, #0
 225              		.loc 1 48 0
 226 0006 06E0     		b	.L27
 227              	.LVL5:
 228              	.L29:
 229              		.loc 1 50 0
 230 0008 FFF7FEFF 		bl	parseUtf8
 231              	.LVL6:
 232 000c 10B1     		cbz	r0, .L28
 233              		.loc 1 51 0
 234 000e 00B2     		sxth	r0, r0
 235 0010 FFF7FEFF 		bl	fifoPushChar
 236              	.L28:
 237 0014 0134     		adds	r4, r4, #1
 238              	.LVL7:
 239              	.L27:
 240              		.loc 1 48 0
 241 0016 285D     		ldrb	r0, [r5, r4]	@ zero_extendqisi2
 242              	.LVL8:
 243 0018 0028     		cmp	r0, #0
 244 001a F5D1     		bne	.L29
 245              		.loc 1 55 0
 246 001c 38BD     		pop	{r3, r4, r5, pc}
 247              		.cfi_endproc
 248              	.LFE31:
 249              		.size	fifoPushString, .-fifoPushString
 250              		.bss
 251              		.align	2
 252              		.set	.LANCHOR0,. + 0
 253              		.type	wptr, %object
 254              		.size	wptr, 4
 255              	wptr:
 256 0000 00000000 		.space	4
 257              		.type	rptr, %object
 258              		.size	rptr, 4
 259              	rptr:
 260 0004 00000000 		.space	4
 261              		.type	fifo, %object
 262              		.size	fifo, 512
 263              	fifo:
 264 0008 00000000 		.space	512
 264      00000000 
 264      00000000 
 264      00000000 
 264      00000000 
 265              		.text
 266              	.Letext0:
 267              		.section	.debug_loc,"",%progbits
ARM GAS  C:\Users\SUZUKI~1\AppData\Local\Temp\cc8w2xZG.s 			page 7


 268              	.Ldebug_loc0:
 269              	.LLST1:
 270 0000 00000000 		.4byte	.LFB29
 271 0004 02000000 		.4byte	.LCFI0
 272 0008 0100     		.2byte	0x1
 273 000a 5D       		.byte	0x5d
 274 000b 02000000 		.4byte	.LCFI0
 275 000f 3C000000 		.4byte	.LFE29
 276 0013 0200     		.2byte	0x2
 277 0015 7D       		.byte	0x7d
 278 0016 08       		.sleb128 8
 279 0017 00000000 		.4byte	0x0
 280 001b 00000000 		.4byte	0x0
 281              	.LLST3:
 282 001f 00000000 		.4byte	.LFB30
 283 0023 02000000 		.4byte	.LCFI1
 284 0027 0100     		.2byte	0x1
 285 0029 5D       		.byte	0x5d
 286 002a 02000000 		.4byte	.LCFI1
 287 002e 38000000 		.4byte	.LFE30
 288 0032 0200     		.2byte	0x2
 289 0034 7D       		.byte	0x7d
 290 0035 08       		.sleb128 8
 291 0036 00000000 		.4byte	0x0
 292 003a 00000000 		.4byte	0x0
 293              	.LLST4:
 294 003e 00000000 		.4byte	.LVL2
 295 0042 08000000 		.4byte	.LVL3
 296 0046 0100     		.2byte	0x1
 297 0048 50       		.byte	0x50
 298 0049 08000000 		.4byte	.LVL3
 299 004d 38000000 		.4byte	.LFE30
 300 0051 0100     		.2byte	0x1
 301 0053 54       		.byte	0x54
 302 0054 00000000 		.4byte	0x0
 303 0058 00000000 		.4byte	0x0
 304              	.LLST5:
 305 005c 00000000 		.4byte	.LFB31
 306 0060 02000000 		.4byte	.LCFI2
 307 0064 0100     		.2byte	0x1
 308 0066 5D       		.byte	0x5d
 309 0067 02000000 		.4byte	.LCFI2
 310 006b 1E000000 		.4byte	.LFE31
 311 006f 0200     		.2byte	0x2
 312 0071 7D       		.byte	0x7d
 313 0072 10       		.sleb128 16
 314 0073 00000000 		.4byte	0x0
 315 0077 00000000 		.4byte	0x0
 316              	.LLST6:
 317 007b 00000000 		.4byte	.LVL4
 318 007f 08000000 		.4byte	.LVL5
 319 0083 0100     		.2byte	0x1
 320 0085 50       		.byte	0x50
 321 0086 08000000 		.4byte	.LVL5
 322 008a 1E000000 		.4byte	.LFE31
 323 008e 0100     		.2byte	0x1
 324 0090 55       		.byte	0x55
ARM GAS  C:\Users\SUZUKI~1\AppData\Local\Temp\cc8w2xZG.s 			page 8


 325 0091 00000000 		.4byte	0x0
 326 0095 00000000 		.4byte	0x0
 327              	.LLST7:
 328 0099 08000000 		.4byte	.LVL5
 329 009d 0C000000 		.4byte	.LVL6
 330 00a1 0100     		.2byte	0x1
 331 00a3 50       		.byte	0x50
 332 00a4 18000000 		.4byte	.LVL8
 333 00a8 1E000000 		.4byte	.LFE31
 334 00ac 0100     		.2byte	0x1
 335 00ae 50       		.byte	0x50
 336 00af 00000000 		.4byte	0x0
 337 00b3 00000000 		.4byte	0x0
 338              		.file 2 "./Generated_Source/PSoC5/cytypes.h"
 339              		.file 3 "./Generated_Source/PSoC5/core_cm3.h"
 340              		.section	.debug_info
 341 0000 C4010000 		.4byte	0x1c4
 342 0004 0200     		.2byte	0x2
 343 0006 00000000 		.4byte	.Ldebug_abbrev0
 344 000a 04       		.byte	0x4
 345 000b 01       		.uleb128 0x1
 346 000c 72000000 		.4byte	.LASF21
 347 0010 01       		.byte	0x1
 348 0011 AF000000 		.4byte	.LASF22
 349 0015 D7000000 		.4byte	.LASF23
 350 0019 00000000 		.4byte	0x0
 351 001d 00000000 		.4byte	0x0
 352 0021 00000000 		.4byte	.Ldebug_ranges0+0x0
 353 0025 00000000 		.4byte	.Ldebug_line0
 354 0029 02       		.uleb128 0x2
 355 002a 01       		.byte	0x1
 356 002b 06       		.byte	0x6
 357 002c CB000000 		.4byte	.LASF0
 358 0030 02       		.uleb128 0x2
 359 0031 01       		.byte	0x1
 360 0032 08       		.byte	0x8
 361 0033 7E000000 		.4byte	.LASF1
 362 0037 02       		.uleb128 0x2
 363 0038 02       		.byte	0x2
 364 0039 05       		.byte	0x5
 365 003a 26010000 		.4byte	.LASF2
 366 003e 02       		.uleb128 0x2
 367 003f 02       		.byte	0x2
 368 0040 07       		.byte	0x7
 369 0041 B8000000 		.4byte	.LASF3
 370 0045 02       		.uleb128 0x2
 371 0046 04       		.byte	0x4
 372 0047 05       		.byte	0x5
 373 0048 A6000000 		.4byte	.LASF4
 374 004c 02       		.uleb128 0x2
 375 004d 04       		.byte	0x4
 376 004e 07       		.byte	0x7
 377 004f 25000000 		.4byte	.LASF5
 378 0053 02       		.uleb128 0x2
 379 0054 08       		.byte	0x8
 380 0055 05       		.byte	0x5
 381 0056 00000000 		.4byte	.LASF6
ARM GAS  C:\Users\SUZUKI~1\AppData\Local\Temp\cc8w2xZG.s 			page 9


 382 005a 02       		.uleb128 0x2
 383 005b 08       		.byte	0x8
 384 005c 07       		.byte	0x7
 385 005d 37000000 		.4byte	.LASF7
 386 0061 03       		.uleb128 0x3
 387 0062 04       		.byte	0x4
 388 0063 05       		.byte	0x5
 389 0064 696E7400 		.ascii	"int\000"
 390 0068 02       		.uleb128 0x2
 391 0069 04       		.byte	0x4
 392 006a 07       		.byte	0x7
 393 006b 0E000000 		.4byte	.LASF8
 394 006f 02       		.uleb128 0x2
 395 0070 01       		.byte	0x1
 396 0071 08       		.byte	0x8
 397 0072 6D000000 		.4byte	.LASF9
 398 0076 04       		.uleb128 0x4
 399 0077 30010000 		.4byte	.LASF10
 400 007b 02       		.byte	0x2
 401 007c 61       		.byte	0x61
 402 007d 3E000000 		.4byte	0x3e
 403 0081 04       		.uleb128 0x4
 404 0082 20010000 		.4byte	.LASF11
 405 0086 02       		.byte	0x2
 406 0087 65       		.byte	0x65
 407 0088 37000000 		.4byte	0x37
 408 008c 04       		.uleb128 0x4
 409 008d 56010000 		.4byte	.LASF12
 410 0091 02       		.byte	0x2
 411 0092 66       		.byte	0x66
 412 0093 45000000 		.4byte	0x45
 413 0097 05       		.uleb128 0x5
 414 0098 04       		.byte	0x4
 415 0099 07       		.byte	0x7
 416 009a 06       		.uleb128 0x6
 417 009b 04       		.byte	0x4
 418 009c 6F000000 		.4byte	0x6f
 419 00a0 07       		.uleb128 0x7
 420 00a1 01       		.byte	0x1
 421 00a2 53000000 		.4byte	.LASF24
 422 00a6 01       		.byte	0x1
 423 00a7 39       		.byte	0x39
 424 00a8 01       		.byte	0x1
 425 00a9 76000000 		.4byte	0x76
 426 00ad 00000000 		.4byte	.LFB32
 427 00b1 2C000000 		.4byte	.LFE32
 428 00b5 01       		.byte	0x1
 429 00b6 5D       		.byte	0x5d
 430 00b7 08       		.uleb128 0x8
 431 00b8 01       		.byte	0x1
 432 00b9 4A010000 		.4byte	.LASF13
 433 00bd 01       		.byte	0x1
 434 00be 14       		.byte	0x14
 435 00bf 01       		.byte	0x1
 436 00c0 81000000 		.4byte	0x81
 437 00c4 00000000 		.4byte	.LFB29
 438 00c8 3C000000 		.4byte	.LFE29
ARM GAS  C:\Users\SUZUKI~1\AppData\Local\Temp\cc8w2xZG.s 			page 10


 439 00cc 00000000 		.4byte	.LLST1
 440 00d0 E0000000 		.4byte	0xe0
 441 00d4 09       		.uleb128 0x9
 442 00d5 6300     		.ascii	"c\000"
 443 00d7 01       		.byte	0x1
 444 00d8 16       		.byte	0x16
 445 00d9 81000000 		.4byte	0x81
 446 00dd 01       		.byte	0x1
 447 00de 53       		.byte	0x53
 448 00df 00       		.byte	0x0
 449 00e0 0A       		.uleb128 0xa
 450 00e1 01       		.byte	0x1
 451 00e2 37010000 		.4byte	.LASF14
 452 00e6 01       		.byte	0x1
 453 00e7 3E       		.byte	0x3e
 454 00e8 01       		.byte	0x1
 455 00e9 76000000 		.4byte	0x76
 456 00ed 00000000 		.4byte	.LFB33
 457 00f1 1C000000 		.4byte	.LFE33
 458 00f5 01       		.byte	0x1
 459 00f6 5D       		.byte	0x5d
 460 00f7 09010000 		.4byte	0x109
 461 00fb 0B       		.uleb128 0xb
 462 00fc 66000000 		.4byte	.LASF15
 463 0100 01       		.byte	0x1
 464 0101 40       		.byte	0x40
 465 0102 8C000000 		.4byte	0x8c
 466 0106 01       		.byte	0x1
 467 0107 51       		.byte	0x51
 468 0108 00       		.byte	0x0
 469 0109 0C       		.uleb128 0xc
 470 010a 01       		.byte	0x1
 471 010b 8C000000 		.4byte	.LASF16
 472 010f 01       		.byte	0x1
 473 0110 20       		.byte	0x20
 474 0111 01       		.byte	0x1
 475 0112 00000000 		.4byte	.LFB30
 476 0116 38000000 		.4byte	.LFE30
 477 011a 1F000000 		.4byte	.LLST3
 478 011e 30010000 		.4byte	0x130
 479 0122 0D       		.uleb128 0xd
 480 0123 6300     		.ascii	"c\000"
 481 0125 01       		.byte	0x1
 482 0126 20       		.byte	0x20
 483 0127 81000000 		.4byte	0x81
 484 012b 3E000000 		.4byte	.LLST4
 485 012f 00       		.byte	0x0
 486 0130 0C       		.uleb128 0xc
 487 0131 01       		.byte	0x1
 488 0132 11010000 		.4byte	.LASF17
 489 0136 01       		.byte	0x1
 490 0137 2C       		.byte	0x2c
 491 0138 01       		.byte	0x1
 492 0139 00000000 		.4byte	.LFB31
 493 013d 1E000000 		.4byte	.LFE31
 494 0141 5C000000 		.4byte	.LLST5
 495 0145 71010000 		.4byte	0x171
ARM GAS  C:\Users\SUZUKI~1\AppData\Local\Temp\cc8w2xZG.s 			page 11


 496 0149 0D       		.uleb128 0xd
 497 014a 73747200 		.ascii	"str\000"
 498 014e 01       		.byte	0x1
 499 014f 2C       		.byte	0x2c
 500 0150 9A000000 		.4byte	0x9a
 501 0154 7B000000 		.4byte	.LLST6
 502 0158 0E       		.uleb128 0xe
 503 0159 6300     		.ascii	"c\000"
 504 015b 01       		.byte	0x1
 505 015c 2E       		.byte	0x2e
 506 015d 6F000000 		.4byte	0x6f
 507 0161 99000000 		.4byte	.LLST7
 508 0165 0F       		.uleb128 0xf
 509 0166 756E6900 		.ascii	"uni\000"
 510 016a 01       		.byte	0x1
 511 016b 2F       		.byte	0x2f
 512 016c 81000000 		.4byte	0x81
 513 0170 00       		.byte	0x0
 514 0171 10       		.uleb128 0x10
 515 0172 81000000 		.4byte	0x81
 516 0176 81010000 		.4byte	0x181
 517 017a 11       		.uleb128 0x11
 518 017b 97000000 		.4byte	0x97
 519 017f FF       		.byte	0xff
 520 0180 00       		.byte	0x0
 521 0181 0B       		.uleb128 0xb
 522 0182 1B000000 		.4byte	.LASF18
 523 0186 01       		.byte	0x1
 524 0187 11       		.byte	0x11
 525 0188 71010000 		.4byte	0x171
 526 018c 05       		.byte	0x5
 527 018d 03       		.byte	0x3
 528 018e 08000000 		.4byte	fifo
 529 0192 0B       		.uleb128 0xb
 530 0193 4E000000 		.4byte	.LASF19
 531 0197 01       		.byte	0x1
 532 0198 12       		.byte	0x12
 533 0199 8C000000 		.4byte	0x8c
 534 019d 05       		.byte	0x5
 535 019e 03       		.byte	0x3
 536 019f 04000000 		.4byte	rptr
 537 01a3 0B       		.uleb128 0xb
 538 01a4 20000000 		.4byte	.LASF20
 539 01a8 01       		.byte	0x1
 540 01a9 12       		.byte	0x12
 541 01aa 8C000000 		.4byte	0x8c
 542 01ae 05       		.byte	0x5
 543 01af 03       		.byte	0x3
 544 01b0 00000000 		.4byte	wptr
 545 01b4 12       		.uleb128 0x12
 546 01b5 99000000 		.4byte	.LASF25
 547 01b9 03       		.byte	0x3
 548 01ba CE06     		.2byte	0x6ce
 549 01bc C2010000 		.4byte	0x1c2
 550 01c0 01       		.byte	0x1
 551 01c1 01       		.byte	0x1
 552 01c2 13       		.uleb128 0x13
ARM GAS  C:\Users\SUZUKI~1\AppData\Local\Temp\cc8w2xZG.s 			page 12


 553 01c3 61000000 		.4byte	0x61
 554 01c7 00       		.byte	0x0
 555              		.section	.debug_abbrev
 556 0000 01       		.uleb128 0x1
 557 0001 11       		.uleb128 0x11
 558 0002 01       		.byte	0x1
 559 0003 25       		.uleb128 0x25
 560 0004 0E       		.uleb128 0xe
 561 0005 13       		.uleb128 0x13
 562 0006 0B       		.uleb128 0xb
 563 0007 03       		.uleb128 0x3
 564 0008 0E       		.uleb128 0xe
 565 0009 1B       		.uleb128 0x1b
 566 000a 0E       		.uleb128 0xe
 567 000b 11       		.uleb128 0x11
 568 000c 01       		.uleb128 0x1
 569 000d 52       		.uleb128 0x52
 570 000e 01       		.uleb128 0x1
 571 000f 55       		.uleb128 0x55
 572 0010 06       		.uleb128 0x6
 573 0011 10       		.uleb128 0x10
 574 0012 06       		.uleb128 0x6
 575 0013 00       		.byte	0x0
 576 0014 00       		.byte	0x0
 577 0015 02       		.uleb128 0x2
 578 0016 24       		.uleb128 0x24
 579 0017 00       		.byte	0x0
 580 0018 0B       		.uleb128 0xb
 581 0019 0B       		.uleb128 0xb
 582 001a 3E       		.uleb128 0x3e
 583 001b 0B       		.uleb128 0xb
 584 001c 03       		.uleb128 0x3
 585 001d 0E       		.uleb128 0xe
 586 001e 00       		.byte	0x0
 587 001f 00       		.byte	0x0
 588 0020 03       		.uleb128 0x3
 589 0021 24       		.uleb128 0x24
 590 0022 00       		.byte	0x0
 591 0023 0B       		.uleb128 0xb
 592 0024 0B       		.uleb128 0xb
 593 0025 3E       		.uleb128 0x3e
 594 0026 0B       		.uleb128 0xb
 595 0027 03       		.uleb128 0x3
 596 0028 08       		.uleb128 0x8
 597 0029 00       		.byte	0x0
 598 002a 00       		.byte	0x0
 599 002b 04       		.uleb128 0x4
 600 002c 16       		.uleb128 0x16
 601 002d 00       		.byte	0x0
 602 002e 03       		.uleb128 0x3
 603 002f 0E       		.uleb128 0xe
 604 0030 3A       		.uleb128 0x3a
 605 0031 0B       		.uleb128 0xb
 606 0032 3B       		.uleb128 0x3b
 607 0033 0B       		.uleb128 0xb
 608 0034 49       		.uleb128 0x49
 609 0035 13       		.uleb128 0x13
ARM GAS  C:\Users\SUZUKI~1\AppData\Local\Temp\cc8w2xZG.s 			page 13


 610 0036 00       		.byte	0x0
 611 0037 00       		.byte	0x0
 612 0038 05       		.uleb128 0x5
 613 0039 24       		.uleb128 0x24
 614 003a 00       		.byte	0x0
 615 003b 0B       		.uleb128 0xb
 616 003c 0B       		.uleb128 0xb
 617 003d 3E       		.uleb128 0x3e
 618 003e 0B       		.uleb128 0xb
 619 003f 00       		.byte	0x0
 620 0040 00       		.byte	0x0
 621 0041 06       		.uleb128 0x6
 622 0042 0F       		.uleb128 0xf
 623 0043 00       		.byte	0x0
 624 0044 0B       		.uleb128 0xb
 625 0045 0B       		.uleb128 0xb
 626 0046 49       		.uleb128 0x49
 627 0047 13       		.uleb128 0x13
 628 0048 00       		.byte	0x0
 629 0049 00       		.byte	0x0
 630 004a 07       		.uleb128 0x7
 631 004b 2E       		.uleb128 0x2e
 632 004c 00       		.byte	0x0
 633 004d 3F       		.uleb128 0x3f
 634 004e 0C       		.uleb128 0xc
 635 004f 03       		.uleb128 0x3
 636 0050 0E       		.uleb128 0xe
 637 0051 3A       		.uleb128 0x3a
 638 0052 0B       		.uleb128 0xb
 639 0053 3B       		.uleb128 0x3b
 640 0054 0B       		.uleb128 0xb
 641 0055 27       		.uleb128 0x27
 642 0056 0C       		.uleb128 0xc
 643 0057 49       		.uleb128 0x49
 644 0058 13       		.uleb128 0x13
 645 0059 11       		.uleb128 0x11
 646 005a 01       		.uleb128 0x1
 647 005b 12       		.uleb128 0x12
 648 005c 01       		.uleb128 0x1
 649 005d 40       		.uleb128 0x40
 650 005e 0A       		.uleb128 0xa
 651 005f 00       		.byte	0x0
 652 0060 00       		.byte	0x0
 653 0061 08       		.uleb128 0x8
 654 0062 2E       		.uleb128 0x2e
 655 0063 01       		.byte	0x1
 656 0064 3F       		.uleb128 0x3f
 657 0065 0C       		.uleb128 0xc
 658 0066 03       		.uleb128 0x3
 659 0067 0E       		.uleb128 0xe
 660 0068 3A       		.uleb128 0x3a
 661 0069 0B       		.uleb128 0xb
 662 006a 3B       		.uleb128 0x3b
 663 006b 0B       		.uleb128 0xb
 664 006c 27       		.uleb128 0x27
 665 006d 0C       		.uleb128 0xc
 666 006e 49       		.uleb128 0x49
ARM GAS  C:\Users\SUZUKI~1\AppData\Local\Temp\cc8w2xZG.s 			page 14


 667 006f 13       		.uleb128 0x13
 668 0070 11       		.uleb128 0x11
 669 0071 01       		.uleb128 0x1
 670 0072 12       		.uleb128 0x12
 671 0073 01       		.uleb128 0x1
 672 0074 40       		.uleb128 0x40
 673 0075 06       		.uleb128 0x6
 674 0076 01       		.uleb128 0x1
 675 0077 13       		.uleb128 0x13
 676 0078 00       		.byte	0x0
 677 0079 00       		.byte	0x0
 678 007a 09       		.uleb128 0x9
 679 007b 34       		.uleb128 0x34
 680 007c 00       		.byte	0x0
 681 007d 03       		.uleb128 0x3
 682 007e 08       		.uleb128 0x8
 683 007f 3A       		.uleb128 0x3a
 684 0080 0B       		.uleb128 0xb
 685 0081 3B       		.uleb128 0x3b
 686 0082 0B       		.uleb128 0xb
 687 0083 49       		.uleb128 0x49
 688 0084 13       		.uleb128 0x13
 689 0085 02       		.uleb128 0x2
 690 0086 0A       		.uleb128 0xa
 691 0087 00       		.byte	0x0
 692 0088 00       		.byte	0x0
 693 0089 0A       		.uleb128 0xa
 694 008a 2E       		.uleb128 0x2e
 695 008b 01       		.byte	0x1
 696 008c 3F       		.uleb128 0x3f
 697 008d 0C       		.uleb128 0xc
 698 008e 03       		.uleb128 0x3
 699 008f 0E       		.uleb128 0xe
 700 0090 3A       		.uleb128 0x3a
 701 0091 0B       		.uleb128 0xb
 702 0092 3B       		.uleb128 0x3b
 703 0093 0B       		.uleb128 0xb
 704 0094 27       		.uleb128 0x27
 705 0095 0C       		.uleb128 0xc
 706 0096 49       		.uleb128 0x49
 707 0097 13       		.uleb128 0x13
 708 0098 11       		.uleb128 0x11
 709 0099 01       		.uleb128 0x1
 710 009a 12       		.uleb128 0x12
 711 009b 01       		.uleb128 0x1
 712 009c 40       		.uleb128 0x40
 713 009d 0A       		.uleb128 0xa
 714 009e 01       		.uleb128 0x1
 715 009f 13       		.uleb128 0x13
 716 00a0 00       		.byte	0x0
 717 00a1 00       		.byte	0x0
 718 00a2 0B       		.uleb128 0xb
 719 00a3 34       		.uleb128 0x34
 720 00a4 00       		.byte	0x0
 721 00a5 03       		.uleb128 0x3
 722 00a6 0E       		.uleb128 0xe
 723 00a7 3A       		.uleb128 0x3a
ARM GAS  C:\Users\SUZUKI~1\AppData\Local\Temp\cc8w2xZG.s 			page 15


 724 00a8 0B       		.uleb128 0xb
 725 00a9 3B       		.uleb128 0x3b
 726 00aa 0B       		.uleb128 0xb
 727 00ab 49       		.uleb128 0x49
 728 00ac 13       		.uleb128 0x13
 729 00ad 02       		.uleb128 0x2
 730 00ae 0A       		.uleb128 0xa
 731 00af 00       		.byte	0x0
 732 00b0 00       		.byte	0x0
 733 00b1 0C       		.uleb128 0xc
 734 00b2 2E       		.uleb128 0x2e
 735 00b3 01       		.byte	0x1
 736 00b4 3F       		.uleb128 0x3f
 737 00b5 0C       		.uleb128 0xc
 738 00b6 03       		.uleb128 0x3
 739 00b7 0E       		.uleb128 0xe
 740 00b8 3A       		.uleb128 0x3a
 741 00b9 0B       		.uleb128 0xb
 742 00ba 3B       		.uleb128 0x3b
 743 00bb 0B       		.uleb128 0xb
 744 00bc 27       		.uleb128 0x27
 745 00bd 0C       		.uleb128 0xc
 746 00be 11       		.uleb128 0x11
 747 00bf 01       		.uleb128 0x1
 748 00c0 12       		.uleb128 0x12
 749 00c1 01       		.uleb128 0x1
 750 00c2 40       		.uleb128 0x40
 751 00c3 06       		.uleb128 0x6
 752 00c4 01       		.uleb128 0x1
 753 00c5 13       		.uleb128 0x13
 754 00c6 00       		.byte	0x0
 755 00c7 00       		.byte	0x0
 756 00c8 0D       		.uleb128 0xd
 757 00c9 05       		.uleb128 0x5
 758 00ca 00       		.byte	0x0
 759 00cb 03       		.uleb128 0x3
 760 00cc 08       		.uleb128 0x8
 761 00cd 3A       		.uleb128 0x3a
 762 00ce 0B       		.uleb128 0xb
 763 00cf 3B       		.uleb128 0x3b
 764 00d0 0B       		.uleb128 0xb
 765 00d1 49       		.uleb128 0x49
 766 00d2 13       		.uleb128 0x13
 767 00d3 02       		.uleb128 0x2
 768 00d4 06       		.uleb128 0x6
 769 00d5 00       		.byte	0x0
 770 00d6 00       		.byte	0x0
 771 00d7 0E       		.uleb128 0xe
 772 00d8 34       		.uleb128 0x34
 773 00d9 00       		.byte	0x0
 774 00da 03       		.uleb128 0x3
 775 00db 08       		.uleb128 0x8
 776 00dc 3A       		.uleb128 0x3a
 777 00dd 0B       		.uleb128 0xb
 778 00de 3B       		.uleb128 0x3b
 779 00df 0B       		.uleb128 0xb
 780 00e0 49       		.uleb128 0x49
ARM GAS  C:\Users\SUZUKI~1\AppData\Local\Temp\cc8w2xZG.s 			page 16


 781 00e1 13       		.uleb128 0x13
 782 00e2 02       		.uleb128 0x2
 783 00e3 06       		.uleb128 0x6
 784 00e4 00       		.byte	0x0
 785 00e5 00       		.byte	0x0
 786 00e6 0F       		.uleb128 0xf
 787 00e7 34       		.uleb128 0x34
 788 00e8 00       		.byte	0x0
 789 00e9 03       		.uleb128 0x3
 790 00ea 08       		.uleb128 0x8
 791 00eb 3A       		.uleb128 0x3a
 792 00ec 0B       		.uleb128 0xb
 793 00ed 3B       		.uleb128 0x3b
 794 00ee 0B       		.uleb128 0xb
 795 00ef 49       		.uleb128 0x49
 796 00f0 13       		.uleb128 0x13
 797 00f1 00       		.byte	0x0
 798 00f2 00       		.byte	0x0
 799 00f3 10       		.uleb128 0x10
 800 00f4 01       		.uleb128 0x1
 801 00f5 01       		.byte	0x1
 802 00f6 49       		.uleb128 0x49
 803 00f7 13       		.uleb128 0x13
 804 00f8 01       		.uleb128 0x1
 805 00f9 13       		.uleb128 0x13
 806 00fa 00       		.byte	0x0
 807 00fb 00       		.byte	0x0
 808 00fc 11       		.uleb128 0x11
 809 00fd 21       		.uleb128 0x21
 810 00fe 00       		.byte	0x0
 811 00ff 49       		.uleb128 0x49
 812 0100 13       		.uleb128 0x13
 813 0101 2F       		.uleb128 0x2f
 814 0102 0B       		.uleb128 0xb
 815 0103 00       		.byte	0x0
 816 0104 00       		.byte	0x0
 817 0105 12       		.uleb128 0x12
 818 0106 34       		.uleb128 0x34
 819 0107 00       		.byte	0x0
 820 0108 03       		.uleb128 0x3
 821 0109 0E       		.uleb128 0xe
 822 010a 3A       		.uleb128 0x3a
 823 010b 0B       		.uleb128 0xb
 824 010c 3B       		.uleb128 0x3b
 825 010d 05       		.uleb128 0x5
 826 010e 49       		.uleb128 0x49
 827 010f 13       		.uleb128 0x13
 828 0110 3F       		.uleb128 0x3f
 829 0111 0C       		.uleb128 0xc
 830 0112 3C       		.uleb128 0x3c
 831 0113 0C       		.uleb128 0xc
 832 0114 00       		.byte	0x0
 833 0115 00       		.byte	0x0
 834 0116 13       		.uleb128 0x13
 835 0117 35       		.uleb128 0x35
 836 0118 00       		.byte	0x0
 837 0119 49       		.uleb128 0x49
ARM GAS  C:\Users\SUZUKI~1\AppData\Local\Temp\cc8w2xZG.s 			page 17


 838 011a 13       		.uleb128 0x13
 839 011b 00       		.byte	0x0
 840 011c 00       		.byte	0x0
 841 011d 00       		.byte	0x0
 842              		.section	.debug_pubnames,"",%progbits
 843 0000 70000000 		.4byte	0x70
 844 0004 0200     		.2byte	0x2
 845 0006 00000000 		.4byte	.Ldebug_info0
 846 000a C8010000 		.4byte	0x1c8
 847 000e A0000000 		.4byte	0xa0
 848 0012 6669666F 		.ascii	"fifoGetContentSize\000"
 848      47657443 
 848      6F6E7465 
 848      6E745369 
 848      7A6500
 849 0025 B7000000 		.4byte	0xb7
 850 0029 6669666F 		.ascii	"fifoGetChar\000"
 850      47657443 
 850      68617200 
 851 0035 E0000000 		.4byte	0xe0
 852 0039 6669666F 		.ascii	"fifoGetVacancySize\000"
 852      47657456 
 852      6163616E 
 852      63795369 
 852      7A6500
 853 004c 09010000 		.4byte	0x109
 854 0050 6669666F 		.ascii	"fifoPushChar\000"
 854      50757368 
 854      43686172 
 854      00
 855 005d 30010000 		.4byte	0x130
 856 0061 6669666F 		.ascii	"fifoPushString\000"
 856      50757368 
 856      53747269 
 856      6E6700
 857 0070 00000000 		.4byte	0x0
 858              		.section	.debug_aranges,"",%progbits
 859 0000 3C000000 		.4byte	0x3c
 860 0004 0200     		.2byte	0x2
 861 0006 00000000 		.4byte	.Ldebug_info0
 862 000a 04       		.byte	0x4
 863 000b 00       		.byte	0x0
 864 000c 0000     		.2byte	0x0
 865 000e 0000     		.2byte	0x0
 866 0010 00000000 		.4byte	.LFB32
 867 0014 2C000000 		.4byte	.LFE32-.LFB32
 868 0018 00000000 		.4byte	.LFB29
 869 001c 3C000000 		.4byte	.LFE29-.LFB29
 870 0020 00000000 		.4byte	.LFB33
 871 0024 1C000000 		.4byte	.LFE33-.LFB33
 872 0028 00000000 		.4byte	.LFB30
 873 002c 38000000 		.4byte	.LFE30-.LFB30
 874 0030 00000000 		.4byte	.LFB31
 875 0034 1E000000 		.4byte	.LFE31-.LFB31
 876 0038 00000000 		.4byte	0x0
 877 003c 00000000 		.4byte	0x0
 878              		.section	.debug_ranges,"",%progbits
ARM GAS  C:\Users\SUZUKI~1\AppData\Local\Temp\cc8w2xZG.s 			page 18


 879              	.Ldebug_ranges0:
 880 0000 00000000 		.4byte	.Ltext0
 881 0004 00000000 		.4byte	.Letext0
 882 0008 00000000 		.4byte	.LFB32
 883 000c 2C000000 		.4byte	.LFE32
 884 0010 00000000 		.4byte	.LFB29
 885 0014 3C000000 		.4byte	.LFE29
 886 0018 00000000 		.4byte	.LFB33
 887 001c 1C000000 		.4byte	.LFE33
 888 0020 00000000 		.4byte	.LFB30
 889 0024 38000000 		.4byte	.LFE30
 890 0028 00000000 		.4byte	.LFB31
 891 002c 1E000000 		.4byte	.LFE31
 892 0030 00000000 		.4byte	0x0
 893 0034 00000000 		.4byte	0x0
 894              		.section	.debug_str,"MS",%progbits,1
 895              	.LASF6:
 896 0000 6C6F6E67 		.ascii	"long long int\000"
 896      206C6F6E 
 896      6720696E 
 896      7400
 897              	.LASF8:
 898 000e 756E7369 		.ascii	"unsigned int\000"
 898      676E6564 
 898      20696E74 
 898      00
 899              	.LASF18:
 900 001b 6669666F 		.ascii	"fifo\000"
 900      00
 901              	.LASF20:
 902 0020 77707472 		.ascii	"wptr\000"
 902      00
 903              	.LASF5:
 904 0025 6C6F6E67 		.ascii	"long unsigned int\000"
 904      20756E73 
 904      69676E65 
 904      6420696E 
 904      7400
 905              	.LASF7:
 906 0037 6C6F6E67 		.ascii	"long long unsigned int\000"
 906      206C6F6E 
 906      6720756E 
 906      7369676E 
 906      65642069 
 907              	.LASF19:
 908 004e 72707472 		.ascii	"rptr\000"
 908      00
 909              	.LASF24:
 910 0053 6669666F 		.ascii	"fifoGetContentSize\000"
 910      47657443 
 910      6F6E7465 
 910      6E745369 
 910      7A6500
 911              	.LASF15:
 912 0066 6F666673 		.ascii	"offset\000"
 912      657400
 913              	.LASF9:
ARM GAS  C:\Users\SUZUKI~1\AppData\Local\Temp\cc8w2xZG.s 			page 19


 914 006d 63686172 		.ascii	"char\000"
 914      00
 915              	.LASF21:
 916 0072 474E5520 		.ascii	"GNU C 4.4.1\000"
 916      4320342E 
 916      342E3100 
 917              	.LASF1:
 918 007e 756E7369 		.ascii	"unsigned char\000"
 918      676E6564 
 918      20636861 
 918      7200
 919              	.LASF16:
 920 008c 6669666F 		.ascii	"fifoPushChar\000"
 920      50757368 
 920      43686172 
 920      00
 921              	.LASF25:
 922 0099 49544D5F 		.ascii	"ITM_RxBuffer\000"
 922      52784275 
 922      66666572 
 922      00
 923              	.LASF4:
 924 00a6 6C6F6E67 		.ascii	"long int\000"
 924      20696E74 
 924      00
 925              	.LASF22:
 926 00af 2E5C6669 		.ascii	".\\fifo.c\000"
 926      666F2E63 
 926      00
 927              	.LASF3:
 928 00b8 73686F72 		.ascii	"short unsigned int\000"
 928      7420756E 
 928      7369676E 
 928      65642069 
 928      6E7400
 929              	.LASF0:
 930 00cb 7369676E 		.ascii	"signed char\000"
 930      65642063 
 930      68617200 
 931              	.LASF23:
 932 00d7 463A5C44 		.ascii	"F:\\Documents\\PSoC_Creator\\ledmatrix\\ledmatrixno"
 932      6F63756D 
 932      656E7473 
 932      5C50536F 
 932      435F4372 
 933 0106 6E646D61 		.ascii	"ndma.cydsn\000"
 933      2E637964 
 933      736E00
 934              	.LASF17:
 935 0111 6669666F 		.ascii	"fifoPushString\000"
 935      50757368 
 935      53747269 
 935      6E6700
 936              	.LASF11:
 937 0120 696E7431 		.ascii	"int16\000"
 937      3600
 938              	.LASF2:
ARM GAS  C:\Users\SUZUKI~1\AppData\Local\Temp\cc8w2xZG.s 			page 20


 939 0126 73686F72 		.ascii	"short int\000"
 939      7420696E 
 939      7400
 940              	.LASF10:
 941 0130 75696E74 		.ascii	"uint16\000"
 941      313600
 942              	.LASF14:
 943 0137 6669666F 		.ascii	"fifoGetVacancySize\000"
 943      47657456 
 943      6163616E 
 943      63795369 
 943      7A6500
 944              	.LASF13:
 945 014a 6669666F 		.ascii	"fifoGetChar\000"
 945      47657443 
 945      68617200 
 946              	.LASF12:
 947 0156 696E7433 		.ascii	"int32\000"
 947      3200
 948              		.ident	"GCC: (Sourcery G++ Lite 2010q1-188) 4.4.1"
