ARM GAS  C:\Users\SUZUKI~1\AppData\Local\Temp\ccyBk4fI.s 			page 1


   1              		.syntax unified
   2              		.cpu cortex-m3
   3              		.fpu softvfp
   4              		.eabi_attribute 20, 1
   5              		.eabi_attribute 21, 1
   6              		.eabi_attribute 23, 3
   7              		.eabi_attribute 24, 1
   8              		.eabi_attribute 25, 1
   9              		.eabi_attribute 26, 1
  10              		.eabi_attribute 30, 4
  11              		.eabi_attribute 18, 4
  12              		.thumb
  13              		.file	"LEDSPI_INT.c"
  14              		.section	.debug_abbrev,"",%progbits
  15              	.Ldebug_abbrev0:
  16              		.section	.debug_info,"",%progbits
  17              	.Ldebug_info0:
  18              		.section	.debug_line,"",%progbits
  19              	.Ldebug_line0:
  20 0000 8F000000 		.text
  20      02006300 
  20      00000201 
  20      FB0E0D00 
  20      01010101 
  21              	.Ltext0:
  22              		.cfi_sections	.debug_frame
  23              		.section	.text.LEDSPI_TX_ISR,"ax",%progbits
  24              		.align	1
  25              		.global	LEDSPI_TX_ISR
  26              		.thumb
  27              		.thumb_func
  28              		.type	LEDSPI_TX_ISR, %function
  29              	LEDSPI_TX_ISR:
  30              	.LFB0:
  31              		.file 1 ".\\Generated_Source\\PSoC5\\LEDSPI_INT.c"
   1:.\Generated_Source\PSoC5/LEDSPI_INT.c **** /*******************************************************************************
   2:.\Generated_Source\PSoC5/LEDSPI_INT.c **** * File Name: LEDSPI_INT.c
   3:.\Generated_Source\PSoC5/LEDSPI_INT.c **** * Version 2.30
   4:.\Generated_Source\PSoC5/LEDSPI_INT.c **** *
   5:.\Generated_Source\PSoC5/LEDSPI_INT.c **** * Description:
   6:.\Generated_Source\PSoC5/LEDSPI_INT.c **** *  This file provides all Interrupt Service Routine (ISR) for the SPI Master
   7:.\Generated_Source\PSoC5/LEDSPI_INT.c **** *  component.
   8:.\Generated_Source\PSoC5/LEDSPI_INT.c **** *
   9:.\Generated_Source\PSoC5/LEDSPI_INT.c **** * Note:
  10:.\Generated_Source\PSoC5/LEDSPI_INT.c **** *  None.
  11:.\Generated_Source\PSoC5/LEDSPI_INT.c **** *
  12:.\Generated_Source\PSoC5/LEDSPI_INT.c **** ********************************************************************************
  13:.\Generated_Source\PSoC5/LEDSPI_INT.c **** * Copyright 2008-2012, Cypress Semiconductor Corporation.  All rights reserved.
  14:.\Generated_Source\PSoC5/LEDSPI_INT.c **** * You may use this file only in accordance with the license, terms, conditions, 
  15:.\Generated_Source\PSoC5/LEDSPI_INT.c **** * disclaimers, and limitations in the end user license agreement accompanying 
  16:.\Generated_Source\PSoC5/LEDSPI_INT.c **** * the software package with which this file was provided.
  17:.\Generated_Source\PSoC5/LEDSPI_INT.c **** *******************************************************************************/
  18:.\Generated_Source\PSoC5/LEDSPI_INT.c **** 
  19:.\Generated_Source\PSoC5/LEDSPI_INT.c **** #include "LEDSPI.h"
  20:.\Generated_Source\PSoC5/LEDSPI_INT.c **** 
  21:.\Generated_Source\PSoC5/LEDSPI_INT.c **** #if (LEDSPI_RXBUFFERSIZE > 4u)
  22:.\Generated_Source\PSoC5/LEDSPI_INT.c **** 
ARM GAS  C:\Users\SUZUKI~1\AppData\Local\Temp\ccyBk4fI.s 			page 2


  23:.\Generated_Source\PSoC5/LEDSPI_INT.c ****     extern volatile uint8 LEDSPI_RXBUFFER[];
  24:.\Generated_Source\PSoC5/LEDSPI_INT.c ****     extern volatile uint8 LEDSPI_rxBufferRead;
  25:.\Generated_Source\PSoC5/LEDSPI_INT.c ****     extern volatile uint8 LEDSPI_rxBufferWrite;
  26:.\Generated_Source\PSoC5/LEDSPI_INT.c ****     extern volatile uint8 LEDSPI_rxBufferFull;
  27:.\Generated_Source\PSoC5/LEDSPI_INT.c ****     
  28:.\Generated_Source\PSoC5/LEDSPI_INT.c **** #endif /* LEDSPI_RXBUFFERSIZE > 4u */
  29:.\Generated_Source\PSoC5/LEDSPI_INT.c **** 
  30:.\Generated_Source\PSoC5/LEDSPI_INT.c **** #if (LEDSPI_TXBUFFERSIZE > 4u)
  31:.\Generated_Source\PSoC5/LEDSPI_INT.c **** 
  32:.\Generated_Source\PSoC5/LEDSPI_INT.c ****     extern volatile uint8 LEDSPI_TXBUFFER[];
  33:.\Generated_Source\PSoC5/LEDSPI_INT.c ****     extern volatile uint8 LEDSPI_txBufferRead;
  34:.\Generated_Source\PSoC5/LEDSPI_INT.c ****     extern volatile uint8 LEDSPI_txBufferWrite;
  35:.\Generated_Source\PSoC5/LEDSPI_INT.c ****     extern volatile uint8 LEDSPI_txBufferFull;
  36:.\Generated_Source\PSoC5/LEDSPI_INT.c **** 
  37:.\Generated_Source\PSoC5/LEDSPI_INT.c **** #endif /* LEDSPI_TXBUFFERSIZE > 4u */
  38:.\Generated_Source\PSoC5/LEDSPI_INT.c **** 
  39:.\Generated_Source\PSoC5/LEDSPI_INT.c **** volatile uint8 LEDSPI_swStatusTx = 0u;
  40:.\Generated_Source\PSoC5/LEDSPI_INT.c **** volatile uint8 LEDSPI_swStatusRx = 0u;
  41:.\Generated_Source\PSoC5/LEDSPI_INT.c **** 
  42:.\Generated_Source\PSoC5/LEDSPI_INT.c **** /* User code required at start of ISR */
  43:.\Generated_Source\PSoC5/LEDSPI_INT.c **** /* `#START LEDSPI_ISR_START_DEF` */
  44:.\Generated_Source\PSoC5/LEDSPI_INT.c **** 
  45:.\Generated_Source\PSoC5/LEDSPI_INT.c **** /* `#END` */
  46:.\Generated_Source\PSoC5/LEDSPI_INT.c **** 
  47:.\Generated_Source\PSoC5/LEDSPI_INT.c **** 
  48:.\Generated_Source\PSoC5/LEDSPI_INT.c **** /*******************************************************************************
  49:.\Generated_Source\PSoC5/LEDSPI_INT.c **** * Function Name: LEDSPI_TX_ISR
  50:.\Generated_Source\PSoC5/LEDSPI_INT.c **** ********************************************************************************
  51:.\Generated_Source\PSoC5/LEDSPI_INT.c **** *
  52:.\Generated_Source\PSoC5/LEDSPI_INT.c **** * Summary:
  53:.\Generated_Source\PSoC5/LEDSPI_INT.c **** *  Interrupt Service Routine for TX portion of the SPI Master.
  54:.\Generated_Source\PSoC5/LEDSPI_INT.c **** *
  55:.\Generated_Source\PSoC5/LEDSPI_INT.c **** * Parameters:
  56:.\Generated_Source\PSoC5/LEDSPI_INT.c **** *  None.
  57:.\Generated_Source\PSoC5/LEDSPI_INT.c **** *
  58:.\Generated_Source\PSoC5/LEDSPI_INT.c **** * Return:
  59:.\Generated_Source\PSoC5/LEDSPI_INT.c **** *  None.
  60:.\Generated_Source\PSoC5/LEDSPI_INT.c **** *
  61:.\Generated_Source\PSoC5/LEDSPI_INT.c **** * Global variables:
  62:.\Generated_Source\PSoC5/LEDSPI_INT.c **** *  LEDSPI_txBufferWrite - used for the account of the bytes which
  63:.\Generated_Source\PSoC5/LEDSPI_INT.c **** *  have been written down in the TX software buffer.
  64:.\Generated_Source\PSoC5/LEDSPI_INT.c **** *  LEDSPI_txBufferRead - used for the account of the bytes which
  65:.\Generated_Source\PSoC5/LEDSPI_INT.c **** *  have been read from the TX software buffer, modified when exist data to 
  66:.\Generated_Source\PSoC5/LEDSPI_INT.c **** *  sending and FIFO Not Full.
  67:.\Generated_Source\PSoC5/LEDSPI_INT.c **** *  LEDSPI_TXBUFFER[LEDSPI_TXBUFFERSIZE] - used to store
  68:.\Generated_Source\PSoC5/LEDSPI_INT.c **** *  data to sending.
  69:.\Generated_Source\PSoC5/LEDSPI_INT.c **** *  All described above Global variables are used when Software Buffer is used.
  70:.\Generated_Source\PSoC5/LEDSPI_INT.c **** *
  71:.\Generated_Source\PSoC5/LEDSPI_INT.c **** *******************************************************************************/
  72:.\Generated_Source\PSoC5/LEDSPI_INT.c **** CY_ISR(LEDSPI_TX_ISR)
  73:.\Generated_Source\PSoC5/LEDSPI_INT.c **** {     
  32              		.loc 1 73 0
  33              		.cfi_startproc
  34              		@ args = 0, pretend = 0, frame = 0
  35              		@ frame_needed = 0, uses_anonymous_args = 0
  36              		@ link register save eliminated.
  74:.\Generated_Source\PSoC5/LEDSPI_INT.c ****     /* User code required at start of ISR */
ARM GAS  C:\Users\SUZUKI~1\AppData\Local\Temp\ccyBk4fI.s 			page 3


  75:.\Generated_Source\PSoC5/LEDSPI_INT.c ****     /* `#START LEDSPI_TX_ISR_START` */
  76:.\Generated_Source\PSoC5/LEDSPI_INT.c **** 
  77:.\Generated_Source\PSoC5/LEDSPI_INT.c ****     /* `#END` */
  78:.\Generated_Source\PSoC5/LEDSPI_INT.c ****     
  79:.\Generated_Source\PSoC5/LEDSPI_INT.c ****     #if((LEDSPI_InternalTxInterruptEnabled) && (LEDSPI_TXBUFFERSIZE > 4u))
  80:.\Generated_Source\PSoC5/LEDSPI_INT.c ****                          
  81:.\Generated_Source\PSoC5/LEDSPI_INT.c ****         /* See if TX data buffer is not empty and there is space in TX FIFO */
  82:.\Generated_Source\PSoC5/LEDSPI_INT.c ****         while(LEDSPI_txBufferRead != LEDSPI_txBufferWrite)
  83:.\Generated_Source\PSoC5/LEDSPI_INT.c ****         {
  84:.\Generated_Source\PSoC5/LEDSPI_INT.c ****             LEDSPI_swStatusTx = LEDSPI_GET_STATUS_TX(LEDSPI_swStatusTx);
  85:.\Generated_Source\PSoC5/LEDSPI_INT.c ****             
  86:.\Generated_Source\PSoC5/LEDSPI_INT.c ****             if ((LEDSPI_swStatusTx & LEDSPI_STS_TX_FIFO_NOT_FULL) != 0u)
  87:.\Generated_Source\PSoC5/LEDSPI_INT.c ****             {            
  88:.\Generated_Source\PSoC5/LEDSPI_INT.c ****                 if(LEDSPI_txBufferFull == 0u)
  89:.\Generated_Source\PSoC5/LEDSPI_INT.c ****                 {
  90:.\Generated_Source\PSoC5/LEDSPI_INT.c ****                    LEDSPI_txBufferRead++;
  91:.\Generated_Source\PSoC5/LEDSPI_INT.c **** 
  92:.\Generated_Source\PSoC5/LEDSPI_INT.c ****                     if(LEDSPI_txBufferRead >= LEDSPI_TXBUFFERSIZE)
  93:.\Generated_Source\PSoC5/LEDSPI_INT.c ****                     {
  94:.\Generated_Source\PSoC5/LEDSPI_INT.c ****                         LEDSPI_txBufferRead = 0u;
  95:.\Generated_Source\PSoC5/LEDSPI_INT.c ****                     }
  96:.\Generated_Source\PSoC5/LEDSPI_INT.c ****                 }
  97:.\Generated_Source\PSoC5/LEDSPI_INT.c ****                 else
  98:.\Generated_Source\PSoC5/LEDSPI_INT.c ****                 {
  99:.\Generated_Source\PSoC5/LEDSPI_INT.c ****                     LEDSPI_txBufferFull = 0u;
 100:.\Generated_Source\PSoC5/LEDSPI_INT.c ****                 }
 101:.\Generated_Source\PSoC5/LEDSPI_INT.c ****             
 102:.\Generated_Source\PSoC5/LEDSPI_INT.c ****                 /* Move data from the Buffer to the FIFO */
 103:.\Generated_Source\PSoC5/LEDSPI_INT.c ****                 CY_SET_REG8(LEDSPI_TXDATA_PTR,
 104:.\Generated_Source\PSoC5/LEDSPI_INT.c ****                     LEDSPI_TXBUFFER[LEDSPI_txBufferRead]);
 105:.\Generated_Source\PSoC5/LEDSPI_INT.c ****             }
 106:.\Generated_Source\PSoC5/LEDSPI_INT.c ****             else
 107:.\Generated_Source\PSoC5/LEDSPI_INT.c ****             {
 108:.\Generated_Source\PSoC5/LEDSPI_INT.c ****                 break;
 109:.\Generated_Source\PSoC5/LEDSPI_INT.c ****             }            
 110:.\Generated_Source\PSoC5/LEDSPI_INT.c ****         }
 111:.\Generated_Source\PSoC5/LEDSPI_INT.c ****             
 112:.\Generated_Source\PSoC5/LEDSPI_INT.c ****         /* Disable Interrupt on TX_fifo_not_empty if BUFFER is empty */
 113:.\Generated_Source\PSoC5/LEDSPI_INT.c ****         if(LEDSPI_txBufferRead == LEDSPI_txBufferWrite)
 114:.\Generated_Source\PSoC5/LEDSPI_INT.c ****         {
 115:.\Generated_Source\PSoC5/LEDSPI_INT.c ****             LEDSPI_TX_STATUS_MASK_REG  &= ~LEDSPI_STS_TX_FIFO_NOT_FULL; 
 116:.\Generated_Source\PSoC5/LEDSPI_INT.c ****         }                       
 117:.\Generated_Source\PSoC5/LEDSPI_INT.c ****         
 118:.\Generated_Source\PSoC5/LEDSPI_INT.c **** 	#endif /* LEDSPI_InternalTxInterruptEnabled && (LEDSPI_TXBUFFERSIZE > 4u) */
 119:.\Generated_Source\PSoC5/LEDSPI_INT.c ****     
 120:.\Generated_Source\PSoC5/LEDSPI_INT.c ****     /* User code required at end of ISR (Optional) */
 121:.\Generated_Source\PSoC5/LEDSPI_INT.c ****     /* `#START LEDSPI_TX_ISR_END` */
 122:.\Generated_Source\PSoC5/LEDSPI_INT.c **** 
 123:.\Generated_Source\PSoC5/LEDSPI_INT.c ****     /* `#END` */
 124:.\Generated_Source\PSoC5/LEDSPI_INT.c ****    
 125:.\Generated_Source\PSoC5/LEDSPI_INT.c **** }
  37              		.loc 1 125 0
  38 0000 7047     		bx	lr
  39              		.cfi_endproc
  40              	.LFE0:
  41              		.size	LEDSPI_TX_ISR, .-LEDSPI_TX_ISR
  42              		.section	.text.LEDSPI_RX_ISR,"ax",%progbits
ARM GAS  C:\Users\SUZUKI~1\AppData\Local\Temp\ccyBk4fI.s 			page 4


  43              		.align	1
  44              		.global	LEDSPI_RX_ISR
  45              		.thumb
  46              		.thumb_func
  47              		.type	LEDSPI_RX_ISR, %function
  48              	LEDSPI_RX_ISR:
  49              	.LFB1:
 126:.\Generated_Source\PSoC5/LEDSPI_INT.c **** 
 127:.\Generated_Source\PSoC5/LEDSPI_INT.c **** 
 128:.\Generated_Source\PSoC5/LEDSPI_INT.c **** /*******************************************************************************
 129:.\Generated_Source\PSoC5/LEDSPI_INT.c **** * Function Name: LEDSPI_RX_ISR
 130:.\Generated_Source\PSoC5/LEDSPI_INT.c **** ********************************************************************************
 131:.\Generated_Source\PSoC5/LEDSPI_INT.c **** *
 132:.\Generated_Source\PSoC5/LEDSPI_INT.c **** * Summary:
 133:.\Generated_Source\PSoC5/LEDSPI_INT.c **** *  Interrupt Service Routine for RX portion of the SPI Master.
 134:.\Generated_Source\PSoC5/LEDSPI_INT.c **** *
 135:.\Generated_Source\PSoC5/LEDSPI_INT.c **** * Parameters:
 136:.\Generated_Source\PSoC5/LEDSPI_INT.c **** *  None.
 137:.\Generated_Source\PSoC5/LEDSPI_INT.c **** *
 138:.\Generated_Source\PSoC5/LEDSPI_INT.c **** * Return:
 139:.\Generated_Source\PSoC5/LEDSPI_INT.c **** *  None.
 140:.\Generated_Source\PSoC5/LEDSPI_INT.c **** *
 141:.\Generated_Source\PSoC5/LEDSPI_INT.c **** * Global variables:
 142:.\Generated_Source\PSoC5/LEDSPI_INT.c **** *  LEDSPI_rxBufferWrite - used for the account of the bytes which
 143:.\Generated_Source\PSoC5/LEDSPI_INT.c **** *  have been written down in the RX software buffer modified when FIFO contains
 144:.\Generated_Source\PSoC5/LEDSPI_INT.c **** *  new data.
 145:.\Generated_Source\PSoC5/LEDSPI_INT.c **** *  LEDSPI_rxBufferRead - used for the account of the bytes which
 146:.\Generated_Source\PSoC5/LEDSPI_INT.c **** *  have been read from the RX software buffer, modified when overflow occurred.
 147:.\Generated_Source\PSoC5/LEDSPI_INT.c **** *  LEDSPI_RXBUFFER[LEDSPI_RXBUFFERSIZE] - used to store
 148:.\Generated_Source\PSoC5/LEDSPI_INT.c **** *  received data, modified when FIFO contains new data.
 149:.\Generated_Source\PSoC5/LEDSPI_INT.c **** *  All described above Global variables are used when Software Buffer is used.
 150:.\Generated_Source\PSoC5/LEDSPI_INT.c **** *
 151:.\Generated_Source\PSoC5/LEDSPI_INT.c **** *******************************************************************************/
 152:.\Generated_Source\PSoC5/LEDSPI_INT.c **** CY_ISR(LEDSPI_RX_ISR)
 153:.\Generated_Source\PSoC5/LEDSPI_INT.c **** {     
  50              		.loc 1 153 0
  51              		.cfi_startproc
  52              		@ args = 0, pretend = 0, frame = 0
  53              		@ frame_needed = 0, uses_anonymous_args = 0
  54              		@ link register save eliminated.
 154:.\Generated_Source\PSoC5/LEDSPI_INT.c ****     #if((LEDSPI_InternalRxInterruptEnabled) && (LEDSPI_RXBUFFERSIZE > 4u))
 155:.\Generated_Source\PSoC5/LEDSPI_INT.c ****         uint8 rxData = 0u; 
 156:.\Generated_Source\PSoC5/LEDSPI_INT.c ****     #endif /* LEDSPI_InternalRxInterruptEnabled */  
 157:.\Generated_Source\PSoC5/LEDSPI_INT.c ****     
 158:.\Generated_Source\PSoC5/LEDSPI_INT.c ****     /* User code required at start of ISR */
 159:.\Generated_Source\PSoC5/LEDSPI_INT.c ****     /* `#START LEDSPI_RX_ISR_START` */
 160:.\Generated_Source\PSoC5/LEDSPI_INT.c **** 
 161:.\Generated_Source\PSoC5/LEDSPI_INT.c ****     /* `#END` */
 162:.\Generated_Source\PSoC5/LEDSPI_INT.c ****     
 163:.\Generated_Source\PSoC5/LEDSPI_INT.c ****     #if((LEDSPI_InternalRxInterruptEnabled) && (LEDSPI_RXBUFFERSIZE > 4u))
 164:.\Generated_Source\PSoC5/LEDSPI_INT.c ****          
 165:.\Generated_Source\PSoC5/LEDSPI_INT.c ****         LEDSPI_swStatusRx = LEDSPI_GET_STATUS_RX(LEDSPI_swStatusRx);          
 166:.\Generated_Source\PSoC5/LEDSPI_INT.c ****         
 167:.\Generated_Source\PSoC5/LEDSPI_INT.c ****         /* See if RX data FIFO has some data and if it can be moved to the RX Buffer */
 168:.\Generated_Source\PSoC5/LEDSPI_INT.c ****         while((LEDSPI_swStatusRx & LEDSPI_STS_RX_FIFO_NOT_EMPTY) == 
 169:.\Generated_Source\PSoC5/LEDSPI_INT.c ****                                                                                 LEDSPI_STS_RX_FIFO_
 170:.\Generated_Source\PSoC5/LEDSPI_INT.c ****         {
ARM GAS  C:\Users\SUZUKI~1\AppData\Local\Temp\ccyBk4fI.s 			page 5


 171:.\Generated_Source\PSoC5/LEDSPI_INT.c ****             rxData = CY_GET_REG8(LEDSPI_RXDATA_PTR);
 172:.\Generated_Source\PSoC5/LEDSPI_INT.c ****             
 173:.\Generated_Source\PSoC5/LEDSPI_INT.c ****             /* Set next pointer. */
 174:.\Generated_Source\PSoC5/LEDSPI_INT.c ****             LEDSPI_rxBufferWrite++;
 175:.\Generated_Source\PSoC5/LEDSPI_INT.c ****             if(LEDSPI_rxBufferWrite >= LEDSPI_RXBUFFERSIZE)
 176:.\Generated_Source\PSoC5/LEDSPI_INT.c ****             {
 177:.\Generated_Source\PSoC5/LEDSPI_INT.c ****                 LEDSPI_rxBufferWrite = 0u;
 178:.\Generated_Source\PSoC5/LEDSPI_INT.c ****             }
 179:.\Generated_Source\PSoC5/LEDSPI_INT.c ****             
 180:.\Generated_Source\PSoC5/LEDSPI_INT.c ****             if(LEDSPI_rxBufferWrite == LEDSPI_rxBufferRead)
 181:.\Generated_Source\PSoC5/LEDSPI_INT.c ****             {
 182:.\Generated_Source\PSoC5/LEDSPI_INT.c ****                 LEDSPI_rxBufferRead++;
 183:.\Generated_Source\PSoC5/LEDSPI_INT.c ****                 if(LEDSPI_rxBufferRead >= LEDSPI_RXBUFFERSIZE)
 184:.\Generated_Source\PSoC5/LEDSPI_INT.c ****                 {
 185:.\Generated_Source\PSoC5/LEDSPI_INT.c ****                     LEDSPI_rxBufferRead = 0u;
 186:.\Generated_Source\PSoC5/LEDSPI_INT.c ****                 }
 187:.\Generated_Source\PSoC5/LEDSPI_INT.c ****                 LEDSPI_rxBufferFull = 1u;
 188:.\Generated_Source\PSoC5/LEDSPI_INT.c ****             }
 189:.\Generated_Source\PSoC5/LEDSPI_INT.c ****             
 190:.\Generated_Source\PSoC5/LEDSPI_INT.c ****             /* Move data from the FIFO to the Buffer */
 191:.\Generated_Source\PSoC5/LEDSPI_INT.c ****             LEDSPI_RXBUFFER[LEDSPI_rxBufferWrite] = rxData;
 192:.\Generated_Source\PSoC5/LEDSPI_INT.c ****                 
 193:.\Generated_Source\PSoC5/LEDSPI_INT.c ****             LEDSPI_swStatusRx = LEDSPI_GET_STATUS_RX(LEDSPI_swStatusRx);
 194:.\Generated_Source\PSoC5/LEDSPI_INT.c ****         }                    
 195:.\Generated_Source\PSoC5/LEDSPI_INT.c ****         
 196:.\Generated_Source\PSoC5/LEDSPI_INT.c **** 	#endif /* LEDSPI_InternalRxInterruptEnabled  && (LEDSPI_RXBUFFERSIZE > 4u) */        
 197:.\Generated_Source\PSoC5/LEDSPI_INT.c ****     
 198:.\Generated_Source\PSoC5/LEDSPI_INT.c ****     /* User code required at end of ISR (Optional) */
 199:.\Generated_Source\PSoC5/LEDSPI_INT.c ****     /* `#START LEDSPI_RX_ISR_END` */
 200:.\Generated_Source\PSoC5/LEDSPI_INT.c **** 
 201:.\Generated_Source\PSoC5/LEDSPI_INT.c ****     /* `#END` */
 202:.\Generated_Source\PSoC5/LEDSPI_INT.c ****     
 203:.\Generated_Source\PSoC5/LEDSPI_INT.c **** }
  55              		.loc 1 203 0
  56 0000 7047     		bx	lr
  57              		.cfi_endproc
  58              	.LFE1:
  59              		.size	LEDSPI_RX_ISR, .-LEDSPI_RX_ISR
  60              		.global	LEDSPI_swStatusTx
  61              		.global	LEDSPI_swStatusRx
  62              		.bss
  63              		.type	LEDSPI_swStatusTx, %object
  64              		.size	LEDSPI_swStatusTx, 1
  65              	LEDSPI_swStatusTx:
  66 0000 00       		.space	1
  67              		.type	LEDSPI_swStatusRx, %object
  68              		.size	LEDSPI_swStatusRx, 1
  69              	LEDSPI_swStatusRx:
  70 0001 00       		.space	1
  71              		.text
  72              	.Letext0:
  73              		.file 2 ".\\Generated_Source\\PSoC5\\/cytypes.h"
  74              		.section	.debug_info
  75 0000 CD000000 		.4byte	0xcd
  76 0004 0200     		.2byte	0x2
  77 0006 00000000 		.4byte	.Ldebug_abbrev0
  78 000a 04       		.byte	0x4
ARM GAS  C:\Users\SUZUKI~1\AppData\Local\Temp\ccyBk4fI.s 			page 6


  79 000b 01       		.uleb128 0x1
  80 000c F7000000 		.4byte	.LASF14
  81 0010 01       		.byte	0x1
  82 0011 2A000000 		.4byte	.LASF15
  83 0015 BD000000 		.4byte	.LASF16
  84 0019 00000000 		.4byte	0x0
  85 001d 00000000 		.4byte	0x0
  86 0021 00000000 		.4byte	.Ldebug_ranges0+0x0
  87 0025 00000000 		.4byte	.Ldebug_line0
  88 0029 02       		.uleb128 0x2
  89 002a 01       		.byte	0x1
  90 002b 06       		.byte	0x6
  91 002c 2F010000 		.4byte	.LASF0
  92 0030 02       		.uleb128 0x2
  93 0031 01       		.byte	0x1
  94 0032 08       		.byte	0x8
  95 0033 1C000000 		.4byte	.LASF1
  96 0037 02       		.uleb128 0x2
  97 0038 02       		.byte	0x2
  98 0039 05       		.byte	0x5
  99 003a 08010000 		.4byte	.LASF2
 100 003e 02       		.uleb128 0x2
 101 003f 02       		.byte	0x2
 102 0040 07       		.byte	0x7
 103 0041 74000000 		.4byte	.LASF3
 104 0045 02       		.uleb128 0x2
 105 0046 04       		.byte	0x4
 106 0047 05       		.byte	0x5
 107 0048 26010000 		.4byte	.LASF4
 108 004c 02       		.uleb128 0x2
 109 004d 04       		.byte	0x4
 110 004e 07       		.byte	0x7
 111 004f 50000000 		.4byte	.LASF5
 112 0053 02       		.uleb128 0x2
 113 0054 08       		.byte	0x8
 114 0055 05       		.byte	0x5
 115 0056 00000000 		.4byte	.LASF6
 116 005a 02       		.uleb128 0x2
 117 005b 08       		.byte	0x8
 118 005c 07       		.byte	0x7
 119 005d A6000000 		.4byte	.LASF7
 120 0061 03       		.uleb128 0x3
 121 0062 04       		.byte	0x4
 122 0063 05       		.byte	0x5
 123 0064 696E7400 		.ascii	"int\000"
 124 0068 02       		.uleb128 0x2
 125 0069 04       		.byte	0x4
 126 006a 07       		.byte	0x7
 127 006b 99000000 		.4byte	.LASF8
 128 006f 02       		.uleb128 0x2
 129 0070 01       		.byte	0x1
 130 0071 08       		.byte	0x8
 131 0072 03010000 		.4byte	.LASF9
 132 0076 04       		.uleb128 0x4
 133 0077 20010000 		.4byte	.LASF17
 134 007b 02       		.byte	0x2
 135 007c 60       		.byte	0x60
ARM GAS  C:\Users\SUZUKI~1\AppData\Local\Temp\ccyBk4fI.s 			page 7


 136 007d 30000000 		.4byte	0x30
 137 0081 05       		.uleb128 0x5
 138 0082 76000000 		.4byte	0x76
 139 0086 06       		.uleb128 0x6
 140 0087 01       		.byte	0x1
 141 0088 12010000 		.4byte	.LASF10
 142 008c 01       		.byte	0x1
 143 008d 48       		.byte	0x48
 144 008e 01       		.byte	0x1
 145 008f 00000000 		.4byte	.LFB0
 146 0093 02000000 		.4byte	.LFE0
 147 0097 01       		.byte	0x1
 148 0098 5D       		.byte	0x5d
 149 0099 06       		.uleb128 0x6
 150 009a 01       		.byte	0x1
 151 009b 0E000000 		.4byte	.LASF11
 152 009f 01       		.byte	0x1
 153 00a0 98       		.byte	0x98
 154 00a1 01       		.byte	0x1
 155 00a2 00000000 		.4byte	.LFB1
 156 00a6 02000000 		.4byte	.LFE1
 157 00aa 01       		.byte	0x1
 158 00ab 5D       		.byte	0x5d
 159 00ac 07       		.uleb128 0x7
 160 00ad 62000000 		.4byte	.LASF12
 161 00b1 01       		.byte	0x1
 162 00b2 27       		.byte	0x27
 163 00b3 81000000 		.4byte	0x81
 164 00b7 01       		.byte	0x1
 165 00b8 05       		.byte	0x5
 166 00b9 03       		.byte	0x3
 167 00ba 00000000 		.4byte	LEDSPI_swStatusTx
 168 00be 07       		.uleb128 0x7
 169 00bf 87000000 		.4byte	.LASF13
 170 00c3 01       		.byte	0x1
 171 00c4 28       		.byte	0x28
 172 00c5 81000000 		.4byte	0x81
 173 00c9 01       		.byte	0x1
 174 00ca 05       		.byte	0x5
 175 00cb 03       		.byte	0x3
 176 00cc 00000000 		.4byte	LEDSPI_swStatusRx
 177 00d0 00       		.byte	0x0
 178              		.section	.debug_abbrev
 179 0000 01       		.uleb128 0x1
 180 0001 11       		.uleb128 0x11
 181 0002 01       		.byte	0x1
 182 0003 25       		.uleb128 0x25
 183 0004 0E       		.uleb128 0xe
 184 0005 13       		.uleb128 0x13
 185 0006 0B       		.uleb128 0xb
 186 0007 03       		.uleb128 0x3
 187 0008 0E       		.uleb128 0xe
 188 0009 1B       		.uleb128 0x1b
 189 000a 0E       		.uleb128 0xe
 190 000b 11       		.uleb128 0x11
 191 000c 01       		.uleb128 0x1
 192 000d 52       		.uleb128 0x52
ARM GAS  C:\Users\SUZUKI~1\AppData\Local\Temp\ccyBk4fI.s 			page 8


 193 000e 01       		.uleb128 0x1
 194 000f 55       		.uleb128 0x55
 195 0010 06       		.uleb128 0x6
 196 0011 10       		.uleb128 0x10
 197 0012 06       		.uleb128 0x6
 198 0013 00       		.byte	0x0
 199 0014 00       		.byte	0x0
 200 0015 02       		.uleb128 0x2
 201 0016 24       		.uleb128 0x24
 202 0017 00       		.byte	0x0
 203 0018 0B       		.uleb128 0xb
 204 0019 0B       		.uleb128 0xb
 205 001a 3E       		.uleb128 0x3e
 206 001b 0B       		.uleb128 0xb
 207 001c 03       		.uleb128 0x3
 208 001d 0E       		.uleb128 0xe
 209 001e 00       		.byte	0x0
 210 001f 00       		.byte	0x0
 211 0020 03       		.uleb128 0x3
 212 0021 24       		.uleb128 0x24
 213 0022 00       		.byte	0x0
 214 0023 0B       		.uleb128 0xb
 215 0024 0B       		.uleb128 0xb
 216 0025 3E       		.uleb128 0x3e
 217 0026 0B       		.uleb128 0xb
 218 0027 03       		.uleb128 0x3
 219 0028 08       		.uleb128 0x8
 220 0029 00       		.byte	0x0
 221 002a 00       		.byte	0x0
 222 002b 04       		.uleb128 0x4
 223 002c 16       		.uleb128 0x16
 224 002d 00       		.byte	0x0
 225 002e 03       		.uleb128 0x3
 226 002f 0E       		.uleb128 0xe
 227 0030 3A       		.uleb128 0x3a
 228 0031 0B       		.uleb128 0xb
 229 0032 3B       		.uleb128 0x3b
 230 0033 0B       		.uleb128 0xb
 231 0034 49       		.uleb128 0x49
 232 0035 13       		.uleb128 0x13
 233 0036 00       		.byte	0x0
 234 0037 00       		.byte	0x0
 235 0038 05       		.uleb128 0x5
 236 0039 35       		.uleb128 0x35
 237 003a 00       		.byte	0x0
 238 003b 49       		.uleb128 0x49
 239 003c 13       		.uleb128 0x13
 240 003d 00       		.byte	0x0
 241 003e 00       		.byte	0x0
 242 003f 06       		.uleb128 0x6
 243 0040 2E       		.uleb128 0x2e
 244 0041 00       		.byte	0x0
 245 0042 3F       		.uleb128 0x3f
 246 0043 0C       		.uleb128 0xc
 247 0044 03       		.uleb128 0x3
 248 0045 0E       		.uleb128 0xe
 249 0046 3A       		.uleb128 0x3a
ARM GAS  C:\Users\SUZUKI~1\AppData\Local\Temp\ccyBk4fI.s 			page 9


 250 0047 0B       		.uleb128 0xb
 251 0048 3B       		.uleb128 0x3b
 252 0049 0B       		.uleb128 0xb
 253 004a 27       		.uleb128 0x27
 254 004b 0C       		.uleb128 0xc
 255 004c 11       		.uleb128 0x11
 256 004d 01       		.uleb128 0x1
 257 004e 12       		.uleb128 0x12
 258 004f 01       		.uleb128 0x1
 259 0050 40       		.uleb128 0x40
 260 0051 0A       		.uleb128 0xa
 261 0052 00       		.byte	0x0
 262 0053 00       		.byte	0x0
 263 0054 07       		.uleb128 0x7
 264 0055 34       		.uleb128 0x34
 265 0056 00       		.byte	0x0
 266 0057 03       		.uleb128 0x3
 267 0058 0E       		.uleb128 0xe
 268 0059 3A       		.uleb128 0x3a
 269 005a 0B       		.uleb128 0xb
 270 005b 3B       		.uleb128 0x3b
 271 005c 0B       		.uleb128 0xb
 272 005d 49       		.uleb128 0x49
 273 005e 13       		.uleb128 0x13
 274 005f 3F       		.uleb128 0x3f
 275 0060 0C       		.uleb128 0xc
 276 0061 02       		.uleb128 0x2
 277 0062 0A       		.uleb128 0xa
 278 0063 00       		.byte	0x0
 279 0064 00       		.byte	0x0
 280 0065 00       		.byte	0x0
 281              		.section	.debug_pubnames,"",%progbits
 282 0000 5E000000 		.4byte	0x5e
 283 0004 0200     		.2byte	0x2
 284 0006 00000000 		.4byte	.Ldebug_info0
 285 000a D1000000 		.4byte	0xd1
 286 000e 86000000 		.4byte	0x86
 287 0012 4C454453 		.ascii	"LEDSPI_TX_ISR\000"
 287      50495F54 
 287      585F4953 
 287      5200
 288 0020 99000000 		.4byte	0x99
 289 0024 4C454453 		.ascii	"LEDSPI_RX_ISR\000"
 289      50495F52 
 289      585F4953 
 289      5200
 290 0032 AC000000 		.4byte	0xac
 291 0036 4C454453 		.ascii	"LEDSPI_swStatusTx\000"
 291      50495F73 
 291      77537461 
 291      74757354 
 291      7800
 292 0048 BE000000 		.4byte	0xbe
 293 004c 4C454453 		.ascii	"LEDSPI_swStatusRx\000"
 293      50495F73 
 293      77537461 
 293      74757352 
ARM GAS  C:\Users\SUZUKI~1\AppData\Local\Temp\ccyBk4fI.s 			page 10


 293      7800
 294 005e 00000000 		.4byte	0x0
 295              		.section	.debug_aranges,"",%progbits
 296 0000 24000000 		.4byte	0x24
 297 0004 0200     		.2byte	0x2
 298 0006 00000000 		.4byte	.Ldebug_info0
 299 000a 04       		.byte	0x4
 300 000b 00       		.byte	0x0
 301 000c 0000     		.2byte	0x0
 302 000e 0000     		.2byte	0x0
 303 0010 00000000 		.4byte	.LFB0
 304 0014 02000000 		.4byte	.LFE0-.LFB0
 305 0018 00000000 		.4byte	.LFB1
 306 001c 02000000 		.4byte	.LFE1-.LFB1
 307 0020 00000000 		.4byte	0x0
 308 0024 00000000 		.4byte	0x0
 309              		.section	.debug_ranges,"",%progbits
 310              	.Ldebug_ranges0:
 311 0000 00000000 		.4byte	.Ltext0
 312 0004 00000000 		.4byte	.Letext0
 313 0008 00000000 		.4byte	.LFB0
 314 000c 02000000 		.4byte	.LFE0
 315 0010 00000000 		.4byte	.LFB1
 316 0014 02000000 		.4byte	.LFE1
 317 0018 00000000 		.4byte	0x0
 318 001c 00000000 		.4byte	0x0
 319              		.section	.debug_str,"MS",%progbits,1
 320              	.LASF6:
 321 0000 6C6F6E67 		.ascii	"long long int\000"
 321      206C6F6E 
 321      6720696E 
 321      7400
 322              	.LASF11:
 323 000e 4C454453 		.ascii	"LEDSPI_RX_ISR\000"
 323      50495F52 
 323      585F4953 
 323      5200
 324              	.LASF1:
 325 001c 756E7369 		.ascii	"unsigned char\000"
 325      676E6564 
 325      20636861 
 325      7200
 326              	.LASF15:
 327 002a 2E5C4765 		.ascii	".\\Generated_Source\\PSoC5\\LEDSPI_INT.c\000"
 327      6E657261 
 327      7465645F 
 327      536F7572 
 327      63655C50 
 328              	.LASF5:
 329 0050 6C6F6E67 		.ascii	"long unsigned int\000"
 329      20756E73 
 329      69676E65 
 329      6420696E 
 329      7400
 330              	.LASF12:
 331 0062 4C454453 		.ascii	"LEDSPI_swStatusTx\000"
 331      50495F73 
ARM GAS  C:\Users\SUZUKI~1\AppData\Local\Temp\ccyBk4fI.s 			page 11


 331      77537461 
 331      74757354 
 331      7800
 332              	.LASF3:
 333 0074 73686F72 		.ascii	"short unsigned int\000"
 333      7420756E 
 333      7369676E 
 333      65642069 
 333      6E7400
 334              	.LASF13:
 335 0087 4C454453 		.ascii	"LEDSPI_swStatusRx\000"
 335      50495F73 
 335      77537461 
 335      74757352 
 335      7800
 336              	.LASF8:
 337 0099 756E7369 		.ascii	"unsigned int\000"
 337      676E6564 
 337      20696E74 
 337      00
 338              	.LASF7:
 339 00a6 6C6F6E67 		.ascii	"long long unsigned int\000"
 339      206C6F6E 
 339      6720756E 
 339      7369676E 
 339      65642069 
 340              	.LASF16:
 341 00bd 463A5C44 		.ascii	"F:\\Documents\\PSoC_Creator\\ledmatrix\\ledmatrixno"
 341      6F63756D 
 341      656E7473 
 341      5C50536F 
 341      435F4372 
 342 00ec 6E646D61 		.ascii	"ndma.cydsn\000"
 342      2E637964 
 342      736E00
 343              	.LASF14:
 344 00f7 474E5520 		.ascii	"GNU C 4.4.1\000"
 344      4320342E 
 344      342E3100 
 345              	.LASF9:
 346 0103 63686172 		.ascii	"char\000"
 346      00
 347              	.LASF2:
 348 0108 73686F72 		.ascii	"short int\000"
 348      7420696E 
 348      7400
 349              	.LASF10:
 350 0112 4C454453 		.ascii	"LEDSPI_TX_ISR\000"
 350      50495F54 
 350      585F4953 
 350      5200
 351              	.LASF17:
 352 0120 75696E74 		.ascii	"uint8\000"
 352      3800
 353              	.LASF4:
 354 0126 6C6F6E67 		.ascii	"long int\000"
 354      20696E74 
ARM GAS  C:\Users\SUZUKI~1\AppData\Local\Temp\ccyBk4fI.s 			page 12


 354      00
 355              	.LASF0:
 356 012f 7369676E 		.ascii	"signed char\000"
 356      65642063 
 356      68617200 
 357              		.ident	"GCC: (Sourcery G++ Lite 2010q1-188) 4.4.1"
