ARM GAS  C:\Users\SUZUKI~1\AppData\Local\Temp\cchoO86G.s 			page 1


   1              		.syntax unified
   2              		.cpu cortex-m3
   3              		.fpu softvfp
   4              		.eabi_attribute 20, 1
   5              		.eabi_attribute 21, 1
   6              		.eabi_attribute 23, 3
   7              		.eabi_attribute 24, 1
   8              		.eabi_attribute 25, 1
   9              		.eabi_attribute 26, 1
  10              		.eabi_attribute 30, 4
  11              		.eabi_attribute 18, 4
  12              		.thumb
  13              		.file	"sd.c"
  14              		.section	.debug_abbrev,"",%progbits
  15              	.Ldebug_abbrev0:
  16              		.section	.debug_info,"",%progbits
  17              	.Ldebug_info0:
  18              		.section	.debug_line,"",%progbits
  19              	.Ldebug_line0:
  20 0000 23010000 		.text
  20      02007800 
  20      00000201 
  20      FB0E0D00 
  20      01010101 
  21              	.Ltext0:
  22              		.cfi_sections	.debug_frame
  23              		.section	.text.SD_Slot1Inserted,"ax",%progbits
  24              		.align	1
  25              		.global	SD_Slot1Inserted
  26              		.thumb
  27              		.thumb_func
  28              		.type	SD_Slot1Inserted, %function
  29              	SD_Slot1Inserted:
  30              	.LFB30:
  31              		.file 1 ".\\sd.c"
   1:.\sd.c        **** /* ========================================
   2:.\sd.c        ****  *
   3:.\sd.c        ****  * Copyright YOUR COMPANY, THE YEAR
   4:.\sd.c        ****  * All Rights Reserved
   5:.\sd.c        ****  * UNPUBLISHED, LICENSED SOFTWARE.
   6:.\sd.c        ****  *
   7:.\sd.c        ****  * CONFIDENTIAL AND PROPRIETARY INFORMATION
   8:.\sd.c        ****  * WHICH IS THE PROPERTY OF your company.
   9:.\sd.c        ****  *
  10:.\sd.c        ****  * ========================================
  11:.\sd.c        **** */
  12:.\sd.c        **** 
  13:.\sd.c        **** #include <device.h>
  14:.\sd.c        **** #include "sd.h"
  15:.\sd.c        **** #include "uart.h"
  16:.\sd.c        **** #include <cytypes.h>
  17:.\sd.c        **** 
  18:.\sd.c        **** FATFS fatfs, *fs;
  19:.\sd.c        **** DIR rootdir;
  20:.\sd.c        **** SDSTATUS g_sd;
  21:.\sd.c        **** 
  22:.\sd.c        **** BYTE SD_Init(SDSTATUS *sd)
ARM GAS  C:\Users\SUZUKI~1\AppData\Local\Temp\cchoO86G.s 			page 2


  23:.\sd.c        **** {
  24:.\sd.c        **** 	uint8 res;
  25:.\sd.c        **** 	// Initialize SPI (used to communicate with SD card) running at 1 MHz
  26:.\sd.c        **** 	SPIM_1_Init();
  27:.\sd.c        **** 	SPIM_1_Enable();
  28:.\sd.c        **** 	SPIM_1_EnableInt();
  29:.\sd.c        **** 	SPIM_1_Start();
  30:.\sd.c        **** 	SPIM_1_ClearRxBuffer();
  31:.\sd.c        **** 	SPIM_1_ClearTxBuffer();
  32:.\sd.c        **** 	
  33:.\sd.c        **** 	// Initialize SD card
  34:.\sd.c        **** 	if(SD_Slot1Inserted() == 0) {
  35:.\sd.c        **** //		iputs("Not inserted\r\n");
  36:.\sd.c        **** 		g_sd.bInserted = 0;
  37:.\sd.c        **** 		g_sd.bInitialized = 0;
  38:.\sd.c        **** 		g_sd.bOpen = 0;
  39:.\sd.c        **** 		*sd = g_sd;
  40:.\sd.c        **** 		return 0;
  41:.\sd.c        **** 	}
  42:.\sd.c        **** 	g_sd.bInserted = 1;
  43:.\sd.c        **** 	res = f_mount(0, &fatfs);			// Mount drive #0
  44:.\sd.c        **** 	uprintf("mount\r\n");
  45:.\sd.c        **** 	if(res != FR_OK) { return 0; }
  46:.\sd.c        **** 	res = f_opendir(&rootdir, "");	// Open root directory
  47:.\sd.c        **** 	if(res != FR_OK) { return 0; }
  48:.\sd.c        **** 	g_sd.bInitialized = 1;
  49:.\sd.c        **** 	return 1;
  50:.\sd.c        **** }
  51:.\sd.c        **** 
  52:.\sd.c        **** BYTE SD_Slot1Inserted(void)
  53:.\sd.c        **** {
  32              		.loc 1 53 0
  33              		.cfi_startproc
  34              		@ args = 0, pretend = 0, frame = 0
  35              		@ frame_needed = 0, uses_anonymous_args = 0
  36              		@ link register save eliminated.
  54:.\sd.c        **** 	return 1;
  55:.\sd.c        **** /*	if(CardDetect_Read() != 0)
  56:.\sd.c        **** 		return 0;
  57:.\sd.c        **** 	else
  58:.\sd.c        **** 		return 1;*/
  59:.\sd.c        **** }
  37              		.loc 1 59 0
  38 0000 0120     		movs	r0, #1
  39 0002 7047     		bx	lr
  40              		.cfi_endproc
  41              	.LFE30:
  42              		.size	SD_Slot1Inserted, .-SD_Slot1Inserted
  43              		.section	.text.SD_Close,"ax",%progbits
  44              		.align	1
  45              		.global	SD_Close
  46              		.thumb
  47              		.thumb_func
  48              		.type	SD_Close, %function
  49              	SD_Close:
  50              	.LFB34:
  60:.\sd.c        **** 
ARM GAS  C:\Users\SUZUKI~1\AppData\Local\Temp\cchoO86G.s 			page 3


  61:.\sd.c        **** uint8 SD_OpenFile(SDSTATUS *sd, FIL *file, char *filename)
  62:.\sd.c        **** {
  63:.\sd.c        **** 	uint32 res;
  64:.\sd.c        **** 	if(SD_Slot1Inserted() == 0) {
  65:.\sd.c        **** 		g_sd.bInserted = 0;
  66:.\sd.c        **** 		g_sd.bInitialized = 0;
  67:.\sd.c        **** 		g_sd.bOpen = 0;
  68:.\sd.c        **** 		*sd = g_sd;
  69:.\sd.c        **** 		return 0;
  70:.\sd.c        **** 	}
  71:.\sd.c        **** 	file->fs = &fatfs;
  72:.\sd.c        **** 	res = f_open(file, filename, FA_READ | FA_OPEN_EXISTING);
  73:.\sd.c        **** 	if(res == FR_OK) {
  74:.\sd.c        **** 		g_sd.bOpen = 1;
  75:.\sd.c        **** 		*sd = g_sd;
  76:.\sd.c        **** 		return 1;
  77:.\sd.c        **** 	} else {
  78:.\sd.c        **** 		f_close(file);
  79:.\sd.c        **** 		return 0;
  80:.\sd.c        **** 	}
  81:.\sd.c        **** }
  82:.\sd.c        **** 
  83:.\sd.c        **** uint8 SD_CloseFile(SDSTATUS *sd, FIL *file)
  84:.\sd.c        **** {
  85:.\sd.c        **** 	f_close(file);
  86:.\sd.c        **** 	return 1;
  87:.\sd.c        **** }
  88:.\sd.c        **** 
  89:.\sd.c        **** uint32 SD_ReadLine(SDSTATUS *sd, FIL *file, char *buf, uint32 len)
  90:.\sd.c        **** {
  91:.\sd.c        **** 	unsigned int i;
  92:.\sd.c        **** 	if(SD_Slot1Inserted() == 0) {
  93:.\sd.c        **** 		g_sd.bInserted = 0;
  94:.\sd.c        **** 		g_sd.bInitialized = 0;
  95:.\sd.c        **** 		g_sd.bOpen = 0;
  96:.\sd.c        **** 		*sd = g_sd;
  97:.\sd.c        **** 		return 0;
  98:.\sd.c        **** 	}
  99:.\sd.c        **** 	f_read(file, buf, len, &i);
 100:.\sd.c        **** 	if(i != len) {
 101:.\sd.c        **** 		return 0;
 102:.\sd.c        **** 	}
 103:.\sd.c        **** 	return(len);
 104:.\sd.c        **** }
 105:.\sd.c        **** 
 106:.\sd.c        **** void SD_Close(void)
 107:.\sd.c        **** {
  51              		.loc 1 107 0
  52              		.cfi_startproc
  53              		@ args = 0, pretend = 0, frame = 0
  54              		@ frame_needed = 0, uses_anonymous_args = 0
  55              		@ link register save eliminated.
 108:.\sd.c        **** //	f_close(&file);
 109:.\sd.c        **** //	SD_Power_Write(0);			// Power Off
 110:.\sd.c        **** 	return;
 111:.\sd.c        **** }
  56              		.loc 1 111 0
ARM GAS  C:\Users\SUZUKI~1\AppData\Local\Temp\cchoO86G.s 			page 4


  57 0000 7047     		bx	lr
  58              		.cfi_endproc
  59              	.LFE34:
  60              		.size	SD_Close, .-SD_Close
  61              		.section	.text.get_fattime,"ax",%progbits
  62              		.align	1
  63              		.global	get_fattime
  64              		.thumb
  65              		.thumb_func
  66              		.type	get_fattime, %function
  67              	get_fattime:
  68              	.LFB35:
 112:.\sd.c        **** 
 113:.\sd.c        **** DWORD get_fattime(void)
 114:.\sd.c        **** {
  69              		.loc 1 114 0
  70              		.cfi_startproc
  71              		@ args = 0, pretend = 0, frame = 0
  72              		@ frame_needed = 0, uses_anonymous_args = 0
  73              		@ link register save eliminated.
 115:.\sd.c        **** 	DWORD tmr;
 116:.\sd.c        **** 	
 117:.\sd.c        **** 	CYGlobalIntDisable;
  74              		.loc 1 117 0
  75              	@ 117 ".\sd.c" 1
  76 0000 72B6     		CPSID   i
  77              	@ 0 "" 2
 118:.\sd.c        **** 	/* Pack date and time into a DWORD variable */
 119:.\sd.c        **** 	tmr =	  (((DWORD)2012 - 1980) << 25)
 120:.\sd.c        **** 			| ((DWORD)11 << 21)
 121:.\sd.c        **** 			| ((DWORD)03 << 16)
 122:.\sd.c        **** 			| ((WORD)0 << 11)
 123:.\sd.c        **** 			| ((WORD)0 << 5)
 124:.\sd.c        **** 			| ((WORD)0 >> 1);
 125:.\sd.c        **** 	CYGlobalIntEnable;
  78              		.loc 1 125 0
  79              	@ 125 ".\sd.c" 1
  80 0002 62B6     		CPSIE   i
  81              	@ 0 "" 2
 126:.\sd.c        **** 
 127:.\sd.c        **** 	return tmr;
 128:.\sd.c        **** }
  82              		.loc 1 128 0
  83              		.thumb
  84 0004 0048     		ldr	r0, .L7
  85 0006 7047     		bx	lr
  86              	.L8:
  87              		.align	2
  88              	.L7:
  89 0008 00006341 		.word	1097007104
  90              		.cfi_endproc
  91              	.LFE35:
  92              		.size	get_fattime, .-get_fattime
  93              		.section	.text.SD_ReadLine,"ax",%progbits
  94              		.align	1
  95              		.global	SD_ReadLine
  96              		.thumb
ARM GAS  C:\Users\SUZUKI~1\AppData\Local\Temp\cchoO86G.s 			page 5


  97              		.thumb_func
  98              		.type	SD_ReadLine, %function
  99              	SD_ReadLine:
 100              	.LFB33:
 101              		.loc 1 90 0
 102              		.cfi_startproc
 103              		@ args = 0, pretend = 0, frame = 8
 104              		@ frame_needed = 0, uses_anonymous_args = 0
 105              	.LVL0:
 106 0000 13B5     		push	{r0, r1, r4, lr}
 107              	.LCFI0:
 108              		.cfi_def_cfa_offset 16
 109              	.LVL1:
 110              		.loc 1 90 0
 111 0002 1C46     		mov	r4, r3
 112              		.cfi_offset 14, -4
 113              		.cfi_offset 4, -8
 114              		.cfi_offset 1, -12
 115              		.cfi_offset 0, -16
 116              		.loc 1 99 0
 117 0004 0846     		mov	r0, r1
 118              	.LVL2:
 119 0006 1146     		mov	r1, r2
 120              	.LVL3:
 121 0008 1A46     		mov	r2, r3
 122              	.LVL4:
 123 000a 01AB     		add	r3, sp, #4
 124              	.LVL5:
 125 000c FFF7FEFF 		bl	f_read
 126              		.loc 1 104 0
 127 0010 0198     		ldr	r0, [sp, #4]
 128              	.LVL6:
 129 0012 A042     		cmp	r0, r4
 130 0014 0CBF     		ite	eq
 131 0016 2046     		moveq	r0, r4
 132 0018 0020     		movne	r0, #0
 133              	.LVL7:
 134 001a 1CBD     		pop	{r2, r3, r4, pc}
 135              		.cfi_endproc
 136              	.LFE33:
 137              		.size	SD_ReadLine, .-SD_ReadLine
 138              		.section	.text.SD_CloseFile,"ax",%progbits
 139              		.align	1
 140              		.global	SD_CloseFile
 141              		.thumb
 142              		.thumb_func
 143              		.type	SD_CloseFile, %function
 144              	SD_CloseFile:
 145              	.LFB32:
 146              		.loc 1 84 0
 147              		.cfi_startproc
 148              		@ args = 0, pretend = 0, frame = 0
 149              		@ frame_needed = 0, uses_anonymous_args = 0
 150              	.LVL8:
 151 0000 08B5     		push	{r3, lr}
 152              	.LCFI1:
 153              		.cfi_def_cfa_offset 8
ARM GAS  C:\Users\SUZUKI~1\AppData\Local\Temp\cchoO86G.s 			page 6


 154              		.loc 1 85 0
 155 0002 0846     		mov	r0, r1
 156              	.LVL9:
 157              		.cfi_offset 14, -4
 158              		.cfi_offset 3, -8
 159 0004 FFF7FEFF 		bl	f_close
 160              	.LVL10:
 161              		.loc 1 87 0
 162 0008 0120     		movs	r0, #1
 163 000a 08BD     		pop	{r3, pc}
 164              		.cfi_endproc
 165              	.LFE32:
 166              		.size	SD_CloseFile, .-SD_CloseFile
 167              		.section	.text.SD_OpenFile,"ax",%progbits
 168              		.align	1
 169              		.global	SD_OpenFile
 170              		.thumb
 171              		.thumb_func
 172              		.type	SD_OpenFile, %function
 173              	SD_OpenFile:
 174              	.LFB31:
 175              		.loc 1 62 0
 176              		.cfi_startproc
 177              		@ args = 0, pretend = 0, frame = 0
 178              		@ frame_needed = 0, uses_anonymous_args = 0
 179              	.LVL11:
 180 0000 38B5     		push	{r3, r4, r5, lr}
 181              	.LCFI2:
 182              		.cfi_def_cfa_offset 16
 183              		.loc 1 71 0
 184 0002 0C4B     		ldr	r3, .L19
 185              		.cfi_offset 14, -4
 186              		.cfi_offset 5, -8
 187              		.cfi_offset 4, -12
 188              		.cfi_offset 3, -16
 189              		.loc 1 62 0
 190 0004 0546     		mov	r5, r0
 191 0006 0C46     		mov	r4, r1
 192              		.loc 1 71 0
 193 0008 0B60     		str	r3, [r1, #0]
 194              		.loc 1 72 0
 195 000a 0846     		mov	r0, r1
 196              	.LVL12:
 197 000c 1146     		mov	r1, r2
 198              	.LVL13:
 199 000e 0122     		movs	r2, #1
 200              	.LVL14:
 201 0010 FFF7FEFF 		bl	f_open
 202              		.loc 1 73 0
 203 0014 48B9     		cbnz	r0, .L15
 204              		.loc 1 74 0
 205 0016 0849     		ldr	r1, .L19+4
 206 0018 0124     		movs	r4, #1
 207              	.LVL15:
 208 001a 8C70     		strb	r4, [r1, #2]
 209              		.loc 1 75 0
 210 001c 2846     		mov	r0, r5
ARM GAS  C:\Users\SUZUKI~1\AppData\Local\Temp\cchoO86G.s 			page 7


 211 001e 4FF41572 		mov	r2, #596
 212 0022 FFF7FEFF 		bl	memcpy
 213 0026 2046     		mov	r0, r4
 214              		.loc 1 76 0
 215 0028 38BD     		pop	{r3, r4, r5, pc}
 216              	.LVL16:
 217              	.L15:
 218              		.loc 1 78 0
 219 002a 2046     		mov	r0, r4
 220 002c FFF7FEFF 		bl	f_close
 221 0030 0020     		movs	r0, #0
 222              		.loc 1 81 0
 223 0032 38BD     		pop	{r3, r4, r5, pc}
 224              	.L20:
 225              		.align	2
 226              	.L19:
 227 0034 00000000 		.word	fatfs
 228 0038 00000000 		.word	g_sd
 229              		.cfi_endproc
 230              	.LFE31:
 231              		.size	SD_OpenFile, .-SD_OpenFile
 232              		.section	.text.SD_Init,"ax",%progbits
 233              		.align	1
 234              		.global	SD_Init
 235              		.thumb
 236              		.thumb_func
 237              		.type	SD_Init, %function
 238              	SD_Init:
 239              	.LFB29:
 240              		.loc 1 23 0
 241              		.cfi_startproc
 242              		@ args = 0, pretend = 0, frame = 0
 243              		@ frame_needed = 0, uses_anonymous_args = 0
 244              	.LVL17:
 245 0000 70B5     		push	{r4, r5, r6, lr}
 246              	.LCFI3:
 247              		.cfi_def_cfa_offset 16
 248              		.loc 1 42 0
 249 0002 114D     		ldr	r5, .L25
 250              		.cfi_offset 14, -4
 251              		.cfi_offset 6, -8
 252              		.cfi_offset 5, -12
 253              		.cfi_offset 4, -16
 254              		.loc 1 26 0
 255 0004 FFF7FEFF 		bl	SPIM_1_Init
 256              	.LVL18:
 257              		.loc 1 42 0
 258 0008 0124     		movs	r4, #1
 259              		.loc 1 27 0
 260 000a FFF7FEFF 		bl	SPIM_1_Enable
 261              		.loc 1 28 0
 262 000e FFF7FEFF 		bl	SPIM_1_EnableInt
 263              		.loc 1 29 0
 264 0012 FFF7FEFF 		bl	SPIM_1_Start
 265              		.loc 1 30 0
 266 0016 FFF7FEFF 		bl	SPIM_1_ClearRxBuffer
 267              		.loc 1 31 0
ARM GAS  C:\Users\SUZUKI~1\AppData\Local\Temp\cchoO86G.s 			page 8


 268 001a FFF7FEFF 		bl	SPIM_1_ClearTxBuffer
 269              		.loc 1 43 0
 270 001e 0020     		movs	r0, #0
 271 0020 0A49     		ldr	r1, .L25+4
 272              		.loc 1 42 0
 273 0022 2C70     		strb	r4, [r5, #0]
 274              		.loc 1 43 0
 275 0024 FFF7FEFF 		bl	f_mount
 276 0028 0646     		mov	r6, r0
 277              		.loc 1 44 0
 278 002a 0948     		ldr	r0, .L25+8
 279 002c FFF7FEFF 		bl	uprintf
 280              		.loc 1 45 0
 281 0030 3EB9     		cbnz	r6, .L22
 282              		.loc 1 46 0
 283 0032 0848     		ldr	r0, .L25+12
 284 0034 0849     		ldr	r1, .L25+16
 285 0036 FFF7FEFF 		bl	f_opendir
 286              		.loc 1 47 0
 287 003a 10B9     		cbnz	r0, .L22
 288              		.loc 1 48 0
 289 003c 6C70     		strb	r4, [r5, #1]
 290 003e 2046     		mov	r0, r4
 291              		.loc 1 49 0
 292 0040 70BD     		pop	{r4, r5, r6, pc}
 293              	.L22:
 294 0042 0020     		movs	r0, #0
 295              		.loc 1 50 0
 296 0044 70BD     		pop	{r4, r5, r6, pc}
 297              	.L26:
 298 0046 00BF     		.align	2
 299              	.L25:
 300 0048 00000000 		.word	g_sd
 301 004c 00000000 		.word	fatfs
 302 0050 00000000 		.word	.LC0
 303 0054 00000000 		.word	rootdir
 304 0058 08000000 		.word	.LC1
 305              		.cfi_endproc
 306              	.LFE29:
 307              		.size	SD_Init, .-SD_Init
 308              		.comm	fatfs,564,4
 309              		.comm	fs,4,4
 310              		.comm	rootdir,28,4
 311              		.comm	g_sd,596,4
 312              		.section	.rodata.str1.1,"aMS",%progbits,1
 313              	.LC0:
 314 0000 6D6F756E 		.ascii	"mount\015\012\000"
 314      740D0A00 
 315              	.LC1:
 316 0008 00       		.ascii	"\000"
 317              		.text
 318              	.Letext0:
 319              		.section	.debug_loc,"",%progbits
 320              	.Ldebug_loc0:
 321              	.LLST3:
 322 0000 00000000 		.4byte	.LFB33
 323 0004 02000000 		.4byte	.LCFI0
ARM GAS  C:\Users\SUZUKI~1\AppData\Local\Temp\cchoO86G.s 			page 9


 324 0008 0100     		.2byte	0x1
 325 000a 5D       		.byte	0x5d
 326 000b 02000000 		.4byte	.LCFI0
 327 000f 1C000000 		.4byte	.LFE33
 328 0013 0200     		.2byte	0x2
 329 0015 7D       		.byte	0x7d
 330 0016 10       		.sleb128 16
 331 0017 00000000 		.4byte	0x0
 332 001b 00000000 		.4byte	0x0
 333              	.LLST4:
 334 001f 00000000 		.4byte	.LVL0
 335 0023 02000000 		.4byte	.LVL1
 336 0027 0100     		.2byte	0x1
 337 0029 50       		.byte	0x50
 338 002a 00000000 		.4byte	0x0
 339 002e 00000000 		.4byte	0x0
 340              	.LLST5:
 341 0032 00000000 		.4byte	.LVL0
 342 0036 02000000 		.4byte	.LVL1
 343 003a 0100     		.2byte	0x1
 344 003c 51       		.byte	0x51
 345 003d 06000000 		.4byte	.LVL2
 346 0041 08000000 		.4byte	.LVL3
 347 0045 0100     		.2byte	0x1
 348 0047 51       		.byte	0x51
 349 0048 00000000 		.4byte	0x0
 350 004c 00000000 		.4byte	0x0
 351              	.LLST6:
 352 0050 00000000 		.4byte	.LVL0
 353 0054 0A000000 		.4byte	.LVL4
 354 0058 0100     		.2byte	0x1
 355 005a 52       		.byte	0x52
 356 005b 00000000 		.4byte	0x0
 357 005f 00000000 		.4byte	0x0
 358              	.LLST7:
 359 0063 00000000 		.4byte	.LVL0
 360 0067 0C000000 		.4byte	.LVL5
 361 006b 0100     		.2byte	0x1
 362 006d 53       		.byte	0x53
 363 006e 0C000000 		.4byte	.LVL5
 364 0072 12000000 		.4byte	.LVL6
 365 0076 0100     		.2byte	0x1
 366 0078 54       		.byte	0x54
 367 0079 12000000 		.4byte	.LVL6
 368 007d 1A000000 		.4byte	.LVL7
 369 0081 0100     		.2byte	0x1
 370 0083 50       		.byte	0x50
 371 0084 1A000000 		.4byte	.LVL7
 372 0088 1C000000 		.4byte	.LFE33
 373 008c 0100     		.2byte	0x1
 374 008e 54       		.byte	0x54
 375 008f 00000000 		.4byte	0x0
 376 0093 00000000 		.4byte	0x0
 377              	.LLST8:
 378 0097 00000000 		.4byte	.LFB32
 379 009b 02000000 		.4byte	.LCFI1
 380 009f 0100     		.2byte	0x1
ARM GAS  C:\Users\SUZUKI~1\AppData\Local\Temp\cchoO86G.s 			page 10


 381 00a1 5D       		.byte	0x5d
 382 00a2 02000000 		.4byte	.LCFI1
 383 00a6 0C000000 		.4byte	.LFE32
 384 00aa 0200     		.2byte	0x2
 385 00ac 7D       		.byte	0x7d
 386 00ad 08       		.sleb128 8
 387 00ae 00000000 		.4byte	0x0
 388 00b2 00000000 		.4byte	0x0
 389              	.LLST9:
 390 00b6 00000000 		.4byte	.LVL8
 391 00ba 04000000 		.4byte	.LVL9
 392 00be 0100     		.2byte	0x1
 393 00c0 50       		.byte	0x50
 394 00c1 00000000 		.4byte	0x0
 395 00c5 00000000 		.4byte	0x0
 396              	.LLST10:
 397 00c9 00000000 		.4byte	.LVL8
 398 00cd 08000000 		.4byte	.LVL10
 399 00d1 0100     		.2byte	0x1
 400 00d3 51       		.byte	0x51
 401 00d4 00000000 		.4byte	0x0
 402 00d8 00000000 		.4byte	0x0
 403              	.LLST11:
 404 00dc 00000000 		.4byte	.LFB31
 405 00e0 02000000 		.4byte	.LCFI2
 406 00e4 0100     		.2byte	0x1
 407 00e6 5D       		.byte	0x5d
 408 00e7 02000000 		.4byte	.LCFI2
 409 00eb 3C000000 		.4byte	.LFE31
 410 00ef 0200     		.2byte	0x2
 411 00f1 7D       		.byte	0x7d
 412 00f2 10       		.sleb128 16
 413 00f3 00000000 		.4byte	0x0
 414 00f7 00000000 		.4byte	0x0
 415              	.LLST12:
 416 00fb 00000000 		.4byte	.LVL11
 417 00ff 0C000000 		.4byte	.LVL12
 418 0103 0100     		.2byte	0x1
 419 0105 50       		.byte	0x50
 420 0106 0C000000 		.4byte	.LVL12
 421 010a 3C000000 		.4byte	.LFE31
 422 010e 0100     		.2byte	0x1
 423 0110 55       		.byte	0x55
 424 0111 00000000 		.4byte	0x0
 425 0115 00000000 		.4byte	0x0
 426              	.LLST13:
 427 0119 00000000 		.4byte	.LVL11
 428 011d 0E000000 		.4byte	.LVL13
 429 0121 0100     		.2byte	0x1
 430 0123 51       		.byte	0x51
 431 0124 0E000000 		.4byte	.LVL13
 432 0128 1A000000 		.4byte	.LVL15
 433 012c 0100     		.2byte	0x1
 434 012e 54       		.byte	0x54
 435 012f 2A000000 		.4byte	.LVL16
 436 0133 3C000000 		.4byte	.LFE31
 437 0137 0100     		.2byte	0x1
ARM GAS  C:\Users\SUZUKI~1\AppData\Local\Temp\cchoO86G.s 			page 11


 438 0139 54       		.byte	0x54
 439 013a 00000000 		.4byte	0x0
 440 013e 00000000 		.4byte	0x0
 441              	.LLST14:
 442 0142 00000000 		.4byte	.LVL11
 443 0146 10000000 		.4byte	.LVL14
 444 014a 0100     		.2byte	0x1
 445 014c 52       		.byte	0x52
 446 014d 00000000 		.4byte	0x0
 447 0151 00000000 		.4byte	0x0
 448              	.LLST15:
 449 0155 00000000 		.4byte	.LFB29
 450 0159 02000000 		.4byte	.LCFI3
 451 015d 0100     		.2byte	0x1
 452 015f 5D       		.byte	0x5d
 453 0160 02000000 		.4byte	.LCFI3
 454 0164 5C000000 		.4byte	.LFE29
 455 0168 0200     		.2byte	0x2
 456 016a 7D       		.byte	0x7d
 457 016b 10       		.sleb128 16
 458 016c 00000000 		.4byte	0x0
 459 0170 00000000 		.4byte	0x0
 460              	.LLST16:
 461 0174 00000000 		.4byte	.LVL17
 462 0178 08000000 		.4byte	.LVL18
 463 017c 0100     		.2byte	0x1
 464 017e 50       		.byte	0x50
 465 017f 00000000 		.4byte	0x0
 466 0183 00000000 		.4byte	0x0
 467              		.file 2 "./Generated_Source/PSoC5/cytypes.h"
 468              		.file 3 ".\\/sdc/integer.h"
 469              		.file 4 ".\\/sdc/ff.h"
 470              		.file 5 ".\\/sd.h"
 471              		.file 6 "./Generated_Source/PSoC5/core_cm3.h"
 472              		.section	.debug_info
 473 0000 B2060000 		.4byte	0x6b2
 474 0004 0200     		.2byte	0x2
 475 0006 00000000 		.4byte	.Ldebug_abbrev0
 476 000a 04       		.byte	0x4
 477 000b 01       		.uleb128 0x1
 478 000c 02030000 		.4byte	.LASF84
 479 0010 01       		.byte	0x1
 480 0011 3A020000 		.4byte	.LASF85
 481 0015 52030000 		.4byte	.LASF86
 482 0019 00000000 		.4byte	0x0
 483 001d 00000000 		.4byte	0x0
 484 0021 00000000 		.4byte	.Ldebug_ranges0+0x0
 485 0025 00000000 		.4byte	.Ldebug_line0
 486 0029 02       		.uleb128 0x2
 487 002a 01       		.byte	0x1
 488 002b 06       		.byte	0x6
 489 002c B8000000 		.4byte	.LASF0
 490 0030 02       		.uleb128 0x2
 491 0031 01       		.byte	0x1
 492 0032 08       		.byte	0x8
 493 0033 79010000 		.4byte	.LASF1
 494 0037 02       		.uleb128 0x2
ARM GAS  C:\Users\SUZUKI~1\AppData\Local\Temp\cchoO86G.s 			page 12


 495 0038 02       		.byte	0x2
 496 0039 05       		.byte	0x5
 497 003a 39000000 		.4byte	.LASF2
 498 003e 02       		.uleb128 0x2
 499 003f 02       		.byte	0x2
 500 0040 07       		.byte	0x7
 501 0041 00020000 		.4byte	.LASF3
 502 0045 02       		.uleb128 0x2
 503 0046 04       		.byte	0x4
 504 0047 05       		.byte	0x5
 505 0048 FE000000 		.4byte	.LASF4
 506 004c 02       		.uleb128 0x2
 507 004d 04       		.byte	0x4
 508 004e 07       		.byte	0x7
 509 004f 79020000 		.4byte	.LASF5
 510 0053 02       		.uleb128 0x2
 511 0054 08       		.byte	0x8
 512 0055 05       		.byte	0x5
 513 0056 DC000000 		.4byte	.LASF6
 514 005a 02       		.uleb128 0x2
 515 005b 08       		.byte	0x8
 516 005c 07       		.byte	0x7
 517 005d A0010000 		.4byte	.LASF7
 518 0061 03       		.uleb128 0x3
 519 0062 04       		.byte	0x4
 520 0063 05       		.byte	0x5
 521 0064 696E7400 		.ascii	"int\000"
 522 0068 02       		.uleb128 0x2
 523 0069 04       		.byte	0x4
 524 006a 07       		.byte	0x7
 525 006b B7010000 		.4byte	.LASF8
 526 006f 02       		.uleb128 0x2
 527 0070 01       		.byte	0x1
 528 0071 08       		.byte	0x8
 529 0072 25020000 		.4byte	.LASF9
 530 0076 04       		.uleb128 0x4
 531 0077 9C000000 		.4byte	.LASF10
 532 007b 02       		.byte	0x2
 533 007c 60       		.byte	0x60
 534 007d 30000000 		.4byte	0x30
 535 0081 04       		.uleb128 0x4
 536 0082 72020000 		.4byte	.LASF11
 537 0086 02       		.byte	0x2
 538 0087 62       		.byte	0x62
 539 0088 4C000000 		.4byte	0x4c
 540 008c 05       		.uleb128 0x5
 541 008d 04       		.byte	0x4
 542 008e 07       		.byte	0x7
 543 008f 06       		.uleb128 0x6
 544 0090 04       		.byte	0x4
 545 0091 6F000000 		.4byte	0x6f
 546 0095 04       		.uleb128 0x4
 547 0096 5B000000 		.4byte	.LASF12
 548 009a 03       		.byte	0x3
 549 009b 16       		.byte	0x16
 550 009c 30000000 		.4byte	0x30
 551 00a0 04       		.uleb128 0x4
ARM GAS  C:\Users\SUZUKI~1\AppData\Local\Temp\cchoO86G.s 			page 13


 552 00a1 86000000 		.4byte	.LASF13
 553 00a5 03       		.byte	0x3
 554 00a6 1B       		.byte	0x1b
 555 00a7 3E000000 		.4byte	0x3e
 556 00ab 04       		.uleb128 0x4
 557 00ac 6A010000 		.4byte	.LASF14
 558 00b0 03       		.byte	0x3
 559 00b1 21       		.byte	0x21
 560 00b2 4C000000 		.4byte	0x4c
 561 00b6 07       		.uleb128 0x7
 562 00b7 74000000 		.4byte	.LASF15
 563 00bb 04       		.byte	0x4
 564 00bc 0401     		.2byte	0x104
 565 00be 6F000000 		.4byte	0x6f
 566 00c2 08       		.uleb128 0x8
 567 00c3 3402     		.2byte	0x234
 568 00c5 04       		.byte	0x4
 569 00c6 0F01     		.2byte	0x10f
 570 00c8 E9010000 		.4byte	0x1e9
 571 00cc 09       		.uleb128 0x9
 572 00cd 31000000 		.4byte	.LASF16
 573 00d1 04       		.byte	0x4
 574 00d2 1001     		.2byte	0x110
 575 00d4 95000000 		.4byte	0x95
 576 00d8 02       		.byte	0x2
 577 00d9 23       		.byte	0x23
 578 00da 00       		.uleb128 0x0
 579 00db 0A       		.uleb128 0xa
 580 00dc 64727600 		.ascii	"drv\000"
 581 00e0 04       		.byte	0x4
 582 00e1 1101     		.2byte	0x111
 583 00e3 95000000 		.4byte	0x95
 584 00e7 02       		.byte	0x2
 585 00e8 23       		.byte	0x23
 586 00e9 01       		.uleb128 0x1
 587 00ea 09       		.uleb128 0x9
 588 00eb 9C030000 		.4byte	.LASF17
 589 00ef 04       		.byte	0x4
 590 00f0 1201     		.2byte	0x112
 591 00f2 95000000 		.4byte	0x95
 592 00f6 02       		.byte	0x2
 593 00f7 23       		.byte	0x23
 594 00f8 02       		.uleb128 0x2
 595 00f9 09       		.uleb128 0x9
 596 00fa 00000000 		.4byte	.LASF18
 597 00fe 04       		.byte	0x4
 598 00ff 1301     		.2byte	0x113
 599 0101 95000000 		.4byte	0x95
 600 0105 02       		.byte	0x2
 601 0106 23       		.byte	0x23
 602 0107 03       		.uleb128 0x3
 603 0108 09       		.uleb128 0x9
 604 0109 92010000 		.4byte	.LASF19
 605 010d 04       		.byte	0x4
 606 010e 1401     		.2byte	0x114
 607 0110 95000000 		.4byte	0x95
 608 0114 02       		.byte	0x2
ARM GAS  C:\Users\SUZUKI~1\AppData\Local\Temp\cchoO86G.s 			page 14


 609 0115 23       		.byte	0x23
 610 0116 04       		.uleb128 0x4
 611 0117 09       		.uleb128 0x9
 612 0118 70010000 		.4byte	.LASF20
 613 011c 04       		.byte	0x4
 614 011d 1501     		.2byte	0x115
 615 011f 95000000 		.4byte	0x95
 616 0123 02       		.byte	0x2
 617 0124 23       		.byte	0x23
 618 0125 05       		.uleb128 0x5
 619 0126 0A       		.uleb128 0xa
 620 0127 696400   		.ascii	"id\000"
 621 012a 04       		.byte	0x4
 622 012b 1601     		.2byte	0x116
 623 012d A0000000 		.4byte	0xa0
 624 0131 02       		.byte	0x2
 625 0132 23       		.byte	0x23
 626 0133 06       		.uleb128 0x6
 627 0134 09       		.uleb128 0x9
 628 0135 6A000000 		.4byte	.LASF21
 629 0139 04       		.byte	0x4
 630 013a 1701     		.2byte	0x117
 631 013c A0000000 		.4byte	0xa0
 632 0140 02       		.byte	0x2
 633 0141 23       		.byte	0x23
 634 0142 08       		.uleb128 0x8
 635 0143 09       		.uleb128 0x9
 636 0144 C4000000 		.4byte	.LASF22
 637 0148 04       		.byte	0x4
 638 0149 1F01     		.2byte	0x11f
 639 014b AB000000 		.4byte	0xab
 640 014f 02       		.byte	0x2
 641 0150 23       		.byte	0x23
 642 0151 0C       		.uleb128 0xc
 643 0152 09       		.uleb128 0x9
 644 0153 87010000 		.4byte	.LASF23
 645 0157 04       		.byte	0x4
 646 0158 2001     		.2byte	0x120
 647 015a AB000000 		.4byte	0xab
 648 015e 02       		.byte	0x2
 649 015f 23       		.byte	0x23
 650 0160 10       		.uleb128 0x10
 651 0161 09       		.uleb128 0x9
 652 0162 0E030000 		.4byte	.LASF24
 653 0166 04       		.byte	0x4
 654 0167 2101     		.2byte	0x121
 655 0169 AB000000 		.4byte	0xab
 656 016d 02       		.byte	0x2
 657 016e 23       		.byte	0x23
 658 016f 14       		.uleb128 0x14
 659 0170 09       		.uleb128 0x9
 660 0171 A2030000 		.4byte	.LASF25
 661 0175 04       		.byte	0x4
 662 0176 2401     		.2byte	0x124
 663 0178 AB000000 		.4byte	0xab
 664 017c 02       		.byte	0x2
 665 017d 23       		.byte	0x23
ARM GAS  C:\Users\SUZUKI~1\AppData\Local\Temp\cchoO86G.s 			page 15


 666 017e 18       		.uleb128 0x18
 667 017f 09       		.uleb128 0x9
 668 0180 28000000 		.4byte	.LASF26
 669 0184 04       		.byte	0x4
 670 0185 2601     		.2byte	0x126
 671 0187 AB000000 		.4byte	0xab
 672 018b 02       		.byte	0x2
 673 018c 23       		.byte	0x23
 674 018d 1C       		.uleb128 0x1c
 675 018e 09       		.uleb128 0x9
 676 018f B9020000 		.4byte	.LASF27
 677 0193 04       		.byte	0x4
 678 0194 2701     		.2byte	0x127
 679 0196 AB000000 		.4byte	0xab
 680 019a 02       		.byte	0x2
 681 019b 23       		.byte	0x23
 682 019c 20       		.uleb128 0x20
 683 019d 09       		.uleb128 0x9
 684 019e 2A020000 		.4byte	.LASF28
 685 01a2 04       		.byte	0x4
 686 01a3 2801     		.2byte	0x128
 687 01a5 AB000000 		.4byte	0xab
 688 01a9 02       		.byte	0x2
 689 01aa 23       		.byte	0x23
 690 01ab 24       		.uleb128 0x24
 691 01ac 09       		.uleb128 0x9
 692 01ad 21010000 		.4byte	.LASF29
 693 01b1 04       		.byte	0x4
 694 01b2 2901     		.2byte	0x129
 695 01b4 AB000000 		.4byte	0xab
 696 01b8 02       		.byte	0x2
 697 01b9 23       		.byte	0x23
 698 01ba 28       		.uleb128 0x28
 699 01bb 09       		.uleb128 0x9
 700 01bc 52000000 		.4byte	.LASF30
 701 01c0 04       		.byte	0x4
 702 01c1 2A01     		.2byte	0x12a
 703 01c3 AB000000 		.4byte	0xab
 704 01c7 02       		.byte	0x2
 705 01c8 23       		.byte	0x23
 706 01c9 2C       		.uleb128 0x2c
 707 01ca 09       		.uleb128 0x9
 708 01cb 23030000 		.4byte	.LASF31
 709 01cf 04       		.byte	0x4
 710 01d0 2B01     		.2byte	0x12b
 711 01d2 AB000000 		.4byte	0xab
 712 01d6 02       		.byte	0x2
 713 01d7 23       		.byte	0x23
 714 01d8 30       		.uleb128 0x30
 715 01d9 0A       		.uleb128 0xa
 716 01da 77696E00 		.ascii	"win\000"
 717 01de 04       		.byte	0x4
 718 01df 2C01     		.2byte	0x12c
 719 01e1 E9010000 		.4byte	0x1e9
 720 01e5 02       		.byte	0x2
 721 01e6 23       		.byte	0x23
 722 01e7 34       		.uleb128 0x34
ARM GAS  C:\Users\SUZUKI~1\AppData\Local\Temp\cchoO86G.s 			page 16


 723 01e8 00       		.byte	0x0
 724 01e9 0B       		.uleb128 0xb
 725 01ea 95000000 		.4byte	0x95
 726 01ee FA010000 		.4byte	0x1fa
 727 01f2 0C       		.uleb128 0xc
 728 01f3 8C000000 		.4byte	0x8c
 729 01f7 FF01     		.2byte	0x1ff
 730 01f9 00       		.byte	0x0
 731 01fa 07       		.uleb128 0x7
 732 01fb 6C020000 		.4byte	.LASF32
 733 01ff 04       		.byte	0x4
 734 0200 2D01     		.2byte	0x12d
 735 0202 C2000000 		.4byte	0xc2
 736 0206 08       		.uleb128 0x8
 737 0207 2402     		.2byte	0x224
 738 0209 04       		.byte	0x4
 739 020a 3301     		.2byte	0x133
 740 020c C3020000 		.4byte	0x2c3
 741 0210 0A       		.uleb128 0xa
 742 0211 667300   		.ascii	"fs\000"
 743 0214 04       		.byte	0x4
 744 0215 3401     		.2byte	0x134
 745 0217 C3020000 		.4byte	0x2c3
 746 021b 02       		.byte	0x2
 747 021c 23       		.byte	0x23
 748 021d 00       		.uleb128 0x0
 749 021e 0A       		.uleb128 0xa
 750 021f 696400   		.ascii	"id\000"
 751 0222 04       		.byte	0x4
 752 0223 3501     		.2byte	0x135
 753 0225 A0000000 		.4byte	0xa0
 754 0229 02       		.byte	0x2
 755 022a 23       		.byte	0x23
 756 022b 04       		.uleb128 0x4
 757 022c 09       		.uleb128 0x9
 758 022d F4000000 		.4byte	.LASF33
 759 0231 04       		.byte	0x4
 760 0232 3601     		.2byte	0x136
 761 0234 95000000 		.4byte	0x95
 762 0238 02       		.byte	0x2
 763 0239 23       		.byte	0x23
 764 023a 06       		.uleb128 0x6
 765 023b 09       		.uleb128 0x9
 766 023c F9000000 		.4byte	.LASF34
 767 0240 04       		.byte	0x4
 768 0241 3701     		.2byte	0x137
 769 0243 95000000 		.4byte	0x95
 770 0247 02       		.byte	0x2
 771 0248 23       		.byte	0x23
 772 0249 07       		.uleb128 0x7
 773 024a 09       		.uleb128 0x9
 774 024b A2000000 		.4byte	.LASF35
 775 024f 04       		.byte	0x4
 776 0250 3801     		.2byte	0x138
 777 0252 AB000000 		.4byte	0xab
 778 0256 02       		.byte	0x2
 779 0257 23       		.byte	0x23
ARM GAS  C:\Users\SUZUKI~1\AppData\Local\Temp\cchoO86G.s 			page 17


 780 0258 08       		.uleb128 0x8
 781 0259 09       		.uleb128 0x9
 782 025a B9020000 		.4byte	.LASF27
 783 025e 04       		.byte	0x4
 784 025f 3901     		.2byte	0x139
 785 0261 AB000000 		.4byte	0xab
 786 0265 02       		.byte	0x2
 787 0266 23       		.byte	0x23
 788 0267 0C       		.uleb128 0xc
 789 0268 09       		.uleb128 0x9
 790 0269 EA000000 		.4byte	.LASF36
 791 026d 04       		.byte	0x4
 792 026e 3A01     		.2byte	0x13a
 793 0270 AB000000 		.4byte	0xab
 794 0274 02       		.byte	0x2
 795 0275 23       		.byte	0x23
 796 0276 10       		.uleb128 0x10
 797 0277 09       		.uleb128 0x9
 798 0278 F7020000 		.4byte	.LASF37
 799 027c 04       		.byte	0x4
 800 027d 3B01     		.2byte	0x13b
 801 027f AB000000 		.4byte	0xab
 802 0283 02       		.byte	0x2
 803 0284 23       		.byte	0x23
 804 0285 14       		.uleb128 0x14
 805 0286 09       		.uleb128 0x9
 806 0287 43000000 		.4byte	.LASF38
 807 028b 04       		.byte	0x4
 808 028c 3C01     		.2byte	0x13c
 809 028e AB000000 		.4byte	0xab
 810 0292 02       		.byte	0x2
 811 0293 23       		.byte	0x23
 812 0294 18       		.uleb128 0x18
 813 0295 09       		.uleb128 0x9
 814 0296 2B030000 		.4byte	.LASF39
 815 029a 04       		.byte	0x4
 816 029b 3E01     		.2byte	0x13e
 817 029d AB000000 		.4byte	0xab
 818 02a1 02       		.byte	0x2
 819 02a2 23       		.byte	0x23
 820 02a3 1C       		.uleb128 0x1c
 821 02a4 09       		.uleb128 0x9
 822 02a5 F8010000 		.4byte	.LASF40
 823 02a9 04       		.byte	0x4
 824 02aa 3F01     		.2byte	0x13f
 825 02ac C9020000 		.4byte	0x2c9
 826 02b0 02       		.byte	0x2
 827 02b1 23       		.byte	0x23
 828 02b2 20       		.uleb128 0x20
 829 02b3 0A       		.uleb128 0xa
 830 02b4 62756600 		.ascii	"buf\000"
 831 02b8 04       		.byte	0x4
 832 02b9 4801     		.2byte	0x148
 833 02bb E9010000 		.4byte	0x1e9
 834 02bf 02       		.byte	0x2
 835 02c0 23       		.byte	0x23
 836 02c1 24       		.uleb128 0x24
ARM GAS  C:\Users\SUZUKI~1\AppData\Local\Temp\cchoO86G.s 			page 18


 837 02c2 00       		.byte	0x0
 838 02c3 06       		.uleb128 0x6
 839 02c4 04       		.byte	0x4
 840 02c5 FA010000 		.4byte	0x1fa
 841 02c9 06       		.uleb128 0x6
 842 02ca 04       		.byte	0x4
 843 02cb 95000000 		.4byte	0x95
 844 02cf 0D       		.uleb128 0xd
 845 02d0 46494C00 		.ascii	"FIL\000"
 846 02d4 04       		.byte	0x4
 847 02d5 4A01     		.2byte	0x14a
 848 02d7 06020000 		.4byte	0x206
 849 02db 0E       		.uleb128 0xe
 850 02dc 1C       		.byte	0x1c
 851 02dd 04       		.byte	0x4
 852 02de 5001     		.2byte	0x150
 853 02e0 5A030000 		.4byte	0x35a
 854 02e4 0A       		.uleb128 0xa
 855 02e5 667300   		.ascii	"fs\000"
 856 02e8 04       		.byte	0x4
 857 02e9 5101     		.2byte	0x151
 858 02eb C3020000 		.4byte	0x2c3
 859 02ef 02       		.byte	0x2
 860 02f0 23       		.byte	0x23
 861 02f1 00       		.uleb128 0x0
 862 02f2 0A       		.uleb128 0xa
 863 02f3 696400   		.ascii	"id\000"
 864 02f6 04       		.byte	0x4
 865 02f7 5201     		.2byte	0x152
 866 02f9 A0000000 		.4byte	0xa0
 867 02fd 02       		.byte	0x2
 868 02fe 23       		.byte	0x23
 869 02ff 04       		.uleb128 0x4
 870 0300 09       		.uleb128 0x9
 871 0301 8B000000 		.4byte	.LASF41
 872 0305 04       		.byte	0x4
 873 0306 5301     		.2byte	0x153
 874 0308 A0000000 		.4byte	0xa0
 875 030c 02       		.byte	0x2
 876 030d 23       		.byte	0x23
 877 030e 06       		.uleb128 0x6
 878 030f 09       		.uleb128 0x9
 879 0310 65020000 		.4byte	.LASF42
 880 0314 04       		.byte	0x4
 881 0315 5401     		.2byte	0x154
 882 0317 AB000000 		.4byte	0xab
 883 031b 02       		.byte	0x2
 884 031c 23       		.byte	0x23
 885 031d 08       		.uleb128 0x8
 886 031e 09       		.uleb128 0x9
 887 031f 07010000 		.4byte	.LASF43
 888 0323 04       		.byte	0x4
 889 0324 5501     		.2byte	0x155
 890 0326 AB000000 		.4byte	0xab
 891 032a 02       		.byte	0x2
 892 032b 23       		.byte	0x23
 893 032c 0C       		.uleb128 0xc
ARM GAS  C:\Users\SUZUKI~1\AppData\Local\Temp\cchoO86G.s 			page 19


 894 032d 09       		.uleb128 0x9
 895 032e 60000000 		.4byte	.LASF44
 896 0332 04       		.byte	0x4
 897 0333 5601     		.2byte	0x156
 898 0335 AB000000 		.4byte	0xab
 899 0339 02       		.byte	0x2
 900 033a 23       		.byte	0x23
 901 033b 10       		.uleb128 0x10
 902 033c 0A       		.uleb128 0xa
 903 033d 64697200 		.ascii	"dir\000"
 904 0341 04       		.byte	0x4
 905 0342 5701     		.2byte	0x157
 906 0344 C9020000 		.4byte	0x2c9
 907 0348 02       		.byte	0x2
 908 0349 23       		.byte	0x23
 909 034a 14       		.uleb128 0x14
 910 034b 0A       		.uleb128 0xa
 911 034c 666E00   		.ascii	"fn\000"
 912 034f 04       		.byte	0x4
 913 0350 5801     		.2byte	0x158
 914 0352 C9020000 		.4byte	0x2c9
 915 0356 02       		.byte	0x2
 916 0357 23       		.byte	0x23
 917 0358 18       		.uleb128 0x18
 918 0359 00       		.byte	0x0
 919 035a 0D       		.uleb128 0xd
 920 035b 44495200 		.ascii	"DIR\000"
 921 035f 04       		.byte	0x4
 922 0360 5D01     		.2byte	0x15d
 923 0362 DB020000 		.4byte	0x2db
 924 0366 0E       		.uleb128 0xe
 925 0367 18       		.byte	0x18
 926 0368 04       		.byte	0x4
 927 0369 6301     		.2byte	0x163
 928 036b BB030000 		.4byte	0x3bb
 929 036f 09       		.uleb128 0x9
 930 0370 B9020000 		.4byte	.LASF27
 931 0374 04       		.byte	0x4
 932 0375 6401     		.2byte	0x164
 933 0377 AB000000 		.4byte	0xab
 934 037b 02       		.byte	0x2
 935 037c 23       		.byte	0x23
 936 037d 00       		.uleb128 0x0
 937 037e 09       		.uleb128 0x9
 938 037f E0020000 		.4byte	.LASF45
 939 0383 04       		.byte	0x4
 940 0384 6501     		.2byte	0x165
 941 0386 A0000000 		.4byte	0xa0
 942 038a 02       		.byte	0x2
 943 038b 23       		.byte	0x23
 944 038c 04       		.uleb128 0x4
 945 038d 09       		.uleb128 0x9
 946 038e 80000000 		.4byte	.LASF46
 947 0392 04       		.byte	0x4
 948 0393 6601     		.2byte	0x166
 949 0395 A0000000 		.4byte	0xa0
 950 0399 02       		.byte	0x2
ARM GAS  C:\Users\SUZUKI~1\AppData\Local\Temp\cchoO86G.s 			page 20


 951 039a 23       		.byte	0x23
 952 039b 06       		.uleb128 0x6
 953 039c 09       		.uleb128 0x9
 954 039d 32020000 		.4byte	.LASF47
 955 03a1 04       		.byte	0x4
 956 03a2 6701     		.2byte	0x167
 957 03a4 95000000 		.4byte	0x95
 958 03a8 02       		.byte	0x2
 959 03a9 23       		.byte	0x23
 960 03aa 08       		.uleb128 0x8
 961 03ab 09       		.uleb128 0x9
 962 03ac E3010000 		.4byte	.LASF48
 963 03b0 04       		.byte	0x4
 964 03b1 6801     		.2byte	0x168
 965 03b3 BB030000 		.4byte	0x3bb
 966 03b7 02       		.byte	0x2
 967 03b8 23       		.byte	0x23
 968 03b9 09       		.uleb128 0x9
 969 03ba 00       		.byte	0x0
 970 03bb 0B       		.uleb128 0xb
 971 03bc B6000000 		.4byte	0xb6
 972 03c0 CB030000 		.4byte	0x3cb
 973 03c4 0F       		.uleb128 0xf
 974 03c5 8C000000 		.4byte	0x8c
 975 03c9 0C       		.byte	0xc
 976 03ca 00       		.byte	0x0
 977 03cb 07       		.uleb128 0x7
 978 03cc 19010000 		.4byte	.LASF49
 979 03d0 04       		.byte	0x4
 980 03d1 6D01     		.2byte	0x16d
 981 03d3 66030000 		.4byte	0x366
 982 03d7 10       		.uleb128 0x10
 983 03d8 01       		.byte	0x1
 984 03d9 04       		.byte	0x4
 985 03da 7301     		.2byte	0x173
 986 03dc 53040000 		.4byte	0x453
 987 03e0 11       		.uleb128 0x11
 988 03e1 91000000 		.4byte	.LASF50
 989 03e5 00       		.sleb128 0
 990 03e6 11       		.uleb128 0x11
 991 03e7 59020000 		.4byte	.LASF51
 992 03eb 01       		.sleb128 1
 993 03ec 11       		.uleb128 0x11
 994 03ed AE020000 		.4byte	.LASF52
 995 03f1 02       		.sleb128 2
 996 03f2 11       		.uleb128 0x11
 997 03f3 4A010000 		.4byte	.LASF53
 998 03f7 03       		.sleb128 3
 999 03f8 11       		.uleb128 0x11
 1000 03f9 A3020000 		.4byte	.LASF54
 1001 03fd 04       		.sleb128 4
 1002 03fe 11       		.uleb128 0x11
 1003 03ff 34030000 		.4byte	.LASF55
 1004 0403 05       		.sleb128 5
 1005 0404 11       		.uleb128 0x11
 1006 0405 8C030000 		.4byte	.LASF56
 1007 0409 06       		.sleb128 6
ARM GAS  C:\Users\SUZUKI~1\AppData\Local\Temp\cchoO86G.s 			page 21


 1008 040a 11       		.uleb128 0x11
 1009 040b 1E000000 		.4byte	.LASF57
 1010 040f 07       		.sleb128 7
 1011 0410 11       		.uleb128 0x11
 1012 0411 13020000 		.4byte	.LASF58
 1013 0415 08       		.sleb128 8
 1014 0416 11       		.uleb128 0x11
 1015 0417 41020000 		.4byte	.LASF59
 1016 041b 09       		.sleb128 9
 1017 041c 11       		.uleb128 0x11
 1018 041d 57010000 		.4byte	.LASF60
 1019 0421 0A       		.sleb128 10
 1020 0422 11       		.uleb128 0x11
 1021 0423 E6020000 		.4byte	.LASF61
 1022 0427 0B       		.sleb128 11
 1023 0428 11       		.uleb128 0x11
 1024 0429 E9010000 		.4byte	.LASF62
 1025 042d 0C       		.sleb128 12
 1026 042e 11       		.uleb128 0x11
 1027 042f A7000000 		.4byte	.LASF63
 1028 0433 0D       		.sleb128 13
 1029 0434 11       		.uleb128 0x11
 1030 0435 29010000 		.4byte	.LASF64
 1031 0439 0E       		.sleb128 14
 1032 043a 11       		.uleb128 0x11
 1033 043b 8B020000 		.4byte	.LASF65
 1034 043f 0F       		.sleb128 15
 1035 0440 11       		.uleb128 0x11
 1036 0441 19030000 		.4byte	.LASF66
 1037 0445 10       		.sleb128 16
 1038 0446 11       		.uleb128 0x11
 1039 0447 3F030000 		.4byte	.LASF67
 1040 044b 11       		.sleb128 17
 1041 044c 11       		.uleb128 0x11
 1042 044d C4010000 		.4byte	.LASF68
 1043 0451 12       		.sleb128 18
 1044 0452 00       		.byte	0x0
 1045 0453 12       		.uleb128 0x12
 1046 0454 5402     		.2byte	0x254
 1047 0456 05       		.byte	0x5
 1048 0457 16       		.byte	0x16
 1049 0458 B1040000 		.4byte	0x4b1
 1050 045c 13       		.uleb128 0x13
 1051 045d 07000000 		.4byte	.LASF69
 1052 0461 05       		.byte	0x5
 1053 0462 17       		.byte	0x17
 1054 0463 95000000 		.4byte	0x95
 1055 0467 02       		.byte	0x2
 1056 0468 23       		.byte	0x23
 1057 0469 00       		.uleb128 0x0
 1058 046a 13       		.uleb128 0x13
 1059 046b 11000000 		.4byte	.LASF70
 1060 046f 05       		.byte	0x5
 1061 0470 18       		.byte	0x18
 1062 0471 95000000 		.4byte	0x95
 1063 0475 02       		.byte	0x2
 1064 0476 23       		.byte	0x23
ARM GAS  C:\Users\SUZUKI~1\AppData\Local\Temp\cchoO86G.s 			page 22


 1065 0477 01       		.uleb128 0x1
 1066 0478 13       		.uleb128 0x13
 1067 0479 53020000 		.4byte	.LASF71
 1068 047d 05       		.byte	0x5
 1069 047e 19       		.byte	0x19
 1070 047f 95000000 		.4byte	0x95
 1071 0483 02       		.byte	0x2
 1072 0484 23       		.byte	0x23
 1073 0485 02       		.uleb128 0x2
 1074 0486 14       		.uleb128 0x14
 1075 0487 666900   		.ascii	"fi\000"
 1076 048a 05       		.byte	0x5
 1077 048b 1A       		.byte	0x1a
 1078 048c CB030000 		.4byte	0x3cb
 1079 0490 02       		.byte	0x2
 1080 0491 23       		.byte	0x23
 1081 0492 04       		.uleb128 0x4
 1082 0493 13       		.uleb128 0x13
 1083 0494 65000000 		.4byte	.LASF72
 1084 0498 05       		.byte	0x5
 1085 0499 1B       		.byte	0x1b
 1086 049a CF020000 		.4byte	0x2cf
 1087 049e 02       		.byte	0x2
 1088 049f 23       		.byte	0x23
 1089 04a0 1C       		.uleb128 0x1c
 1090 04a1 13       		.uleb128 0x13
 1091 04a2 49000000 		.4byte	.LASF73
 1092 04a6 05       		.byte	0x5
 1093 04a7 1C       		.byte	0x1c
 1094 04a8 B1040000 		.4byte	0x4b1
 1095 04ac 03       		.byte	0x3
 1096 04ad 23       		.byte	0x23
 1097 04ae C004     		.uleb128 0x240
 1098 04b0 00       		.byte	0x0
 1099 04b1 0B       		.uleb128 0xb
 1100 04b2 6F000000 		.4byte	0x6f
 1101 04b6 C1040000 		.4byte	0x4c1
 1102 04ba 0F       		.uleb128 0xf
 1103 04bb 8C000000 		.4byte	0x8c
 1104 04bf 13       		.byte	0x13
 1105 04c0 00       		.byte	0x0
 1106 04c1 04       		.uleb128 0x4
 1107 04c2 BF020000 		.4byte	.LASF74
 1108 04c6 05       		.byte	0x5
 1109 04c7 1D       		.byte	0x1d
 1110 04c8 53040000 		.4byte	0x453
 1111 04cc 15       		.uleb128 0x15
 1112 04cd 01       		.byte	0x1
 1113 04ce 39010000 		.4byte	.LASF87
 1114 04d2 01       		.byte	0x1
 1115 04d3 34       		.byte	0x34
 1116 04d4 01       		.byte	0x1
 1117 04d5 95000000 		.4byte	0x95
 1118 04d9 01       		.byte	0x1
 1119 04da 16       		.uleb128 0x16
 1120 04db CC040000 		.4byte	0x4cc
 1121 04df 00000000 		.4byte	.LFB30
ARM GAS  C:\Users\SUZUKI~1\AppData\Local\Temp\cchoO86G.s 			page 23


 1122 04e3 04000000 		.4byte	.LFE30
 1123 04e7 01       		.byte	0x1
 1124 04e8 5D       		.byte	0x5d
 1125 04e9 17       		.uleb128 0x17
 1126 04ea 01       		.byte	0x1
 1127 04eb 1C020000 		.4byte	.LASF88
 1128 04ef 01       		.byte	0x1
 1129 04f0 6A       		.byte	0x6a
 1130 04f1 01       		.byte	0x1
 1131 04f2 00000000 		.4byte	.LFB34
 1132 04f6 02000000 		.4byte	.LFE34
 1133 04fa 01       		.byte	0x1
 1134 04fb 5D       		.byte	0x5d
 1135 04fc 18       		.uleb128 0x18
 1136 04fd 01       		.byte	0x1
 1137 04fe C8020000 		.4byte	.LASF75
 1138 0502 01       		.byte	0x1
 1139 0503 71       		.byte	0x71
 1140 0504 01       		.byte	0x1
 1141 0505 AB000000 		.4byte	0xab
 1142 0509 00000000 		.4byte	.LFB35
 1143 050d 0C000000 		.4byte	.LFE35
 1144 0511 01       		.byte	0x1
 1145 0512 5D       		.byte	0x5d
 1146 0513 23050000 		.4byte	0x523
 1147 0517 19       		.uleb128 0x19
 1148 0518 746D7200 		.ascii	"tmr\000"
 1149 051c 01       		.byte	0x1
 1150 051d 73       		.byte	0x73
 1151 051e AB000000 		.4byte	0xab
 1152 0522 00       		.byte	0x0
 1153 0523 1A       		.uleb128 0x1a
 1154 0524 01       		.byte	0x1
 1155 0525 D4020000 		.4byte	.LASF76
 1156 0529 01       		.byte	0x1
 1157 052a 59       		.byte	0x59
 1158 052b 01       		.byte	0x1
 1159 052c 81000000 		.4byte	0x81
 1160 0530 00000000 		.4byte	.LFB33
 1161 0534 1C000000 		.4byte	.LFE33
 1162 0538 00000000 		.4byte	.LLST3
 1163 053c 88050000 		.4byte	0x588
 1164 0540 1B       		.uleb128 0x1b
 1165 0541 736400   		.ascii	"sd\000"
 1166 0544 01       		.byte	0x1
 1167 0545 59       		.byte	0x59
 1168 0546 88050000 		.4byte	0x588
 1169 054a 1F000000 		.4byte	.LLST4
 1170 054e 1C       		.uleb128 0x1c
 1171 054f 65000000 		.4byte	.LASF72
 1172 0553 01       		.byte	0x1
 1173 0554 59       		.byte	0x59
 1174 0555 8E050000 		.4byte	0x58e
 1175 0559 32000000 		.4byte	.LLST5
 1176 055d 1B       		.uleb128 0x1b
 1177 055e 62756600 		.ascii	"buf\000"
 1178 0562 01       		.byte	0x1
ARM GAS  C:\Users\SUZUKI~1\AppData\Local\Temp\cchoO86G.s 			page 24


 1179 0563 59       		.byte	0x59
 1180 0564 8F000000 		.4byte	0x8f
 1181 0568 50000000 		.4byte	.LLST6
 1182 056c 1B       		.uleb128 0x1b
 1183 056d 6C656E00 		.ascii	"len\000"
 1184 0571 01       		.byte	0x1
 1185 0572 59       		.byte	0x59
 1186 0573 81000000 		.4byte	0x81
 1187 0577 63000000 		.4byte	.LLST7
 1188 057b 1D       		.uleb128 0x1d
 1189 057c 6900     		.ascii	"i\000"
 1190 057e 01       		.byte	0x1
 1191 057f 5B       		.byte	0x5b
 1192 0580 68000000 		.4byte	0x68
 1193 0584 02       		.byte	0x2
 1194 0585 91       		.byte	0x91
 1195 0586 74       		.sleb128 -12
 1196 0587 00       		.byte	0x0
 1197 0588 06       		.uleb128 0x6
 1198 0589 04       		.byte	0x4
 1199 058a C1040000 		.4byte	0x4c1
 1200 058e 06       		.uleb128 0x6
 1201 058f 04       		.byte	0x4
 1202 0590 CF020000 		.4byte	0x2cf
 1203 0594 1A       		.uleb128 0x1a
 1204 0595 01       		.byte	0x1
 1205 0596 CF000000 		.4byte	.LASF77
 1206 059a 01       		.byte	0x1
 1207 059b 53       		.byte	0x53
 1208 059c 01       		.byte	0x1
 1209 059d 76000000 		.4byte	0x76
 1210 05a1 00000000 		.4byte	.LFB32
 1211 05a5 0C000000 		.4byte	.LFE32
 1212 05a9 97000000 		.4byte	.LLST8
 1213 05ad CF050000 		.4byte	0x5cf
 1214 05b1 1B       		.uleb128 0x1b
 1215 05b2 736400   		.ascii	"sd\000"
 1216 05b5 01       		.byte	0x1
 1217 05b6 53       		.byte	0x53
 1218 05b7 88050000 		.4byte	0x588
 1219 05bb B6000000 		.4byte	.LLST9
 1220 05bf 1C       		.uleb128 0x1c
 1221 05c0 65000000 		.4byte	.LASF72
 1222 05c4 01       		.byte	0x1
 1223 05c5 53       		.byte	0x53
 1224 05c6 8E050000 		.4byte	0x58e
 1225 05ca C9000000 		.4byte	.LLST10
 1226 05ce 00       		.byte	0x0
 1227 05cf 1A       		.uleb128 0x1a
 1228 05d0 01       		.byte	0x1
 1229 05d1 0D010000 		.4byte	.LASF78
 1230 05d5 01       		.byte	0x1
 1231 05d6 3D       		.byte	0x3d
 1232 05d7 01       		.byte	0x1
 1233 05d8 76000000 		.4byte	0x76
 1234 05dc 00000000 		.4byte	.LFB31
 1235 05e0 3C000000 		.4byte	.LFE31
ARM GAS  C:\Users\SUZUKI~1\AppData\Local\Temp\cchoO86G.s 			page 25


 1236 05e4 DC000000 		.4byte	.LLST11
 1237 05e8 24060000 		.4byte	0x624
 1238 05ec 1B       		.uleb128 0x1b
 1239 05ed 736400   		.ascii	"sd\000"
 1240 05f0 01       		.byte	0x1
 1241 05f1 3D       		.byte	0x3d
 1242 05f2 88050000 		.4byte	0x588
 1243 05f6 FB000000 		.4byte	.LLST12
 1244 05fa 1C       		.uleb128 0x1c
 1245 05fb 65000000 		.4byte	.LASF72
 1246 05ff 01       		.byte	0x1
 1247 0600 3D       		.byte	0x3d
 1248 0601 8E050000 		.4byte	0x58e
 1249 0605 19010000 		.4byte	.LLST13
 1250 0609 1C       		.uleb128 0x1c
 1251 060a 49000000 		.4byte	.LASF73
 1252 060e 01       		.byte	0x1
 1253 060f 3D       		.byte	0x3d
 1254 0610 8F000000 		.4byte	0x8f
 1255 0614 42010000 		.4byte	.LLST14
 1256 0618 19       		.uleb128 0x19
 1257 0619 72657300 		.ascii	"res\000"
 1258 061d 01       		.byte	0x1
 1259 061e 3F       		.byte	0x3f
 1260 061f 81000000 		.4byte	0x81
 1261 0623 00       		.byte	0x0
 1262 0624 1A       		.uleb128 0x1a
 1263 0625 01       		.byte	0x1
 1264 0626 DB010000 		.4byte	.LASF79
 1265 062a 01       		.byte	0x1
 1266 062b 16       		.byte	0x16
 1267 062c 01       		.byte	0x1
 1268 062d 95000000 		.4byte	0x95
 1269 0631 00000000 		.4byte	.LFB29
 1270 0635 5C000000 		.4byte	.LFE29
 1271 0639 55010000 		.4byte	.LLST15
 1272 063d 5B060000 		.4byte	0x65b
 1273 0641 1B       		.uleb128 0x1b
 1274 0642 736400   		.ascii	"sd\000"
 1275 0645 01       		.byte	0x1
 1276 0646 16       		.byte	0x16
 1277 0647 88050000 		.4byte	0x588
 1278 064b 74010000 		.4byte	.LLST16
 1279 064f 19       		.uleb128 0x19
 1280 0650 72657300 		.ascii	"res\000"
 1281 0654 01       		.byte	0x1
 1282 0655 18       		.byte	0x18
 1283 0656 76000000 		.4byte	0x76
 1284 065a 00       		.byte	0x0
 1285 065b 1E       		.uleb128 0x1e
 1286 065c 96020000 		.4byte	.LASF80
 1287 0660 06       		.byte	0x6
 1288 0661 CE06     		.2byte	0x6ce
 1289 0663 69060000 		.4byte	0x669
 1290 0667 01       		.byte	0x1
 1291 0668 01       		.byte	0x1
 1292 0669 1F       		.uleb128 0x1f
ARM GAS  C:\Users\SUZUKI~1\AppData\Local\Temp\cchoO86G.s 			page 26


 1293 066a 61000000 		.4byte	0x61
 1294 066e 20       		.uleb128 0x20
 1295 066f 7A000000 		.4byte	.LASF81
 1296 0673 01       		.byte	0x1
 1297 0674 12       		.byte	0x12
 1298 0675 FA010000 		.4byte	0x1fa
 1299 0679 01       		.byte	0x1
 1300 067a 05       		.byte	0x5
 1301 067b 03       		.byte	0x3
 1302 067c 00000000 		.4byte	fatfs
 1303 0680 21       		.uleb128 0x21
 1304 0681 667300   		.ascii	"fs\000"
 1305 0684 01       		.byte	0x1
 1306 0685 12       		.byte	0x12
 1307 0686 C3020000 		.4byte	0x2c3
 1308 068a 01       		.byte	0x1
 1309 068b 05       		.byte	0x5
 1310 068c 03       		.byte	0x3
 1311 068d 00000000 		.4byte	fs
 1312 0691 20       		.uleb128 0x20
 1313 0692 98010000 		.4byte	.LASF82
 1314 0696 01       		.byte	0x1
 1315 0697 13       		.byte	0x13
 1316 0698 5A030000 		.4byte	0x35a
 1317 069c 01       		.byte	0x1
 1318 069d 05       		.byte	0x5
 1319 069e 03       		.byte	0x3
 1320 069f 00000000 		.4byte	rootdir
 1321 06a3 20       		.uleb128 0x20
 1322 06a4 97000000 		.4byte	.LASF83
 1323 06a8 01       		.byte	0x1
 1324 06a9 14       		.byte	0x14
 1325 06aa C1040000 		.4byte	0x4c1
 1326 06ae 01       		.byte	0x1
 1327 06af 05       		.byte	0x5
 1328 06b0 03       		.byte	0x3
 1329 06b1 00000000 		.4byte	g_sd
 1330 06b5 00       		.byte	0x0
 1331              		.section	.debug_abbrev
 1332 0000 01       		.uleb128 0x1
 1333 0001 11       		.uleb128 0x11
 1334 0002 01       		.byte	0x1
 1335 0003 25       		.uleb128 0x25
 1336 0004 0E       		.uleb128 0xe
 1337 0005 13       		.uleb128 0x13
 1338 0006 0B       		.uleb128 0xb
 1339 0007 03       		.uleb128 0x3
 1340 0008 0E       		.uleb128 0xe
 1341 0009 1B       		.uleb128 0x1b
 1342 000a 0E       		.uleb128 0xe
 1343 000b 11       		.uleb128 0x11
 1344 000c 01       		.uleb128 0x1
 1345 000d 52       		.uleb128 0x52
 1346 000e 01       		.uleb128 0x1
 1347 000f 55       		.uleb128 0x55
 1348 0010 06       		.uleb128 0x6
 1349 0011 10       		.uleb128 0x10
ARM GAS  C:\Users\SUZUKI~1\AppData\Local\Temp\cchoO86G.s 			page 27


 1350 0012 06       		.uleb128 0x6
 1351 0013 00       		.byte	0x0
 1352 0014 00       		.byte	0x0
 1353 0015 02       		.uleb128 0x2
 1354 0016 24       		.uleb128 0x24
 1355 0017 00       		.byte	0x0
 1356 0018 0B       		.uleb128 0xb
 1357 0019 0B       		.uleb128 0xb
 1358 001a 3E       		.uleb128 0x3e
 1359 001b 0B       		.uleb128 0xb
 1360 001c 03       		.uleb128 0x3
 1361 001d 0E       		.uleb128 0xe
 1362 001e 00       		.byte	0x0
 1363 001f 00       		.byte	0x0
 1364 0020 03       		.uleb128 0x3
 1365 0021 24       		.uleb128 0x24
 1366 0022 00       		.byte	0x0
 1367 0023 0B       		.uleb128 0xb
 1368 0024 0B       		.uleb128 0xb
 1369 0025 3E       		.uleb128 0x3e
 1370 0026 0B       		.uleb128 0xb
 1371 0027 03       		.uleb128 0x3
 1372 0028 08       		.uleb128 0x8
 1373 0029 00       		.byte	0x0
 1374 002a 00       		.byte	0x0
 1375 002b 04       		.uleb128 0x4
 1376 002c 16       		.uleb128 0x16
 1377 002d 00       		.byte	0x0
 1378 002e 03       		.uleb128 0x3
 1379 002f 0E       		.uleb128 0xe
 1380 0030 3A       		.uleb128 0x3a
 1381 0031 0B       		.uleb128 0xb
 1382 0032 3B       		.uleb128 0x3b
 1383 0033 0B       		.uleb128 0xb
 1384 0034 49       		.uleb128 0x49
 1385 0035 13       		.uleb128 0x13
 1386 0036 00       		.byte	0x0
 1387 0037 00       		.byte	0x0
 1388 0038 05       		.uleb128 0x5
 1389 0039 24       		.uleb128 0x24
 1390 003a 00       		.byte	0x0
 1391 003b 0B       		.uleb128 0xb
 1392 003c 0B       		.uleb128 0xb
 1393 003d 3E       		.uleb128 0x3e
 1394 003e 0B       		.uleb128 0xb
 1395 003f 00       		.byte	0x0
 1396 0040 00       		.byte	0x0
 1397 0041 06       		.uleb128 0x6
 1398 0042 0F       		.uleb128 0xf
 1399 0043 00       		.byte	0x0
 1400 0044 0B       		.uleb128 0xb
 1401 0045 0B       		.uleb128 0xb
 1402 0046 49       		.uleb128 0x49
 1403 0047 13       		.uleb128 0x13
 1404 0048 00       		.byte	0x0
 1405 0049 00       		.byte	0x0
 1406 004a 07       		.uleb128 0x7
ARM GAS  C:\Users\SUZUKI~1\AppData\Local\Temp\cchoO86G.s 			page 28


 1407 004b 16       		.uleb128 0x16
 1408 004c 00       		.byte	0x0
 1409 004d 03       		.uleb128 0x3
 1410 004e 0E       		.uleb128 0xe
 1411 004f 3A       		.uleb128 0x3a
 1412 0050 0B       		.uleb128 0xb
 1413 0051 3B       		.uleb128 0x3b
 1414 0052 05       		.uleb128 0x5
 1415 0053 49       		.uleb128 0x49
 1416 0054 13       		.uleb128 0x13
 1417 0055 00       		.byte	0x0
 1418 0056 00       		.byte	0x0
 1419 0057 08       		.uleb128 0x8
 1420 0058 13       		.uleb128 0x13
 1421 0059 01       		.byte	0x1
 1422 005a 0B       		.uleb128 0xb
 1423 005b 05       		.uleb128 0x5
 1424 005c 3A       		.uleb128 0x3a
 1425 005d 0B       		.uleb128 0xb
 1426 005e 3B       		.uleb128 0x3b
 1427 005f 05       		.uleb128 0x5
 1428 0060 01       		.uleb128 0x1
 1429 0061 13       		.uleb128 0x13
 1430 0062 00       		.byte	0x0
 1431 0063 00       		.byte	0x0
 1432 0064 09       		.uleb128 0x9
 1433 0065 0D       		.uleb128 0xd
 1434 0066 00       		.byte	0x0
 1435 0067 03       		.uleb128 0x3
 1436 0068 0E       		.uleb128 0xe
 1437 0069 3A       		.uleb128 0x3a
 1438 006a 0B       		.uleb128 0xb
 1439 006b 3B       		.uleb128 0x3b
 1440 006c 05       		.uleb128 0x5
 1441 006d 49       		.uleb128 0x49
 1442 006e 13       		.uleb128 0x13
 1443 006f 38       		.uleb128 0x38
 1444 0070 0A       		.uleb128 0xa
 1445 0071 00       		.byte	0x0
 1446 0072 00       		.byte	0x0
 1447 0073 0A       		.uleb128 0xa
 1448 0074 0D       		.uleb128 0xd
 1449 0075 00       		.byte	0x0
 1450 0076 03       		.uleb128 0x3
 1451 0077 08       		.uleb128 0x8
 1452 0078 3A       		.uleb128 0x3a
 1453 0079 0B       		.uleb128 0xb
 1454 007a 3B       		.uleb128 0x3b
 1455 007b 05       		.uleb128 0x5
 1456 007c 49       		.uleb128 0x49
 1457 007d 13       		.uleb128 0x13
 1458 007e 38       		.uleb128 0x38
 1459 007f 0A       		.uleb128 0xa
 1460 0080 00       		.byte	0x0
 1461 0081 00       		.byte	0x0
 1462 0082 0B       		.uleb128 0xb
 1463 0083 01       		.uleb128 0x1
ARM GAS  C:\Users\SUZUKI~1\AppData\Local\Temp\cchoO86G.s 			page 29


 1464 0084 01       		.byte	0x1
 1465 0085 49       		.uleb128 0x49
 1466 0086 13       		.uleb128 0x13
 1467 0087 01       		.uleb128 0x1
 1468 0088 13       		.uleb128 0x13
 1469 0089 00       		.byte	0x0
 1470 008a 00       		.byte	0x0
 1471 008b 0C       		.uleb128 0xc
 1472 008c 21       		.uleb128 0x21
 1473 008d 00       		.byte	0x0
 1474 008e 49       		.uleb128 0x49
 1475 008f 13       		.uleb128 0x13
 1476 0090 2F       		.uleb128 0x2f
 1477 0091 05       		.uleb128 0x5
 1478 0092 00       		.byte	0x0
 1479 0093 00       		.byte	0x0
 1480 0094 0D       		.uleb128 0xd
 1481 0095 16       		.uleb128 0x16
 1482 0096 00       		.byte	0x0
 1483 0097 03       		.uleb128 0x3
 1484 0098 08       		.uleb128 0x8
 1485 0099 3A       		.uleb128 0x3a
 1486 009a 0B       		.uleb128 0xb
 1487 009b 3B       		.uleb128 0x3b
 1488 009c 05       		.uleb128 0x5
 1489 009d 49       		.uleb128 0x49
 1490 009e 13       		.uleb128 0x13
 1491 009f 00       		.byte	0x0
 1492 00a0 00       		.byte	0x0
 1493 00a1 0E       		.uleb128 0xe
 1494 00a2 13       		.uleb128 0x13
 1495 00a3 01       		.byte	0x1
 1496 00a4 0B       		.uleb128 0xb
 1497 00a5 0B       		.uleb128 0xb
 1498 00a6 3A       		.uleb128 0x3a
 1499 00a7 0B       		.uleb128 0xb
 1500 00a8 3B       		.uleb128 0x3b
 1501 00a9 05       		.uleb128 0x5
 1502 00aa 01       		.uleb128 0x1
 1503 00ab 13       		.uleb128 0x13
 1504 00ac 00       		.byte	0x0
 1505 00ad 00       		.byte	0x0
 1506 00ae 0F       		.uleb128 0xf
 1507 00af 21       		.uleb128 0x21
 1508 00b0 00       		.byte	0x0
 1509 00b1 49       		.uleb128 0x49
 1510 00b2 13       		.uleb128 0x13
 1511 00b3 2F       		.uleb128 0x2f
 1512 00b4 0B       		.uleb128 0xb
 1513 00b5 00       		.byte	0x0
 1514 00b6 00       		.byte	0x0
 1515 00b7 10       		.uleb128 0x10
 1516 00b8 04       		.uleb128 0x4
 1517 00b9 01       		.byte	0x1
 1518 00ba 0B       		.uleb128 0xb
 1519 00bb 0B       		.uleb128 0xb
 1520 00bc 3A       		.uleb128 0x3a
ARM GAS  C:\Users\SUZUKI~1\AppData\Local\Temp\cchoO86G.s 			page 30


 1521 00bd 0B       		.uleb128 0xb
 1522 00be 3B       		.uleb128 0x3b
 1523 00bf 05       		.uleb128 0x5
 1524 00c0 01       		.uleb128 0x1
 1525 00c1 13       		.uleb128 0x13
 1526 00c2 00       		.byte	0x0
 1527 00c3 00       		.byte	0x0
 1528 00c4 11       		.uleb128 0x11
 1529 00c5 28       		.uleb128 0x28
 1530 00c6 00       		.byte	0x0
 1531 00c7 03       		.uleb128 0x3
 1532 00c8 0E       		.uleb128 0xe
 1533 00c9 1C       		.uleb128 0x1c
 1534 00ca 0D       		.uleb128 0xd
 1535 00cb 00       		.byte	0x0
 1536 00cc 00       		.byte	0x0
 1537 00cd 12       		.uleb128 0x12
 1538 00ce 13       		.uleb128 0x13
 1539 00cf 01       		.byte	0x1
 1540 00d0 0B       		.uleb128 0xb
 1541 00d1 05       		.uleb128 0x5
 1542 00d2 3A       		.uleb128 0x3a
 1543 00d3 0B       		.uleb128 0xb
 1544 00d4 3B       		.uleb128 0x3b
 1545 00d5 0B       		.uleb128 0xb
 1546 00d6 01       		.uleb128 0x1
 1547 00d7 13       		.uleb128 0x13
 1548 00d8 00       		.byte	0x0
 1549 00d9 00       		.byte	0x0
 1550 00da 13       		.uleb128 0x13
 1551 00db 0D       		.uleb128 0xd
 1552 00dc 00       		.byte	0x0
 1553 00dd 03       		.uleb128 0x3
 1554 00de 0E       		.uleb128 0xe
 1555 00df 3A       		.uleb128 0x3a
 1556 00e0 0B       		.uleb128 0xb
 1557 00e1 3B       		.uleb128 0x3b
 1558 00e2 0B       		.uleb128 0xb
 1559 00e3 49       		.uleb128 0x49
 1560 00e4 13       		.uleb128 0x13
 1561 00e5 38       		.uleb128 0x38
 1562 00e6 0A       		.uleb128 0xa
 1563 00e7 00       		.byte	0x0
 1564 00e8 00       		.byte	0x0
 1565 00e9 14       		.uleb128 0x14
 1566 00ea 0D       		.uleb128 0xd
 1567 00eb 00       		.byte	0x0
 1568 00ec 03       		.uleb128 0x3
 1569 00ed 08       		.uleb128 0x8
 1570 00ee 3A       		.uleb128 0x3a
 1571 00ef 0B       		.uleb128 0xb
 1572 00f0 3B       		.uleb128 0x3b
 1573 00f1 0B       		.uleb128 0xb
 1574 00f2 49       		.uleb128 0x49
 1575 00f3 13       		.uleb128 0x13
 1576 00f4 38       		.uleb128 0x38
 1577 00f5 0A       		.uleb128 0xa
ARM GAS  C:\Users\SUZUKI~1\AppData\Local\Temp\cchoO86G.s 			page 31


 1578 00f6 00       		.byte	0x0
 1579 00f7 00       		.byte	0x0
 1580 00f8 15       		.uleb128 0x15
 1581 00f9 2E       		.uleb128 0x2e
 1582 00fa 00       		.byte	0x0
 1583 00fb 3F       		.uleb128 0x3f
 1584 00fc 0C       		.uleb128 0xc
 1585 00fd 03       		.uleb128 0x3
 1586 00fe 0E       		.uleb128 0xe
 1587 00ff 3A       		.uleb128 0x3a
 1588 0100 0B       		.uleb128 0xb
 1589 0101 3B       		.uleb128 0x3b
 1590 0102 0B       		.uleb128 0xb
 1591 0103 27       		.uleb128 0x27
 1592 0104 0C       		.uleb128 0xc
 1593 0105 49       		.uleb128 0x49
 1594 0106 13       		.uleb128 0x13
 1595 0107 20       		.uleb128 0x20
 1596 0108 0B       		.uleb128 0xb
 1597 0109 00       		.byte	0x0
 1598 010a 00       		.byte	0x0
 1599 010b 16       		.uleb128 0x16
 1600 010c 2E       		.uleb128 0x2e
 1601 010d 00       		.byte	0x0
 1602 010e 31       		.uleb128 0x31
 1603 010f 13       		.uleb128 0x13
 1604 0110 11       		.uleb128 0x11
 1605 0111 01       		.uleb128 0x1
 1606 0112 12       		.uleb128 0x12
 1607 0113 01       		.uleb128 0x1
 1608 0114 40       		.uleb128 0x40
 1609 0115 0A       		.uleb128 0xa
 1610 0116 00       		.byte	0x0
 1611 0117 00       		.byte	0x0
 1612 0118 17       		.uleb128 0x17
 1613 0119 2E       		.uleb128 0x2e
 1614 011a 00       		.byte	0x0
 1615 011b 3F       		.uleb128 0x3f
 1616 011c 0C       		.uleb128 0xc
 1617 011d 03       		.uleb128 0x3
 1618 011e 0E       		.uleb128 0xe
 1619 011f 3A       		.uleb128 0x3a
 1620 0120 0B       		.uleb128 0xb
 1621 0121 3B       		.uleb128 0x3b
 1622 0122 0B       		.uleb128 0xb
 1623 0123 27       		.uleb128 0x27
 1624 0124 0C       		.uleb128 0xc
 1625 0125 11       		.uleb128 0x11
 1626 0126 01       		.uleb128 0x1
 1627 0127 12       		.uleb128 0x12
 1628 0128 01       		.uleb128 0x1
 1629 0129 40       		.uleb128 0x40
 1630 012a 0A       		.uleb128 0xa
 1631 012b 00       		.byte	0x0
 1632 012c 00       		.byte	0x0
 1633 012d 18       		.uleb128 0x18
 1634 012e 2E       		.uleb128 0x2e
ARM GAS  C:\Users\SUZUKI~1\AppData\Local\Temp\cchoO86G.s 			page 32


 1635 012f 01       		.byte	0x1
 1636 0130 3F       		.uleb128 0x3f
 1637 0131 0C       		.uleb128 0xc
 1638 0132 03       		.uleb128 0x3
 1639 0133 0E       		.uleb128 0xe
 1640 0134 3A       		.uleb128 0x3a
 1641 0135 0B       		.uleb128 0xb
 1642 0136 3B       		.uleb128 0x3b
 1643 0137 0B       		.uleb128 0xb
 1644 0138 27       		.uleb128 0x27
 1645 0139 0C       		.uleb128 0xc
 1646 013a 49       		.uleb128 0x49
 1647 013b 13       		.uleb128 0x13
 1648 013c 11       		.uleb128 0x11
 1649 013d 01       		.uleb128 0x1
 1650 013e 12       		.uleb128 0x12
 1651 013f 01       		.uleb128 0x1
 1652 0140 40       		.uleb128 0x40
 1653 0141 0A       		.uleb128 0xa
 1654 0142 01       		.uleb128 0x1
 1655 0143 13       		.uleb128 0x13
 1656 0144 00       		.byte	0x0
 1657 0145 00       		.byte	0x0
 1658 0146 19       		.uleb128 0x19
 1659 0147 34       		.uleb128 0x34
 1660 0148 00       		.byte	0x0
 1661 0149 03       		.uleb128 0x3
 1662 014a 08       		.uleb128 0x8
 1663 014b 3A       		.uleb128 0x3a
 1664 014c 0B       		.uleb128 0xb
 1665 014d 3B       		.uleb128 0x3b
 1666 014e 0B       		.uleb128 0xb
 1667 014f 49       		.uleb128 0x49
 1668 0150 13       		.uleb128 0x13
 1669 0151 00       		.byte	0x0
 1670 0152 00       		.byte	0x0
 1671 0153 1A       		.uleb128 0x1a
 1672 0154 2E       		.uleb128 0x2e
 1673 0155 01       		.byte	0x1
 1674 0156 3F       		.uleb128 0x3f
 1675 0157 0C       		.uleb128 0xc
 1676 0158 03       		.uleb128 0x3
 1677 0159 0E       		.uleb128 0xe
 1678 015a 3A       		.uleb128 0x3a
 1679 015b 0B       		.uleb128 0xb
 1680 015c 3B       		.uleb128 0x3b
 1681 015d 0B       		.uleb128 0xb
 1682 015e 27       		.uleb128 0x27
 1683 015f 0C       		.uleb128 0xc
 1684 0160 49       		.uleb128 0x49
 1685 0161 13       		.uleb128 0x13
 1686 0162 11       		.uleb128 0x11
 1687 0163 01       		.uleb128 0x1
 1688 0164 12       		.uleb128 0x12
 1689 0165 01       		.uleb128 0x1
 1690 0166 40       		.uleb128 0x40
 1691 0167 06       		.uleb128 0x6
ARM GAS  C:\Users\SUZUKI~1\AppData\Local\Temp\cchoO86G.s 			page 33


 1692 0168 01       		.uleb128 0x1
 1693 0169 13       		.uleb128 0x13
 1694 016a 00       		.byte	0x0
 1695 016b 00       		.byte	0x0
 1696 016c 1B       		.uleb128 0x1b
 1697 016d 05       		.uleb128 0x5
 1698 016e 00       		.byte	0x0
 1699 016f 03       		.uleb128 0x3
 1700 0170 08       		.uleb128 0x8
 1701 0171 3A       		.uleb128 0x3a
 1702 0172 0B       		.uleb128 0xb
 1703 0173 3B       		.uleb128 0x3b
 1704 0174 0B       		.uleb128 0xb
 1705 0175 49       		.uleb128 0x49
 1706 0176 13       		.uleb128 0x13
 1707 0177 02       		.uleb128 0x2
 1708 0178 06       		.uleb128 0x6
 1709 0179 00       		.byte	0x0
 1710 017a 00       		.byte	0x0
 1711 017b 1C       		.uleb128 0x1c
 1712 017c 05       		.uleb128 0x5
 1713 017d 00       		.byte	0x0
 1714 017e 03       		.uleb128 0x3
 1715 017f 0E       		.uleb128 0xe
 1716 0180 3A       		.uleb128 0x3a
 1717 0181 0B       		.uleb128 0xb
 1718 0182 3B       		.uleb128 0x3b
 1719 0183 0B       		.uleb128 0xb
 1720 0184 49       		.uleb128 0x49
 1721 0185 13       		.uleb128 0x13
 1722 0186 02       		.uleb128 0x2
 1723 0187 06       		.uleb128 0x6
 1724 0188 00       		.byte	0x0
 1725 0189 00       		.byte	0x0
 1726 018a 1D       		.uleb128 0x1d
 1727 018b 34       		.uleb128 0x34
 1728 018c 00       		.byte	0x0
 1729 018d 03       		.uleb128 0x3
 1730 018e 08       		.uleb128 0x8
 1731 018f 3A       		.uleb128 0x3a
 1732 0190 0B       		.uleb128 0xb
 1733 0191 3B       		.uleb128 0x3b
 1734 0192 0B       		.uleb128 0xb
 1735 0193 49       		.uleb128 0x49
 1736 0194 13       		.uleb128 0x13
 1737 0195 02       		.uleb128 0x2
 1738 0196 0A       		.uleb128 0xa
 1739 0197 00       		.byte	0x0
 1740 0198 00       		.byte	0x0
 1741 0199 1E       		.uleb128 0x1e
 1742 019a 34       		.uleb128 0x34
 1743 019b 00       		.byte	0x0
 1744 019c 03       		.uleb128 0x3
 1745 019d 0E       		.uleb128 0xe
 1746 019e 3A       		.uleb128 0x3a
 1747 019f 0B       		.uleb128 0xb
 1748 01a0 3B       		.uleb128 0x3b
ARM GAS  C:\Users\SUZUKI~1\AppData\Local\Temp\cchoO86G.s 			page 34


 1749 01a1 05       		.uleb128 0x5
 1750 01a2 49       		.uleb128 0x49
 1751 01a3 13       		.uleb128 0x13
 1752 01a4 3F       		.uleb128 0x3f
 1753 01a5 0C       		.uleb128 0xc
 1754 01a6 3C       		.uleb128 0x3c
 1755 01a7 0C       		.uleb128 0xc
 1756 01a8 00       		.byte	0x0
 1757 01a9 00       		.byte	0x0
 1758 01aa 1F       		.uleb128 0x1f
 1759 01ab 35       		.uleb128 0x35
 1760 01ac 00       		.byte	0x0
 1761 01ad 49       		.uleb128 0x49
 1762 01ae 13       		.uleb128 0x13
 1763 01af 00       		.byte	0x0
 1764 01b0 00       		.byte	0x0
 1765 01b1 20       		.uleb128 0x20
 1766 01b2 34       		.uleb128 0x34
 1767 01b3 00       		.byte	0x0
 1768 01b4 03       		.uleb128 0x3
 1769 01b5 0E       		.uleb128 0xe
 1770 01b6 3A       		.uleb128 0x3a
 1771 01b7 0B       		.uleb128 0xb
 1772 01b8 3B       		.uleb128 0x3b
 1773 01b9 0B       		.uleb128 0xb
 1774 01ba 49       		.uleb128 0x49
 1775 01bb 13       		.uleb128 0x13
 1776 01bc 3F       		.uleb128 0x3f
 1777 01bd 0C       		.uleb128 0xc
 1778 01be 02       		.uleb128 0x2
 1779 01bf 0A       		.uleb128 0xa
 1780 01c0 00       		.byte	0x0
 1781 01c1 00       		.byte	0x0
 1782 01c2 21       		.uleb128 0x21
 1783 01c3 34       		.uleb128 0x34
 1784 01c4 00       		.byte	0x0
 1785 01c5 03       		.uleb128 0x3
 1786 01c6 08       		.uleb128 0x8
 1787 01c7 3A       		.uleb128 0x3a
 1788 01c8 0B       		.uleb128 0xb
 1789 01c9 3B       		.uleb128 0x3b
 1790 01ca 0B       		.uleb128 0xb
 1791 01cb 49       		.uleb128 0x49
 1792 01cc 13       		.uleb128 0x13
 1793 01cd 3F       		.uleb128 0x3f
 1794 01ce 0C       		.uleb128 0xc
 1795 01cf 02       		.uleb128 0x2
 1796 01d0 0A       		.uleb128 0xa
 1797 01d1 00       		.byte	0x0
 1798 01d2 00       		.byte	0x0
 1799 01d3 00       		.byte	0x0
 1800              		.section	.debug_pubnames,"",%progbits
 1801 0000 A3000000 		.4byte	0xa3
 1802 0004 0200     		.2byte	0x2
 1803 0006 00000000 		.4byte	.Ldebug_info0
 1804 000a B6060000 		.4byte	0x6b6
 1805 000e DA040000 		.4byte	0x4da
ARM GAS  C:\Users\SUZUKI~1\AppData\Local\Temp\cchoO86G.s 			page 35


 1806 0012 53445F53 		.ascii	"SD_Slot1Inserted\000"
 1806      6C6F7431 
 1806      496E7365 
 1806      72746564 
 1806      00
 1807 0023 E9040000 		.4byte	0x4e9
 1808 0027 53445F43 		.ascii	"SD_Close\000"
 1808      6C6F7365 
 1808      00
 1809 0030 FC040000 		.4byte	0x4fc
 1810 0034 6765745F 		.ascii	"get_fattime\000"
 1810      66617474 
 1810      696D6500 
 1811 0040 23050000 		.4byte	0x523
 1812 0044 53445F52 		.ascii	"SD_ReadLine\000"
 1812      6561644C 
 1812      696E6500 
 1813 0050 94050000 		.4byte	0x594
 1814 0054 53445F43 		.ascii	"SD_CloseFile\000"
 1814      6C6F7365 
 1814      46696C65 
 1814      00
 1815 0061 CF050000 		.4byte	0x5cf
 1816 0065 53445F4F 		.ascii	"SD_OpenFile\000"
 1816      70656E46 
 1816      696C6500 
 1817 0071 24060000 		.4byte	0x624
 1818 0075 53445F49 		.ascii	"SD_Init\000"
 1818      6E697400 
 1819 007d 6E060000 		.4byte	0x66e
 1820 0081 66617466 		.ascii	"fatfs\000"
 1820      7300
 1821 0087 80060000 		.4byte	0x680
 1822 008b 667300   		.ascii	"fs\000"
 1823 008e 91060000 		.4byte	0x691
 1824 0092 726F6F74 		.ascii	"rootdir\000"
 1824      64697200 
 1825 009a A3060000 		.4byte	0x6a3
 1826 009e 675F7364 		.ascii	"g_sd\000"
 1826      00
 1827 00a3 00000000 		.4byte	0x0
 1828              		.section	.debug_aranges,"",%progbits
 1829 0000 4C000000 		.4byte	0x4c
 1830 0004 0200     		.2byte	0x2
 1831 0006 00000000 		.4byte	.Ldebug_info0
 1832 000a 04       		.byte	0x4
 1833 000b 00       		.byte	0x0
 1834 000c 0000     		.2byte	0x0
 1835 000e 0000     		.2byte	0x0
 1836 0010 00000000 		.4byte	.LFB30
 1837 0014 04000000 		.4byte	.LFE30-.LFB30
 1838 0018 00000000 		.4byte	.LFB34
 1839 001c 02000000 		.4byte	.LFE34-.LFB34
 1840 0020 00000000 		.4byte	.LFB35
 1841 0024 0C000000 		.4byte	.LFE35-.LFB35
 1842 0028 00000000 		.4byte	.LFB33
 1843 002c 1C000000 		.4byte	.LFE33-.LFB33
ARM GAS  C:\Users\SUZUKI~1\AppData\Local\Temp\cchoO86G.s 			page 36


 1844 0030 00000000 		.4byte	.LFB32
 1845 0034 0C000000 		.4byte	.LFE32-.LFB32
 1846 0038 00000000 		.4byte	.LFB31
 1847 003c 3C000000 		.4byte	.LFE31-.LFB31
 1848 0040 00000000 		.4byte	.LFB29
 1849 0044 5C000000 		.4byte	.LFE29-.LFB29
 1850 0048 00000000 		.4byte	0x0
 1851 004c 00000000 		.4byte	0x0
 1852              		.section	.debug_ranges,"",%progbits
 1853              	.Ldebug_ranges0:
 1854 0000 00000000 		.4byte	.Ltext0
 1855 0004 00000000 		.4byte	.Letext0
 1856 0008 00000000 		.4byte	.LFB30
 1857 000c 04000000 		.4byte	.LFE30
 1858 0010 00000000 		.4byte	.LFB34
 1859 0014 02000000 		.4byte	.LFE34
 1860 0018 00000000 		.4byte	.LFB35
 1861 001c 0C000000 		.4byte	.LFE35
 1862 0020 00000000 		.4byte	.LFB33
 1863 0024 1C000000 		.4byte	.LFE33
 1864 0028 00000000 		.4byte	.LFB32
 1865 002c 0C000000 		.4byte	.LFE32
 1866 0030 00000000 		.4byte	.LFB31
 1867 0034 3C000000 		.4byte	.LFE31
 1868 0038 00000000 		.4byte	.LFB29
 1869 003c 5C000000 		.4byte	.LFE29
 1870 0040 00000000 		.4byte	0x0
 1871 0044 00000000 		.4byte	0x0
 1872              		.section	.debug_str,"MS",%progbits,1
 1873              	.LASF18:
 1874 0000 6E5F6661 		.ascii	"n_fats\000"
 1874      747300
 1875              	.LASF69:
 1876 0007 62496E73 		.ascii	"bInserted\000"
 1876      65727465 
 1876      6400
 1877              	.LASF70:
 1878 0011 62496E69 		.ascii	"bInitialized\000"
 1878      7469616C 
 1878      697A6564 
 1878      00
 1879              	.LASF57:
 1880 001e 46525F44 		.ascii	"FR_DENIED\000"
 1880      454E4945 
 1880      4400
 1881              	.LASF26:
 1882 0028 6E5F6661 		.ascii	"n_fatent\000"
 1882      74656E74 
 1882      00
 1883              	.LASF16:
 1884 0031 66735F74 		.ascii	"fs_type\000"
 1884      79706500 
 1885              	.LASF2:
 1886 0039 73686F72 		.ascii	"short int\000"
 1886      7420696E 
 1886      7400
 1887              	.LASF38:
ARM GAS  C:\Users\SUZUKI~1\AppData\Local\Temp\cchoO86G.s 			page 37


 1888 0043 64736563 		.ascii	"dsect\000"
 1888      7400
 1889              	.LASF73:
 1890 0049 66696C65 		.ascii	"filename\000"
 1890      6E616D65 
 1890      00
 1891              	.LASF30:
 1892 0052 64617461 		.ascii	"database\000"
 1892      62617365 
 1892      00
 1893              	.LASF12:
 1894 005b 42595445 		.ascii	"BYTE\000"
 1894      00
 1895              	.LASF44:
 1896 0060 73656374 		.ascii	"sect\000"
 1896      00
 1897              	.LASF72:
 1898 0065 66696C65 		.ascii	"file\000"
 1898      00
 1899              	.LASF21:
 1900 006a 6E5F726F 		.ascii	"n_rootdir\000"
 1900      6F746469 
 1900      7200
 1901              	.LASF15:
 1902 0074 54434841 		.ascii	"TCHAR\000"
 1902      5200
 1903              	.LASF81:
 1904 007a 66617466 		.ascii	"fatfs\000"
 1904      7300
 1905              	.LASF46:
 1906 0080 6674696D 		.ascii	"ftime\000"
 1906      6500
 1907              	.LASF13:
 1908 0086 574F5244 		.ascii	"WORD\000"
 1908      00
 1909              	.LASF41:
 1910 008b 696E6465 		.ascii	"index\000"
 1910      7800
 1911              	.LASF50:
 1912 0091 46525F4F 		.ascii	"FR_OK\000"
 1912      4B00
 1913              	.LASF83:
 1914 0097 675F7364 		.ascii	"g_sd\000"
 1914      00
 1915              	.LASF10:
 1916 009c 75696E74 		.ascii	"uint8\000"
 1916      3800
 1917              	.LASF35:
 1918 00a2 66707472 		.ascii	"fptr\000"
 1918      00
 1919              	.LASF63:
 1920 00a7 46525F4E 		.ascii	"FR_NO_FILESYSTEM\000"
 1920      4F5F4649 
 1920      4C455359 
 1920      5354454D 
 1920      00
 1921              	.LASF0:
ARM GAS  C:\Users\SUZUKI~1\AppData\Local\Temp\cchoO86G.s 			page 38


 1922 00b8 7369676E 		.ascii	"signed char\000"
 1922      65642063 
 1922      68617200 
 1923              	.LASF22:
 1924 00c4 6C617374 		.ascii	"last_clust\000"
 1924      5F636C75 
 1924      737400
 1925              	.LASF77:
 1926 00cf 53445F43 		.ascii	"SD_CloseFile\000"
 1926      6C6F7365 
 1926      46696C65 
 1926      00
 1927              	.LASF6:
 1928 00dc 6C6F6E67 		.ascii	"long long int\000"
 1928      206C6F6E 
 1928      6720696E 
 1928      7400
 1929              	.LASF36:
 1930 00ea 6F72675F 		.ascii	"org_clust\000"
 1930      636C7573 
 1930      7400
 1931              	.LASF33:
 1932 00f4 666C6167 		.ascii	"flag\000"
 1932      00
 1933              	.LASF34:
 1934 00f9 70616431 		.ascii	"pad1\000"
 1934      00
 1935              	.LASF4:
 1936 00fe 6C6F6E67 		.ascii	"long int\000"
 1936      20696E74 
 1936      00
 1937              	.LASF43:
 1938 0107 636C7573 		.ascii	"clust\000"
 1938      7400
 1939              	.LASF78:
 1940 010d 53445F4F 		.ascii	"SD_OpenFile\000"
 1940      70656E46 
 1940      696C6500 
 1941              	.LASF49:
 1942 0119 46494C49 		.ascii	"FILINFO\000"
 1942      4E464F00 
 1943              	.LASF29:
 1944 0121 64697262 		.ascii	"dirbase\000"
 1944      61736500 
 1945              	.LASF64:
 1946 0129 46525F4D 		.ascii	"FR_MKFS_ABORTED\000"
 1946      4B46535F 
 1946      41424F52 
 1946      54454400 
 1947              	.LASF87:
 1948 0139 53445F53 		.ascii	"SD_Slot1Inserted\000"
 1948      6C6F7431 
 1948      496E7365 
 1948      72746564 
 1948      00
 1949              	.LASF53:
 1950 014a 46525F4E 		.ascii	"FR_NOT_READY\000"
ARM GAS  C:\Users\SUZUKI~1\AppData\Local\Temp\cchoO86G.s 			page 39


 1950      4F545F52 
 1950      45414459 
 1950      00
 1951              	.LASF60:
 1952 0157 46525F57 		.ascii	"FR_WRITE_PROTECTED\000"
 1952      52495445 
 1952      5F50524F 
 1952      54454354 
 1952      454400
 1953              	.LASF14:
 1954 016a 44574F52 		.ascii	"DWORD\000"
 1954      4400
 1955              	.LASF20:
 1956 0170 6673695F 		.ascii	"fsi_flag\000"
 1956      666C6167 
 1956      00
 1957              	.LASF1:
 1958 0179 756E7369 		.ascii	"unsigned char\000"
 1958      676E6564 
 1958      20636861 
 1958      7200
 1959              	.LASF23:
 1960 0187 66726565 		.ascii	"free_clust\000"
 1960      5F636C75 
 1960      737400
 1961              	.LASF19:
 1962 0192 77666C61 		.ascii	"wflag\000"
 1962      6700
 1963              	.LASF82:
 1964 0198 726F6F74 		.ascii	"rootdir\000"
 1964      64697200 
 1965              	.LASF7:
 1966 01a0 6C6F6E67 		.ascii	"long long unsigned int\000"
 1966      206C6F6E 
 1966      6720756E 
 1966      7369676E 
 1966      65642069 
 1967              	.LASF8:
 1968 01b7 756E7369 		.ascii	"unsigned int\000"
 1968      676E6564 
 1968      20696E74 
 1968      00
 1969              	.LASF68:
 1970 01c4 46525F54 		.ascii	"FR_TOO_MANY_OPEN_FILES\000"
 1970      4F4F5F4D 
 1970      414E595F 
 1970      4F50454E 
 1970      5F46494C 
 1971              	.LASF79:
 1972 01db 53445F49 		.ascii	"SD_Init\000"
 1972      6E697400 
 1973              	.LASF48:
 1974 01e3 666E616D 		.ascii	"fname\000"
 1974      6500
 1975              	.LASF62:
 1976 01e9 46525F4E 		.ascii	"FR_NOT_ENABLED\000"
 1976      4F545F45 
ARM GAS  C:\Users\SUZUKI~1\AppData\Local\Temp\cchoO86G.s 			page 40


 1976      4E41424C 
 1976      454400
 1977              	.LASF40:
 1978 01f8 6469725F 		.ascii	"dir_ptr\000"
 1978      70747200 
 1979              	.LASF3:
 1980 0200 73686F72 		.ascii	"short unsigned int\000"
 1980      7420756E 
 1980      7369676E 
 1980      65642069 
 1980      6E7400
 1981              	.LASF58:
 1982 0213 46525F45 		.ascii	"FR_EXIST\000"
 1982      58495354 
 1982      00
 1983              	.LASF88:
 1984 021c 53445F43 		.ascii	"SD_Close\000"
 1984      6C6F7365 
 1984      00
 1985              	.LASF9:
 1986 0225 63686172 		.ascii	"char\000"
 1986      00
 1987              	.LASF28:
 1988 022a 66617462 		.ascii	"fatbase\000"
 1988      61736500 
 1989              	.LASF47:
 1990 0232 66617474 		.ascii	"fattrib\000"
 1990      72696200 
 1991              	.LASF85:
 1992 023a 2E5C7364 		.ascii	".\\sd.c\000"
 1992      2E6300
 1993              	.LASF59:
 1994 0241 46525F49 		.ascii	"FR_INVALID_OBJECT\000"
 1994      4E56414C 
 1994      49445F4F 
 1994      424A4543 
 1994      5400
 1995              	.LASF71:
 1996 0253 624F7065 		.ascii	"bOpen\000"
 1996      6E00
 1997              	.LASF51:
 1998 0259 46525F44 		.ascii	"FR_DISK_ERR\000"
 1998      49534B5F 
 1998      45525200 
 1999              	.LASF42:
 2000 0265 73636C75 		.ascii	"sclust\000"
 2000      737400
 2001              	.LASF32:
 2002 026c 46415446 		.ascii	"FATFS\000"
 2002      5300
 2003              	.LASF11:
 2004 0272 75696E74 		.ascii	"uint32\000"
 2004      333200
 2005              	.LASF5:
 2006 0279 6C6F6E67 		.ascii	"long unsigned int\000"
 2006      20756E73 
 2006      69676E65 
ARM GAS  C:\Users\SUZUKI~1\AppData\Local\Temp\cchoO86G.s 			page 41


 2006      6420696E 
 2006      7400
 2007              	.LASF65:
 2008 028b 46525F54 		.ascii	"FR_TIMEOUT\000"
 2008      494D454F 
 2008      555400
 2009              	.LASF80:
 2010 0296 49544D5F 		.ascii	"ITM_RxBuffer\000"
 2010      52784275 
 2010      66666572 
 2010      00
 2011              	.LASF54:
 2012 02a3 46525F4E 		.ascii	"FR_NO_FILE\000"
 2012      4F5F4649 
 2012      4C4500
 2013              	.LASF52:
 2014 02ae 46525F49 		.ascii	"FR_INT_ERR\000"
 2014      4E545F45 
 2014      525200
 2015              	.LASF27:
 2016 02b9 6673697A 		.ascii	"fsize\000"
 2016      6500
 2017              	.LASF74:
 2018 02bf 53445354 		.ascii	"SDSTATUS\000"
 2018      41545553 
 2018      00
 2019              	.LASF75:
 2020 02c8 6765745F 		.ascii	"get_fattime\000"
 2020      66617474 
 2020      696D6500 
 2021              	.LASF76:
 2022 02d4 53445F52 		.ascii	"SD_ReadLine\000"
 2022      6561644C 
 2022      696E6500 
 2023              	.LASF45:
 2024 02e0 66646174 		.ascii	"fdate\000"
 2024      6500
 2025              	.LASF61:
 2026 02e6 46525F49 		.ascii	"FR_INVALID_DRIVE\000"
 2026      4E56414C 
 2026      49445F44 
 2026      52495645 
 2026      00
 2027              	.LASF37:
 2028 02f7 63757272 		.ascii	"curr_clust\000"
 2028      5F636C75 
 2028      737400
 2029              	.LASF84:
 2030 0302 474E5520 		.ascii	"GNU C 4.4.1\000"
 2030      4320342E 
 2030      342E3100 
 2031              	.LASF24:
 2032 030e 6673695F 		.ascii	"fsi_sector\000"
 2032      73656374 
 2032      6F7200
 2033              	.LASF66:
 2034 0319 46525F4C 		.ascii	"FR_LOCKED\000"
ARM GAS  C:\Users\SUZUKI~1\AppData\Local\Temp\cchoO86G.s 			page 42


 2034      4F434B45 
 2034      4400
 2035              	.LASF31:
 2036 0323 77696E73 		.ascii	"winsect\000"
 2036      65637400 
 2037              	.LASF39:
 2038 032b 6469725F 		.ascii	"dir_sect\000"
 2038      73656374 
 2038      00
 2039              	.LASF55:
 2040 0334 46525F4E 		.ascii	"FR_NO_PATH\000"
 2040      4F5F5041 
 2040      544800
 2041              	.LASF67:
 2042 033f 46525F4E 		.ascii	"FR_NOT_ENOUGH_CORE\000"
 2042      4F545F45 
 2042      4E4F5547 
 2042      485F434F 
 2042      524500
 2043              	.LASF86:
 2044 0352 463A5C44 		.ascii	"F:\\Documents\\PSoC_Creator\\ledmatrix\\ledmatrixno"
 2044      6F63756D 
 2044      656E7473 
 2044      5C50536F 
 2044      435F4372 
 2045 0381 6E646D61 		.ascii	"ndma.cydsn\000"
 2045      2E637964 
 2045      736E00
 2046              	.LASF56:
 2047 038c 46525F49 		.ascii	"FR_INVALID_NAME\000"
 2047      4E56414C 
 2047      49445F4E 
 2047      414D4500 
 2048              	.LASF17:
 2049 039c 6373697A 		.ascii	"csize\000"
 2049      6500
 2050              	.LASF25:
 2051 03a2 63646972 		.ascii	"cdir\000"
 2051      00
 2052              		.ident	"GCC: (Sourcery G++ Lite 2010q1-188) 4.4.1"
