ARM GAS  C:\Users\SUZUKI~1\AppData\Local\Temp\cc3hAmBV.s 			page 1


   1              		.syntax unified
   2              		.cpu cortex-m3
   3              		.fpu softvfp
   4              		.eabi_attribute 20, 1
   5              		.eabi_attribute 21, 1
   6              		.eabi_attribute 23, 3
   7              		.eabi_attribute 24, 1
   8              		.eabi_attribute 25, 1
   9              		.eabi_attribute 26, 1
  10              		.eabi_attribute 30, 4
  11              		.eabi_attribute 18, 4
  12              		.thumb
  13              		.file	"addrgen2_1_addrgen.c"
  14              		.section	.debug_abbrev,"",%progbits
  15              	.Ldebug_abbrev0:
  16              		.section	.debug_info,"",%progbits
  17              	.Ldebug_info0:
  18              		.section	.debug_line,"",%progbits
  19              	.Ldebug_line0:
  20 0000 B8000000 		.text
  20      02006B00 
  20      00000201 
  20      FB0E0D00 
  20      01010101 
  21              	.Ltext0:
  22              		.cfi_sections	.debug_frame
  23              		.section	.text.addrgen2_1_Start,"ax",%progbits
  24              		.align	1
  25              		.global	addrgen2_1_Start
  26              		.thumb
  27              		.thumb_func
  28              		.type	addrgen2_1_Start, %function
  29              	addrgen2_1_Start:
  30              	.LFB0:
  31              		.file 1 ".\\Generated_Source\\PSoC5\\addrgen2_1_addrgen.c"
   1:.\Generated_Source\PSoC5/addrgen2_1_addrgen.c **** /* ========================================
   2:.\Generated_Source\PSoC5/addrgen2_1_addrgen.c ****  *
   3:.\Generated_Source\PSoC5/addrgen2_1_addrgen.c ****  * Copyright YOUR COMPANY, THE YEAR
   4:.\Generated_Source\PSoC5/addrgen2_1_addrgen.c ****  * All Rights Reserved
   5:.\Generated_Source\PSoC5/addrgen2_1_addrgen.c ****  * UNPUBLISHED, LICENSED SOFTWARE.
   6:.\Generated_Source\PSoC5/addrgen2_1_addrgen.c ****  *
   7:.\Generated_Source\PSoC5/addrgen2_1_addrgen.c ****  * CONFIDENTIAL AND PROPRIETARY INFORMATION
   8:.\Generated_Source\PSoC5/addrgen2_1_addrgen.c ****  * WHICH IS THE PROPERTY OF your company.
   9:.\Generated_Source\PSoC5/addrgen2_1_addrgen.c ****  *
  10:.\Generated_Source\PSoC5/addrgen2_1_addrgen.c ****  * ========================================
  11:.\Generated_Source\PSoC5/addrgen2_1_addrgen.c **** */
  12:.\Generated_Source\PSoC5/addrgen2_1_addrgen.c **** 
  13:.\Generated_Source\PSoC5/addrgen2_1_addrgen.c **** #include "addrgen2_1_addrgen.h"
  14:.\Generated_Source\PSoC5/addrgen2_1_addrgen.c **** 
  15:.\Generated_Source\PSoC5/addrgen2_1_addrgen.c **** void addrgen2_1_Start(void)
  16:.\Generated_Source\PSoC5/addrgen2_1_addrgen.c **** {
  32              		.loc 1 16 0
  33              		.cfi_startproc
  34              		@ args = 0, pretend = 0, frame = 0
  35              		@ frame_needed = 0, uses_anonymous_args = 0
  36              		@ link register save eliminated.
  17:.\Generated_Source\PSoC5/addrgen2_1_addrgen.c **** 	addrgen2_1_COMP_REG = 96;
ARM GAS  C:\Users\SUZUKI~1\AppData\Local\Temp\cc3hAmBV.s 			page 2


  37              		.loc 1 17 0
  38 0000 014B     		ldr	r3, .L3
  39 0002 6022     		movs	r2, #96
  40 0004 1A70     		strb	r2, [r3, #0]
  18:.\Generated_Source\PSoC5/addrgen2_1_addrgen.c **** 	return;
  19:.\Generated_Source\PSoC5/addrgen2_1_addrgen.c **** }
  41              		.loc 1 19 0
  42 0006 7047     		bx	lr
  43              	.L4:
  44              		.align	2
  45              	.L3:
  46 0008 20640040 		.word	1073767456
  47              		.cfi_endproc
  48              	.LFE0:
  49              		.size	addrgen2_1_Start, .-addrgen2_1_Start
  50              		.section	.text.addrgen2_1_Stop,"ax",%progbits
  51              		.align	1
  52              		.global	addrgen2_1_Stop
  53              		.thumb
  54              		.thumb_func
  55              		.type	addrgen2_1_Stop, %function
  56              	addrgen2_1_Stop:
  57              	.LFB1:
  20:.\Generated_Source\PSoC5/addrgen2_1_addrgen.c **** 
  21:.\Generated_Source\PSoC5/addrgen2_1_addrgen.c **** void addrgen2_1_Stop(void)
  22:.\Generated_Source\PSoC5/addrgen2_1_addrgen.c **** {
  58              		.loc 1 22 0
  59              		.cfi_startproc
  60              		@ args = 0, pretend = 0, frame = 0
  61              		@ frame_needed = 0, uses_anonymous_args = 0
  62              		@ link register save eliminated.
  23:.\Generated_Source\PSoC5/addrgen2_1_addrgen.c **** 	return;
  24:.\Generated_Source\PSoC5/addrgen2_1_addrgen.c **** }
  63              		.loc 1 24 0
  64 0000 7047     		bx	lr
  65              		.cfi_endproc
  66              	.LFE1:
  67              		.size	addrgen2_1_Stop, .-addrgen2_1_Stop
  68              		.section	.text.addrgen2_1_SetBaseAddress,"ax",%progbits
  69              		.align	1
  70              		.global	addrgen2_1_SetBaseAddress
  71              		.thumb
  72              		.thumb_func
  73              		.type	addrgen2_1_SetBaseAddress, %function
  74              	addrgen2_1_SetBaseAddress:
  75              	.LFB2:
  25:.\Generated_Source\PSoC5/addrgen2_1_addrgen.c **** 
  26:.\Generated_Source\PSoC5/addrgen2_1_addrgen.c **** void addrgen2_1_SetBaseAddress(uint16 addr)
  27:.\Generated_Source\PSoC5/addrgen2_1_addrgen.c **** {
  76              		.loc 1 27 0
  77              		.cfi_startproc
  78              		@ args = 0, pretend = 0, frame = 0
  79              		@ frame_needed = 0, uses_anonymous_args = 0
  80              		@ link register save eliminated.
  81              	.LVL0:
  28:.\Generated_Source\PSoC5/addrgen2_1_addrgen.c **** //	addrgen2_1_ADDR_BASE_0_REG = addr;
  29:.\Generated_Source\PSoC5/addrgen2_1_addrgen.c **** /*	addrgen2_1_ADDR_BASE_1_REG = addr>>4;
ARM GAS  C:\Users\SUZUKI~1\AppData\Local\Temp\cc3hAmBV.s 			page 3


  30:.\Generated_Source\PSoC5/addrgen2_1_addrgen.c **** 	addrgen2_1_ADDR_BASE_2_REG = addr>>8;
  31:.\Generated_Source\PSoC5/addrgen2_1_addrgen.c **** 	addrgen2_1_ADDR_BASE_3_REG = addr>>12;*/
  32:.\Generated_Source\PSoC5/addrgen2_1_addrgen.c **** 	addrgen2_1_ADDR_BASE_HI_REG = addr>>8;
  82              		.loc 1 32 0
  83 0000 034B     		ldr	r3, .L9
  84 0002 020A     		lsrs	r2, r0, #8
  85 0004 1A70     		strb	r2, [r3, #0]
  33:.\Generated_Source\PSoC5/addrgen2_1_addrgen.c **** 	addrgen2_1_ADDR_BASE_LO_REG = addr;
  86              		.loc 1 33 0
  87 0006 C0B2     		uxtb	r0, r0
  88              	.LVL1:
  89 0008 013B     		subs	r3, r3, #1
  90 000a 1870     		strb	r0, [r3, #0]
  34:.\Generated_Source\PSoC5/addrgen2_1_addrgen.c **** 	return;
  35:.\Generated_Source\PSoC5/addrgen2_1_addrgen.c **** }
  91              		.loc 1 35 0
  92 000c 7047     		bx	lr
  93              	.L10:
  94 000e 00BF     		.align	2
  95              	.L9:
  96 0010 1F640040 		.word	1073767455
  97              		.cfi_endproc
  98              	.LFE2:
  99              		.size	addrgen2_1_SetBaseAddress, .-addrgen2_1_SetBaseAddress
 100              		.section	.text.addrgen2_1_GetBaseAddress,"ax",%progbits
 101              		.align	1
 102              		.global	addrgen2_1_GetBaseAddress
 103              		.thumb
 104              		.thumb_func
 105              		.type	addrgen2_1_GetBaseAddress, %function
 106              	addrgen2_1_GetBaseAddress:
 107              	.LFB3:
  36:.\Generated_Source\PSoC5/addrgen2_1_addrgen.c **** 
  37:.\Generated_Source\PSoC5/addrgen2_1_addrgen.c **** uint16 addrgen2_1_GetBaseAddress(void)
  38:.\Generated_Source\PSoC5/addrgen2_1_addrgen.c **** {
 108              		.loc 1 38 0
 109              		.cfi_startproc
 110              		@ args = 0, pretend = 0, frame = 0
 111              		@ frame_needed = 0, uses_anonymous_args = 0
 112              		@ link register save eliminated.
  39:.\Generated_Source\PSoC5/addrgen2_1_addrgen.c **** 	uint16 addr;
  40:.\Generated_Source\PSoC5/addrgen2_1_addrgen.c **** /*
  41:.\Generated_Source\PSoC5/addrgen2_1_addrgen.c **** 	addr = addrgen2_1_ADDR_BASE_3_REG;
  42:.\Generated_Source\PSoC5/addrgen2_1_addrgen.c **** 	addr <<= 4;
  43:.\Generated_Source\PSoC5/addrgen2_1_addrgen.c **** 	addr |= (addrgen2_1_ADDR_BASE_2_REG & 0x0f);
  44:.\Generated_Source\PSoC5/addrgen2_1_addrgen.c **** 	addr <<= 4;
  45:.\Generated_Source\PSoC5/addrgen2_1_addrgen.c **** 	addr |= (addrgen2_1_ADDR_BASE_1_REG & 0x0f);
  46:.\Generated_Source\PSoC5/addrgen2_1_addrgen.c **** 	addr <<= 4;*/
  47:.\Generated_Source\PSoC5/addrgen2_1_addrgen.c **** 	addr = addrgen2_1_ADDR_BASE_HI_REG;
 113              		.loc 1 47 0
 114 0000 034B     		ldr	r3, .L13
 115 0002 1878     		ldrb	r0, [r3, #0]	@ zero_extendqisi2
  48:.\Generated_Source\PSoC5/addrgen2_1_addrgen.c **** 	addr <<= 8;
  49:.\Generated_Source\PSoC5/addrgen2_1_addrgen.c **** 	addr |= addrgen2_1_ADDR_BASE_LO_REG;
 116              		.loc 1 49 0
 117 0004 013B     		subs	r3, r3, #1
 118 0006 1B78     		ldrb	r3, [r3, #0]	@ zero_extendqisi2
ARM GAS  C:\Users\SUZUKI~1\AppData\Local\Temp\cc3hAmBV.s 			page 4


  50:.\Generated_Source\PSoC5/addrgen2_1_addrgen.c **** //	addr |= (addrgen2_1_ADDR_BASE_0_REG & 0x0f);
  51:.\Generated_Source\PSoC5/addrgen2_1_addrgen.c **** 	return(addr);
  52:.\Generated_Source\PSoC5/addrgen2_1_addrgen.c **** }
 119              		.loc 1 52 0
 120 0008 43EA0020 		orr	r0, r3, r0, lsl #8
 121 000c 7047     		bx	lr
 122              	.L14:
 123 000e 00BF     		.align	2
 124              	.L13:
 125 0010 1F640040 		.word	1073767455
 126              		.cfi_endproc
 127              	.LFE3:
 128              		.size	addrgen2_1_GetBaseAddress, .-addrgen2_1_GetBaseAddress
 129              		.text
 130              	.Letext0:
 131              		.section	.debug_loc,"",%progbits
 132              	.Ldebug_loc0:
 133              	.LLST3:
 134 0000 00000000 		.4byte	.LVL0
 135 0004 08000000 		.4byte	.LVL1
 136 0008 0100     		.2byte	0x1
 137 000a 50       		.byte	0x50
 138 000b 00000000 		.4byte	0x0
 139 000f 00000000 		.4byte	0x0
 140              		.file 2 ".\\Generated_Source\\PSoC5\\/cytypes.h"
 141              		.section	.debug_info
 142 0000 EE000000 		.4byte	0xee
 143 0004 0200     		.2byte	0x2
 144 0006 00000000 		.4byte	.Ldebug_abbrev0
 145 000a 04       		.byte	0x4
 146 000b 01       		.uleb128 0x1
 147 000c DC000000 		.4byte	.LASF14
 148 0010 01       		.byte	0x1
 149 0011 FE000000 		.4byte	.LASF15
 150 0015 46000000 		.4byte	.LASF16
 151 0019 00000000 		.4byte	0x0
 152 001d 00000000 		.4byte	0x0
 153 0021 00000000 		.4byte	.Ldebug_ranges0+0x0
 154 0025 00000000 		.4byte	.Ldebug_line0
 155 0029 02       		.uleb128 0x2
 156 002a 01       		.byte	0x1
 157 002b 06       		.byte	0x6
 158 002c 4F010000 		.4byte	.LASF0
 159 0030 02       		.uleb128 0x2
 160 0031 01       		.byte	0x1
 161 0032 08       		.byte	0x8
 162 0033 13000000 		.4byte	.LASF1
 163 0037 02       		.uleb128 0x2
 164 0038 02       		.byte	0x2
 165 0039 05       		.byte	0x5
 166 003a 7D000000 		.4byte	.LASF2
 167 003e 02       		.uleb128 0x2
 168 003f 02       		.byte	0x2
 169 0040 07       		.byte	0x7
 170 0041 33000000 		.4byte	.LASF3
 171 0045 02       		.uleb128 0x2
 172 0046 04       		.byte	0x4
ARM GAS  C:\Users\SUZUKI~1\AppData\Local\Temp\cc3hAmBV.s 			page 5


 173 0047 05       		.byte	0x5
 174 0048 46010000 		.4byte	.LASF4
 175 004c 02       		.uleb128 0x2
 176 004d 04       		.byte	0x4
 177 004e 07       		.byte	0x7
 178 004f 21000000 		.4byte	.LASF5
 179 0053 02       		.uleb128 0x2
 180 0054 08       		.byte	0x8
 181 0055 05       		.byte	0x5
 182 0056 00000000 		.4byte	.LASF6
 183 005a 02       		.uleb128 0x2
 184 005b 08       		.byte	0x8
 185 005c 07       		.byte	0x7
 186 005d AB000000 		.4byte	.LASF7
 187 0061 03       		.uleb128 0x3
 188 0062 04       		.byte	0x4
 189 0063 05       		.byte	0x5
 190 0064 696E7400 		.ascii	"int\000"
 191 0068 02       		.uleb128 0x2
 192 0069 04       		.byte	0x4
 193 006a 07       		.byte	0x7
 194 006b 9E000000 		.4byte	.LASF8
 195 006f 02       		.uleb128 0x2
 196 0070 01       		.byte	0x1
 197 0071 08       		.byte	0x8
 198 0072 E8000000 		.4byte	.LASF9
 199 0076 04       		.uleb128 0x4
 200 0077 87000000 		.4byte	.LASF17
 201 007b 02       		.byte	0x2
 202 007c 61       		.byte	0x61
 203 007d 3E000000 		.4byte	0x3e
 204 0081 05       		.uleb128 0x5
 205 0082 01       		.byte	0x1
 206 0083 ED000000 		.4byte	.LASF10
 207 0087 01       		.byte	0x1
 208 0088 0F       		.byte	0xf
 209 0089 01       		.byte	0x1
 210 008a 00000000 		.4byte	.LFB0
 211 008e 0C000000 		.4byte	.LFE0
 212 0092 01       		.byte	0x1
 213 0093 5D       		.byte	0x5d
 214 0094 05       		.uleb128 0x5
 215 0095 01       		.byte	0x1
 216 0096 8E000000 		.4byte	.LASF11
 217 009a 01       		.byte	0x1
 218 009b 15       		.byte	0x15
 219 009c 01       		.byte	0x1
 220 009d 00000000 		.4byte	.LFB1
 221 00a1 02000000 		.4byte	.LFE1
 222 00a5 01       		.byte	0x1
 223 00a6 5D       		.byte	0x5d
 224 00a7 06       		.uleb128 0x6
 225 00a8 01       		.byte	0x1
 226 00a9 C2000000 		.4byte	.LASF12
 227 00ad 01       		.byte	0x1
 228 00ae 1A       		.byte	0x1a
 229 00af 01       		.byte	0x1
ARM GAS  C:\Users\SUZUKI~1\AppData\Local\Temp\cc3hAmBV.s 			page 6


 230 00b0 00000000 		.4byte	.LFB2
 231 00b4 14000000 		.4byte	.LFE2
 232 00b8 01       		.byte	0x1
 233 00b9 5D       		.byte	0x5d
 234 00ba CE000000 		.4byte	0xce
 235 00be 07       		.uleb128 0x7
 236 00bf 0E000000 		.4byte	.LASF18
 237 00c3 01       		.byte	0x1
 238 00c4 1A       		.byte	0x1a
 239 00c5 76000000 		.4byte	0x76
 240 00c9 00000000 		.4byte	.LLST3
 241 00cd 00       		.byte	0x0
 242 00ce 08       		.uleb128 0x8
 243 00cf 01       		.byte	0x1
 244 00d0 2C010000 		.4byte	.LASF13
 245 00d4 01       		.byte	0x1
 246 00d5 25       		.byte	0x25
 247 00d6 01       		.byte	0x1
 248 00d7 76000000 		.4byte	0x76
 249 00db 00000000 		.4byte	.LFB3
 250 00df 14000000 		.4byte	.LFE3
 251 00e3 01       		.byte	0x1
 252 00e4 5D       		.byte	0x5d
 253 00e5 09       		.uleb128 0x9
 254 00e6 0E000000 		.4byte	.LASF18
 255 00ea 01       		.byte	0x1
 256 00eb 27       		.byte	0x27
 257 00ec 76000000 		.4byte	0x76
 258 00f0 00       		.byte	0x0
 259 00f1 00       		.byte	0x0
 260              		.section	.debug_abbrev
 261 0000 01       		.uleb128 0x1
 262 0001 11       		.uleb128 0x11
 263 0002 01       		.byte	0x1
 264 0003 25       		.uleb128 0x25
 265 0004 0E       		.uleb128 0xe
 266 0005 13       		.uleb128 0x13
 267 0006 0B       		.uleb128 0xb
 268 0007 03       		.uleb128 0x3
 269 0008 0E       		.uleb128 0xe
 270 0009 1B       		.uleb128 0x1b
 271 000a 0E       		.uleb128 0xe
 272 000b 11       		.uleb128 0x11
 273 000c 01       		.uleb128 0x1
 274 000d 52       		.uleb128 0x52
 275 000e 01       		.uleb128 0x1
 276 000f 55       		.uleb128 0x55
 277 0010 06       		.uleb128 0x6
 278 0011 10       		.uleb128 0x10
 279 0012 06       		.uleb128 0x6
 280 0013 00       		.byte	0x0
 281 0014 00       		.byte	0x0
 282 0015 02       		.uleb128 0x2
 283 0016 24       		.uleb128 0x24
 284 0017 00       		.byte	0x0
 285 0018 0B       		.uleb128 0xb
 286 0019 0B       		.uleb128 0xb
ARM GAS  C:\Users\SUZUKI~1\AppData\Local\Temp\cc3hAmBV.s 			page 7


 287 001a 3E       		.uleb128 0x3e
 288 001b 0B       		.uleb128 0xb
 289 001c 03       		.uleb128 0x3
 290 001d 0E       		.uleb128 0xe
 291 001e 00       		.byte	0x0
 292 001f 00       		.byte	0x0
 293 0020 03       		.uleb128 0x3
 294 0021 24       		.uleb128 0x24
 295 0022 00       		.byte	0x0
 296 0023 0B       		.uleb128 0xb
 297 0024 0B       		.uleb128 0xb
 298 0025 3E       		.uleb128 0x3e
 299 0026 0B       		.uleb128 0xb
 300 0027 03       		.uleb128 0x3
 301 0028 08       		.uleb128 0x8
 302 0029 00       		.byte	0x0
 303 002a 00       		.byte	0x0
 304 002b 04       		.uleb128 0x4
 305 002c 16       		.uleb128 0x16
 306 002d 00       		.byte	0x0
 307 002e 03       		.uleb128 0x3
 308 002f 0E       		.uleb128 0xe
 309 0030 3A       		.uleb128 0x3a
 310 0031 0B       		.uleb128 0xb
 311 0032 3B       		.uleb128 0x3b
 312 0033 0B       		.uleb128 0xb
 313 0034 49       		.uleb128 0x49
 314 0035 13       		.uleb128 0x13
 315 0036 00       		.byte	0x0
 316 0037 00       		.byte	0x0
 317 0038 05       		.uleb128 0x5
 318 0039 2E       		.uleb128 0x2e
 319 003a 00       		.byte	0x0
 320 003b 3F       		.uleb128 0x3f
 321 003c 0C       		.uleb128 0xc
 322 003d 03       		.uleb128 0x3
 323 003e 0E       		.uleb128 0xe
 324 003f 3A       		.uleb128 0x3a
 325 0040 0B       		.uleb128 0xb
 326 0041 3B       		.uleb128 0x3b
 327 0042 0B       		.uleb128 0xb
 328 0043 27       		.uleb128 0x27
 329 0044 0C       		.uleb128 0xc
 330 0045 11       		.uleb128 0x11
 331 0046 01       		.uleb128 0x1
 332 0047 12       		.uleb128 0x12
 333 0048 01       		.uleb128 0x1
 334 0049 40       		.uleb128 0x40
 335 004a 0A       		.uleb128 0xa
 336 004b 00       		.byte	0x0
 337 004c 00       		.byte	0x0
 338 004d 06       		.uleb128 0x6
 339 004e 2E       		.uleb128 0x2e
 340 004f 01       		.byte	0x1
 341 0050 3F       		.uleb128 0x3f
 342 0051 0C       		.uleb128 0xc
 343 0052 03       		.uleb128 0x3
ARM GAS  C:\Users\SUZUKI~1\AppData\Local\Temp\cc3hAmBV.s 			page 8


 344 0053 0E       		.uleb128 0xe
 345 0054 3A       		.uleb128 0x3a
 346 0055 0B       		.uleb128 0xb
 347 0056 3B       		.uleb128 0x3b
 348 0057 0B       		.uleb128 0xb
 349 0058 27       		.uleb128 0x27
 350 0059 0C       		.uleb128 0xc
 351 005a 11       		.uleb128 0x11
 352 005b 01       		.uleb128 0x1
 353 005c 12       		.uleb128 0x12
 354 005d 01       		.uleb128 0x1
 355 005e 40       		.uleb128 0x40
 356 005f 0A       		.uleb128 0xa
 357 0060 01       		.uleb128 0x1
 358 0061 13       		.uleb128 0x13
 359 0062 00       		.byte	0x0
 360 0063 00       		.byte	0x0
 361 0064 07       		.uleb128 0x7
 362 0065 05       		.uleb128 0x5
 363 0066 00       		.byte	0x0
 364 0067 03       		.uleb128 0x3
 365 0068 0E       		.uleb128 0xe
 366 0069 3A       		.uleb128 0x3a
 367 006a 0B       		.uleb128 0xb
 368 006b 3B       		.uleb128 0x3b
 369 006c 0B       		.uleb128 0xb
 370 006d 49       		.uleb128 0x49
 371 006e 13       		.uleb128 0x13
 372 006f 02       		.uleb128 0x2
 373 0070 06       		.uleb128 0x6
 374 0071 00       		.byte	0x0
 375 0072 00       		.byte	0x0
 376 0073 08       		.uleb128 0x8
 377 0074 2E       		.uleb128 0x2e
 378 0075 01       		.byte	0x1
 379 0076 3F       		.uleb128 0x3f
 380 0077 0C       		.uleb128 0xc
 381 0078 03       		.uleb128 0x3
 382 0079 0E       		.uleb128 0xe
 383 007a 3A       		.uleb128 0x3a
 384 007b 0B       		.uleb128 0xb
 385 007c 3B       		.uleb128 0x3b
 386 007d 0B       		.uleb128 0xb
 387 007e 27       		.uleb128 0x27
 388 007f 0C       		.uleb128 0xc
 389 0080 49       		.uleb128 0x49
 390 0081 13       		.uleb128 0x13
 391 0082 11       		.uleb128 0x11
 392 0083 01       		.uleb128 0x1
 393 0084 12       		.uleb128 0x12
 394 0085 01       		.uleb128 0x1
 395 0086 40       		.uleb128 0x40
 396 0087 0A       		.uleb128 0xa
 397 0088 00       		.byte	0x0
 398 0089 00       		.byte	0x0
 399 008a 09       		.uleb128 0x9
 400 008b 34       		.uleb128 0x34
ARM GAS  C:\Users\SUZUKI~1\AppData\Local\Temp\cc3hAmBV.s 			page 9


 401 008c 00       		.byte	0x0
 402 008d 03       		.uleb128 0x3
 403 008e 0E       		.uleb128 0xe
 404 008f 3A       		.uleb128 0x3a
 405 0090 0B       		.uleb128 0xb
 406 0091 3B       		.uleb128 0x3b
 407 0092 0B       		.uleb128 0xb
 408 0093 49       		.uleb128 0x49
 409 0094 13       		.uleb128 0x13
 410 0095 00       		.byte	0x0
 411 0096 00       		.byte	0x0
 412 0097 00       		.byte	0x0
 413              		.section	.debug_pubnames,"",%progbits
 414 0000 73000000 		.4byte	0x73
 415 0004 0200     		.2byte	0x2
 416 0006 00000000 		.4byte	.Ldebug_info0
 417 000a F2000000 		.4byte	0xf2
 418 000e 81000000 		.4byte	0x81
 419 0012 61646472 		.ascii	"addrgen2_1_Start\000"
 419      67656E32 
 419      5F315F53 
 419      74617274 
 419      00
 420 0023 94000000 		.4byte	0x94
 421 0027 61646472 		.ascii	"addrgen2_1_Stop\000"
 421      67656E32 
 421      5F315F53 
 421      746F7000 
 422 0037 A7000000 		.4byte	0xa7
 423 003b 61646472 		.ascii	"addrgen2_1_SetBaseAddress\000"
 423      67656E32 
 423      5F315F53 
 423      65744261 
 423      73654164 
 424 0055 CE000000 		.4byte	0xce
 425 0059 61646472 		.ascii	"addrgen2_1_GetBaseAddress\000"
 425      67656E32 
 425      5F315F47 
 425      65744261 
 425      73654164 
 426 0073 00000000 		.4byte	0x0
 427              		.section	.debug_aranges,"",%progbits
 428 0000 34000000 		.4byte	0x34
 429 0004 0200     		.2byte	0x2
 430 0006 00000000 		.4byte	.Ldebug_info0
 431 000a 04       		.byte	0x4
 432 000b 00       		.byte	0x0
 433 000c 0000     		.2byte	0x0
 434 000e 0000     		.2byte	0x0
 435 0010 00000000 		.4byte	.LFB0
 436 0014 0C000000 		.4byte	.LFE0-.LFB0
 437 0018 00000000 		.4byte	.LFB1
 438 001c 02000000 		.4byte	.LFE1-.LFB1
 439 0020 00000000 		.4byte	.LFB2
 440 0024 14000000 		.4byte	.LFE2-.LFB2
 441 0028 00000000 		.4byte	.LFB3
 442 002c 14000000 		.4byte	.LFE3-.LFB3
ARM GAS  C:\Users\SUZUKI~1\AppData\Local\Temp\cc3hAmBV.s 			page 10


 443 0030 00000000 		.4byte	0x0
 444 0034 00000000 		.4byte	0x0
 445              		.section	.debug_ranges,"",%progbits
 446              	.Ldebug_ranges0:
 447 0000 00000000 		.4byte	.Ltext0
 448 0004 00000000 		.4byte	.Letext0
 449 0008 00000000 		.4byte	.LFB0
 450 000c 0C000000 		.4byte	.LFE0
 451 0010 00000000 		.4byte	.LFB1
 452 0014 02000000 		.4byte	.LFE1
 453 0018 00000000 		.4byte	.LFB2
 454 001c 14000000 		.4byte	.LFE2
 455 0020 00000000 		.4byte	.LFB3
 456 0024 14000000 		.4byte	.LFE3
 457 0028 00000000 		.4byte	0x0
 458 002c 00000000 		.4byte	0x0
 459              		.section	.debug_str,"MS",%progbits,1
 460              	.LASF6:
 461 0000 6C6F6E67 		.ascii	"long long int\000"
 461      206C6F6E 
 461      6720696E 
 461      7400
 462              	.LASF18:
 463 000e 61646472 		.ascii	"addr\000"
 463      00
 464              	.LASF1:
 465 0013 756E7369 		.ascii	"unsigned char\000"
 465      676E6564 
 465      20636861 
 465      7200
 466              	.LASF5:
 467 0021 6C6F6E67 		.ascii	"long unsigned int\000"
 467      20756E73 
 467      69676E65 
 467      6420696E 
 467      7400
 468              	.LASF3:
 469 0033 73686F72 		.ascii	"short unsigned int\000"
 469      7420756E 
 469      7369676E 
 469      65642069 
 469      6E7400
 470              	.LASF16:
 471 0046 463A5C44 		.ascii	"F:\\Documents\\PSoC_Creator\\ledmatrix\\ledmatrixdm"
 471      6F63756D 
 471      656E7473 
 471      5C50536F 
 471      435F4372 
 472 0075 612E6379 		.ascii	"a.cydsn\000"
 472      64736E00 
 473              	.LASF2:
 474 007d 73686F72 		.ascii	"short int\000"
 474      7420696E 
 474      7400
 475              	.LASF17:
 476 0087 75696E74 		.ascii	"uint16\000"
 476      313600
ARM GAS  C:\Users\SUZUKI~1\AppData\Local\Temp\cc3hAmBV.s 			page 11


 477              	.LASF11:
 478 008e 61646472 		.ascii	"addrgen2_1_Stop\000"
 478      67656E32 
 478      5F315F53 
 478      746F7000 
 479              	.LASF8:
 480 009e 756E7369 		.ascii	"unsigned int\000"
 480      676E6564 
 480      20696E74 
 480      00
 481              	.LASF7:
 482 00ab 6C6F6E67 		.ascii	"long long unsigned int\000"
 482      206C6F6E 
 482      6720756E 
 482      7369676E 
 482      65642069 
 483              	.LASF12:
 484 00c2 61646472 		.ascii	"addrgen2_1_SetBaseAddress\000"
 484      67656E32 
 484      5F315F53 
 484      65744261 
 484      73654164 
 485              	.LASF14:
 486 00dc 474E5520 		.ascii	"GNU C 4.4.1\000"
 486      4320342E 
 486      342E3100 
 487              	.LASF9:
 488 00e8 63686172 		.ascii	"char\000"
 488      00
 489              	.LASF10:
 490 00ed 61646472 		.ascii	"addrgen2_1_Start\000"
 490      67656E32 
 490      5F315F53 
 490      74617274 
 490      00
 491              	.LASF15:
 492 00fe 2E5C4765 		.ascii	".\\Generated_Source\\PSoC5\\addrgen2_1_addrgen.c\000"
 492      6E657261 
 492      7465645F 
 492      536F7572 
 492      63655C50 
 493              	.LASF13:
 494 012c 61646472 		.ascii	"addrgen2_1_GetBaseAddress\000"
 494      67656E32 
 494      5F315F47 
 494      65744261 
 494      73654164 
 495              	.LASF4:
 496 0146 6C6F6E67 		.ascii	"long int\000"
 496      20696E74 
 496      00
 497              	.LASF0:
 498 014f 7369676E 		.ascii	"signed char\000"
 498      65642063 
 498      68617200 
 499              		.ident	"GCC: (Sourcery G++ Lite 2010q1-188) 4.4.1"
