ARM GAS  C:\Users\SUZUKI~1\AppData\Local\Temp\ccJjJfIZ.s 			page 1


   1              		.syntax unified
   2              		.cpu cortex-m3
   3              		.fpu softvfp
   4              		.eabi_attribute 20, 1
   5              		.eabi_attribute 21, 1
   6              		.eabi_attribute 23, 3
   7              		.eabi_attribute 24, 1
   8              		.eabi_attribute 25, 1
   9              		.eabi_attribute 26, 1
  10              		.eabi_attribute 30, 4
  11              		.eabi_attribute 18, 4
  12              		.thumb
  13              		.file	"Debugpdata.c"
  14              		.section	.debug_abbrev,"",%progbits
  15              	.Ldebug_abbrev0:
  16              		.section	.debug_info,"",%progbits
  17              	.Ldebug_info0:
  18              		.section	.debug_line,"",%progbits
  19              	.Ldebug_line0:
  20 0000 8B000000 		.text
  20      02006300 
  20      00000201 
  20      FB0E0D00 
  20      01010101 
  21              	.Ltext0:
  22              		.cfi_sections	.debug_frame
  23              		.section	.text.Debugpdata_Write,"ax",%progbits
  24              		.align	1
  25              		.global	Debugpdata_Write
  26              		.thumb
  27              		.thumb_func
  28              		.type	Debugpdata_Write, %function
  29              	Debugpdata_Write:
  30              	.LFB0:
  31              		.file 1 ".\\Generated_Source\\PSoC5\\Debugpdata.c"
   1:.\Generated_Source\PSoC5/Debugpdata.c **** /*******************************************************************************
   2:.\Generated_Source\PSoC5/Debugpdata.c **** * File Name: Debugpdata.c  
   3:.\Generated_Source\PSoC5/Debugpdata.c **** * Version 1.70
   4:.\Generated_Source\PSoC5/Debugpdata.c **** *
   5:.\Generated_Source\PSoC5/Debugpdata.c **** * Description:
   6:.\Generated_Source\PSoC5/Debugpdata.c **** *  This file contains API to enable firmware control of a Control Register.
   7:.\Generated_Source\PSoC5/Debugpdata.c **** *
   8:.\Generated_Source\PSoC5/Debugpdata.c **** * Note:
   9:.\Generated_Source\PSoC5/Debugpdata.c **** *
  10:.\Generated_Source\PSoC5/Debugpdata.c **** ********************************************************************************
  11:.\Generated_Source\PSoC5/Debugpdata.c **** * Copyright 2008-2012, Cypress Semiconductor Corporation.  All rights reserved.
  12:.\Generated_Source\PSoC5/Debugpdata.c **** * You may use this file only in accordance with the license, terms, conditions, 
  13:.\Generated_Source\PSoC5/Debugpdata.c **** * disclaimers, and limitations in the end user license agreement accompanying 
  14:.\Generated_Source\PSoC5/Debugpdata.c **** * the software package with which this file was provided.
  15:.\Generated_Source\PSoC5/Debugpdata.c **** *******************************************************************************/
  16:.\Generated_Source\PSoC5/Debugpdata.c **** 
  17:.\Generated_Source\PSoC5/Debugpdata.c **** #include "Debugpdata.h"
  18:.\Generated_Source\PSoC5/Debugpdata.c **** 
  19:.\Generated_Source\PSoC5/Debugpdata.c **** #if !defined(Debugpdata_Async_ctrl_reg__REMOVED) /* Check for removal by optimization */
  20:.\Generated_Source\PSoC5/Debugpdata.c **** 
  21:.\Generated_Source\PSoC5/Debugpdata.c **** /*******************************************************************************
  22:.\Generated_Source\PSoC5/Debugpdata.c **** * Function Name: Debugpdata_Write
ARM GAS  C:\Users\SUZUKI~1\AppData\Local\Temp\ccJjJfIZ.s 			page 2


  23:.\Generated_Source\PSoC5/Debugpdata.c **** ********************************************************************************
  24:.\Generated_Source\PSoC5/Debugpdata.c **** *
  25:.\Generated_Source\PSoC5/Debugpdata.c **** * Summary:
  26:.\Generated_Source\PSoC5/Debugpdata.c **** *  Write a byte to the Control Register.
  27:.\Generated_Source\PSoC5/Debugpdata.c **** *
  28:.\Generated_Source\PSoC5/Debugpdata.c **** * Parameters:
  29:.\Generated_Source\PSoC5/Debugpdata.c **** *  control:  The value to be assigned to the Control Register.
  30:.\Generated_Source\PSoC5/Debugpdata.c **** *
  31:.\Generated_Source\PSoC5/Debugpdata.c **** * Return:
  32:.\Generated_Source\PSoC5/Debugpdata.c **** *  None.
  33:.\Generated_Source\PSoC5/Debugpdata.c **** *
  34:.\Generated_Source\PSoC5/Debugpdata.c **** *******************************************************************************/
  35:.\Generated_Source\PSoC5/Debugpdata.c **** void Debugpdata_Write(uint8 control) 
  36:.\Generated_Source\PSoC5/Debugpdata.c **** {
  32              		.loc 1 36 0
  33              		.cfi_startproc
  34              		@ args = 0, pretend = 0, frame = 0
  35              		@ frame_needed = 0, uses_anonymous_args = 0
  36              		@ link register save eliminated.
  37              	.LVL0:
  37:.\Generated_Source\PSoC5/Debugpdata.c ****     Debugpdata_Control = control;
  38              		.loc 1 37 0
  39 0000 014B     		ldr	r3, .L3
  40 0002 1870     		strb	r0, [r3, #0]
  38:.\Generated_Source\PSoC5/Debugpdata.c **** }
  41              		.loc 1 38 0
  42 0004 7047     		bx	lr
  43              	.L4:
  44 0006 00BF     		.align	2
  45              	.L3:
  46 0008 7E640040 		.word	1073767550
  47              		.cfi_endproc
  48              	.LFE0:
  49              		.size	Debugpdata_Write, .-Debugpdata_Write
  50              		.section	.text.Debugpdata_Read,"ax",%progbits
  51              		.align	1
  52              		.global	Debugpdata_Read
  53              		.thumb
  54              		.thumb_func
  55              		.type	Debugpdata_Read, %function
  56              	Debugpdata_Read:
  57              	.LFB1:
  39:.\Generated_Source\PSoC5/Debugpdata.c **** 
  40:.\Generated_Source\PSoC5/Debugpdata.c **** 
  41:.\Generated_Source\PSoC5/Debugpdata.c **** /*******************************************************************************
  42:.\Generated_Source\PSoC5/Debugpdata.c **** * Function Name: Debugpdata_Read
  43:.\Generated_Source\PSoC5/Debugpdata.c **** ********************************************************************************
  44:.\Generated_Source\PSoC5/Debugpdata.c **** *
  45:.\Generated_Source\PSoC5/Debugpdata.c **** * Summary:
  46:.\Generated_Source\PSoC5/Debugpdata.c **** *  Reads the current value assigned to the Control Register.
  47:.\Generated_Source\PSoC5/Debugpdata.c **** *
  48:.\Generated_Source\PSoC5/Debugpdata.c **** * Parameters:
  49:.\Generated_Source\PSoC5/Debugpdata.c **** *  None.
  50:.\Generated_Source\PSoC5/Debugpdata.c **** *
  51:.\Generated_Source\PSoC5/Debugpdata.c **** * Return:
  52:.\Generated_Source\PSoC5/Debugpdata.c **** *  Returns the current value in the Control Register.
  53:.\Generated_Source\PSoC5/Debugpdata.c **** *
ARM GAS  C:\Users\SUZUKI~1\AppData\Local\Temp\ccJjJfIZ.s 			page 3


  54:.\Generated_Source\PSoC5/Debugpdata.c **** *******************************************************************************/
  55:.\Generated_Source\PSoC5/Debugpdata.c **** uint8 Debugpdata_Read(void) 
  56:.\Generated_Source\PSoC5/Debugpdata.c **** {
  58              		.loc 1 56 0
  59              		.cfi_startproc
  60              		@ args = 0, pretend = 0, frame = 0
  61              		@ frame_needed = 0, uses_anonymous_args = 0
  62              		@ link register save eliminated.
  57:.\Generated_Source\PSoC5/Debugpdata.c ****     return Debugpdata_Control;
  63              		.loc 1 57 0
  64 0000 014B     		ldr	r3, .L7
  65 0002 1878     		ldrb	r0, [r3, #0]	@ zero_extendqisi2
  58:.\Generated_Source\PSoC5/Debugpdata.c **** }
  66              		.loc 1 58 0
  67 0004 7047     		bx	lr
  68              	.L8:
  69 0006 00BF     		.align	2
  70              	.L7:
  71 0008 7E640040 		.word	1073767550
  72              		.cfi_endproc
  73              	.LFE1:
  74              		.size	Debugpdata_Read, .-Debugpdata_Read
  75              		.text
  76              	.Letext0:
  77              		.file 2 ".\\Generated_Source\\PSoC5\\/cytypes.h"
  78              		.section	.debug_info
  79 0000 BA000000 		.4byte	0xba
  80 0004 0200     		.2byte	0x2
  81 0006 00000000 		.4byte	.Ldebug_abbrev0
  82 000a 04       		.byte	0x4
  83 000b 01       		.uleb128 0x1
  84 000c B5000000 		.4byte	.LASF10
  85 0010 01       		.byte	0x1
  86 0011 FB000000 		.4byte	.LASF11
  87 0015 49000000 		.4byte	.LASF12
  88 0019 00000000 		.4byte	0x0
  89 001d 00000000 		.4byte	0x0
  90 0021 00000000 		.4byte	.Ldebug_ranges0+0x0
  91 0025 00000000 		.4byte	.Ldebug_line0
  92 0029 02       		.uleb128 0x2
  93 002a 01       		.byte	0x1
  94 002b 06       		.byte	0x6
  95 002c EF000000 		.4byte	.LASF0
  96 0030 02       		.uleb128 0x2
  97 0031 01       		.byte	0x1
  98 0032 08       		.byte	0x8
  99 0033 0E000000 		.4byte	.LASF1
 100 0037 02       		.uleb128 0x2
 101 0038 02       		.byte	0x2
 102 0039 05       		.byte	0x5
 103 003a D6000000 		.4byte	.LASF2
 104 003e 02       		.uleb128 0x2
 105 003f 02       		.byte	0x2
 106 0040 07       		.byte	0x7
 107 0041 2E000000 		.4byte	.LASF3
 108 0045 02       		.uleb128 0x2
 109 0046 04       		.byte	0x4
ARM GAS  C:\Users\SUZUKI~1\AppData\Local\Temp\ccJjJfIZ.s 			page 4


 110 0047 05       		.byte	0x5
 111 0048 E6000000 		.4byte	.LASF4
 112 004c 02       		.uleb128 0x2
 113 004d 04       		.byte	0x4
 114 004e 07       		.byte	0x7
 115 004f 1C000000 		.4byte	.LASF5
 116 0053 02       		.uleb128 0x2
 117 0054 08       		.byte	0x8
 118 0055 05       		.byte	0x5
 119 0056 00000000 		.4byte	.LASF6
 120 005a 02       		.uleb128 0x2
 121 005b 08       		.byte	0x8
 122 005c 07       		.byte	0x7
 123 005d 8D000000 		.4byte	.LASF7
 124 0061 03       		.uleb128 0x3
 125 0062 04       		.byte	0x4
 126 0063 05       		.byte	0x5
 127 0064 696E7400 		.ascii	"int\000"
 128 0068 02       		.uleb128 0x2
 129 0069 04       		.byte	0x4
 130 006a 07       		.byte	0x7
 131 006b 80000000 		.4byte	.LASF8
 132 006f 02       		.uleb128 0x2
 133 0070 01       		.byte	0x1
 134 0071 08       		.byte	0x8
 135 0072 D1000000 		.4byte	.LASF9
 136 0076 04       		.uleb128 0x4
 137 0077 E0000000 		.4byte	.LASF13
 138 007b 02       		.byte	0x2
 139 007c 60       		.byte	0x60
 140 007d 30000000 		.4byte	0x30
 141 0081 05       		.uleb128 0x5
 142 0082 01       		.byte	0x1
 143 0083 A4000000 		.4byte	.LASF14
 144 0087 01       		.byte	0x1
 145 0088 23       		.byte	0x23
 146 0089 01       		.byte	0x1
 147 008a 00000000 		.4byte	.LFB0
 148 008e 0C000000 		.4byte	.LFE0
 149 0092 01       		.byte	0x1
 150 0093 5D       		.byte	0x5d
 151 0094 A6000000 		.4byte	0xa6
 152 0098 06       		.uleb128 0x6
 153 0099 41000000 		.4byte	.LASF15
 154 009d 01       		.byte	0x1
 155 009e 23       		.byte	0x23
 156 009f 76000000 		.4byte	0x76
 157 00a3 01       		.byte	0x1
 158 00a4 50       		.byte	0x50
 159 00a5 00       		.byte	0x0
 160 00a6 07       		.uleb128 0x7
 161 00a7 01       		.byte	0x1
 162 00a8 C1000000 		.4byte	.LASF16
 163 00ac 01       		.byte	0x1
 164 00ad 37       		.byte	0x37
 165 00ae 01       		.byte	0x1
 166 00af 76000000 		.4byte	0x76
ARM GAS  C:\Users\SUZUKI~1\AppData\Local\Temp\ccJjJfIZ.s 			page 5


 167 00b3 00000000 		.4byte	.LFB1
 168 00b7 0C000000 		.4byte	.LFE1
 169 00bb 01       		.byte	0x1
 170 00bc 5D       		.byte	0x5d
 171 00bd 00       		.byte	0x0
 172              		.section	.debug_abbrev
 173 0000 01       		.uleb128 0x1
 174 0001 11       		.uleb128 0x11
 175 0002 01       		.byte	0x1
 176 0003 25       		.uleb128 0x25
 177 0004 0E       		.uleb128 0xe
 178 0005 13       		.uleb128 0x13
 179 0006 0B       		.uleb128 0xb
 180 0007 03       		.uleb128 0x3
 181 0008 0E       		.uleb128 0xe
 182 0009 1B       		.uleb128 0x1b
 183 000a 0E       		.uleb128 0xe
 184 000b 11       		.uleb128 0x11
 185 000c 01       		.uleb128 0x1
 186 000d 52       		.uleb128 0x52
 187 000e 01       		.uleb128 0x1
 188 000f 55       		.uleb128 0x55
 189 0010 06       		.uleb128 0x6
 190 0011 10       		.uleb128 0x10
 191 0012 06       		.uleb128 0x6
 192 0013 00       		.byte	0x0
 193 0014 00       		.byte	0x0
 194 0015 02       		.uleb128 0x2
 195 0016 24       		.uleb128 0x24
 196 0017 00       		.byte	0x0
 197 0018 0B       		.uleb128 0xb
 198 0019 0B       		.uleb128 0xb
 199 001a 3E       		.uleb128 0x3e
 200 001b 0B       		.uleb128 0xb
 201 001c 03       		.uleb128 0x3
 202 001d 0E       		.uleb128 0xe
 203 001e 00       		.byte	0x0
 204 001f 00       		.byte	0x0
 205 0020 03       		.uleb128 0x3
 206 0021 24       		.uleb128 0x24
 207 0022 00       		.byte	0x0
 208 0023 0B       		.uleb128 0xb
 209 0024 0B       		.uleb128 0xb
 210 0025 3E       		.uleb128 0x3e
 211 0026 0B       		.uleb128 0xb
 212 0027 03       		.uleb128 0x3
 213 0028 08       		.uleb128 0x8
 214 0029 00       		.byte	0x0
 215 002a 00       		.byte	0x0
 216 002b 04       		.uleb128 0x4
 217 002c 16       		.uleb128 0x16
 218 002d 00       		.byte	0x0
 219 002e 03       		.uleb128 0x3
 220 002f 0E       		.uleb128 0xe
 221 0030 3A       		.uleb128 0x3a
 222 0031 0B       		.uleb128 0xb
 223 0032 3B       		.uleb128 0x3b
ARM GAS  C:\Users\SUZUKI~1\AppData\Local\Temp\ccJjJfIZ.s 			page 6


 224 0033 0B       		.uleb128 0xb
 225 0034 49       		.uleb128 0x49
 226 0035 13       		.uleb128 0x13
 227 0036 00       		.byte	0x0
 228 0037 00       		.byte	0x0
 229 0038 05       		.uleb128 0x5
 230 0039 2E       		.uleb128 0x2e
 231 003a 01       		.byte	0x1
 232 003b 3F       		.uleb128 0x3f
 233 003c 0C       		.uleb128 0xc
 234 003d 03       		.uleb128 0x3
 235 003e 0E       		.uleb128 0xe
 236 003f 3A       		.uleb128 0x3a
 237 0040 0B       		.uleb128 0xb
 238 0041 3B       		.uleb128 0x3b
 239 0042 0B       		.uleb128 0xb
 240 0043 27       		.uleb128 0x27
 241 0044 0C       		.uleb128 0xc
 242 0045 11       		.uleb128 0x11
 243 0046 01       		.uleb128 0x1
 244 0047 12       		.uleb128 0x12
 245 0048 01       		.uleb128 0x1
 246 0049 40       		.uleb128 0x40
 247 004a 0A       		.uleb128 0xa
 248 004b 01       		.uleb128 0x1
 249 004c 13       		.uleb128 0x13
 250 004d 00       		.byte	0x0
 251 004e 00       		.byte	0x0
 252 004f 06       		.uleb128 0x6
 253 0050 05       		.uleb128 0x5
 254 0051 00       		.byte	0x0
 255 0052 03       		.uleb128 0x3
 256 0053 0E       		.uleb128 0xe
 257 0054 3A       		.uleb128 0x3a
 258 0055 0B       		.uleb128 0xb
 259 0056 3B       		.uleb128 0x3b
 260 0057 0B       		.uleb128 0xb
 261 0058 49       		.uleb128 0x49
 262 0059 13       		.uleb128 0x13
 263 005a 02       		.uleb128 0x2
 264 005b 0A       		.uleb128 0xa
 265 005c 00       		.byte	0x0
 266 005d 00       		.byte	0x0
 267 005e 07       		.uleb128 0x7
 268 005f 2E       		.uleb128 0x2e
 269 0060 00       		.byte	0x0
 270 0061 3F       		.uleb128 0x3f
 271 0062 0C       		.uleb128 0xc
 272 0063 03       		.uleb128 0x3
 273 0064 0E       		.uleb128 0xe
 274 0065 3A       		.uleb128 0x3a
 275 0066 0B       		.uleb128 0xb
 276 0067 3B       		.uleb128 0x3b
 277 0068 0B       		.uleb128 0xb
 278 0069 27       		.uleb128 0x27
 279 006a 0C       		.uleb128 0xc
 280 006b 49       		.uleb128 0x49
ARM GAS  C:\Users\SUZUKI~1\AppData\Local\Temp\ccJjJfIZ.s 			page 7


 281 006c 13       		.uleb128 0x13
 282 006d 11       		.uleb128 0x11
 283 006e 01       		.uleb128 0x1
 284 006f 12       		.uleb128 0x12
 285 0070 01       		.uleb128 0x1
 286 0071 40       		.uleb128 0x40
 287 0072 0A       		.uleb128 0xa
 288 0073 00       		.byte	0x0
 289 0074 00       		.byte	0x0
 290 0075 00       		.byte	0x0
 291              		.section	.debug_pubnames,"",%progbits
 292 0000 37000000 		.4byte	0x37
 293 0004 0200     		.2byte	0x2
 294 0006 00000000 		.4byte	.Ldebug_info0
 295 000a BE000000 		.4byte	0xbe
 296 000e 81000000 		.4byte	0x81
 297 0012 44656275 		.ascii	"Debugpdata_Write\000"
 297      67706461 
 297      74615F57 
 297      72697465 
 297      00
 298 0023 A6000000 		.4byte	0xa6
 299 0027 44656275 		.ascii	"Debugpdata_Read\000"
 299      67706461 
 299      74615F52 
 299      65616400 
 300 0037 00000000 		.4byte	0x0
 301              		.section	.debug_aranges,"",%progbits
 302 0000 24000000 		.4byte	0x24
 303 0004 0200     		.2byte	0x2
 304 0006 00000000 		.4byte	.Ldebug_info0
 305 000a 04       		.byte	0x4
 306 000b 00       		.byte	0x0
 307 000c 0000     		.2byte	0x0
 308 000e 0000     		.2byte	0x0
 309 0010 00000000 		.4byte	.LFB0
 310 0014 0C000000 		.4byte	.LFE0-.LFB0
 311 0018 00000000 		.4byte	.LFB1
 312 001c 0C000000 		.4byte	.LFE1-.LFB1
 313 0020 00000000 		.4byte	0x0
 314 0024 00000000 		.4byte	0x0
 315              		.section	.debug_ranges,"",%progbits
 316              	.Ldebug_ranges0:
 317 0000 00000000 		.4byte	.Ltext0
 318 0004 00000000 		.4byte	.Letext0
 319 0008 00000000 		.4byte	.LFB0
 320 000c 0C000000 		.4byte	.LFE0
 321 0010 00000000 		.4byte	.LFB1
 322 0014 0C000000 		.4byte	.LFE1
 323 0018 00000000 		.4byte	0x0
 324 001c 00000000 		.4byte	0x0
 325              		.section	.debug_str,"MS",%progbits,1
 326              	.LASF6:
 327 0000 6C6F6E67 		.ascii	"long long int\000"
 327      206C6F6E 
 327      6720696E 
 327      7400
ARM GAS  C:\Users\SUZUKI~1\AppData\Local\Temp\ccJjJfIZ.s 			page 8


 328              	.LASF1:
 329 000e 756E7369 		.ascii	"unsigned char\000"
 329      676E6564 
 329      20636861 
 329      7200
 330              	.LASF5:
 331 001c 6C6F6E67 		.ascii	"long unsigned int\000"
 331      20756E73 
 331      69676E65 
 331      6420696E 
 331      7400
 332              	.LASF3:
 333 002e 73686F72 		.ascii	"short unsigned int\000"
 333      7420756E 
 333      7369676E 
 333      65642069 
 333      6E7400
 334              	.LASF15:
 335 0041 636F6E74 		.ascii	"control\000"
 335      726F6C00 
 336              	.LASF12:
 337 0049 463A5C44 		.ascii	"F:\\Documents\\PSoC_Creator\\ledmatrix\\ledmatrixdm"
 337      6F63756D 
 337      656E7473 
 337      5C50536F 
 337      435F4372 
 338 0078 612E6379 		.ascii	"a.cydsn\000"
 338      64736E00 
 339              	.LASF8:
 340 0080 756E7369 		.ascii	"unsigned int\000"
 340      676E6564 
 340      20696E74 
 340      00
 341              	.LASF7:
 342 008d 6C6F6E67 		.ascii	"long long unsigned int\000"
 342      206C6F6E 
 342      6720756E 
 342      7369676E 
 342      65642069 
 343              	.LASF14:
 344 00a4 44656275 		.ascii	"Debugpdata_Write\000"
 344      67706461 
 344      74615F57 
 344      72697465 
 344      00
 345              	.LASF10:
 346 00b5 474E5520 		.ascii	"GNU C 4.4.1\000"
 346      4320342E 
 346      342E3100 
 347              	.LASF16:
 348 00c1 44656275 		.ascii	"Debugpdata_Read\000"
 348      67706461 
 348      74615F52 
 348      65616400 
 349              	.LASF9:
 350 00d1 63686172 		.ascii	"char\000"
 350      00
ARM GAS  C:\Users\SUZUKI~1\AppData\Local\Temp\ccJjJfIZ.s 			page 9


 351              	.LASF2:
 352 00d6 73686F72 		.ascii	"short int\000"
 352      7420696E 
 352      7400
 353              	.LASF13:
 354 00e0 75696E74 		.ascii	"uint8\000"
 354      3800
 355              	.LASF4:
 356 00e6 6C6F6E67 		.ascii	"long int\000"
 356      20696E74 
 356      00
 357              	.LASF0:
 358 00ef 7369676E 		.ascii	"signed char\000"
 358      65642063 
 358      68617200 
 359              	.LASF11:
 360 00fb 2E5C4765 		.ascii	".\\Generated_Source\\PSoC5\\Debugpdata.c\000"
 360      6E657261 
 360      7465645F 
 360      536F7572 
 360      63655C50 
 361              		.ident	"GCC: (Sourcery G++ Lite 2010q1-188) 4.4.1"
