ARM GAS  C:\Users\SUZUKI~1\AppData\Local\Temp\ccJ7TyE5.s 			page 1


   1              		.syntax unified
   2              		.cpu cortex-m3
   3              		.fpu softvfp
   4              		.eabi_attribute 20, 1
   5              		.eabi_attribute 21, 1
   6              		.eabi_attribute 23, 3
   7              		.eabi_attribute 24, 1
   8              		.eabi_attribute 25, 1
   9              		.eabi_attribute 26, 1
  10              		.eabi_attribute 30, 4
  11              		.eabi_attribute 18, 4
  12              		.thumb
  13              		.file	"row.c"
  14              		.section	.debug_abbrev,"",%progbits
  15              	.Ldebug_abbrev0:
  16              		.section	.debug_info,"",%progbits
  17              	.Ldebug_info0:
  18              		.section	.debug_line,"",%progbits
  19              	.Ldebug_line0:
  20 0000 AC000000 		.text
  20      02005C00 
  20      00000201 
  20      FB0E0D00 
  20      01010101 
  21              	.Ltext0:
  22              		.cfi_sections	.debug_frame
  23              		.section	.text.row_Write,"ax",%progbits
  24              		.align	1
  25              		.global	row_Write
  26              		.thumb
  27              		.thumb_func
  28              		.type	row_Write, %function
  29              	row_Write:
  30              	.LFB0:
  31              		.file 1 ".\\Generated_Source\\PSoC5\\row.c"
   1:.\Generated_Source\PSoC5/row.c **** /*******************************************************************************
   2:.\Generated_Source\PSoC5/row.c **** * File Name: row.c  
   3:.\Generated_Source\PSoC5/row.c **** * Version 1.70
   4:.\Generated_Source\PSoC5/row.c **** *
   5:.\Generated_Source\PSoC5/row.c **** * Description:
   6:.\Generated_Source\PSoC5/row.c **** *  This file contains API to enable firmware control of a Pins component.
   7:.\Generated_Source\PSoC5/row.c **** *
   8:.\Generated_Source\PSoC5/row.c **** * Note:
   9:.\Generated_Source\PSoC5/row.c **** *
  10:.\Generated_Source\PSoC5/row.c **** ********************************************************************************
  11:.\Generated_Source\PSoC5/row.c **** * Copyright 2008-2010, Cypress Semiconductor Corporation.  All rights reserved.
  12:.\Generated_Source\PSoC5/row.c **** * You may use this file only in accordance with the license, terms, conditions, 
  13:.\Generated_Source\PSoC5/row.c **** * disclaimers, and limitations in the end user license agreement accompanying 
  14:.\Generated_Source\PSoC5/row.c **** * the software package with which this file was provided.
  15:.\Generated_Source\PSoC5/row.c **** ********************************************************************************/
  16:.\Generated_Source\PSoC5/row.c **** 
  17:.\Generated_Source\PSoC5/row.c **** #include "cytypes.h"
  18:.\Generated_Source\PSoC5/row.c **** #include "row.h"
  19:.\Generated_Source\PSoC5/row.c **** 
  20:.\Generated_Source\PSoC5/row.c **** /* APIs are not generated for P15[7:6] */
  21:.\Generated_Source\PSoC5/row.c **** #if !(CY_PSOC5A &&\
  22:.\Generated_Source\PSoC5/row.c **** 	 row__PORT == 15 && (row__MASK & 0xC0))
ARM GAS  C:\Users\SUZUKI~1\AppData\Local\Temp\ccJ7TyE5.s 			page 2


  23:.\Generated_Source\PSoC5/row.c **** 
  24:.\Generated_Source\PSoC5/row.c **** /*******************************************************************************
  25:.\Generated_Source\PSoC5/row.c **** * Function Name: row_Write
  26:.\Generated_Source\PSoC5/row.c **** ********************************************************************************
  27:.\Generated_Source\PSoC5/row.c **** * Summary:
  28:.\Generated_Source\PSoC5/row.c **** *  Assign a new value to the digital port's data output register.  
  29:.\Generated_Source\PSoC5/row.c **** *
  30:.\Generated_Source\PSoC5/row.c **** * Parameters:  
  31:.\Generated_Source\PSoC5/row.c **** *  prtValue:  The value to be assigned to the Digital Port. 
  32:.\Generated_Source\PSoC5/row.c **** *
  33:.\Generated_Source\PSoC5/row.c **** * Return: 
  34:.\Generated_Source\PSoC5/row.c **** *  void 
  35:.\Generated_Source\PSoC5/row.c **** *  
  36:.\Generated_Source\PSoC5/row.c **** *******************************************************************************/
  37:.\Generated_Source\PSoC5/row.c **** void row_Write(uint8 value) 
  38:.\Generated_Source\PSoC5/row.c **** {
  32              		.loc 1 38 0
  33              		.cfi_startproc
  34              		@ args = 0, pretend = 0, frame = 0
  35              		@ frame_needed = 0, uses_anonymous_args = 0
  36              		@ link register save eliminated.
  37              	.LVL0:
  39:.\Generated_Source\PSoC5/row.c ****     uint8 staticBits = row_DR & ~row_MASK;
  38              		.loc 1 39 0
  39 0000 044B     		ldr	r3, .L3
  40 0002 1A78     		ldrb	r2, [r3, #0]	@ zero_extendqisi2
  40:.\Generated_Source\PSoC5/row.c ****     row_DR = staticBits | ((value << row_SHIFT) & row_MASK);
  41              		.loc 1 40 0
  42 0004 02F00F02 		and	r2, r2, #15
  43 0008 42EA0012 		orr	r2, r2, r0, lsl #4
  44 000c D2B2     		uxtb	r2, r2
  45 000e 1A70     		strb	r2, [r3, #0]
  41:.\Generated_Source\PSoC5/row.c **** }
  46              		.loc 1 41 0
  47 0010 7047     		bx	lr
  48              	.L4:
  49 0012 00BF     		.align	2
  50              	.L3:
  51 0014 00510040 		.word	1073762560
  52              		.cfi_endproc
  53              	.LFE0:
  54              		.size	row_Write, .-row_Write
  55              		.section	.text.row_SetDriveMode,"ax",%progbits
  56              		.align	1
  57              		.global	row_SetDriveMode
  58              		.thumb
  59              		.thumb_func
  60              		.type	row_SetDriveMode, %function
  61              	row_SetDriveMode:
  62              	.LFB1:
  42:.\Generated_Source\PSoC5/row.c **** 
  43:.\Generated_Source\PSoC5/row.c **** 
  44:.\Generated_Source\PSoC5/row.c **** /*******************************************************************************
  45:.\Generated_Source\PSoC5/row.c **** * Function Name: row_SetDriveMode
  46:.\Generated_Source\PSoC5/row.c **** ********************************************************************************
  47:.\Generated_Source\PSoC5/row.c **** * Summary:
  48:.\Generated_Source\PSoC5/row.c **** *  Change the drive mode on the pins of the port.
ARM GAS  C:\Users\SUZUKI~1\AppData\Local\Temp\ccJ7TyE5.s 			page 3


  49:.\Generated_Source\PSoC5/row.c **** * 
  50:.\Generated_Source\PSoC5/row.c **** * Parameters:  
  51:.\Generated_Source\PSoC5/row.c **** *  mode:  Change the pins to this drive mode.
  52:.\Generated_Source\PSoC5/row.c **** *
  53:.\Generated_Source\PSoC5/row.c **** * Return: 
  54:.\Generated_Source\PSoC5/row.c **** *  void
  55:.\Generated_Source\PSoC5/row.c **** *
  56:.\Generated_Source\PSoC5/row.c **** *******************************************************************************/
  57:.\Generated_Source\PSoC5/row.c **** void row_SetDriveMode(uint8 mode) 
  58:.\Generated_Source\PSoC5/row.c **** {
  63              		.loc 1 58 0
  64              		.cfi_startproc
  65              		@ args = 0, pretend = 0, frame = 0
  66              		@ frame_needed = 0, uses_anonymous_args = 0
  67              		@ link register save eliminated.
  68              	.LVL1:
  59:.\Generated_Source\PSoC5/row.c **** 	CyPins_SetPinDriveMode(row_0, mode);
  69              		.loc 1 59 0
  70 0000 0E4B     		ldr	r3, .L7
  71 0002 00F00E00 		and	r0, r0, #14
  72              	.LVL2:
  73 0006 1A78     		ldrb	r2, [r3, #0]	@ zero_extendqisi2
  74 0008 02F0F102 		and	r2, r2, #241
  75 000c 40EA0202 		orr	r2, r0, r2
  76 0010 1A70     		strb	r2, [r3, #0]
  60:.\Generated_Source\PSoC5/row.c **** 	CyPins_SetPinDriveMode(row_1, mode);
  77              		.loc 1 60 0
  78 0012 0133     		adds	r3, r3, #1
  79 0014 1A78     		ldrb	r2, [r3, #0]	@ zero_extendqisi2
  80 0016 02F0F102 		and	r2, r2, #241
  81 001a 40EA0202 		orr	r2, r0, r2
  82 001e 1A70     		strb	r2, [r3, #0]
  61:.\Generated_Source\PSoC5/row.c **** 	CyPins_SetPinDriveMode(row_2, mode);
  83              		.loc 1 61 0
  84 0020 0133     		adds	r3, r3, #1
  85 0022 1A78     		ldrb	r2, [r3, #0]	@ zero_extendqisi2
  86 0024 02F0F102 		and	r2, r2, #241
  87 0028 40EA0202 		orr	r2, r0, r2
  88 002c 1A70     		strb	r2, [r3, #0]
  62:.\Generated_Source\PSoC5/row.c **** 	CyPins_SetPinDriveMode(row_3, mode);
  89              		.loc 1 62 0
  90 002e 0133     		adds	r3, r3, #1
  91 0030 1A78     		ldrb	r2, [r3, #0]	@ zero_extendqisi2
  92 0032 02F0F102 		and	r2, r2, #241
  93 0036 1043     		orrs	r0, r0, r2
  94 0038 1870     		strb	r0, [r3, #0]
  63:.\Generated_Source\PSoC5/row.c **** }
  95              		.loc 1 63 0
  96 003a 7047     		bx	lr
  97              	.L8:
  98              		.align	2
  99              	.L7:
 100 003c 04500040 		.word	1073762308
 101              		.cfi_endproc
 102              	.LFE1:
 103              		.size	row_SetDriveMode, .-row_SetDriveMode
 104              		.section	.text.row_Read,"ax",%progbits
ARM GAS  C:\Users\SUZUKI~1\AppData\Local\Temp\ccJ7TyE5.s 			page 4


 105              		.align	1
 106              		.global	row_Read
 107              		.thumb
 108              		.thumb_func
 109              		.type	row_Read, %function
 110              	row_Read:
 111              	.LFB2:
  64:.\Generated_Source\PSoC5/row.c **** 
  65:.\Generated_Source\PSoC5/row.c **** 
  66:.\Generated_Source\PSoC5/row.c **** /*******************************************************************************
  67:.\Generated_Source\PSoC5/row.c **** * Function Name: row_Read
  68:.\Generated_Source\PSoC5/row.c **** ********************************************************************************
  69:.\Generated_Source\PSoC5/row.c **** * Summary:
  70:.\Generated_Source\PSoC5/row.c **** *  Read the current value on the pins of the Digital Port in right justified 
  71:.\Generated_Source\PSoC5/row.c **** *  form.
  72:.\Generated_Source\PSoC5/row.c **** *
  73:.\Generated_Source\PSoC5/row.c **** * Parameters:  
  74:.\Generated_Source\PSoC5/row.c **** *  void 
  75:.\Generated_Source\PSoC5/row.c **** *
  76:.\Generated_Source\PSoC5/row.c **** * Return: 
  77:.\Generated_Source\PSoC5/row.c **** *  Returns the current value of the Digital Port as a right justified number
  78:.\Generated_Source\PSoC5/row.c **** *  
  79:.\Generated_Source\PSoC5/row.c **** * Note:
  80:.\Generated_Source\PSoC5/row.c **** *  Macro row_ReadPS calls this function. 
  81:.\Generated_Source\PSoC5/row.c **** *  
  82:.\Generated_Source\PSoC5/row.c **** *******************************************************************************/
  83:.\Generated_Source\PSoC5/row.c **** uint8 row_Read(void) 
  84:.\Generated_Source\PSoC5/row.c **** {
 112              		.loc 1 84 0
 113              		.cfi_startproc
 114              		@ args = 0, pretend = 0, frame = 0
 115              		@ frame_needed = 0, uses_anonymous_args = 0
 116              		@ link register save eliminated.
  85:.\Generated_Source\PSoC5/row.c ****     return (row_PS & row_MASK) >> row_SHIFT;
 117              		.loc 1 85 0
 118 0000 014B     		ldr	r3, .L11
 119 0002 1878     		ldrb	r0, [r3, #0]	@ zero_extendqisi2
  86:.\Generated_Source\PSoC5/row.c **** }
 120              		.loc 1 86 0
 121 0004 0009     		lsrs	r0, r0, #4
 122 0006 7047     		bx	lr
 123              	.L12:
 124              		.align	2
 125              	.L11:
 126 0008 01510040 		.word	1073762561
 127              		.cfi_endproc
 128              	.LFE2:
 129              		.size	row_Read, .-row_Read
 130              		.section	.text.row_ReadDataReg,"ax",%progbits
 131              		.align	1
 132              		.global	row_ReadDataReg
 133              		.thumb
 134              		.thumb_func
 135              		.type	row_ReadDataReg, %function
 136              	row_ReadDataReg:
 137              	.LFB3:
  87:.\Generated_Source\PSoC5/row.c **** 
ARM GAS  C:\Users\SUZUKI~1\AppData\Local\Temp\ccJ7TyE5.s 			page 5


  88:.\Generated_Source\PSoC5/row.c **** 
  89:.\Generated_Source\PSoC5/row.c **** /*******************************************************************************
  90:.\Generated_Source\PSoC5/row.c **** * Function Name: row_ReadDataReg
  91:.\Generated_Source\PSoC5/row.c **** ********************************************************************************
  92:.\Generated_Source\PSoC5/row.c **** * Summary:
  93:.\Generated_Source\PSoC5/row.c **** *  Read the current value assigned to a Digital Port's data output register
  94:.\Generated_Source\PSoC5/row.c **** *
  95:.\Generated_Source\PSoC5/row.c **** * Parameters:  
  96:.\Generated_Source\PSoC5/row.c **** *  void 
  97:.\Generated_Source\PSoC5/row.c **** *
  98:.\Generated_Source\PSoC5/row.c **** * Return: 
  99:.\Generated_Source\PSoC5/row.c **** *  Returns the current value assigned to the Digital Port's data output register
 100:.\Generated_Source\PSoC5/row.c **** *  
 101:.\Generated_Source\PSoC5/row.c **** *******************************************************************************/
 102:.\Generated_Source\PSoC5/row.c **** uint8 row_ReadDataReg(void) 
 103:.\Generated_Source\PSoC5/row.c **** {
 138              		.loc 1 103 0
 139              		.cfi_startproc
 140              		@ args = 0, pretend = 0, frame = 0
 141              		@ frame_needed = 0, uses_anonymous_args = 0
 142              		@ link register save eliminated.
 104:.\Generated_Source\PSoC5/row.c ****     return (row_DR & row_MASK) >> row_SHIFT;
 143              		.loc 1 104 0
 144 0000 014B     		ldr	r3, .L15
 145 0002 1878     		ldrb	r0, [r3, #0]	@ zero_extendqisi2
 105:.\Generated_Source\PSoC5/row.c **** }
 146              		.loc 1 105 0
 147 0004 0009     		lsrs	r0, r0, #4
 148 0006 7047     		bx	lr
 149              	.L16:
 150              		.align	2
 151              	.L15:
 152 0008 00510040 		.word	1073762560
 153              		.cfi_endproc
 154              	.LFE3:
 155              		.size	row_ReadDataReg, .-row_ReadDataReg
 156              		.text
 157              	.Letext0:
 158              		.section	.debug_loc,"",%progbits
 159              	.Ldebug_loc0:
 160              	.LLST2:
 161 0000 00000000 		.4byte	.LVL1
 162 0004 06000000 		.4byte	.LVL2
 163 0008 0100     		.2byte	0x1
 164 000a 50       		.byte	0x50
 165 000b 00000000 		.4byte	0x0
 166 000f 00000000 		.4byte	0x0
 167              		.file 2 ".\\Generated_Source\\PSoC5\\/cytypes.h"
 168              		.section	.debug_info
 169 0000 03010000 		.4byte	0x103
 170 0004 0200     		.2byte	0x2
 171 0006 00000000 		.4byte	.Ldebug_abbrev0
 172 000a 04       		.byte	0x4
 173 000b 01       		.uleb128 0x1
 174 000c EC000000 		.4byte	.LASF16
 175 0010 01       		.byte	0x1
 176 0011 29000000 		.4byte	.LASF17
ARM GAS  C:\Users\SUZUKI~1\AppData\Local\Temp\ccJ7TyE5.s 			page 6


 177 0015 8C000000 		.4byte	.LASF18
 178 0019 00000000 		.4byte	0x0
 179 001d 00000000 		.4byte	0x0
 180 0021 00000000 		.4byte	.Ldebug_ranges0+0x0
 181 0025 00000000 		.4byte	.Ldebug_line0
 182 0029 02       		.uleb128 0x2
 183 002a 01       		.byte	0x1
 184 002b 06       		.byte	0x6
 185 002c 26010000 		.4byte	.LASF0
 186 0030 02       		.uleb128 0x2
 187 0031 01       		.byte	0x1
 188 0032 08       		.byte	0x8
 189 0033 48000000 		.4byte	.LASF1
 190 0037 02       		.uleb128 0x2
 191 0038 02       		.byte	0x2
 192 0039 05       		.byte	0x5
 193 003a FD000000 		.4byte	.LASF2
 194 003e 02       		.uleb128 0x2
 195 003f 02       		.byte	0x2
 196 0040 07       		.byte	0x7
 197 0041 79000000 		.4byte	.LASF3
 198 0045 02       		.uleb128 0x2
 199 0046 04       		.byte	0x4
 200 0047 05       		.byte	0x5
 201 0048 1D010000 		.4byte	.LASF4
 202 004c 02       		.uleb128 0x2
 203 004d 04       		.byte	0x4
 204 004e 07       		.byte	0x7
 205 004f 67000000 		.4byte	.LASF5
 206 0053 02       		.uleb128 0x2
 207 0054 08       		.byte	0x8
 208 0055 05       		.byte	0x5
 209 0056 00000000 		.4byte	.LASF6
 210 005a 02       		.uleb128 0x2
 211 005b 08       		.byte	0x8
 212 005c 07       		.byte	0x7
 213 005d D0000000 		.4byte	.LASF7
 214 0061 03       		.uleb128 0x3
 215 0062 04       		.byte	0x4
 216 0063 05       		.byte	0x5
 217 0064 696E7400 		.ascii	"int\000"
 218 0068 02       		.uleb128 0x2
 219 0069 04       		.byte	0x4
 220 006a 07       		.byte	0x7
 221 006b C3000000 		.4byte	.LASF8
 222 006f 02       		.uleb128 0x2
 223 0070 01       		.byte	0x1
 224 0071 08       		.byte	0x8
 225 0072 F8000000 		.4byte	.LASF9
 226 0076 04       		.uleb128 0x4
 227 0077 17010000 		.4byte	.LASF19
 228 007b 02       		.byte	0x2
 229 007c 60       		.byte	0x60
 230 007d 30000000 		.4byte	0x30
 231 0081 05       		.uleb128 0x5
 232 0082 01       		.byte	0x1
 233 0083 1F000000 		.4byte	.LASF10
ARM GAS  C:\Users\SUZUKI~1\AppData\Local\Temp\ccJ7TyE5.s 			page 7


 234 0087 01       		.byte	0x1
 235 0088 25       		.byte	0x25
 236 0089 01       		.byte	0x1
 237 008a 00000000 		.4byte	.LFB0
 238 008e 18000000 		.4byte	.LFE0
 239 0092 01       		.byte	0x1
 240 0093 5D       		.byte	0x5d
 241 0094 B1000000 		.4byte	0xb1
 242 0098 06       		.uleb128 0x6
 243 0099 0E000000 		.4byte	.LASF12
 244 009d 01       		.byte	0x1
 245 009e 25       		.byte	0x25
 246 009f 76000000 		.4byte	0x76
 247 00a3 01       		.byte	0x1
 248 00a4 50       		.byte	0x50
 249 00a5 07       		.uleb128 0x7
 250 00a6 14000000 		.4byte	.LASF20
 251 00aa 01       		.byte	0x1
 252 00ab 27       		.byte	0x27
 253 00ac 76000000 		.4byte	0x76
 254 00b0 00       		.byte	0x0
 255 00b1 05       		.uleb128 0x5
 256 00b2 01       		.byte	0x1
 257 00b3 56000000 		.4byte	.LASF11
 258 00b7 01       		.byte	0x1
 259 00b8 39       		.byte	0x39
 260 00b9 01       		.byte	0x1
 261 00ba 00000000 		.4byte	.LFB1
 262 00be 40000000 		.4byte	.LFE1
 263 00c2 01       		.byte	0x1
 264 00c3 5D       		.byte	0x5d
 265 00c4 D8000000 		.4byte	0xd8
 266 00c8 08       		.uleb128 0x8
 267 00c9 E7000000 		.4byte	.LASF13
 268 00cd 01       		.byte	0x1
 269 00ce 39       		.byte	0x39
 270 00cf 76000000 		.4byte	0x76
 271 00d3 00000000 		.4byte	.LLST2
 272 00d7 00       		.byte	0x0
 273 00d8 09       		.uleb128 0x9
 274 00d9 01       		.byte	0x1
 275 00da 32010000 		.4byte	.LASF14
 276 00de 01       		.byte	0x1
 277 00df 53       		.byte	0x53
 278 00e0 01       		.byte	0x1
 279 00e1 76000000 		.4byte	0x76
 280 00e5 00000000 		.4byte	.LFB2
 281 00e9 0C000000 		.4byte	.LFE2
 282 00ed 01       		.byte	0x1
 283 00ee 5D       		.byte	0x5d
 284 00ef 09       		.uleb128 0x9
 285 00f0 01       		.byte	0x1
 286 00f1 07010000 		.4byte	.LASF15
 287 00f5 01       		.byte	0x1
 288 00f6 66       		.byte	0x66
 289 00f7 01       		.byte	0x1
 290 00f8 76000000 		.4byte	0x76
ARM GAS  C:\Users\SUZUKI~1\AppData\Local\Temp\ccJ7TyE5.s 			page 8


 291 00fc 00000000 		.4byte	.LFB3
 292 0100 0C000000 		.4byte	.LFE3
 293 0104 01       		.byte	0x1
 294 0105 5D       		.byte	0x5d
 295 0106 00       		.byte	0x0
 296              		.section	.debug_abbrev
 297 0000 01       		.uleb128 0x1
 298 0001 11       		.uleb128 0x11
 299 0002 01       		.byte	0x1
 300 0003 25       		.uleb128 0x25
 301 0004 0E       		.uleb128 0xe
 302 0005 13       		.uleb128 0x13
 303 0006 0B       		.uleb128 0xb
 304 0007 03       		.uleb128 0x3
 305 0008 0E       		.uleb128 0xe
 306 0009 1B       		.uleb128 0x1b
 307 000a 0E       		.uleb128 0xe
 308 000b 11       		.uleb128 0x11
 309 000c 01       		.uleb128 0x1
 310 000d 52       		.uleb128 0x52
 311 000e 01       		.uleb128 0x1
 312 000f 55       		.uleb128 0x55
 313 0010 06       		.uleb128 0x6
 314 0011 10       		.uleb128 0x10
 315 0012 06       		.uleb128 0x6
 316 0013 00       		.byte	0x0
 317 0014 00       		.byte	0x0
 318 0015 02       		.uleb128 0x2
 319 0016 24       		.uleb128 0x24
 320 0017 00       		.byte	0x0
 321 0018 0B       		.uleb128 0xb
 322 0019 0B       		.uleb128 0xb
 323 001a 3E       		.uleb128 0x3e
 324 001b 0B       		.uleb128 0xb
 325 001c 03       		.uleb128 0x3
 326 001d 0E       		.uleb128 0xe
 327 001e 00       		.byte	0x0
 328 001f 00       		.byte	0x0
 329 0020 03       		.uleb128 0x3
 330 0021 24       		.uleb128 0x24
 331 0022 00       		.byte	0x0
 332 0023 0B       		.uleb128 0xb
 333 0024 0B       		.uleb128 0xb
 334 0025 3E       		.uleb128 0x3e
 335 0026 0B       		.uleb128 0xb
 336 0027 03       		.uleb128 0x3
 337 0028 08       		.uleb128 0x8
 338 0029 00       		.byte	0x0
 339 002a 00       		.byte	0x0
 340 002b 04       		.uleb128 0x4
 341 002c 16       		.uleb128 0x16
 342 002d 00       		.byte	0x0
 343 002e 03       		.uleb128 0x3
 344 002f 0E       		.uleb128 0xe
 345 0030 3A       		.uleb128 0x3a
 346 0031 0B       		.uleb128 0xb
 347 0032 3B       		.uleb128 0x3b
ARM GAS  C:\Users\SUZUKI~1\AppData\Local\Temp\ccJ7TyE5.s 			page 9


 348 0033 0B       		.uleb128 0xb
 349 0034 49       		.uleb128 0x49
 350 0035 13       		.uleb128 0x13
 351 0036 00       		.byte	0x0
 352 0037 00       		.byte	0x0
 353 0038 05       		.uleb128 0x5
 354 0039 2E       		.uleb128 0x2e
 355 003a 01       		.byte	0x1
 356 003b 3F       		.uleb128 0x3f
 357 003c 0C       		.uleb128 0xc
 358 003d 03       		.uleb128 0x3
 359 003e 0E       		.uleb128 0xe
 360 003f 3A       		.uleb128 0x3a
 361 0040 0B       		.uleb128 0xb
 362 0041 3B       		.uleb128 0x3b
 363 0042 0B       		.uleb128 0xb
 364 0043 27       		.uleb128 0x27
 365 0044 0C       		.uleb128 0xc
 366 0045 11       		.uleb128 0x11
 367 0046 01       		.uleb128 0x1
 368 0047 12       		.uleb128 0x12
 369 0048 01       		.uleb128 0x1
 370 0049 40       		.uleb128 0x40
 371 004a 0A       		.uleb128 0xa
 372 004b 01       		.uleb128 0x1
 373 004c 13       		.uleb128 0x13
 374 004d 00       		.byte	0x0
 375 004e 00       		.byte	0x0
 376 004f 06       		.uleb128 0x6
 377 0050 05       		.uleb128 0x5
 378 0051 00       		.byte	0x0
 379 0052 03       		.uleb128 0x3
 380 0053 0E       		.uleb128 0xe
 381 0054 3A       		.uleb128 0x3a
 382 0055 0B       		.uleb128 0xb
 383 0056 3B       		.uleb128 0x3b
 384 0057 0B       		.uleb128 0xb
 385 0058 49       		.uleb128 0x49
 386 0059 13       		.uleb128 0x13
 387 005a 02       		.uleb128 0x2
 388 005b 0A       		.uleb128 0xa
 389 005c 00       		.byte	0x0
 390 005d 00       		.byte	0x0
 391 005e 07       		.uleb128 0x7
 392 005f 34       		.uleb128 0x34
 393 0060 00       		.byte	0x0
 394 0061 03       		.uleb128 0x3
 395 0062 0E       		.uleb128 0xe
 396 0063 3A       		.uleb128 0x3a
 397 0064 0B       		.uleb128 0xb
 398 0065 3B       		.uleb128 0x3b
 399 0066 0B       		.uleb128 0xb
 400 0067 49       		.uleb128 0x49
 401 0068 13       		.uleb128 0x13
 402 0069 00       		.byte	0x0
 403 006a 00       		.byte	0x0
 404 006b 08       		.uleb128 0x8
ARM GAS  C:\Users\SUZUKI~1\AppData\Local\Temp\ccJ7TyE5.s 			page 10


 405 006c 05       		.uleb128 0x5
 406 006d 00       		.byte	0x0
 407 006e 03       		.uleb128 0x3
 408 006f 0E       		.uleb128 0xe
 409 0070 3A       		.uleb128 0x3a
 410 0071 0B       		.uleb128 0xb
 411 0072 3B       		.uleb128 0x3b
 412 0073 0B       		.uleb128 0xb
 413 0074 49       		.uleb128 0x49
 414 0075 13       		.uleb128 0x13
 415 0076 02       		.uleb128 0x2
 416 0077 06       		.uleb128 0x6
 417 0078 00       		.byte	0x0
 418 0079 00       		.byte	0x0
 419 007a 09       		.uleb128 0x9
 420 007b 2E       		.uleb128 0x2e
 421 007c 00       		.byte	0x0
 422 007d 3F       		.uleb128 0x3f
 423 007e 0C       		.uleb128 0xc
 424 007f 03       		.uleb128 0x3
 425 0080 0E       		.uleb128 0xe
 426 0081 3A       		.uleb128 0x3a
 427 0082 0B       		.uleb128 0xb
 428 0083 3B       		.uleb128 0x3b
 429 0084 0B       		.uleb128 0xb
 430 0085 27       		.uleb128 0x27
 431 0086 0C       		.uleb128 0xc
 432 0087 49       		.uleb128 0x49
 433 0088 13       		.uleb128 0x13
 434 0089 11       		.uleb128 0x11
 435 008a 01       		.uleb128 0x1
 436 008b 12       		.uleb128 0x12
 437 008c 01       		.uleb128 0x1
 438 008d 40       		.uleb128 0x40
 439 008e 0A       		.uleb128 0xa
 440 008f 00       		.byte	0x0
 441 0090 00       		.byte	0x0
 442 0091 00       		.byte	0x0
 443              		.section	.debug_pubnames,"",%progbits
 444 0000 52000000 		.4byte	0x52
 445 0004 0200     		.2byte	0x2
 446 0006 00000000 		.4byte	.Ldebug_info0
 447 000a 07010000 		.4byte	0x107
 448 000e 81000000 		.4byte	0x81
 449 0012 726F775F 		.ascii	"row_Write\000"
 449      57726974 
 449      6500
 450 001c B1000000 		.4byte	0xb1
 451 0020 726F775F 		.ascii	"row_SetDriveMode\000"
 451      53657444 
 451      72697665 
 451      4D6F6465 
 451      00
 452 0031 D8000000 		.4byte	0xd8
 453 0035 726F775F 		.ascii	"row_Read\000"
 453      52656164 
 453      00
ARM GAS  C:\Users\SUZUKI~1\AppData\Local\Temp\ccJ7TyE5.s 			page 11


 454 003e EF000000 		.4byte	0xef
 455 0042 726F775F 		.ascii	"row_ReadDataReg\000"
 455      52656164 
 455      44617461 
 455      52656700 
 456 0052 00000000 		.4byte	0x0
 457              		.section	.debug_aranges,"",%progbits
 458 0000 34000000 		.4byte	0x34
 459 0004 0200     		.2byte	0x2
 460 0006 00000000 		.4byte	.Ldebug_info0
 461 000a 04       		.byte	0x4
 462 000b 00       		.byte	0x0
 463 000c 0000     		.2byte	0x0
 464 000e 0000     		.2byte	0x0
 465 0010 00000000 		.4byte	.LFB0
 466 0014 18000000 		.4byte	.LFE0-.LFB0
 467 0018 00000000 		.4byte	.LFB1
 468 001c 40000000 		.4byte	.LFE1-.LFB1
 469 0020 00000000 		.4byte	.LFB2
 470 0024 0C000000 		.4byte	.LFE2-.LFB2
 471 0028 00000000 		.4byte	.LFB3
 472 002c 0C000000 		.4byte	.LFE3-.LFB3
 473 0030 00000000 		.4byte	0x0
 474 0034 00000000 		.4byte	0x0
 475              		.section	.debug_ranges,"",%progbits
 476              	.Ldebug_ranges0:
 477 0000 00000000 		.4byte	.Ltext0
 478 0004 00000000 		.4byte	.Letext0
 479 0008 00000000 		.4byte	.LFB0
 480 000c 18000000 		.4byte	.LFE0
 481 0010 00000000 		.4byte	.LFB1
 482 0014 40000000 		.4byte	.LFE1
 483 0018 00000000 		.4byte	.LFB2
 484 001c 0C000000 		.4byte	.LFE2
 485 0020 00000000 		.4byte	.LFB3
 486 0024 0C000000 		.4byte	.LFE3
 487 0028 00000000 		.4byte	0x0
 488 002c 00000000 		.4byte	0x0
 489              		.section	.debug_str,"MS",%progbits,1
 490              	.LASF6:
 491 0000 6C6F6E67 		.ascii	"long long int\000"
 491      206C6F6E 
 491      6720696E 
 491      7400
 492              	.LASF12:
 493 000e 76616C75 		.ascii	"value\000"
 493      6500
 494              	.LASF20:
 495 0014 73746174 		.ascii	"staticBits\000"
 495      69634269 
 495      747300
 496              	.LASF10:
 497 001f 726F775F 		.ascii	"row_Write\000"
 497      57726974 
 497      6500
 498              	.LASF17:
 499 0029 2E5C4765 		.ascii	".\\Generated_Source\\PSoC5\\row.c\000"
ARM GAS  C:\Users\SUZUKI~1\AppData\Local\Temp\ccJ7TyE5.s 			page 12


 499      6E657261 
 499      7465645F 
 499      536F7572 
 499      63655C50 
 500              	.LASF1:
 501 0048 756E7369 		.ascii	"unsigned char\000"
 501      676E6564 
 501      20636861 
 501      7200
 502              	.LASF11:
 503 0056 726F775F 		.ascii	"row_SetDriveMode\000"
 503      53657444 
 503      72697665 
 503      4D6F6465 
 503      00
 504              	.LASF5:
 505 0067 6C6F6E67 		.ascii	"long unsigned int\000"
 505      20756E73 
 505      69676E65 
 505      6420696E 
 505      7400
 506              	.LASF3:
 507 0079 73686F72 		.ascii	"short unsigned int\000"
 507      7420756E 
 507      7369676E 
 507      65642069 
 507      6E7400
 508              	.LASF18:
 509 008c 463A5C44 		.ascii	"F:\\Documents\\PSoC_Creator\\ledmatrix\\ledmatrixdm"
 509      6F63756D 
 509      656E7473 
 509      5C50536F 
 509      435F4372 
 510 00bb 612E6379 		.ascii	"a.cydsn\000"
 510      64736E00 
 511              	.LASF8:
 512 00c3 756E7369 		.ascii	"unsigned int\000"
 512      676E6564 
 512      20696E74 
 512      00
 513              	.LASF7:
 514 00d0 6C6F6E67 		.ascii	"long long unsigned int\000"
 514      206C6F6E 
 514      6720756E 
 514      7369676E 
 514      65642069 
 515              	.LASF13:
 516 00e7 6D6F6465 		.ascii	"mode\000"
 516      00
 517              	.LASF16:
 518 00ec 474E5520 		.ascii	"GNU C 4.4.1\000"
 518      4320342E 
 518      342E3100 
 519              	.LASF9:
 520 00f8 63686172 		.ascii	"char\000"
 520      00
 521              	.LASF2:
ARM GAS  C:\Users\SUZUKI~1\AppData\Local\Temp\ccJ7TyE5.s 			page 13


 522 00fd 73686F72 		.ascii	"short int\000"
 522      7420696E 
 522      7400
 523              	.LASF15:
 524 0107 726F775F 		.ascii	"row_ReadDataReg\000"
 524      52656164 
 524      44617461 
 524      52656700 
 525              	.LASF19:
 526 0117 75696E74 		.ascii	"uint8\000"
 526      3800
 527              	.LASF4:
 528 011d 6C6F6E67 		.ascii	"long int\000"
 528      20696E74 
 528      00
 529              	.LASF0:
 530 0126 7369676E 		.ascii	"signed char\000"
 530      65642063 
 530      68617200 
 531              	.LASF14:
 532 0132 726F775F 		.ascii	"row_Read\000"
 532      52656164 
 532      00
 533              		.ident	"GCC: (Sourcery G++ Lite 2010q1-188) 4.4.1"
