ARM GAS  C:\Users\SUZUKI~1\AppData\Local\Temp\ccxxehNg.s 			page 1


   1              		.syntax unified
   2              		.cpu cortex-m3
   3              		.fpu softvfp
   4              		.eabi_attribute 20, 1
   5              		.eabi_attribute 21, 1
   6              		.eabi_attribute 23, 3
   7              		.eabi_attribute 24, 1
   8              		.eabi_attribute 25, 1
   9              		.eabi_attribute 26, 1
  10              		.eabi_attribute 30, 4
  11              		.eabi_attribute 18, 4
  12              		.thumb
  13              		.file	"SPIM_1_PM.c"
  14              		.section	.debug_abbrev,"",%progbits
  15              	.Ldebug_abbrev0:
  16              		.section	.debug_info,"",%progbits
  17              	.Ldebug_info0:
  18              		.section	.debug_line,"",%progbits
  19              	.Ldebug_line0:
  20 0000 C9000000 		.text
  20      02006E00 
  20      00000201 
  20      FB0E0D00 
  20      01010101 
  21              	.Ltext0:
  22              		.cfi_sections	.debug_frame
  23              		.section	.text.SPIM_1_SaveConfig,"ax",%progbits
  24              		.align	1
  25              		.global	SPIM_1_SaveConfig
  26              		.thumb
  27              		.thumb_func
  28              		.type	SPIM_1_SaveConfig, %function
  29              	SPIM_1_SaveConfig:
  30              	.LFB0:
  31              		.file 1 ".\\Generated_Source\\PSoC5\\SPIM_1_PM.c"
   1:.\Generated_Source\PSoC5/SPIM_1_PM.c **** /*******************************************************************************
   2:.\Generated_Source\PSoC5/SPIM_1_PM.c **** * File Name: SPIM_1_PM.c
   3:.\Generated_Source\PSoC5/SPIM_1_PM.c **** * Version 2.30
   4:.\Generated_Source\PSoC5/SPIM_1_PM.c **** *
   5:.\Generated_Source\PSoC5/SPIM_1_PM.c **** * Description:
   6:.\Generated_Source\PSoC5/SPIM_1_PM.c **** *  This file contains the setup, control and status commands to support 
   7:.\Generated_Source\PSoC5/SPIM_1_PM.c **** *  component operations in low power mode.  
   8:.\Generated_Source\PSoC5/SPIM_1_PM.c **** *
   9:.\Generated_Source\PSoC5/SPIM_1_PM.c **** * Note:
  10:.\Generated_Source\PSoC5/SPIM_1_PM.c **** *
  11:.\Generated_Source\PSoC5/SPIM_1_PM.c **** ********************************************************************************
  12:.\Generated_Source\PSoC5/SPIM_1_PM.c **** * Copyright 2008-2012, Cypress Semiconductor Corporation.  All rights reserved.
  13:.\Generated_Source\PSoC5/SPIM_1_PM.c **** * You may use this file only in accordance with the license, terms, conditions,
  14:.\Generated_Source\PSoC5/SPIM_1_PM.c **** * disclaimers, and limitations in the end user license agreement accompanying
  15:.\Generated_Source\PSoC5/SPIM_1_PM.c **** * the software package with which this file was provided.
  16:.\Generated_Source\PSoC5/SPIM_1_PM.c **** *******************************************************************************/
  17:.\Generated_Source\PSoC5/SPIM_1_PM.c **** 
  18:.\Generated_Source\PSoC5/SPIM_1_PM.c **** #include "SPIM_1.h"
  19:.\Generated_Source\PSoC5/SPIM_1_PM.c **** 
  20:.\Generated_Source\PSoC5/SPIM_1_PM.c **** static SPIM_1_BACKUP_STRUCT SPIM_1_backup = {
  21:.\Generated_Source\PSoC5/SPIM_1_PM.c ****                                         0u,
  22:.\Generated_Source\PSoC5/SPIM_1_PM.c ****                                         SPIM_1_BITCTR_INIT,
ARM GAS  C:\Users\SUZUKI~1\AppData\Local\Temp\ccxxehNg.s 			page 2


  23:.\Generated_Source\PSoC5/SPIM_1_PM.c ****                                         #if(CY_UDB_V0)
  24:.\Generated_Source\PSoC5/SPIM_1_PM.c ****                                             SPIM_1_TX_INIT_INTERRUPTS_MASK,
  25:.\Generated_Source\PSoC5/SPIM_1_PM.c ****                                             SPIM_1_RX_INIT_INTERRUPTS_MASK
  26:.\Generated_Source\PSoC5/SPIM_1_PM.c ****                                         #endif /* CY_UDB_V0 */
  27:.\Generated_Source\PSoC5/SPIM_1_PM.c ****                                         };
  28:.\Generated_Source\PSoC5/SPIM_1_PM.c **** 
  29:.\Generated_Source\PSoC5/SPIM_1_PM.c **** #if (SPIM_1_TXBUFFERSIZE > 4u)
  30:.\Generated_Source\PSoC5/SPIM_1_PM.c **** 
  31:.\Generated_Source\PSoC5/SPIM_1_PM.c ****     extern volatile uint8 SPIM_1_txBufferRead;
  32:.\Generated_Source\PSoC5/SPIM_1_PM.c ****     extern volatile uint8 SPIM_1_txBufferWrite;
  33:.\Generated_Source\PSoC5/SPIM_1_PM.c ****     
  34:.\Generated_Source\PSoC5/SPIM_1_PM.c **** #endif /* SPIM_1_TXBUFFERSIZE > 4u */
  35:.\Generated_Source\PSoC5/SPIM_1_PM.c **** 
  36:.\Generated_Source\PSoC5/SPIM_1_PM.c **** #if (SPIM_1_RXBUFFERSIZE > 4u)
  37:.\Generated_Source\PSoC5/SPIM_1_PM.c **** 
  38:.\Generated_Source\PSoC5/SPIM_1_PM.c ****     extern volatile uint8 SPIM_1_rxBufferRead;
  39:.\Generated_Source\PSoC5/SPIM_1_PM.c ****     extern volatile uint8 SPIM_1_rxBufferWrite;
  40:.\Generated_Source\PSoC5/SPIM_1_PM.c ****     
  41:.\Generated_Source\PSoC5/SPIM_1_PM.c **** #endif /* SPIM_1_RXBUFFERSIZE > 4u */
  42:.\Generated_Source\PSoC5/SPIM_1_PM.c **** 
  43:.\Generated_Source\PSoC5/SPIM_1_PM.c **** 
  44:.\Generated_Source\PSoC5/SPIM_1_PM.c **** /*******************************************************************************
  45:.\Generated_Source\PSoC5/SPIM_1_PM.c **** * Function Name: SPIM_1_SaveConfig
  46:.\Generated_Source\PSoC5/SPIM_1_PM.c **** ********************************************************************************
  47:.\Generated_Source\PSoC5/SPIM_1_PM.c **** *
  48:.\Generated_Source\PSoC5/SPIM_1_PM.c **** * Summary:
  49:.\Generated_Source\PSoC5/SPIM_1_PM.c **** *  Saves SPIM configuration.
  50:.\Generated_Source\PSoC5/SPIM_1_PM.c **** *
  51:.\Generated_Source\PSoC5/SPIM_1_PM.c **** * Parameters:
  52:.\Generated_Source\PSoC5/SPIM_1_PM.c **** *  None.
  53:.\Generated_Source\PSoC5/SPIM_1_PM.c **** *
  54:.\Generated_Source\PSoC5/SPIM_1_PM.c **** * Return:
  55:.\Generated_Source\PSoC5/SPIM_1_PM.c **** *  None.
  56:.\Generated_Source\PSoC5/SPIM_1_PM.c **** * 
  57:.\Generated_Source\PSoC5/SPIM_1_PM.c **** * Global Variables:
  58:.\Generated_Source\PSoC5/SPIM_1_PM.c **** *  SPIM_1_backup - modified when non-retention registers are saved.
  59:.\Generated_Source\PSoC5/SPIM_1_PM.c **** *
  60:.\Generated_Source\PSoC5/SPIM_1_PM.c **** * Reentrant:
  61:.\Generated_Source\PSoC5/SPIM_1_PM.c **** *  No.
  62:.\Generated_Source\PSoC5/SPIM_1_PM.c **** *
  63:.\Generated_Source\PSoC5/SPIM_1_PM.c **** *******************************************************************************/
  64:.\Generated_Source\PSoC5/SPIM_1_PM.c **** void SPIM_1_SaveConfig(void) 
  65:.\Generated_Source\PSoC5/SPIM_1_PM.c **** {
  32              		.loc 1 65 0
  33              		.cfi_startproc
  34              		@ args = 0, pretend = 0, frame = 0
  35              		@ frame_needed = 0, uses_anonymous_args = 0
  36              		@ link register save eliminated.
  66:.\Generated_Source\PSoC5/SPIM_1_PM.c ****     /* Store Status Mask registers */
  67:.\Generated_Source\PSoC5/SPIM_1_PM.c ****     #if (CY_UDB_V0)     
  68:.\Generated_Source\PSoC5/SPIM_1_PM.c ****     
  69:.\Generated_Source\PSoC5/SPIM_1_PM.c ****        SPIM_1_backup.saveSrTxIntMask = SPIM_1_TX_STATUS_MASK_REG;
  37              		.loc 1 69 0
  38 0000 054B     		ldr	r3, .L3
  39 0002 1A78     		ldrb	r2, [r3, #0]	@ zero_extendqisi2
  40 0004 054B     		ldr	r3, .L3+4
  41 0006 9A70     		strb	r2, [r3, #2]
ARM GAS  C:\Users\SUZUKI~1\AppData\Local\Temp\ccxxehNg.s 			page 3


  70:.\Generated_Source\PSoC5/SPIM_1_PM.c ****        SPIM_1_backup.saveSrRxIntMask = SPIM_1_RX_STATUS_MASK_REG;
  42              		.loc 1 70 0
  43 0008 054A     		ldr	r2, .L3+8
  44 000a 1278     		ldrb	r2, [r2, #0]	@ zero_extendqisi2
  45 000c DA70     		strb	r2, [r3, #3]
  71:.\Generated_Source\PSoC5/SPIM_1_PM.c ****        SPIM_1_backup.cntrPeriod = SPIM_1_COUNTER_PERIOD_REG;
  46              		.loc 1 71 0
  47 000e 054A     		ldr	r2, .L3+12
  48 0010 1278     		ldrb	r2, [r2, #0]	@ zero_extendqisi2
  49 0012 5A70     		strb	r2, [r3, #1]
  72:.\Generated_Source\PSoC5/SPIM_1_PM.c ****        
  73:.\Generated_Source\PSoC5/SPIM_1_PM.c ****     #endif /* CY_UDB_V0 */
  74:.\Generated_Source\PSoC5/SPIM_1_PM.c **** }
  50              		.loc 1 74 0
  51 0014 7047     		bx	lr
  52              	.L4:
  53 0016 00BF     		.align	2
  54              	.L3:
  55 0018 8C640040 		.word	1073767564
  56 001c 00000000 		.word	.LANCHOR0
  57 0020 80640040 		.word	1073767552
  58 0024 8B640040 		.word	1073767563
  59              		.cfi_endproc
  60              	.LFE0:
  61              		.size	SPIM_1_SaveConfig, .-SPIM_1_SaveConfig
  62              		.section	.text.SPIM_1_RestoreConfig,"ax",%progbits
  63              		.align	1
  64              		.global	SPIM_1_RestoreConfig
  65              		.thumb
  66              		.thumb_func
  67              		.type	SPIM_1_RestoreConfig, %function
  68              	SPIM_1_RestoreConfig:
  69              	.LFB1:
  75:.\Generated_Source\PSoC5/SPIM_1_PM.c **** 
  76:.\Generated_Source\PSoC5/SPIM_1_PM.c **** 
  77:.\Generated_Source\PSoC5/SPIM_1_PM.c **** /*******************************************************************************
  78:.\Generated_Source\PSoC5/SPIM_1_PM.c **** * Function Name: SPIM_1_RestoreConfig
  79:.\Generated_Source\PSoC5/SPIM_1_PM.c **** ********************************************************************************
  80:.\Generated_Source\PSoC5/SPIM_1_PM.c **** *
  81:.\Generated_Source\PSoC5/SPIM_1_PM.c **** * Summary:
  82:.\Generated_Source\PSoC5/SPIM_1_PM.c **** *  Restores SPIM configuration.
  83:.\Generated_Source\PSoC5/SPIM_1_PM.c **** *
  84:.\Generated_Source\PSoC5/SPIM_1_PM.c **** * Parameters:
  85:.\Generated_Source\PSoC5/SPIM_1_PM.c **** *  None.
  86:.\Generated_Source\PSoC5/SPIM_1_PM.c **** *
  87:.\Generated_Source\PSoC5/SPIM_1_PM.c **** * Return:
  88:.\Generated_Source\PSoC5/SPIM_1_PM.c **** *  None.
  89:.\Generated_Source\PSoC5/SPIM_1_PM.c **** *
  90:.\Generated_Source\PSoC5/SPIM_1_PM.c **** * Global Variables:
  91:.\Generated_Source\PSoC5/SPIM_1_PM.c **** *  SPIM_1_backup - used when non-retention registers are restored.
  92:.\Generated_Source\PSoC5/SPIM_1_PM.c **** *
  93:.\Generated_Source\PSoC5/SPIM_1_PM.c **** * Side Effects:
  94:.\Generated_Source\PSoC5/SPIM_1_PM.c **** *  If this API is called without first calling SaveConfig then in the following
  95:.\Generated_Source\PSoC5/SPIM_1_PM.c **** *  registers will be default values from Customizer: 
  96:.\Generated_Source\PSoC5/SPIM_1_PM.c **** *  SPIM_1_STATUS_MASK_REG and SPIM_1_COUNTER_PERIOD_REG.
  97:.\Generated_Source\PSoC5/SPIM_1_PM.c **** *
  98:.\Generated_Source\PSoC5/SPIM_1_PM.c **** *******************************************************************************/
ARM GAS  C:\Users\SUZUKI~1\AppData\Local\Temp\ccxxehNg.s 			page 4


  99:.\Generated_Source\PSoC5/SPIM_1_PM.c **** void SPIM_1_RestoreConfig(void) 
 100:.\Generated_Source\PSoC5/SPIM_1_PM.c **** {
  70              		.loc 1 100 0
  71              		.cfi_startproc
  72              		@ args = 0, pretend = 0, frame = 0
  73              		@ frame_needed = 0, uses_anonymous_args = 0
  74              		@ link register save eliminated.
 101:.\Generated_Source\PSoC5/SPIM_1_PM.c ****     /* Restore the data, saved by SaveConfig() function */
 102:.\Generated_Source\PSoC5/SPIM_1_PM.c ****     #if (CY_UDB_V0)
 103:.\Generated_Source\PSoC5/SPIM_1_PM.c ****     
 104:.\Generated_Source\PSoC5/SPIM_1_PM.c ****         SPIM_1_TX_STATUS_MASK_REG = SPIM_1_backup.saveSrTxIntMask;
  75              		.loc 1 104 0
  76 0000 054B     		ldr	r3, .L7
  77 0002 064A     		ldr	r2, .L7+4
  78 0004 9978     		ldrb	r1, [r3, #2]	@ zero_extendqisi2
  79 0006 1170     		strb	r1, [r2, #0]
 105:.\Generated_Source\PSoC5/SPIM_1_PM.c ****         SPIM_1_RX_STATUS_MASK_REG = SPIM_1_backup.saveSrRxIntMask;
  80              		.loc 1 105 0
  81 0008 D978     		ldrb	r1, [r3, #3]	@ zero_extendqisi2
  82 000a 0C3A     		subs	r2, r2, #12
  83 000c 1170     		strb	r1, [r2, #0]
 106:.\Generated_Source\PSoC5/SPIM_1_PM.c ****         SPIM_1_COUNTER_PERIOD_REG = SPIM_1_backup.cntrPeriod;
  84              		.loc 1 106 0
  85 000e 5A78     		ldrb	r2, [r3, #1]	@ zero_extendqisi2
  86 0010 034B     		ldr	r3, .L7+8
  87 0012 1A70     		strb	r2, [r3, #0]
 107:.\Generated_Source\PSoC5/SPIM_1_PM.c ****         
 108:.\Generated_Source\PSoC5/SPIM_1_PM.c ****     #endif /* CY_UDB_V0 */
 109:.\Generated_Source\PSoC5/SPIM_1_PM.c **** }
  88              		.loc 1 109 0
  89 0014 7047     		bx	lr
  90              	.L8:
  91 0016 00BF     		.align	2
  92              	.L7:
  93 0018 00000000 		.word	.LANCHOR0
  94 001c 8C640040 		.word	1073767564
  95 0020 8B640040 		.word	1073767563
  96              		.cfi_endproc
  97              	.LFE1:
  98              		.size	SPIM_1_RestoreConfig, .-SPIM_1_RestoreConfig
  99              		.section	.text.SPIM_1_Wakeup,"ax",%progbits
 100              		.align	1
 101              		.global	SPIM_1_Wakeup
 102              		.thumb
 103              		.thumb_func
 104              		.type	SPIM_1_Wakeup, %function
 105              	SPIM_1_Wakeup:
 106              	.LFB3:
 110:.\Generated_Source\PSoC5/SPIM_1_PM.c **** 
 111:.\Generated_Source\PSoC5/SPIM_1_PM.c **** 
 112:.\Generated_Source\PSoC5/SPIM_1_PM.c **** /*******************************************************************************
 113:.\Generated_Source\PSoC5/SPIM_1_PM.c **** * Function Name: SPIM_1_Sleep
 114:.\Generated_Source\PSoC5/SPIM_1_PM.c **** ********************************************************************************
 115:.\Generated_Source\PSoC5/SPIM_1_PM.c **** *
 116:.\Generated_Source\PSoC5/SPIM_1_PM.c **** * Summary:
 117:.\Generated_Source\PSoC5/SPIM_1_PM.c **** *  Prepare SPIM Component goes to sleep.
 118:.\Generated_Source\PSoC5/SPIM_1_PM.c **** *
ARM GAS  C:\Users\SUZUKI~1\AppData\Local\Temp\ccxxehNg.s 			page 5


 119:.\Generated_Source\PSoC5/SPIM_1_PM.c **** * Parameters:  
 120:.\Generated_Source\PSoC5/SPIM_1_PM.c **** *  None.
 121:.\Generated_Source\PSoC5/SPIM_1_PM.c **** *
 122:.\Generated_Source\PSoC5/SPIM_1_PM.c **** * Return: 
 123:.\Generated_Source\PSoC5/SPIM_1_PM.c **** *  None.
 124:.\Generated_Source\PSoC5/SPIM_1_PM.c **** *
 125:.\Generated_Source\PSoC5/SPIM_1_PM.c **** * Global Variables:
 126:.\Generated_Source\PSoC5/SPIM_1_PM.c **** *  SPIM_1_backup - modified when non-retention registers are saved.
 127:.\Generated_Source\PSoC5/SPIM_1_PM.c **** *
 128:.\Generated_Source\PSoC5/SPIM_1_PM.c **** * Reentrant:
 129:.\Generated_Source\PSoC5/SPIM_1_PM.c **** *  No.
 130:.\Generated_Source\PSoC5/SPIM_1_PM.c **** *
 131:.\Generated_Source\PSoC5/SPIM_1_PM.c **** *******************************************************************************/
 132:.\Generated_Source\PSoC5/SPIM_1_PM.c **** void SPIM_1_Sleep(void) 
 133:.\Generated_Source\PSoC5/SPIM_1_PM.c **** {
 134:.\Generated_Source\PSoC5/SPIM_1_PM.c ****     /* Save components enable state */
 135:.\Generated_Source\PSoC5/SPIM_1_PM.c ****     if ((SPIM_1_TX_STATUS_ACTL_REG & SPIM_1_INT_ENABLE) == SPIM_1_INT_ENABLE)
 136:.\Generated_Source\PSoC5/SPIM_1_PM.c ****     {
 137:.\Generated_Source\PSoC5/SPIM_1_PM.c ****         SPIM_1_backup.enableState = 1u;
 138:.\Generated_Source\PSoC5/SPIM_1_PM.c ****     }
 139:.\Generated_Source\PSoC5/SPIM_1_PM.c ****     else /* Components block is disabled */
 140:.\Generated_Source\PSoC5/SPIM_1_PM.c ****     {
 141:.\Generated_Source\PSoC5/SPIM_1_PM.c ****         SPIM_1_backup.enableState = 0u;
 142:.\Generated_Source\PSoC5/SPIM_1_PM.c ****     }
 143:.\Generated_Source\PSoC5/SPIM_1_PM.c **** 
 144:.\Generated_Source\PSoC5/SPIM_1_PM.c ****     SPIM_1_Stop();
 145:.\Generated_Source\PSoC5/SPIM_1_PM.c **** 
 146:.\Generated_Source\PSoC5/SPIM_1_PM.c ****     SPIM_1_SaveConfig();
 147:.\Generated_Source\PSoC5/SPIM_1_PM.c **** }
 148:.\Generated_Source\PSoC5/SPIM_1_PM.c **** 
 149:.\Generated_Source\PSoC5/SPIM_1_PM.c **** 
 150:.\Generated_Source\PSoC5/SPIM_1_PM.c **** /*******************************************************************************
 151:.\Generated_Source\PSoC5/SPIM_1_PM.c **** * Function Name: SPIM_1_Wakeup
 152:.\Generated_Source\PSoC5/SPIM_1_PM.c **** ********************************************************************************
 153:.\Generated_Source\PSoC5/SPIM_1_PM.c **** *
 154:.\Generated_Source\PSoC5/SPIM_1_PM.c **** * Summary:
 155:.\Generated_Source\PSoC5/SPIM_1_PM.c **** *  Prepare SPIM Component to wake up.
 156:.\Generated_Source\PSoC5/SPIM_1_PM.c **** *
 157:.\Generated_Source\PSoC5/SPIM_1_PM.c **** * Parameters:  
 158:.\Generated_Source\PSoC5/SPIM_1_PM.c **** *  None.
 159:.\Generated_Source\PSoC5/SPIM_1_PM.c **** *
 160:.\Generated_Source\PSoC5/SPIM_1_PM.c **** * Return: 
 161:.\Generated_Source\PSoC5/SPIM_1_PM.c **** *  None.
 162:.\Generated_Source\PSoC5/SPIM_1_PM.c **** *
 163:.\Generated_Source\PSoC5/SPIM_1_PM.c **** * Global Variables:
 164:.\Generated_Source\PSoC5/SPIM_1_PM.c **** *  SPIM_1_backup - used when non-retention registers are restored.
 165:.\Generated_Source\PSoC5/SPIM_1_PM.c **** *  SPIM_1_txBufferWrite - modified every function call - resets to 
 166:.\Generated_Source\PSoC5/SPIM_1_PM.c **** *  zero.
 167:.\Generated_Source\PSoC5/SPIM_1_PM.c **** *  SPIM_1_txBufferRead - modified every function call - resets to 
 168:.\Generated_Source\PSoC5/SPIM_1_PM.c **** *  zero.
 169:.\Generated_Source\PSoC5/SPIM_1_PM.c **** *  SPIM_1_rxBufferWrite - modified every function call - resets to
 170:.\Generated_Source\PSoC5/SPIM_1_PM.c **** *  zero.
 171:.\Generated_Source\PSoC5/SPIM_1_PM.c **** *  SPIM_1_rxBufferRead - modified every function call - resets to
 172:.\Generated_Source\PSoC5/SPIM_1_PM.c **** *  zero. 
 173:.\Generated_Source\PSoC5/SPIM_1_PM.c **** *
 174:.\Generated_Source\PSoC5/SPIM_1_PM.c **** * Reentrant:
 175:.\Generated_Source\PSoC5/SPIM_1_PM.c **** *  No.
ARM GAS  C:\Users\SUZUKI~1\AppData\Local\Temp\ccxxehNg.s 			page 6


 176:.\Generated_Source\PSoC5/SPIM_1_PM.c **** *
 177:.\Generated_Source\PSoC5/SPIM_1_PM.c **** *******************************************************************************/
 178:.\Generated_Source\PSoC5/SPIM_1_PM.c **** void SPIM_1_Wakeup(void) 
 179:.\Generated_Source\PSoC5/SPIM_1_PM.c **** {        
 107              		.loc 1 179 0
 108              		.cfi_startproc
 109              		@ args = 0, pretend = 0, frame = 0
 110              		@ frame_needed = 0, uses_anonymous_args = 0
 111 0000 10B5     		push	{r4, lr}
 112              	.LCFI0:
 113              		.cfi_def_cfa_offset 8
 180:.\Generated_Source\PSoC5/SPIM_1_PM.c ****     SPIM_1_RestoreConfig();
 114              		.loc 1 180 0
 115              		.cfi_offset 14, -4
 116              		.cfi_offset 4, -8
 117 0002 FFF7FEFF 		bl	SPIM_1_RestoreConfig
 181:.\Generated_Source\PSoC5/SPIM_1_PM.c ****          
 182:.\Generated_Source\PSoC5/SPIM_1_PM.c ****     #if (SPIM_1_TXBUFFERSIZE > 4u)
 183:.\Generated_Source\PSoC5/SPIM_1_PM.c ****     
 184:.\Generated_Source\PSoC5/SPIM_1_PM.c ****         SPIM_1_txBufferRead = 0u;
 185:.\Generated_Source\PSoC5/SPIM_1_PM.c ****         SPIM_1_txBufferWrite = 0u;
 186:.\Generated_Source\PSoC5/SPIM_1_PM.c ****         
 187:.\Generated_Source\PSoC5/SPIM_1_PM.c ****     #endif /* SPIM_1_TXBUFFERSIZE > 4u */
 188:.\Generated_Source\PSoC5/SPIM_1_PM.c ****     
 189:.\Generated_Source\PSoC5/SPIM_1_PM.c ****     #if (SPIM_1_RXBUFFERSIZE > 4u)    
 190:.\Generated_Source\PSoC5/SPIM_1_PM.c ****     
 191:.\Generated_Source\PSoC5/SPIM_1_PM.c ****         SPIM_1_rxBufferRead = 0u;
 192:.\Generated_Source\PSoC5/SPIM_1_PM.c ****         SPIM_1_rxBufferWrite = 0u;
 193:.\Generated_Source\PSoC5/SPIM_1_PM.c ****         
 194:.\Generated_Source\PSoC5/SPIM_1_PM.c ****     #endif /* SPIM_1_RXBUFFERSIZE > 4u */ 
 195:.\Generated_Source\PSoC5/SPIM_1_PM.c ****     
 196:.\Generated_Source\PSoC5/SPIM_1_PM.c ****     SPIM_1_ClearFIFO();
 118              		.loc 1 196 0
 119 0006 FFF7FEFF 		bl	SPIM_1_ClearFIFO
 197:.\Generated_Source\PSoC5/SPIM_1_PM.c ****     
 198:.\Generated_Source\PSoC5/SPIM_1_PM.c ****     /* Restore components block enable state */
 199:.\Generated_Source\PSoC5/SPIM_1_PM.c ****     if (SPIM_1_backup.enableState != 0u)
 120              		.loc 1 199 0
 121 000a 044B     		ldr	r3, .L13
 122 000c 1B78     		ldrb	r3, [r3, #0]	@ zero_extendqisi2
 123 000e 1BB1     		cbz	r3, .L11
 200:.\Generated_Source\PSoC5/SPIM_1_PM.c ****     {
 201:.\Generated_Source\PSoC5/SPIM_1_PM.c ****          /* Components block was enabled */
 202:.\Generated_Source\PSoC5/SPIM_1_PM.c ****          SPIM_1_Enable();
 203:.\Generated_Source\PSoC5/SPIM_1_PM.c ****     } /* Do nothing if components block was disabled */
 204:.\Generated_Source\PSoC5/SPIM_1_PM.c **** }
 124              		.loc 1 204 0
 125 0010 BDE81040 		pop	{r4, lr}
 126              		.loc 1 202 0
 127 0014 FFF7FEBF 		b	SPIM_1_Enable
 128              	.L11:
 129 0018 10BD     		pop	{r4, pc}
 130              	.L14:
 131 001a 00BF     		.align	2
 132              	.L13:
 133 001c 00000000 		.word	.LANCHOR0
 134              		.cfi_endproc
ARM GAS  C:\Users\SUZUKI~1\AppData\Local\Temp\ccxxehNg.s 			page 7


 135              	.LFE3:
 136              		.size	SPIM_1_Wakeup, .-SPIM_1_Wakeup
 137              		.section	.text.SPIM_1_Sleep,"ax",%progbits
 138              		.align	1
 139              		.global	SPIM_1_Sleep
 140              		.thumb
 141              		.thumb_func
 142              		.type	SPIM_1_Sleep, %function
 143              	SPIM_1_Sleep:
 144              	.LFB2:
 145              		.loc 1 133 0
 146              		.cfi_startproc
 147              		@ args = 0, pretend = 0, frame = 0
 148              		@ frame_needed = 0, uses_anonymous_args = 0
 149 0000 10B5     		push	{r4, lr}
 150              	.LCFI1:
 151              		.cfi_def_cfa_offset 8
 152              		.loc 1 135 0
 153 0002 074B     		ldr	r3, .L19
 154 0004 1B78     		ldrb	r3, [r3, #0]	@ zero_extendqisi2
 155 0006 13F01002 		ands	r2, r3, #16
 156 000a 064B     		ldr	r3, .L19+4
 157              		.loc 1 137 0
 158 000c 18BF     		it	ne
 159 000e 0122     		movne	r2, #1
 160              		.loc 1 141 0
 161 0010 1A70     		strb	r2, [r3, #0]
 162              		.loc 1 144 0
 163              		.cfi_offset 14, -4
 164              		.cfi_offset 4, -8
 165 0012 FFF7FEFF 		bl	SPIM_1_Stop
 166              		.loc 1 147 0
 167 0016 BDE81040 		pop	{r4, lr}
 168              		.loc 1 146 0
 169 001a FFF7FEBF 		b	SPIM_1_SaveConfig
 170              	.L20:
 171 001e 00BF     		.align	2
 172              	.L19:
 173 0020 9C640040 		.word	1073767580
 174 0024 00000000 		.word	.LANCHOR0
 175              		.cfi_endproc
 176              	.LFE2:
 177              		.size	SPIM_1_Sleep, .-SPIM_1_Sleep
 178              		.data
 179              		.align	2
 180              		.set	.LANCHOR0,. + 0
 181              		.type	SPIM_1_backup, %object
 182              		.size	SPIM_1_backup, 4
 183              	SPIM_1_backup:
 184 0000 00       		.byte	0
 185 0001 0F       		.byte	15
 186 0002 00       		.byte	0
 187 0003 00       		.byte	0
 188              		.text
 189              	.Letext0:
 190              		.section	.debug_loc,"",%progbits
 191              	.Ldebug_loc0:
ARM GAS  C:\Users\SUZUKI~1\AppData\Local\Temp\ccxxehNg.s 			page 8


 192              	.LLST2:
 193 0000 00000000 		.4byte	.LFB3
 194 0004 02000000 		.4byte	.LCFI0
 195 0008 0100     		.2byte	0x1
 196 000a 5D       		.byte	0x5d
 197 000b 02000000 		.4byte	.LCFI0
 198 000f 20000000 		.4byte	.LFE3
 199 0013 0200     		.2byte	0x2
 200 0015 7D       		.byte	0x7d
 201 0016 08       		.sleb128 8
 202 0017 00000000 		.4byte	0x0
 203 001b 00000000 		.4byte	0x0
 204              	.LLST3:
 205 001f 00000000 		.4byte	.LFB2
 206 0023 02000000 		.4byte	.LCFI1
 207 0027 0100     		.2byte	0x1
 208 0029 5D       		.byte	0x5d
 209 002a 02000000 		.4byte	.LCFI1
 210 002e 28000000 		.4byte	.LFE2
 211 0032 0200     		.2byte	0x2
 212 0034 7D       		.byte	0x7d
 213 0035 08       		.sleb128 8
 214 0036 00000000 		.4byte	0x0
 215 003a 00000000 		.4byte	0x0
 216              		.file 2 ".\\Generated_Source\\PSoC5\\/SPIM_1.h"
 217              		.file 3 ".\\Generated_Source\\PSoC5\\/cytypes.h"
 218              		.section	.debug_info
 219 0000 2F010000 		.4byte	0x12f
 220 0004 0200     		.2byte	0x2
 221 0006 00000000 		.4byte	.Ldebug_abbrev0
 222 000a 04       		.byte	0x4
 223 000b 01       		.uleb128 0x1
 224 000c 1F010000 		.4byte	.LASF20
 225 0010 01       		.byte	0x1
 226 0011 55010000 		.4byte	.LASF21
 227 0015 86000000 		.4byte	.LASF22
 228 0019 00000000 		.4byte	0x0
 229 001d 00000000 		.4byte	0x0
 230 0021 00000000 		.4byte	.Ldebug_ranges0+0x0
 231 0025 00000000 		.4byte	.Ldebug_line0
 232 0029 02       		.uleb128 0x2
 233 002a 01       		.byte	0x1
 234 002b 06       		.byte	0x6
 235 002c 9C010000 		.4byte	.LASF0
 236 0030 02       		.uleb128 0x2
 237 0031 01       		.byte	0x1
 238 0032 08       		.byte	0x8
 239 0033 3E000000 		.4byte	.LASF1
 240 0037 02       		.uleb128 0x2
 241 0038 02       		.byte	0x2
 242 0039 05       		.byte	0x5
 243 003a 45010000 		.4byte	.LASF2
 244 003e 02       		.uleb128 0x2
 245 003f 02       		.byte	0x2
 246 0040 07       		.byte	0x7
 247 0041 73000000 		.4byte	.LASF3
 248 0045 02       		.uleb128 0x2
ARM GAS  C:\Users\SUZUKI~1\AppData\Local\Temp\ccxxehNg.s 			page 9


 249 0046 04       		.byte	0x4
 250 0047 05       		.byte	0x5
 251 0048 87010000 		.4byte	.LASF4
 252 004c 02       		.uleb128 0x2
 253 004d 04       		.byte	0x4
 254 004e 07       		.byte	0x7
 255 004f 61000000 		.4byte	.LASF5
 256 0053 02       		.uleb128 0x2
 257 0054 08       		.byte	0x8
 258 0055 05       		.byte	0x5
 259 0056 00000000 		.4byte	.LASF6
 260 005a 02       		.uleb128 0x2
 261 005b 08       		.byte	0x8
 262 005c 07       		.byte	0x7
 263 005d 08010000 		.4byte	.LASF7
 264 0061 03       		.uleb128 0x3
 265 0062 04       		.byte	0x4
 266 0063 05       		.byte	0x5
 267 0064 696E7400 		.ascii	"int\000"
 268 0068 02       		.uleb128 0x2
 269 0069 04       		.byte	0x4
 270 006a 07       		.byte	0x7
 271 006b E6000000 		.4byte	.LASF8
 272 006f 02       		.uleb128 0x2
 273 0070 01       		.byte	0x1
 274 0071 08       		.byte	0x8
 275 0072 2B010000 		.4byte	.LASF9
 276 0076 04       		.uleb128 0x4
 277 0077 4F010000 		.4byte	.LASF14
 278 007b 03       		.byte	0x3
 279 007c 60       		.byte	0x60
 280 007d 30000000 		.4byte	0x30
 281 0081 05       		.uleb128 0x5
 282 0082 4C000000 		.4byte	.LASF23
 283 0086 04       		.byte	0x4
 284 0087 02       		.byte	0x2
 285 0088 37       		.byte	0x37
 286 0089 C6000000 		.4byte	0xc6
 287 008d 06       		.uleb128 0x6
 288 008e 90010000 		.4byte	.LASF10
 289 0092 02       		.byte	0x2
 290 0093 38       		.byte	0x38
 291 0094 76000000 		.4byte	0x76
 292 0098 02       		.byte	0x2
 293 0099 23       		.byte	0x23
 294 009a 00       		.uleb128 0x0
 295 009b 06       		.uleb128 0x6
 296 009c DB000000 		.4byte	.LASF11
 297 00a0 02       		.byte	0x2
 298 00a1 39       		.byte	0x39
 299 00a2 76000000 		.4byte	0x76
 300 00a6 02       		.byte	0x2
 301 00a7 23       		.byte	0x23
 302 00a8 01       		.uleb128 0x1
 303 00a9 06       		.uleb128 0x6
 304 00aa 20000000 		.4byte	.LASF12
 305 00ae 02       		.byte	0x2
ARM GAS  C:\Users\SUZUKI~1\AppData\Local\Temp\ccxxehNg.s 			page 10


 306 00af 3D       		.byte	0x3d
 307 00b0 76000000 		.4byte	0x76
 308 00b4 02       		.byte	0x2
 309 00b5 23       		.byte	0x23
 310 00b6 02       		.uleb128 0x2
 311 00b7 06       		.uleb128 0x6
 312 00b8 BD000000 		.4byte	.LASF13
 313 00bc 02       		.byte	0x2
 314 00bd 3E       		.byte	0x3e
 315 00be 76000000 		.4byte	0x76
 316 00c2 02       		.byte	0x2
 317 00c3 23       		.byte	0x23
 318 00c4 03       		.uleb128 0x3
 319 00c5 00       		.byte	0x0
 320 00c6 04       		.uleb128 0x4
 321 00c7 F3000000 		.4byte	.LASF15
 322 00cb 02       		.byte	0x2
 323 00cc 42       		.byte	0x42
 324 00cd 81000000 		.4byte	0x81
 325 00d1 07       		.uleb128 0x7
 326 00d2 01       		.byte	0x1
 327 00d3 0E000000 		.4byte	.LASF16
 328 00d7 01       		.byte	0x1
 329 00d8 40       		.byte	0x40
 330 00d9 01       		.byte	0x1
 331 00da 00000000 		.4byte	.LFB0
 332 00de 28000000 		.4byte	.LFE0
 333 00e2 01       		.byte	0x1
 334 00e3 5D       		.byte	0x5d
 335 00e4 07       		.uleb128 0x7
 336 00e5 01       		.byte	0x1
 337 00e6 30010000 		.4byte	.LASF17
 338 00ea 01       		.byte	0x1
 339 00eb 63       		.byte	0x63
 340 00ec 01       		.byte	0x1
 341 00ed 00000000 		.4byte	.LFB1
 342 00f1 24000000 		.4byte	.LFE1
 343 00f5 01       		.byte	0x1
 344 00f6 5D       		.byte	0x5d
 345 00f7 08       		.uleb128 0x8
 346 00f8 01       		.byte	0x1
 347 00f9 CD000000 		.4byte	.LASF18
 348 00fd 01       		.byte	0x1
 349 00fe B2       		.byte	0xb2
 350 00ff 01       		.byte	0x1
 351 0100 00000000 		.4byte	.LFB3
 352 0104 20000000 		.4byte	.LFE3
 353 0108 00000000 		.4byte	.LLST2
 354 010c 08       		.uleb128 0x8
 355 010d 01       		.byte	0x1
 356 010e 7A010000 		.4byte	.LASF19
 357 0112 01       		.byte	0x1
 358 0113 84       		.byte	0x84
 359 0114 01       		.byte	0x1
 360 0115 00000000 		.4byte	.LFB2
 361 0119 28000000 		.4byte	.LFE2
 362 011d 1F000000 		.4byte	.LLST3
ARM GAS  C:\Users\SUZUKI~1\AppData\Local\Temp\ccxxehNg.s 			page 11


 363 0121 09       		.uleb128 0x9
 364 0122 30000000 		.4byte	.LASF24
 365 0126 01       		.byte	0x1
 366 0127 14       		.byte	0x14
 367 0128 C6000000 		.4byte	0xc6
 368 012c 05       		.byte	0x5
 369 012d 03       		.byte	0x3
 370 012e 00000000 		.4byte	SPIM_1_backup
 371 0132 00       		.byte	0x0
 372              		.section	.debug_abbrev
 373 0000 01       		.uleb128 0x1
 374 0001 11       		.uleb128 0x11
 375 0002 01       		.byte	0x1
 376 0003 25       		.uleb128 0x25
 377 0004 0E       		.uleb128 0xe
 378 0005 13       		.uleb128 0x13
 379 0006 0B       		.uleb128 0xb
 380 0007 03       		.uleb128 0x3
 381 0008 0E       		.uleb128 0xe
 382 0009 1B       		.uleb128 0x1b
 383 000a 0E       		.uleb128 0xe
 384 000b 11       		.uleb128 0x11
 385 000c 01       		.uleb128 0x1
 386 000d 52       		.uleb128 0x52
 387 000e 01       		.uleb128 0x1
 388 000f 55       		.uleb128 0x55
 389 0010 06       		.uleb128 0x6
 390 0011 10       		.uleb128 0x10
 391 0012 06       		.uleb128 0x6
 392 0013 00       		.byte	0x0
 393 0014 00       		.byte	0x0
 394 0015 02       		.uleb128 0x2
 395 0016 24       		.uleb128 0x24
 396 0017 00       		.byte	0x0
 397 0018 0B       		.uleb128 0xb
 398 0019 0B       		.uleb128 0xb
 399 001a 3E       		.uleb128 0x3e
 400 001b 0B       		.uleb128 0xb
 401 001c 03       		.uleb128 0x3
 402 001d 0E       		.uleb128 0xe
 403 001e 00       		.byte	0x0
 404 001f 00       		.byte	0x0
 405 0020 03       		.uleb128 0x3
 406 0021 24       		.uleb128 0x24
 407 0022 00       		.byte	0x0
 408 0023 0B       		.uleb128 0xb
 409 0024 0B       		.uleb128 0xb
 410 0025 3E       		.uleb128 0x3e
 411 0026 0B       		.uleb128 0xb
 412 0027 03       		.uleb128 0x3
 413 0028 08       		.uleb128 0x8
 414 0029 00       		.byte	0x0
 415 002a 00       		.byte	0x0
 416 002b 04       		.uleb128 0x4
 417 002c 16       		.uleb128 0x16
 418 002d 00       		.byte	0x0
 419 002e 03       		.uleb128 0x3
ARM GAS  C:\Users\SUZUKI~1\AppData\Local\Temp\ccxxehNg.s 			page 12


 420 002f 0E       		.uleb128 0xe
 421 0030 3A       		.uleb128 0x3a
 422 0031 0B       		.uleb128 0xb
 423 0032 3B       		.uleb128 0x3b
 424 0033 0B       		.uleb128 0xb
 425 0034 49       		.uleb128 0x49
 426 0035 13       		.uleb128 0x13
 427 0036 00       		.byte	0x0
 428 0037 00       		.byte	0x0
 429 0038 05       		.uleb128 0x5
 430 0039 13       		.uleb128 0x13
 431 003a 01       		.byte	0x1
 432 003b 03       		.uleb128 0x3
 433 003c 0E       		.uleb128 0xe
 434 003d 0B       		.uleb128 0xb
 435 003e 0B       		.uleb128 0xb
 436 003f 3A       		.uleb128 0x3a
 437 0040 0B       		.uleb128 0xb
 438 0041 3B       		.uleb128 0x3b
 439 0042 0B       		.uleb128 0xb
 440 0043 01       		.uleb128 0x1
 441 0044 13       		.uleb128 0x13
 442 0045 00       		.byte	0x0
 443 0046 00       		.byte	0x0
 444 0047 06       		.uleb128 0x6
 445 0048 0D       		.uleb128 0xd
 446 0049 00       		.byte	0x0
 447 004a 03       		.uleb128 0x3
 448 004b 0E       		.uleb128 0xe
 449 004c 3A       		.uleb128 0x3a
 450 004d 0B       		.uleb128 0xb
 451 004e 3B       		.uleb128 0x3b
 452 004f 0B       		.uleb128 0xb
 453 0050 49       		.uleb128 0x49
 454 0051 13       		.uleb128 0x13
 455 0052 38       		.uleb128 0x38
 456 0053 0A       		.uleb128 0xa
 457 0054 00       		.byte	0x0
 458 0055 00       		.byte	0x0
 459 0056 07       		.uleb128 0x7
 460 0057 2E       		.uleb128 0x2e
 461 0058 00       		.byte	0x0
 462 0059 3F       		.uleb128 0x3f
 463 005a 0C       		.uleb128 0xc
 464 005b 03       		.uleb128 0x3
 465 005c 0E       		.uleb128 0xe
 466 005d 3A       		.uleb128 0x3a
 467 005e 0B       		.uleb128 0xb
 468 005f 3B       		.uleb128 0x3b
 469 0060 0B       		.uleb128 0xb
 470 0061 27       		.uleb128 0x27
 471 0062 0C       		.uleb128 0xc
 472 0063 11       		.uleb128 0x11
 473 0064 01       		.uleb128 0x1
 474 0065 12       		.uleb128 0x12
 475 0066 01       		.uleb128 0x1
 476 0067 40       		.uleb128 0x40
ARM GAS  C:\Users\SUZUKI~1\AppData\Local\Temp\ccxxehNg.s 			page 13


 477 0068 0A       		.uleb128 0xa
 478 0069 00       		.byte	0x0
 479 006a 00       		.byte	0x0
 480 006b 08       		.uleb128 0x8
 481 006c 2E       		.uleb128 0x2e
 482 006d 00       		.byte	0x0
 483 006e 3F       		.uleb128 0x3f
 484 006f 0C       		.uleb128 0xc
 485 0070 03       		.uleb128 0x3
 486 0071 0E       		.uleb128 0xe
 487 0072 3A       		.uleb128 0x3a
 488 0073 0B       		.uleb128 0xb
 489 0074 3B       		.uleb128 0x3b
 490 0075 0B       		.uleb128 0xb
 491 0076 27       		.uleb128 0x27
 492 0077 0C       		.uleb128 0xc
 493 0078 11       		.uleb128 0x11
 494 0079 01       		.uleb128 0x1
 495 007a 12       		.uleb128 0x12
 496 007b 01       		.uleb128 0x1
 497 007c 40       		.uleb128 0x40
 498 007d 06       		.uleb128 0x6
 499 007e 00       		.byte	0x0
 500 007f 00       		.byte	0x0
 501 0080 09       		.uleb128 0x9
 502 0081 34       		.uleb128 0x34
 503 0082 00       		.byte	0x0
 504 0083 03       		.uleb128 0x3
 505 0084 0E       		.uleb128 0xe
 506 0085 3A       		.uleb128 0x3a
 507 0086 0B       		.uleb128 0xb
 508 0087 3B       		.uleb128 0x3b
 509 0088 0B       		.uleb128 0xb
 510 0089 49       		.uleb128 0x49
 511 008a 13       		.uleb128 0x13
 512 008b 02       		.uleb128 0x2
 513 008c 0A       		.uleb128 0xa
 514 008d 00       		.byte	0x0
 515 008e 00       		.byte	0x0
 516 008f 00       		.byte	0x0
 517              		.section	.debug_pubnames,"",%progbits
 518 0000 60000000 		.4byte	0x60
 519 0004 0200     		.2byte	0x2
 520 0006 00000000 		.4byte	.Ldebug_info0
 521 000a 33010000 		.4byte	0x133
 522 000e D1000000 		.4byte	0xd1
 523 0012 5350494D 		.ascii	"SPIM_1_SaveConfig\000"
 523      5F315F53 
 523      61766543 
 523      6F6E6669 
 523      6700
 524 0024 E4000000 		.4byte	0xe4
 525 0028 5350494D 		.ascii	"SPIM_1_RestoreConfig\000"
 525      5F315F52 
 525      6573746F 
 525      7265436F 
 525      6E666967 
ARM GAS  C:\Users\SUZUKI~1\AppData\Local\Temp\ccxxehNg.s 			page 14


 526 003d F7000000 		.4byte	0xf7
 527 0041 5350494D 		.ascii	"SPIM_1_Wakeup\000"
 527      5F315F57 
 527      616B6575 
 527      7000
 528 004f 0C010000 		.4byte	0x10c
 529 0053 5350494D 		.ascii	"SPIM_1_Sleep\000"
 529      5F315F53 
 529      6C656570 
 529      00
 530 0060 00000000 		.4byte	0x0
 531              		.section	.debug_aranges,"",%progbits
 532 0000 34000000 		.4byte	0x34
 533 0004 0200     		.2byte	0x2
 534 0006 00000000 		.4byte	.Ldebug_info0
 535 000a 04       		.byte	0x4
 536 000b 00       		.byte	0x0
 537 000c 0000     		.2byte	0x0
 538 000e 0000     		.2byte	0x0
 539 0010 00000000 		.4byte	.LFB0
 540 0014 28000000 		.4byte	.LFE0-.LFB0
 541 0018 00000000 		.4byte	.LFB1
 542 001c 24000000 		.4byte	.LFE1-.LFB1
 543 0020 00000000 		.4byte	.LFB3
 544 0024 20000000 		.4byte	.LFE3-.LFB3
 545 0028 00000000 		.4byte	.LFB2
 546 002c 28000000 		.4byte	.LFE2-.LFB2
 547 0030 00000000 		.4byte	0x0
 548 0034 00000000 		.4byte	0x0
 549              		.section	.debug_ranges,"",%progbits
 550              	.Ldebug_ranges0:
 551 0000 00000000 		.4byte	.Ltext0
 552 0004 00000000 		.4byte	.Letext0
 553 0008 00000000 		.4byte	.LFB0
 554 000c 28000000 		.4byte	.LFE0
 555 0010 00000000 		.4byte	.LFB1
 556 0014 24000000 		.4byte	.LFE1
 557 0018 00000000 		.4byte	.LFB3
 558 001c 20000000 		.4byte	.LFE3
 559 0020 00000000 		.4byte	.LFB2
 560 0024 28000000 		.4byte	.LFE2
 561 0028 00000000 		.4byte	0x0
 562 002c 00000000 		.4byte	0x0
 563              		.section	.debug_str,"MS",%progbits,1
 564              	.LASF6:
 565 0000 6C6F6E67 		.ascii	"long long int\000"
 565      206C6F6E 
 565      6720696E 
 565      7400
 566              	.LASF16:
 567 000e 5350494D 		.ascii	"SPIM_1_SaveConfig\000"
 567      5F315F53 
 567      61766543 
 567      6F6E6669 
 567      6700
 568              	.LASF12:
 569 0020 73617665 		.ascii	"saveSrTxIntMask\000"
ARM GAS  C:\Users\SUZUKI~1\AppData\Local\Temp\ccxxehNg.s 			page 15


 569      53725478 
 569      496E744D 
 569      61736B00 
 570              	.LASF24:
 571 0030 5350494D 		.ascii	"SPIM_1_backup\000"
 571      5F315F62 
 571      61636B75 
 571      7000
 572              	.LASF1:
 573 003e 756E7369 		.ascii	"unsigned char\000"
 573      676E6564 
 573      20636861 
 573      7200
 574              	.LASF23:
 575 004c 5F535049 		.ascii	"_SPIM_1_backupStruct\000"
 575      4D5F315F 
 575      6261636B 
 575      75705374 
 575      72756374 
 576              	.LASF5:
 577 0061 6C6F6E67 		.ascii	"long unsigned int\000"
 577      20756E73 
 577      69676E65 
 577      6420696E 
 577      7400
 578              	.LASF3:
 579 0073 73686F72 		.ascii	"short unsigned int\000"
 579      7420756E 
 579      7369676E 
 579      65642069 
 579      6E7400
 580              	.LASF22:
 581 0086 463A5C44 		.ascii	"F:\\Documents\\PSoC_Creator\\ledmatrix\\ledmatrixdm"
 581      6F63756D 
 581      656E7473 
 581      5C50536F 
 581      435F4372 
 582 00b5 612E6379 		.ascii	"a.cydsn\000"
 582      64736E00 
 583              	.LASF13:
 584 00bd 73617665 		.ascii	"saveSrRxIntMask\000"
 584      53725278 
 584      496E744D 
 584      61736B00 
 585              	.LASF18:
 586 00cd 5350494D 		.ascii	"SPIM_1_Wakeup\000"
 586      5F315F57 
 586      616B6575 
 586      7000
 587              	.LASF11:
 588 00db 636E7472 		.ascii	"cntrPeriod\000"
 588      50657269 
 588      6F6400
 589              	.LASF8:
 590 00e6 756E7369 		.ascii	"unsigned int\000"
 590      676E6564 
 590      20696E74 
ARM GAS  C:\Users\SUZUKI~1\AppData\Local\Temp\ccxxehNg.s 			page 16


 590      00
 591              	.LASF15:
 592 00f3 5350494D 		.ascii	"SPIM_1_BACKUP_STRUCT\000"
 592      5F315F42 
 592      41434B55 
 592      505F5354 
 592      52554354 
 593              	.LASF7:
 594 0108 6C6F6E67 		.ascii	"long long unsigned int\000"
 594      206C6F6E 
 594      6720756E 
 594      7369676E 
 594      65642069 
 595              	.LASF20:
 596 011f 474E5520 		.ascii	"GNU C 4.4.1\000"
 596      4320342E 
 596      342E3100 
 597              	.LASF9:
 598 012b 63686172 		.ascii	"char\000"
 598      00
 599              	.LASF17:
 600 0130 5350494D 		.ascii	"SPIM_1_RestoreConfig\000"
 600      5F315F52 
 600      6573746F 
 600      7265436F 
 600      6E666967 
 601              	.LASF2:
 602 0145 73686F72 		.ascii	"short int\000"
 602      7420696E 
 602      7400
 603              	.LASF14:
 604 014f 75696E74 		.ascii	"uint8\000"
 604      3800
 605              	.LASF21:
 606 0155 2E5C4765 		.ascii	".\\Generated_Source\\PSoC5\\SPIM_1_PM.c\000"
 606      6E657261 
 606      7465645F 
 606      536F7572 
 606      63655C50 
 607              	.LASF19:
 608 017a 5350494D 		.ascii	"SPIM_1_Sleep\000"
 608      5F315F53 
 608      6C656570 
 608      00
 609              	.LASF4:
 610 0187 6C6F6E67 		.ascii	"long int\000"
 610      20696E74 
 610      00
 611              	.LASF10:
 612 0190 656E6162 		.ascii	"enableState\000"
 612      6C655374 
 612      61746500 
 613              	.LASF0:
 614 019c 7369676E 		.ascii	"signed char\000"
 614      65642063 
 614      68617200 
 615              		.ident	"GCC: (Sourcery G++ Lite 2010q1-188) 4.4.1"
ARM GAS  C:\Users\SUZUKI~1\AppData\Local\Temp\ccxxehNg.s 			page 17


