ARM GAS  C:\Users\SUZUKI~1\AppData\Local\Temp\ccXgreBJ.s 			page 1


   1              		.syntax unified
   2              		.cpu cortex-m3
   3              		.fpu softvfp
   4              		.eabi_attribute 20, 1
   5              		.eabi_attribute 21, 1
   6              		.eabi_attribute 23, 3
   7              		.eabi_attribute 24, 1
   8              		.eabi_attribute 25, 1
   9              		.eabi_attribute 26, 1
  10              		.eabi_attribute 30, 4
  11              		.eabi_attribute 18, 4
  12              		.thumb
  13              		.file	"UART_INT.c"
  14              		.section	.debug_abbrev,"",%progbits
  15              	.Ldebug_abbrev0:
  16              		.section	.debug_info,"",%progbits
  17              	.Ldebug_info0:
  18              		.section	.debug_line,"",%progbits
  19              	.Ldebug_line0:
  20 0000 19000000 		.text
  20      02001300 
  20      00000201 
  20      FB0E0D00 
  20      01010101 
  21              	.Ltext0:
  22              		.cfi_sections	.debug_frame
  23              	.Letext0:
  24              		.section	.debug_info
  25 0000 72000000 		.4byte	0x72
  26 0004 0200     		.2byte	0x2
  27 0006 00000000 		.4byte	.Ldebug_abbrev0
  28 000a 04       		.byte	0x4
  29 000b 01       		.uleb128 0x1
  30 000c 9F000000 		.4byte	.LASF10
  31 0010 01       		.byte	0x1
  32 0011 64000000 		.4byte	.LASF11
  33 0015 AB000000 		.4byte	.LASF12
  34 0019 00000000 		.4byte	.Ltext0
  35 001d 00000000 		.4byte	.Letext0
  36 0021 00000000 		.4byte	.Ldebug_line0
  37 0025 02       		.uleb128 0x2
  38 0026 01       		.byte	0x1
  39 0027 06       		.byte	0x6
  40 0028 1F000000 		.4byte	.LASF0
  41 002c 02       		.uleb128 0x2
  42 002d 01       		.byte	0x1
  43 002e 08       		.byte	0x8
  44 002f 88000000 		.4byte	.LASF1
  45 0033 02       		.uleb128 0x2
  46 0034 02       		.byte	0x2
  47 0035 05       		.byte	0x5
  48 0036 3E000000 		.4byte	.LASF2
  49 003a 02       		.uleb128 0x2
  50 003b 02       		.byte	0x2
  51 003c 07       		.byte	0x7
  52 003d 2B000000 		.4byte	.LASF3
  53 0041 02       		.uleb128 0x2
ARM GAS  C:\Users\SUZUKI~1\AppData\Local\Temp\ccXgreBJ.s 			page 2


  54 0042 04       		.byte	0x4
  55 0043 05       		.byte	0x5
  56 0044 96000000 		.4byte	.LASF4
  57 0048 02       		.uleb128 0x2
  58 0049 04       		.byte	0x4
  59 004a 07       		.byte	0x7
  60 004b 0D000000 		.4byte	.LASF5
  61 004f 02       		.uleb128 0x2
  62 0050 08       		.byte	0x8
  63 0051 05       		.byte	0x5
  64 0052 E2000000 		.4byte	.LASF6
  65 0056 02       		.uleb128 0x2
  66 0057 08       		.byte	0x8
  67 0058 07       		.byte	0x7
  68 0059 4D000000 		.4byte	.LASF7
  69 005d 03       		.uleb128 0x3
  70 005e 04       		.byte	0x4
  71 005f 05       		.byte	0x5
  72 0060 696E7400 		.ascii	"int\000"
  73 0064 02       		.uleb128 0x2
  74 0065 04       		.byte	0x4
  75 0066 07       		.byte	0x7
  76 0067 00000000 		.4byte	.LASF8
  77 006b 02       		.uleb128 0x2
  78 006c 01       		.byte	0x1
  79 006d 08       		.byte	0x8
  80 006e 48000000 		.4byte	.LASF9
  81 0072 04       		.uleb128 0x4
  82 0073 04       		.byte	0x4
  83 0074 07       		.byte	0x7
  84 0075 00       		.byte	0x0
  85              		.section	.debug_abbrev
  86 0000 01       		.uleb128 0x1
  87 0001 11       		.uleb128 0x11
  88 0002 01       		.byte	0x1
  89 0003 25       		.uleb128 0x25
  90 0004 0E       		.uleb128 0xe
  91 0005 13       		.uleb128 0x13
  92 0006 0B       		.uleb128 0xb
  93 0007 03       		.uleb128 0x3
  94 0008 0E       		.uleb128 0xe
  95 0009 1B       		.uleb128 0x1b
  96 000a 0E       		.uleb128 0xe
  97 000b 11       		.uleb128 0x11
  98 000c 01       		.uleb128 0x1
  99 000d 12       		.uleb128 0x12
 100 000e 01       		.uleb128 0x1
 101 000f 10       		.uleb128 0x10
 102 0010 06       		.uleb128 0x6
 103 0011 00       		.byte	0x0
 104 0012 00       		.byte	0x0
 105 0013 02       		.uleb128 0x2
 106 0014 24       		.uleb128 0x24
 107 0015 00       		.byte	0x0
 108 0016 0B       		.uleb128 0xb
 109 0017 0B       		.uleb128 0xb
 110 0018 3E       		.uleb128 0x3e
ARM GAS  C:\Users\SUZUKI~1\AppData\Local\Temp\ccXgreBJ.s 			page 3


 111 0019 0B       		.uleb128 0xb
 112 001a 03       		.uleb128 0x3
 113 001b 0E       		.uleb128 0xe
 114 001c 00       		.byte	0x0
 115 001d 00       		.byte	0x0
 116 001e 03       		.uleb128 0x3
 117 001f 24       		.uleb128 0x24
 118 0020 00       		.byte	0x0
 119 0021 0B       		.uleb128 0xb
 120 0022 0B       		.uleb128 0xb
 121 0023 3E       		.uleb128 0x3e
 122 0024 0B       		.uleb128 0xb
 123 0025 03       		.uleb128 0x3
 124 0026 08       		.uleb128 0x8
 125 0027 00       		.byte	0x0
 126 0028 00       		.byte	0x0
 127 0029 04       		.uleb128 0x4
 128 002a 24       		.uleb128 0x24
 129 002b 00       		.byte	0x0
 130 002c 0B       		.uleb128 0xb
 131 002d 0B       		.uleb128 0xb
 132 002e 3E       		.uleb128 0x3e
 133 002f 0B       		.uleb128 0xb
 134 0030 00       		.byte	0x0
 135 0031 00       		.byte	0x0
 136 0032 00       		.byte	0x0
 137              		.section	.debug_str,"MS",%progbits,1
 138              	.LASF8:
 139 0000 756E7369 		.ascii	"unsigned int\000"
 139      676E6564 
 139      20696E74 
 139      00
 140              	.LASF5:
 141 000d 6C6F6E67 		.ascii	"long unsigned int\000"
 141      20756E73 
 141      69676E65 
 141      6420696E 
 141      7400
 142              	.LASF0:
 143 001f 7369676E 		.ascii	"signed char\000"
 143      65642063 
 143      68617200 
 144              	.LASF3:
 145 002b 73686F72 		.ascii	"short unsigned int\000"
 145      7420756E 
 145      7369676E 
 145      65642069 
 145      6E7400
 146              	.LASF2:
 147 003e 73686F72 		.ascii	"short int\000"
 147      7420696E 
 147      7400
 148              	.LASF9:
 149 0048 63686172 		.ascii	"char\000"
 149      00
 150              	.LASF7:
 151 004d 6C6F6E67 		.ascii	"long long unsigned int\000"
ARM GAS  C:\Users\SUZUKI~1\AppData\Local\Temp\ccXgreBJ.s 			page 4


 151      206C6F6E 
 151      6720756E 
 151      7369676E 
 151      65642069 
 152              	.LASF11:
 153 0064 2E5C4765 		.ascii	".\\Generated_Source\\PSoC5\\UART_INT.c\000"
 153      6E657261 
 153      7465645F 
 153      536F7572 
 153      63655C50 
 154              	.LASF1:
 155 0088 756E7369 		.ascii	"unsigned char\000"
 155      676E6564 
 155      20636861 
 155      7200
 156              	.LASF4:
 157 0096 6C6F6E67 		.ascii	"long int\000"
 157      20696E74 
 157      00
 158              	.LASF10:
 159 009f 474E5520 		.ascii	"GNU C 4.4.1\000"
 159      4320342E 
 159      342E3100 
 160              	.LASF12:
 161 00ab 463A5C44 		.ascii	"F:\\Documents\\PSoC_Creator\\ledmatrix\\ledmatrixdm"
 161      6F63756D 
 161      656E7473 
 161      5C50536F 
 161      435F4372 
 162 00da 612E6379 		.ascii	"a.cydsn\000"
 162      64736E00 
 163              	.LASF6:
 164 00e2 6C6F6E67 		.ascii	"long long int\000"
 164      206C6F6E 
 164      6720696E 
 164      7400
 165              		.ident	"GCC: (Sourcery G++ Lite 2010q1-188) 4.4.1"
