%MOMM*%
%FSLAX43Y43*%
%ADD2007946581C,7228386977719083600000000000000000.000*%
%ADD2007946581C,7228386977719083600000000000000000.000*%
%ADD2007946581C,7228386977719083600000000000000000.000*%
%ADD2007946581C,7228386977719083600000000000000000.000*%
%ADD2007946581C,7228386977719083600000000000000000.000*%
%ADD2007946581C,7228386977719083600000000000000000.000*%
%ADD2007946581C,7228386977719083600000000000000000.000*%
%ADD2007946581C,7228386977719083600000000000000000.000*%
%ADD2007946581C,7228386977719083600000000000000000.000*%
%ADD2007946581C,7228386977719083600000000000000000.000*%
%ADD2007946581C,7228386977719083600000000000000000.000*%
%ADD2007946581C,7228386977719083600000000000000000.000*%
%ADD2007946581C,7228386977719083600000000000000000.000*%
%ADD2007946581C,7228386977719083600000000000000000.000*%
%ADD2007946581C,7228386977719083600000000000000000.000*%
%ADD2007946581C,7228386977719083600000000000000000.000*%
%ADD2007946581C,7228386977719083600000000000000000.000*%
%ADD2007946581C,7228386977719083600000000000000000.000*%
%ADD2007946581C,7228386977719083600000000000000000.000*%
%ADD2007946581C,7228386977719083600000000000000000.000*%
%ADD2007946581R,7228386977719083600000000000000000.000X7228386977719083600000000000000000.000*%
%ADD2007946581R,7228386977719083600000000000000000.000X7228386977719083600000000000000000.000*%
%ADD2007946581R,7228386977719083600000000000000000.000X7228386977719083600000000000000000.000*%
%ADD2007946581R,7228386977719083600000000000000000.000X7228386977719083600000000000000000.000*%
%ADD2007946581R,7228386977719083600000000000000000.000X7228386977719083600000000000000000.000*%
%ADD2007946581R,7228386977719083600000000000000000.000X7228386977719083600000000000000000.000*%
%ADD2007946581R,7228386977719083600000000000000000.000X7228386977719083600000000000000000.000*%
%ADD2007946581R,7228386977719083600000000000000000.000X7228386977719083600000000000000000.000*%
%ADD2007946581R,7228386977719083600000000000000000.000X7228386977719083600000000000000000.000*%
%ADD2007946581R,7228386977719083600000000000000000.000X7228386977719083600000000000000000.000*%
%ADD2007946581R,7228386977719083600000000000000000.000X7228386977719083600000000000000000.000*%
%ADD2007946581R,7228386977719083600000000000000000.000X7228386977719083600000000000000000.000*%
%ADD2007946581R,7228386977719083600000000000000000.000X7228386977719083600000000000000000.000*%
G71*
G90*
G75*
D02*
D66*
D02*
G01X141351Y135254D03*
X143891D03*
X146432D03*
X148971D03*
X151511D03*
X154051Y135255D03*
X156591D03*
X159131D03*
X180975Y86995D03*
X178435Y86994D03*
X175895D03*
X173356D03*
X170815D03*
X168275D03*
X123825Y87630*
D01*
X126365*
D02*
X127635Y90805*
D01*
Y93345*
D02*
X122555Y90805*
D01*
Y93345*
D46*
D02*
X158115Y86995*
D01*
X160655*
D38*
D02*
X163195Y90488D03*
D46*
D01*
Y86995*
D38*
D02*
X122873Y113983D03*
D39*
X125260D03*
X123660D03*
D26*
X122873*
D01*
X123508*
D46*
D02*
X158115Y86995*
D01*
Y89535*
D20*
D02*
X120404Y121325*
D01*
X123095*
Y119227*
D66*
D02*
X175260Y100012D03*
X181610D03*
X175260Y96202D03*
X181610D03*
X174308Y119064D03*
Y121603D03*
Y124144D03*
Y126683D03*
Y129224D03*
D16*
X153401Y97490*
D01*
Y99740*
D02*
Y97490*
D01*
X154401*
D02*
X153401Y99740*
D01*
X152651*
X151401*
D02*
Y97240*
D01*
Y99740*
D02*
X154401Y97240*
D01*
X151401*
D02*
X154401Y97490*
D01*
Y97240*
D02*
X154280*
D01*
Y97490*
D02*
X154038Y97240*
D01*
Y97490*
D02*
X153796Y97240*
D01*
Y97490*
D02*
X153554Y97240*
D01*
Y97490*
D02*
X153312Y97240*
D01*
Y99740*
D02*
X153070Y97240*
D01*
Y99740*
D02*
X152828Y97240*
D01*
Y99740*
D02*
X152586Y97240*
D01*
Y99740*
D02*
X152344Y97240*
D01*
Y99740*
D02*
X152102Y97240*
D01*
Y99740*
D02*
X151860Y97240*
D01*
Y99740*
D02*
X151618Y97240*
D01*
Y99740*
D02*
X154401Y99990*
D01*
X154901Y100490*
D02*
X154401Y98990*
D01*
Y99990*
D02*
X155401Y101740*
D01*
X154901Y102240*
D02*
X155401Y99740*
D01*
Y101740*
D02*
X156401Y98740*
D01*
X155401Y99740*
D02*
X156401Y97240*
D01*
Y98740*
D02*
X155401Y97240*
D01*
X156401*
D02*
X155401Y98740*
D01*
Y97240*
D02*
X155151Y98990*
D01*
X155401Y98740*
D02*
X154401Y98990*
D01*
X155151*
D02*
X154901Y100490*
D01*
Y102240*
D02*
X156280Y97240*
D01*
Y98861*
D02*
X156038Y97240*
D01*
Y99103*
D02*
X155796Y97240*
D01*
Y99345*
D02*
X155554Y97240*
D01*
Y99587*
D02*
X155312Y98828*
D01*
Y101828*
D02*
X155070Y98990*
D01*
Y102071*
D02*
X154828Y98990*
D01*
Y100417*
D02*
X154586Y98990*
D01*
Y100175*
D02*
X163901Y104240*
D01*
Y103490*
D02*
X163151Y104990*
D01*
X163901Y104240*
D02*
X161151Y104990*
D01*
X163151*
D02*
X161151Y104240*
D01*
Y104990*
D02*
X163151Y104240*
D01*
X161151*
D02*
X163901Y103490*
D01*
X163151Y104240*
D02*
X163780Y103611*
D01*
Y104361*
D02*
X163538Y103853*
D01*
Y104603*
D02*
X163296Y104095*
D01*
Y104845*
D02*
X163054Y104240*
D01*
Y104990*
D02*
X162812Y104240*
D01*
Y104990*
D02*
X162570Y104240*
D01*
Y104990*
D02*
X162328Y104240*
D01*
Y104990*
D02*
X162086Y104240*
D01*
Y104990*
D02*
X161844Y104240*
D01*
Y104990*
D02*
X161602Y104240*
D01*
Y104990*
D02*
X161360Y104240*
D01*
Y104990*
D02*
X160401Y101740*
D01*
X159901Y102240*
Y103490*
D02*
X163901Y102740*
D01*
Y101740*
D02*
X162151Y102740*
D01*
X163901*
D02*
X161401Y103490*
D01*
X162151Y102740*
D02*
X160401Y101740*
D01*
X163901*
D02*
X160151Y103490*
D01*
X159901*
D02*
X161401*
D01*
X160151*
D02*
X163780Y101740*
D01*
Y102740*
D02*
X163538Y101740*
D01*
Y102740*
D02*
X163296Y101740*
D01*
Y102740*
D02*
X163054Y101740*
D01*
Y102740*
D02*
X162812Y101740*
D01*
Y102740*
D02*
X162570Y101740*
D01*
Y102740*
D02*
X162328Y101740*
D01*
Y102740*
D02*
X162086Y101740*
D01*
Y102805*
D02*
X161844Y101740*
D01*
Y103047*
D02*
X161602Y101740*
D01*
Y103289*
D02*
X161360Y101740*
D01*
Y103490*
D02*
X161118Y101740*
D01*
Y103490*
D02*
X160876Y101740*
D01*
Y103490*
D02*
X160634Y101740*
D01*
Y103490*
D02*
X160392Y101749*
D01*
Y103490*
D02*
X160150Y101991*
D01*
Y103490*
D02*
X159908Y102233*
D01*
Y103490*
D02*
X145901Y103740*
D01*
X146401Y104240*
D02*
X145901Y102240*
D01*
Y103740*
D02*
X145651Y101990*
D01*
X145901Y102240*
D02*
X145651Y101740*
D01*
Y101990*
D02*
X146401Y101740*
D01*
X145651*
D02*
X147151Y102490*
D01*
X146401Y101740*
D02*
X147151Y104490*
D01*
Y102490*
D02*
X146401Y104490*
D01*
X147151*
D02*
X146401Y104240*
D01*
Y104490*
D02*
X147030Y102369*
D01*
Y104490*
D02*
X146788Y102127*
D01*
Y104490*
D02*
X146546Y101885*
D01*
Y104490*
D02*
X146304Y101740*
D01*
Y104143*
D02*
X146062Y101740*
D01*
Y103901*
D02*
X145820Y101740*
D01*
Y102159*
D02*
X145401Y105740*
D01*
X145651Y105490*
D02*
X144901Y105740*
D01*
X145401*
D02*
X144901Y105490*
D01*
Y105740*
D02*
X143901Y104490*
D01*
X144901Y105490*
D02*
X143901Y101740*
D01*
Y104490*
D02*
X144401Y101740*
D01*
X143901*
D02*
X144401Y103490*
D01*
Y101740*
D02*
X145651Y104740*
D01*
X144401Y103490*
D02*
X145651Y104740*
D01*
Y105490*
D02*
X145530Y104619*
D01*
Y105611*
D02*
X145288Y104377*
D01*
Y105740*
D02*
X145046Y104135*
D01*
Y105740*
D02*
X144804Y103893*
D01*
Y105393*
D02*
X144562Y103651*
D01*
Y105151*
D02*
X144320Y101740*
D01*
Y104909*
D02*
X144078Y101740*
D01*
Y104667*
D02*
X145401Y117739*
D01*
X145651Y117989*
D02*
X144901Y120489*
D01*
Y119739*
X145651Y118989*
Y117989*
D02*
X144901Y121739*
D01*
Y120489*
D02*
X143901Y121739*
D01*
X144901*
D02*
X143901Y119239*
D01*
Y121739*
D02*
X144901Y118239*
D01*
X143901Y119239*
D02*
X144901Y117739*
D01*
Y118239*
D02*
X145401Y117739*
D01*
X144901*
D02*
X145530Y117868*
D01*
Y119111*
D02*
X145288Y117739*
D01*
Y119352*
D02*
X145046Y117739*
D01*
Y119594*
D02*
X144804Y118337*
D01*
Y121739*
D02*
X144562Y118578*
D01*
Y121739*
D02*
X144320Y118820*
D01*
Y121739*
D02*
X144078Y119063*
D01*
Y121739*
D02*
X147651*
D01*
X146401*
D02*
X147651Y121489*
D01*
Y121739*
D02*
X146901Y120739*
D01*
X147651Y121489*
D02*
X146901Y120239*
D01*
Y120739*
D02*
X146401Y120239*
D01*
X146901*
D02*
X146401*
D01*
Y121739*
D02*
X147530Y121368*
D01*
Y121739*
D02*
X147288Y121126*
D01*
Y121739*
D02*
X147046Y120885*
D01*
Y121739*
D02*
X146804Y120239*
D01*
Y121739*
D02*
X146562Y120239*
D01*
Y121739*
D02*
X163401Y117739*
D01*
X162401*
D02*
X163901Y118239*
D01*
X163401Y117739*
D02*
X162151Y117989*
D01*
X162401Y117739*
D02*
X162901Y120489*
D01*
Y119489*
X162151Y118739*
Y117989*
D02*
X163901Y121739*
D01*
Y118239*
D02*
X162901Y121739*
D01*
X163901*
D02*
X162901Y120489*
D01*
Y121739*
D02*
X163780Y118118*
D01*
Y121739*
D02*
X163538Y117876*
D01*
Y121739*
D02*
X163296Y117739*
D01*
Y121739*
D02*
X163054Y117739*
D01*
Y121739*
D02*
X162812Y117739*
D01*
Y119400*
D02*
X162570Y117739*
D01*
Y119159*
D02*
X162328Y117813*
D01*
Y118917*
D26*
D02*
X153353Y101600*
D01*
X151131*
D02*
X152719Y101282*
D01*
X151131*
Y101917*
X153671*
D16*
D02*
X153401Y101490*
D01*
X152651*
D02*
X153151Y101240*
D01*
X153901Y101990*
D02*
X154901Y102240*
D01*
Y102740*
D02*
X145651Y105490*
D01*
Y105740*
D02*
Y117989*
D01*
Y117739*
D02*
X146651Y119489*
D01*
Y120489*
D02*
X146901Y119239*
D01*
Y120239*
X146651Y120489*
X146401*
Y119739*
D02*
X162151Y117989*
D01*
Y117739*
D02*
X160901Y119239*
D01*
Y120239*
X161151Y120489*
D02*
Y119239*
D01*
Y120489*
D02*
X161401*
D01*
Y119239*
D39*
D02*
X144351Y102990D03*
X145951D03*
X162651Y102690D03*
Y104290D03*
X144851Y120489D03*
X146451D03*
X162951D03*
X161351D03*
D16*
X160401Y111489*
D01*
X160651Y111239*
D02*
X160401*
D01*
X162151*
D02*
X147151Y111739*
D01*
X145651*
D02*
X139651Y110239*
D01*
X142151*
Y110989*
D02*
X143901Y110239*
D01*
Y110739*
D02*
X144151Y111239*
D01*
X145651*
D02*
X143651Y110239*
D01*
Y110739*
X144151Y111239*
D02*
X143651Y110489*
D01*
X144401Y111239*
D39*
D02*
X142101Y110239D03*
X143701D03*
D16*
X154401Y121239*
D01*
X153401*
D02*
Y121489*
D01*
X155401*
D02*
Y121739*
D01*
X153401*
D02*
Y121989*
D01*
X155401*
D02*
X166401Y110989*
D01*
X163651*
D02*
X164151Y107240*
D01*
X162151*
D02*
Y106740*
D01*
X163901*
D02*
X163651Y106240*
D01*
X162151*
D02*
X163401Y105740*
D01*
X162151*
D02*
X150401Y121489*
D01*
Y119989*
D02*
X152901Y122739*
D01*
Y119989*
D02*
X153401Y117489*
D01*
Y119989*
Y122239*
X153901*
X154401*
X155401*
D02*
X153901*
D01*
Y119989*
D02*
X155401Y122239*
D01*
Y119989*
D02*
X154401Y122239*
D01*
Y119989*
D02*
X153901Y117489*
D01*
Y119989*
D02*
X154401Y117489*
D01*
Y119989*
D02*
X155401Y117489*
D01*
Y119989*
D02*
X154401Y100740*
D01*
Y103490*
D02*
X155401Y105240*
D01*
X154401*
D02*
X156401Y122989*
D01*
Y119989*
D02*
X156901*
D01*
Y122739*
D02*
X157401Y122489*
D01*
Y119989*
D02*
X157901*
D01*
Y122239*
D02*
X158401Y121989*
D01*
Y119989*
D02*
X158901*
D01*
Y121739*
D02*
X159401Y121489*
D01*
Y119989*
D02*
X159901Y121239*
D01*
Y119989*
D02*
X143401Y111239*
D01*
X143901Y111739*
X145651*
D02*
Y117989*
D01*
X145901Y117739*
D02*
X143151Y108740*
D01*
X145651*
D02*
X143401Y108240*
D01*
X145651*
D02*
Y107740*
D01*
X143651*
D02*
X143901Y107240*
D01*
X145651*
D02*
X145901Y105740*
D01*
X145651Y105490*
D02*
X153401Y101240*
D01*
X153901Y101740*
D02*
X152651Y101240*
D01*
X153401*
D02*
X160151Y103490*
D01*
X159901Y103240*
D02*
Y103740*
D01*
X160151Y103490*
D02*
X153401Y99740*
D01*
X154401Y100740*
D02*
X153901Y101740*
D01*
Y103490*
D39*
D02*
X152651Y101290D03*
Y99690D03*
X154401Y99040D03*
Y97440D03*
D16*
X155401Y107990*
D01*
Y103490*
D02*
X166151Y110739*
D01*
X163901*
X163401Y111239*
X162151*
D02*
X164651Y115239*
D01*
X162151*
D02*
X164401Y115739*
D01*
X162151*
D02*
X164151Y116239*
D01*
X162151*
D02*
X163901Y116739*
D01*
X162151*
D02*
Y117239*
D01*
X163651*
D02*
X161901Y117739*
D01*
X162151Y117989*
D02*
X155893Y123247*
D01*
X155901Y123239*
D02*
Y119989*
D01*
Y123239*
D02*
X156401Y122989*
D01*
X156528Y123116*
D02*
X156901Y122739*
D01*
X157163Y123001*
D02*
X157401Y122489*
D01*
X157798Y122886*
D02*
X157901Y122239*
D01*
X158433Y122771*
D02*
X159068Y135255*
D01*
Y122656*
D02*
X158401Y121989*
D01*
X159068Y122656*
D02*
X158901Y121739*
D01*
X159703Y122541*
D02*
X159401Y121489*
D01*
X160338Y122426*
D02*
X159901Y121239*
D01*
X160973Y122311*
D02*
X163651Y117239*
D01*
X165100Y118689*
D02*
X163901Y116739*
D01*
X165735Y118574*
D02*
X164151Y116239*
D01*
X166370Y118458*
D02*
X164401Y115739*
D01*
X167005Y118343*
D02*
X164651Y115239*
D01*
X167640Y118229*
D38*
D02*
X164148Y122555D03*
Y121603D03*
Y120650D03*
X172403Y108903D03*
X173673D03*
X162560Y101600D03*
X139700Y110173D03*
X140653D03*
X145733Y101918D03*
Y100965D03*
X141288Y107633D03*
X140653Y106680D03*
X142558Y104775D03*
D16*
X141288Y107633*
D01*
X142045*
D02*
X143151Y108740*
D01*
X142045Y107633*
D02*
X140653Y106680*
D01*
X141841*
D02*
X143401Y108240*
D01*
X141841Y106680*
D02*
X141605Y105728*
D01*
X141640*
D02*
X143651Y107740*
D01*
X141640Y105728*
D02*
X142558Y104775*
D01*
Y105897*
D02*
X143901Y107240*
D01*
X142558Y105897*
D38*
D02*
X148273Y110808D03*
D39*
X166370Y112560D03*
Y110961D03*
D38*
X166688Y109538D03*
D16*
D01*
X167323*
X168910Y111125*
D38*
D02*
X167323Y108585D03*
D16*
X168910Y110173*
D01*
X167323Y108585*
D38*
D02*
X167958Y107633D03*
X167323Y106680D03*
D16*
X167958*
D01*
X167323*
D02*
X168910Y105728*
D01*
X167958Y106680*
D02*
Y107633*
D01*
X168593*
X168910Y107950*
D02*
X145651Y111239*
D01*
X147151*
D02*
X148273Y110808*
D01*
X147582*
D02*
X147151Y111239*
D01*
X147582Y110808*
D02*
X177483Y131763*
D01*
X180975Y135255*
D02*
X171768Y133668*
D01*
X173355Y135255*
D02*
X170815*
D01*
X165100Y129540*
Y118689*
D02*
X165735Y129223*
D01*
Y118574*
D02*
Y129223*
D01*
X170180Y133668*
X171768*
D02*
X166370Y128905*
D01*
Y118458*
D02*
Y128905*
D01*
X170498Y133033*
D02*
X167005Y128588*
D01*
Y118343*
D02*
X167640Y128270*
D01*
Y118229*
D02*
X170815Y132398*
D01*
X167005Y128588*
D02*
X167640Y128270*
D01*
X171133Y131763*
X177483*
D02*
X173673Y133033*
D01*
X175895Y135255*
D02*
X170498Y133033*
D01*
X173673*
D02*
X178435Y135255*
D01*
X175578Y132398*
X170815*
D02*
X159703Y131763*
D01*
X163195Y135255*
D02*
X159703Y131763*
D01*
Y122541*
D02*
X160338Y131445*
D01*
Y122426*
D02*
X162560Y133668*
D01*
X160338Y131445*
D02*
X165735Y135255*
D01*
X164148Y133668*
X162560*
D02*
X160973Y131128*
D01*
Y122311*
D02*
Y131128*
D01*
X162878Y133033*
X166053*
X168275Y135255*
D02*
X156528*
D01*
X158433Y133350*
Y122771*
D02*
X153988Y135255*
D01*
X157798Y131445*
Y122886*
D02*
X157163Y131128*
D01*
Y123001*
D02*
Y131128*
D01*
X154623Y133668*
X153035*
X151448Y135255*
D02*
X156528Y130810*
D01*
Y123116*
D02*
X154305Y133033*
D01*
X156528Y130810*
D02*
X155893Y130493*
D01*
Y123247*
D02*
Y130493*
D01*
X153988Y132398*
D02*
X148908Y135255*
D01*
X151130Y133033*
X154305*
D02*
X153988Y132398*
D01*
X149225*
X146368Y135255*
D02*
X174308Y119063*
D01*
X172085*
D02*
X171133Y121603*
D01*
X174308*
D02*
X171450Y124143*
D01*
X174308*
D38*
D02*
X154940Y127635D03*
X170180Y129540D03*
X169228Y128588D03*
X170815Y127635D03*
D16*
D01*
Y124778*
X171450Y124143*
D02*
X170180Y129540*
D01*
Y128270*
X169863Y127953*
D02*
Y122873*
D01*
X171133Y121603*
D02*
X169863Y127953*
D01*
Y122873*
D02*
X172085Y119063*
D01*
X169228Y121920*
Y128588*
D38*
D02*
X153670Y127635D03*
X152083D03*
X142240Y126365D03*
D16*
X149901Y119989*
D01*
Y121739*
D02*
X152083Y127635*
D01*
Y123921*
D02*
X149901Y121739*
D01*
X152083Y123921*
D02*
X153670Y127635*
D01*
Y124758*
D02*
X150401Y121489*
D01*
X153670Y124758*
D02*
X154940Y127635*
D01*
Y124778*
D02*
X152901Y122739*
D01*
X154940Y124778*
D02*
X171133Y89218*
D01*
X173355Y86995*
D02*
X175895*
D01*
X173990Y88900*
X173038*
X171768Y90170*
D02*
X172403Y91123*
D01*
X173990Y89535*
X175895*
X178435Y86995*
D02*
X180975*
D01*
X177483Y90488*
X174308*
X173038Y91758*
Y98353*
D02*
X164151Y107240*
D01*
X173038Y98353*
D02*
X163901Y106740*
D01*
X172403Y98238*
D02*
Y91123*
D01*
Y98238*
D02*
X171768Y90170*
D01*
Y98123*
D02*
X163651Y106240*
D01*
X171768Y98123*
D02*
X163401Y105740*
D01*
X171133Y98008*
D02*
Y89218*
D01*
Y98008*
D20*
D02*
X175260Y100013*
D01*
X181610*
D16*
D02*
X136843Y114935*
D01*
X137539Y114239*
D02*
X136208Y114618*
D01*
X137087Y113739*
D02*
X131558Y126755*
D01*
X130738*
D02*
X140658Y118305*
D01*
X141923*
X142558Y117670*
D02*
Y115570*
D01*
Y117670*
D02*
X140658Y120255*
D01*
X141048*
D38*
D02*
X135255Y123508D03*
D20*
X132858Y123505*
D01*
X135255Y123508*
D02*
X131558Y120255*
D01*
X130888*
D02*
X130175Y120968*
D01*
X130888Y120255*
D02*
X134303Y120968*
D01*
X133715Y121555*
D02*
X132858*
D01*
X133715*
D02*
X132858Y122205*
D01*
X134335*
D02*
X134938Y121603*
D01*
X134335Y122205*
D58*
D02*
X120015Y110808D03*
X125095D03*
D67*
X124777Y100012D03*
D147*
X122555Y106045D03*
D67*
X120333Y100012D03*
X134620D03*
D147*
X132398Y106045D03*
D67*
X130176Y100012D03*
D38*
X173673Y110173D03*
D20*
Y101600*
D01*
X175260Y100013*
D02*
X173673Y103823*
D01*
Y101600*
D02*
X174308Y124143*
D01*
X175895*
X177165Y122873*
D02*
X174625Y104775*
D01*
X173673Y103823*
D02*
X174625Y116205*
D01*
Y104775*
D02*
X177165Y122873*
D01*
Y118745*
X174625Y116205*
D38*
D02*
X155893Y98743D03*
X157163Y95250D03*
X155575Y92075D03*
D46*
D01*
Y86995*
D38*
D02*
X153035Y93663D03*
D46*
Y86995*
D01*
Y93663*
D02*
X127635Y95250*
D01*
Y92075*
D02*
X126365Y96520*
D01*
X127635Y95250*
D02*
X121285Y96520*
D01*
X126365*
D02*
X120332Y100012*
D01*
X120333Y97473*
X121285Y96520*
D38*
D02*
X132715Y92075D03*
D46*
D01*
X127635*
D38*
D02*
Y100013D03*
D46*
D01*
X124777*
D02*
X127635*
D01*
X130175Y100012*
D16*
D02*
X140658Y120905*
D01*
X141668*
D46*
D02*
X139383Y100013*
D01*
X134620Y100012*
D38*
D02*
X139383Y100013D03*
D46*
X143828Y102235*
D01*
X141605Y100013*
X139383*
D16*
D02*
X162151Y111739*
D01*
X165397*
D02*
X167005Y113348*
D01*
X165397Y111739*
D02*
X171133Y112395*
D01*
X172403Y113665*
D38*
D03*
X158750Y110808D03*
D16*
D01*
X159385*
X159454Y110739*
D02*
X162151*
D01*
X159454*
D02*
X146401Y104418*
D01*
X147079*
D02*
X160723*
D01*
X161401*
D02*
X146401Y104656*
D01*
X147317*
D02*
X160485*
D01*
X161401*
D02*
X146554Y104893*
D01*
X147554*
D02*
X160248*
D01*
X161248*
D02*
X146792Y105131*
D01*
X147792*
D02*
X160010*
D01*
X161010*
D02*
X147029Y105368*
D01*
X160773*
D02*
X147267Y105606*
D01*
X160535*
D02*
X147401Y105843*
D01*
X160401*
D02*
X147401Y106081*
D01*
X160401*
D02*
X147401Y106318*
D01*
X160401*
D02*
X147401Y106556*
D01*
X160401*
D02*
X147401Y106793*
D01*
X160401*
D02*
X147401Y107031*
D01*
X160401*
D02*
X147401Y107268*
D01*
X160401*
D02*
X147401Y107506*
D01*
X160401*
D02*
X147401Y107743*
D01*
X160401*
D02*
X147401Y107981*
D01*
X160401*
D02*
X147401Y108218*
D01*
X160401*
D02*
X147401Y108456*
D01*
X160401*
D02*
X147401Y108693*
D01*
X160401*
D02*
X147401Y108931*
D01*
X160401*
D02*
X147401Y109168*
D01*
X160401*
D02*
X147401Y109406*
D01*
X160401*
D02*
X147401Y109643*
D01*
X160401*
D02*
X148616Y109881*
D01*
X158407*
D02*
X148853Y110118*
D01*
X158170*
D02*
X149091Y110356*
D01*
X157932*
D02*
X149225Y110593*
D01*
X157798*
D02*
X149225Y110831*
D01*
X157798*
D02*
X149225Y111068*
D01*
X157798*
D02*
X149045Y111306*
D01*
X157979*
D02*
X159522*
D01*
X160401*
D02*
X148807Y111543*
D01*
X158216*
D02*
X159285*
D01*
X160401*
D02*
X147193Y111781*
D01*
X160401*
D02*
X147401Y112018*
D01*
X160401*
D02*
X147401Y112256*
D01*
X160401*
D02*
X147401Y112493*
D01*
X160401*
D02*
X147401Y112731*
D01*
X160401*
D02*
X147401Y112968*
D01*
X160401*
D02*
X147401Y113206*
D01*
X160401*
D02*
X147401Y113443*
D01*
X160401*
D02*
X147401Y113681*
D01*
X160401*
D02*
X147401Y113918*
D01*
X160401*
D02*
X147401Y114156*
D01*
X160401*
D02*
X147401Y114393*
D01*
X160401*
D02*
X147401Y114631*
D01*
X160401*
D02*
X147401Y114868*
D01*
X160401*
D02*
X147401Y115106*
D01*
X160401*
D02*
X147401Y115343*
D01*
X160401*
D02*
X147401Y115581*
D01*
X160401*
D02*
X147401Y115818*
D01*
X160401*
D02*
X147401Y116056*
D01*
X160401*
D02*
X147401Y116293*
D01*
X160401*
D02*
X147401Y116531*
D01*
X160401*
D02*
X147401Y116768*
D01*
X160401*
D02*
X147401Y117006*
D01*
X160401*
D02*
X147401Y117243*
D01*
X160401*
D02*
X147401Y117481*
D01*
X160401*
D02*
X147401Y117718*
D01*
X160401*
D02*
X147184Y117956*
D01*
X160618*
D02*
X146947Y118193*
D01*
X160855*
D02*
X146709Y118431*
D01*
X147709*
D02*
X160093*
D01*
X161093*
D02*
X146472Y118668*
D01*
X147472*
D02*
X160330*
D01*
X161330*
D02*
X146401Y118906*
D01*
X147234*
D02*
X160568*
D01*
X161401*
D02*
X146401Y119143*
D01*
X146997*
D02*
X160805*
D01*
X161401*
D02*
X146401Y119381*
D01*
X146759*
D02*
X146401Y119618*
D01*
X146522*
D02*
X147401Y111989*
D01*
Y117739*
D02*
X147151Y111739*
D01*
X147401Y111989*
D02*
Y117739*
D01*
X146401Y118739*
Y119739*
D02*
X147151Y111739*
D01*
X148612*
D02*
X149225Y111125*
D01*
X148612Y111739*
D02*
X149225Y111125*
D01*
Y110490*
X148590Y109855*
X147401*
D02*
Y105740*
D01*
Y109855*
D02*
Y105740*
D01*
X146401Y104740*
Y104240*
X146901*
X147901Y105240*
X159901*
X160901Y104240*
X161401*
Y104740*
X160401Y105740*
Y109740*
X158548*
D02*
X157798Y110490*
D01*
X158548Y109740*
D02*
X157798Y111125*
D01*
Y110490*
D02*
X158433Y111760*
D01*
X157798Y111125*
D02*
X159068Y111760*
D01*
X158433*
D02*
X159068*
D01*
X159589Y111239*
D02*
X160401*
D01*
X159589*
D02*
X160401Y117739*
D01*
Y111239*
D02*
X161401Y118739*
D01*
X160401Y117739*
D02*
X161401Y119239*
D01*
Y118739*
D02*
X146401Y119739*
D01*
X147901Y118239*
X159901*
X160901Y119239*
X161401*
D02*
X167958Y113348*
D01*
X167005*
D38*
D02*
X167958D03*
D16*
X143193Y119063*
D01*
Y120333*
D02*
X143828Y118428*
D01*
X143193Y119063*
D02*
Y118110*
D01*
X142558Y118745*
D02*
X143193Y115888*
D01*
Y118110*
D02*
X143828Y117475*
D01*
Y118428*
D02*
Y117475*
D01*
X144064Y117239*
D02*
X142558Y118745*
D01*
Y120015*
X141668Y120905*
D02*
X143193Y120333*
D01*
X142875Y120650*
D38*
D02*
X141605Y119698D03*
D16*
D01*
X141048Y120255*
D38*
D02*
X145733Y124143D03*
D16*
D01*
Y127635*
X141351Y132017*
D02*
Y135255*
D01*
Y132017*
D02*
X143401Y111239*
D01*
X142401*
D02*
X142151Y110989*
D01*
X142401Y111239*
D38*
D02*
X135255Y113983D03*
D26*
D01*
X136843Y112395*
D16*
D02*
X170815Y86995*
D01*
X168910Y88900*
Y99060*
X167640Y100330*
D02*
X168275Y86995*
D01*
Y98743*
X167323Y99695*
D38*
D02*
X139700Y111125D03*
D46*
X155575Y92075*
D01*
X155893Y92393*
D38*
D02*
X143193Y126365D03*
X144145D03*
D26*
D01*
X142240*
D38*
D02*
X167958Y112395D03*
Y114300D03*
D26*
Y112395*
D01*
Y114300*
D38*
D02*
X153988Y93663D03*
D46*
D01*
X153035*
D38*
D02*
X152083D03*
D46*
X153035*
D01*
X152083*
D20*
D02*
X157163Y95250*
D01*
X152083*
X150495Y93663*
Y86995*
D38*
D02*
X155893Y99695D03*
Y97790D03*
Y93028D03*
D46*
Y92393*
D01*
Y93028*
D38*
D02*
X154623Y92075D03*
D46*
D01*
X155575*
D38*
D02*
X163513Y101600D03*
X161608D03*
X131763Y92075D03*
X130810D03*
X128588Y100013D03*
X126683D03*
X134620Y113348D03*
X133985Y112713D03*
D26*
D01*
X135255Y113983*
D38*
D02*
X127635Y108268D03*
D46*
X125095Y110808*
D01*
X127635Y108268*
D38*
D02*
X129223Y109855D03*
D46*
X127635Y108268*
D01*
X129223Y109855*
D38*
D02*
X128270Y108903D03*
D39*
X136843Y102400D03*
Y100800D03*
X127635Y102400D03*
Y100800D03*
D46*
X120333Y100013*
D01*
X122555*
D38*
D03*
D26*
X164148Y120650*
D01*
Y122555*
D14*
D02*
X161290Y120476*
D01*
X161433*
D02*
X161290Y120666*
D01*
X161608*
D02*
X161290Y120856*
D01*
X161608*
D02*
X161290Y121046*
D01*
X161608*
D02*
X161290Y121236*
D01*
X161608*
D02*
X161290Y121426*
D01*
X161608*
D02*
X161290Y121616*
D01*
X162243*
D02*
X161290Y121806*
D01*
X162243*
D02*
X161366Y121996*
D01*
X162243*
D02*
X161556Y122186*
D01*
X162243*
D02*
X161608Y122376*
D01*
X163195*
D02*
X161608Y122566*
D01*
X163195*
D02*
X161608Y122756*
D01*
X163195*
D02*
X161608Y122946*
D01*
X163195*
D02*
X161608Y123136*
D01*
X163195*
D02*
X161608Y123326*
D01*
X163195*
D02*
X161608Y123516*
D01*
X164465*
D02*
X161608Y123706*
D01*
X164465*
D02*
X161608Y123896*
D01*
X164465*
D02*
X161608Y124086*
D01*
X164465*
D02*
X161608Y124276*
D01*
X164465*
D02*
X161608Y124466*
D01*
X164465*
D02*
X161608Y124656*
D01*
X164465*
D02*
X161608Y124846*
D01*
X164465*
D02*
X161608Y125036*
D01*
X164465*
D02*
X161608Y125226*
D01*
X164465*
D02*
X161608Y125416*
D01*
X164465*
D02*
X161608Y125606*
D01*
X164465*
D02*
X161608Y125796*
D01*
X164465*
D02*
X161608Y125986*
D01*
X164465*
D02*
X161608Y126176*
D01*
X164465*
D02*
X161608Y126366*
D01*
X164465*
D02*
X161608Y126556*
D01*
X164465*
D02*
X161608Y126746*
D01*
X164465*
D02*
X161608Y126936*
D01*
X164465*
D02*
X161608Y127126*
D01*
X164465*
D02*
X161608Y127316*
D01*
X164465*
D02*
X161608Y127506*
D01*
X164465*
D02*
X161608Y127696*
D01*
X164465*
D02*
X161608Y127886*
D01*
X164465*
D02*
X161608Y128076*
D01*
X164465*
D02*
X161608Y128266*
D01*
X164465*
D02*
X161608Y128456*
D01*
X164465*
D02*
X161608Y128646*
D01*
X164465*
D02*
X161608Y128836*
D01*
X164465*
D02*
X161608Y129026*
D01*
X164465*
D02*
X161608Y129215*
D01*
X164465*
D02*
X161608Y129405*
D01*
X164465*
D02*
X161608Y129595*
D01*
X164465*
D02*
X161608Y129786*
D01*
X164465*
D02*
X161608Y129976*
D01*
X164582*
D02*
X161608Y130166*
D01*
X164772*
D02*
X161608Y130356*
D01*
X164962*
D02*
X161608Y130546*
D01*
X165152*
D02*
X161608Y130736*
D01*
X165342*
D02*
X161723Y130926*
D01*
X165532*
D02*
X161913Y131116*
D01*
X165722*
D02*
X162103Y131306*
D01*
X165912*
D02*
X162293Y131496*
D01*
X166102*
D02*
X162483Y131686*
D01*
X166292*
D02*
X162673Y131876*
D01*
X166482*
D02*
X162863Y132066*
D01*
X166672*
D02*
X163053Y132256*
D01*
X166862*
D02*
X161608Y122238*
D01*
Y130810*
D02*
X161290Y121920*
D01*
X161608Y122238*
D02*
X161290Y120333*
D01*
Y121920*
D02*
X161608Y120650*
D01*
X161290Y120333*
D02*
X161608Y121603*
D01*
Y120650*
D02*
X162243Y121603*
D01*
X161608*
D02*
X162243Y122238*
D01*
Y121603*
D02*
X163195Y122238*
D01*
X162243*
D02*
X163195Y123508*
D01*
Y122238*
D02*
X164465Y123508*
D01*
X163195*
D02*
X164465Y129858*
D01*
Y123508*
D02*
X167005Y132398*
D01*
X164465Y129858*
D02*
X163195Y132398*
D01*
X167005*
D02*
X161608Y130810*
D01*
X163195Y132398*
D02*
X180023Y95250*
D01*
X180658Y94615*
X182563*
X183198Y95250*
Y97155*
X182563Y97790*
X180658*
X180023Y97155*
Y95250*
D28*
D02*
X175260Y98108*
D01*
Y93980*
D02*
Y96203*
D01*
X177483*
D02*
X179388*
D01*
X183833*
D02*
X181610Y98108*
D01*
Y93980*
D46*
D02*
X174308Y126683*
D01*
X176530*
D66*
D02*
X163258Y135254D03*
X165798D03*
X168339D03*
X170878D03*
X173418D03*
X175958Y135255D03*
X178498D03*
X181038D03*
X163195Y86995D03*
X160655Y86994D03*
X158115D03*
X155576D03*
X153035D03*
X150495D03*
D17*
X154401Y102740*
D01*
Y104240*
D02*
X161401Y109240*
D01*
X162901*
D02*
X156901Y104240*
D01*
Y102740*
D02*
X161401Y117739*
D01*
X162901*
D02*
X161401Y117239*
D01*
X162901*
D02*
Y116739*
D01*
X161401*
D02*
Y116239*
D01*
X162901*
D02*
X161401Y115739*
D01*
X162901*
D02*
Y114739*
D01*
X161401*
D02*
Y114239*
D01*
X162901*
D02*
X161401Y113739*
D01*
X162901*
D02*
X161401Y113239*
D01*
X162901*
D02*
Y112739*
D01*
X161401*
D02*
Y112239*
D01*
X162901*
D02*
X161401Y111739*
D01*
X162901*
D02*
X161401Y111239*
D01*
X162901*
D02*
Y110739*
D01*
X161401*
D02*
Y110239*
D01*
X162901*
D02*
X161401Y109740*
D01*
X162901*
D02*
Y108740*
D01*
X161401*
D02*
Y108240*
D01*
X162901*
D02*
X161401Y107740*
D01*
X162901*
D02*
X161401Y107240*
D01*
X162901*
D02*
Y106740*
D01*
X161401*
D02*
Y106240*
D01*
X162901*
D02*
X161401Y105740*
D01*
X162901*
D02*
X147901Y119239*
D01*
Y120739*
D02*
X148401Y119239*
D01*
Y120739*
D02*
X148901*
D01*
Y119239*
D02*
X149401*
D01*
Y120739*
D02*
X149901Y119239*
D01*
Y120739*
D02*
X150401Y119239*
D01*
Y120739*
D02*
X150901*
D01*
Y119239*
D02*
X151401*
D01*
Y120739*
D02*
X151901Y119239*
D01*
Y120739*
D02*
X152401Y119239*
D01*
Y120739*
D02*
X152901*
D01*
Y119239*
D02*
X153401*
D01*
Y120739*
D02*
X153901Y119239*
D01*
Y120739*
D02*
X154401Y119239*
D01*
Y120739*
D02*
X154901*
D01*
Y119239*
D02*
X155401*
D01*
Y120739*
D02*
X155901Y119239*
D01*
Y120739*
D02*
X156401Y119239*
D01*
Y120739*
D02*
X156901*
D01*
Y119239*
D02*
X157401*
D01*
Y120739*
D02*
X157901Y119239*
D01*
Y120739*
D02*
X158401Y119239*
D01*
Y120739*
D02*
X158901*
D01*
Y119239*
D02*
X159401*
D01*
Y120739*
D02*
X159901Y119239*
D01*
Y120739*
D02*
X144901Y117739*
D01*
X146401*
D02*
X144901Y117239*
D01*
X146401*
D02*
Y116739*
D01*
X144901*
D02*
Y116239*
D01*
X146401*
D02*
X144901Y115739*
D01*
X146401*
D02*
X144901Y115239*
D01*
X146401*
D02*
Y114739*
D01*
X144901*
D02*
Y114239*
D01*
X146401*
D02*
X144901Y113739*
D01*
X146401*
D02*
X144901Y113239*
D01*
X146401*
D02*
Y112739*
D01*
X144901*
D02*
Y112239*
D01*
X146401*
D02*
X144901Y111739*
D01*
X146401*
D02*
X144901Y111239*
D01*
X146401*
D02*
Y110739*
D01*
X144901*
D02*
Y110239*
D01*
X146401*
D02*
X144901Y109740*
D01*
X146401*
D02*
X144901Y109240*
D01*
X146401*
D02*
Y108740*
D01*
X144901*
D02*
Y108240*
D01*
X146401*
D02*
X144901Y107740*
D01*
X146401*
D02*
X144901Y107240*
D01*
X146401*
D02*
Y106740*
D01*
X144901*
D02*
Y106240*
D01*
X146401*
D02*
X144901Y105740*
D01*
X146401*
D02*
X147901Y102740*
D01*
Y104240*
D02*
X148401Y102740*
D01*
Y104240*
D02*
X148901*
D01*
Y102740*
D02*
X149401*
D01*
Y104240*
D02*
X149901Y102740*
D01*
Y104240*
D02*
X150401Y102740*
D01*
Y104240*
D02*
X150901*
D01*
Y102740*
D02*
X151901*
D01*
Y104240*
D02*
X152401Y102740*
D01*
Y104240*
D02*
X152901*
D01*
Y102740*
D02*
X153401*
D01*
Y104240*
D02*
X153901Y102740*
D01*
Y104240*
D02*
X154901*
D01*
Y102740*
D02*
X155401*
D01*
Y104240*
D02*
X155901Y102740*
D01*
Y104240*
D02*
X156401Y102740*
D01*
Y104240*
D02*
X157401Y102740*
D01*
Y104240*
D02*
X157901Y102740*
D01*
Y104240*
D02*
X158401Y102740*
D01*
Y104240*
D02*
X158901*
D01*
Y102740*
D02*
X159401*
D01*
Y104240*
D02*
X159901Y102740*
D01*
Y104240*
D02*
X151401Y102740*
D01*
Y104240*
D02*
X161401Y115239*
D01*
X162901*
D16*
D02*
X144901Y117239*
D01*
X144064*
D21*
D02*
X131558Y124805*
D01*
X132858*
D02*
X131558Y118305*
D01*
X132858*
D02*
X131558Y124155*
D01*
X132858*
D02*
X131558Y123505*
D01*
X132858*
D02*
X131558Y126105*
D01*
X132858*
D02*
X131558Y119605*
D01*
X132858*
D02*
X131558Y118955*
D01*
X132858*
D02*
X131558Y120255*
D01*
X132858*
D02*
X131558Y121555*
D01*
X132858*
D02*
X131558Y126755*
D01*
X132858*
D02*
X131558Y125455*
D01*
X132858*
D02*
X131558Y122855*
D01*
X132858*
D02*
X131558Y122205*
D01*
X132858*
D02*
X131558Y120905*
D01*
X132858*
D02*
X139358Y122205*
D01*
X140658*
D02*
X139358Y126755*
D01*
X140658*
D02*
X139358Y123505*
D01*
X140658*
D02*
X139358Y124155*
D01*
X140658*
D02*
X139358Y124805*
D01*
X140658*
D02*
X139358Y126105*
D01*
X140658*
D02*
X139358Y118955*
D01*
X140658*
D02*
X139358Y118305*
D01*
X140658*
D02*
X139358Y121555*
D01*
X140658*
D02*
X139358Y119605*
D01*
X140658*
D02*
X139358Y125455*
D01*
X140658*
D02*
X139358Y120255*
D01*
X140658*
D02*
X139358Y120905*
D01*
X140658*
D02*
X139358Y122855*
D01*
X140658*
D38*
D02*
X135255Y132715D03*
X140335Y130175D03*
X137795Y122555D03*
Y117475D03*
X140335Y115570D03*
X147955Y122555D03*
Y127635D03*
X145415Y130175D03*
X150495D03*
Y125095D03*
X147955Y117475D03*
X150495Y114935D03*
X153035Y117475D03*
X155575Y114935D03*
X158115Y117475D03*
X153035Y112395D03*
X158115D03*
X163195Y131445D03*
X165418D03*
X161925Y122555D03*
Y123825D03*
Y125095D03*
X175895Y114935D03*
X180975D03*
X178435Y120015D03*
X180975Y125095D03*
Y132715D03*
X178435Y109855D03*
X180975Y104775D03*
X183515Y109855D03*
X178435Y94615D03*
X175895Y92075D03*
X180975Y89535D03*
X183515Y97155D03*
D16*
X170815Y107950*
D01*
X171133Y107633*
D38*
D02*
X147955Y106045D03*
X153035D03*
X158115D03*
X153035Y97155D03*
X158115Y92075D03*
X163195D03*
X160655Y97155D03*
X165735D03*
Y86995D03*
X158115Y88900D03*
X160655D03*
X120015Y109220D03*
X121285D03*
X122555D03*
X123825D03*
X132715D03*
X135255D03*
X133985D03*
X127635Y112395D03*
Y114935D03*
X130175Y111443D03*
X120015Y94615D03*
Y92075D03*
Y86995D03*
X135255D03*
X137795Y104775D03*
D28*
X135255Y123508*
D01*
Y122555*
D38*
D03*
D28*
X127635Y102553*
D01*
Y103823*
D02*
X136843Y102553*
D01*
Y103505*
D10*
D02*
X130378Y96148*
D01*
X131878*
Y95098*
X130378*
Y96148*
D02*
Y96053*
D01*
X131878*
D02*
X130378Y95958*
D01*
X131878*
D02*
X130378Y95863*
D01*
X131878*
D02*
X130378Y95768*
D01*
X131878*
D02*
X130378Y95673*
D01*
X131878*
D02*
X130378Y95578*
D01*
X131878*
D02*
X130378Y95483*
D01*
X131878*
D02*
X130378Y95388*
D01*
X131878*
D02*
X130378Y95293*
D01*
X131878*
D02*
X130378Y95198*
D01*
X131878*
D02*
X130378Y95103*
D01*
X131878*
D02*
X130378Y93498*
D01*
X131878*
Y92448*
X130378*
Y93498*
D02*
Y93403*
D01*
X131878*
D02*
X130378Y93308*
D01*
X131878*
D02*
X130378Y93213*
D01*
X131878*
D02*
X130378Y93118*
D01*
X131878*
D02*
X130378Y93023*
D01*
X131878*
D02*
X130378Y92928*
D01*
X131878*
D02*
X130378Y92833*
D01*
X131878*
D02*
X130378Y92738*
D01*
X131878*
D02*
X130378Y92643*
D01*
X131878*
D02*
X130378Y92548*
D01*
X131878*
D02*
X130378Y92453*
D01*
X131878*
D30*
D02*
X131128Y95568*
D01*
Y97155*
X130175Y98108*
Y100013*
D38*
D02*
Y103505D03*
X131763D03*
X133350D03*
X134938D03*
X121603D03*
X123190D03*
X124778D03*
X120015D03*
D39*
X176683Y129223D03*
X178283D03*
X179858D03*
X181458D03*
D38*
X178435Y130810D03*
D20*
X176530Y129223*
D01*
X174308*
D02*
X178435*
D01*
X179705*
D14*
D02*
X176530Y104140*
D01*
X183833*
D02*
X176530Y112713*
D01*
Y104140*
D02*
X175260Y112713*
D01*
X176530*
D02*
X175260Y115888*
D01*
Y112713*
D02*
X177800Y118428*
D01*
X175260Y115888*
D02*
X177800Y123190*
D01*
Y118428*
D02*
X175895Y125095*
D01*
X177800Y123190*
D02*
X175895Y128270*
D01*
Y125095*
D02*
X181610Y128270*
D01*
X175895*
D02*
X181610Y130175*
D01*
Y128270*
D02*
X175895Y130175*
D01*
X181610*
D02*
X175895Y131128*
D01*
Y130175*
D02*
X177800Y131128*
D01*
X175895*
D02*
X180340Y133668*
D01*
X177800Y131128*
D02*
X183198Y133668*
D01*
X180340*
D02*
X183198*
D01*
Y124778*
X185738Y122238*
Y114935*
X184150*
Y112395*
X185738*
Y89853*
X184468Y88583*
D02*
X180340*
D01*
X184468*
D02*
X177800Y91123*
D01*
X180340Y88583*
D02*
X174625Y91123*
D01*
X177800*
D02*
X173673Y92075*
D01*
X174625Y91123*
D02*
X173673Y95250*
D01*
Y92075*
D02*
X174308Y94615*
D01*
X173673Y95250*
D02*
X176213Y94615*
D01*
X174308*
D02*
X176848Y95250*
D01*
X176213Y94615*
D02*
X176848Y97155*
D01*
Y95250*
D02*
X176213Y97790*
D01*
X176848Y97155*
D02*
X174308Y97790*
D01*
X176213*
D02*
X173673Y97155*
D01*
X174308Y97790*
D02*
X173673Y98425*
D01*
Y97155*
D02*
X182563Y98425*
D01*
X173673*
D02*
X183198Y99060*
D01*
X182563Y98425*
D02*
X183198Y100965*
D01*
Y99060*
D02*
X182563Y101600*
D01*
X183198Y100965*
D02*
X178753Y101600*
D01*
X182563*
D02*
X178753*
D01*
Y103188*
X183833*
Y104140*
D02*
X180658Y97790*
D01*
X180023Y97155*
D02*
X182563Y97790*
D01*
X180658*
D02*
X183198Y97155*
D01*
X182563Y97790*
D02*
X183198Y95250*
D01*
Y97155*
D02*
X182563Y94615*
D01*
X183198Y95250*
D02*
X180658Y94615*
D01*
X182563*
D02*
X180023Y95250*
D01*
X180658Y94615*
D02*
X180023Y97155*
D01*
Y95250*
D02*
X180198Y88726*
D01*
X184610*
D02*
X180008Y88916*
D01*
X184800*
D02*
X179818Y89106*
D01*
X184990*
D02*
X179628Y89296*
D01*
X185180*
D02*
X179438Y89486*
D01*
X185370*
D02*
X179248Y89676*
D01*
X185560*
D02*
X179058Y89866*
D01*
X185738*
D02*
X178868Y90056*
D01*
X185738*
D02*
X178678Y90246*
D01*
X185738*
D02*
X178488Y90436*
D01*
X185738*
D02*
X178298Y90626*
D01*
X185738*
D02*
X178108Y90816*
D01*
X185738*
D02*
X177918Y91006*
D01*
X185738*
D02*
X174552Y91196*
D01*
X185738*
D02*
X174362Y91386*
D01*
X185738*
D02*
X174172Y91576*
D01*
X185738*
D02*
X173982Y91766*
D01*
X185738*
D02*
X173792Y91956*
D01*
X185738*
D02*
X173673Y92146*
D01*
X185738*
D02*
X173673Y92336*
D01*
X185738*
D02*
X173673Y92526*
D01*
X185738*
D02*
X173673Y92716*
D01*
X185738*
D02*
X173673Y92906*
D01*
X185738*
D02*
X173673Y93096*
D01*
X185738*
D02*
X173673Y93286*
D01*
X185738*
D02*
X173673Y93476*
D01*
X185738*
D02*
X173673Y93666*
D01*
X185738*
D02*
X173673Y93856*
D01*
X185738*
D02*
X173673Y94046*
D01*
X185738*
D02*
X173673Y94236*
D01*
X185738*
D02*
X173673Y94426*
D01*
X185738*
D02*
X173673Y94616*
D01*
X174308*
D02*
X176214*
D01*
X180658*
D02*
X182564*
D01*
X185738*
D02*
X173673Y94806*
D01*
X174118*
D02*
X176404*
D01*
X180468*
D02*
X182754*
D01*
X185738*
D02*
X173673Y94996*
D01*
X173928*
D02*
X176594*
D01*
X180278*
D02*
X182944*
D01*
X185738*
D02*
X173673Y95186*
D01*
X173738*
D02*
X176784*
D01*
X180088*
D02*
X183134*
D01*
X185738*
D02*
X176848Y95376*
D01*
X180023*
D02*
X183198*
D01*
X185738*
D02*
X176848Y95566*
D01*
X180023*
D02*
X183198*
D01*
X185738*
D02*
X176848Y95756*
D01*
X180023*
D02*
X183198*
D01*
X185738*
D02*
X176848Y95946*
D01*
X180023*
D02*
X183198*
D01*
X185738*
D02*
X176848Y96136*
D01*
X180023*
D02*
X183198*
D01*
X185738*
D02*
X176848Y96326*
D01*
X180023*
D02*
X183198*
D01*
X185738*
D02*
X176848Y96516*
D01*
X180023*
D02*
X183198*
D01*
X185738*
D02*
X176848Y96706*
D01*
X180023*
D02*
X183198*
D01*
X185738*
D02*
X176848Y96896*
D01*
X180023*
D02*
X183198*
D01*
X185738*
D02*
X176848Y97086*
D01*
X180023*
D02*
X183198*
D01*
X185738*
D02*
X173673Y97276*
D01*
X173794*
D02*
X176728*
D01*
X180144*
D02*
X183078*
D01*
X185738*
D02*
X173673Y97466*
D01*
X173984*
D02*
X176538*
D01*
X180334*
D02*
X182888*
D01*
X185738*
D02*
X173673Y97656*
D01*
X174174*
D02*
X176348*
D01*
X180524*
D02*
X182698*
D01*
X185738*
D02*
X173673Y97846*
D01*
X185738*
D02*
X173673Y98036*
D01*
X185738*
D02*
X173673Y98226*
D01*
X185738*
D02*
X173673Y98416*
D01*
X185738*
D02*
X182744Y98606*
D01*
X185738*
D02*
X182934Y98796*
D01*
X185738*
D02*
X183124Y98986*
D01*
X185738*
D02*
X183198Y99176*
D01*
X185738*
D02*
X183198Y99366*
D01*
X185738*
D02*
X183198Y99556*
D01*
X185738*
D02*
X183198Y99746*
D01*
X185738*
D02*
X183198Y99936*
D01*
X185738*
D02*
X183198Y100126*
D01*
X185738*
D02*
X183198Y100316*
D01*
X185738*
D02*
X183198Y100506*
D01*
X185738*
D02*
X183198Y100696*
D01*
X185738*
D02*
X183198Y100886*
D01*
X185738*
D02*
X183088Y101076*
D01*
X185738*
D02*
X182898Y101266*
D01*
X185738*
D02*
X182708Y101456*
D01*
X185738*
D02*
X178753Y101646*
D01*
X185738*
D02*
X178753Y101836*
D01*
X185738*
D02*
X178753Y102026*
D01*
X185738*
D02*
X178753Y102216*
D01*
X185738*
D02*
X178753Y102406*
D01*
X185738*
D02*
X178753Y102596*
D01*
X185738*
D02*
X178753Y102786*
D01*
X185738*
D02*
X178753Y102976*
D01*
X185738*
D02*
X178753Y103166*
D01*
X185738*
D02*
X183833Y103356*
D01*
X185738*
D02*
X183833Y103546*
D01*
X185738*
D02*
X183833Y103736*
D01*
X185738*
D02*
X183833Y103926*
D01*
X185738*
D02*
X183833Y104116*
D01*
X185738*
D02*
X176530Y104306*
D01*
X185738*
D02*
X176530Y104496*
D01*
X185738*
D02*
X176530Y104686*
D01*
X185738*
D02*
X176530Y104876*
D01*
X185738*
D02*
X176530Y105066*
D01*
X185738*
D02*
X176530Y105256*
D01*
X185738*
D02*
X176530Y105446*
D01*
X185738*
D02*
X176530Y105636*
D01*
X185738*
D02*
X176530Y105826*
D01*
X185738*
D02*
X176530Y106016*
D01*
X185738*
D02*
X176530Y106206*
D01*
X185738*
D02*
X176530Y106396*
D01*
X185738*
D02*
X176530Y106586*
D01*
X185738*
D02*
X176530Y106776*
D01*
X185738*
D02*
X176530Y106966*
D01*
X185738*
D02*
X176530Y107156*
D01*
X185738*
D02*
X176530Y107346*
D01*
X185738*
D02*
X176530Y107536*
D01*
X185738*
D02*
X176530Y107726*
D01*
X185738*
D02*
X176530Y107916*
D01*
X185738*
D02*
X176530Y108106*
D01*
X185738*
D02*
X176530Y108296*
D01*
X185738*
D02*
X176530Y108486*
D01*
X185738*
D02*
X176530Y108676*
D01*
X185738*
D02*
X176530Y108866*
D01*
X185738*
D02*
X176530Y109056*
D01*
X185738*
D02*
X176530Y109246*
D01*
X185738*
D02*
X176530Y109436*
D01*
X185738*
D02*
X176530Y109626*
D01*
X185738*
D02*
X176530Y109816*
D01*
X185738*
D02*
X176530Y110006*
D01*
X185738*
D02*
X176530Y110196*
D01*
X185738*
D02*
X176530Y110386*
D01*
X185738*
D02*
X176530Y110576*
D01*
X185738*
D02*
X176530Y110766*
D01*
X185738*
D02*
X176530Y110956*
D01*
X185738*
D02*
X176530Y111146*
D01*
X185738*
D02*
X176530Y111336*
D01*
X185738*
D02*
X176530Y111526*
D01*
X185738*
D02*
X176530Y111716*
D01*
X185738*
D02*
X176530Y111906*
D01*
X185738*
D02*
X176530Y112096*
D01*
X185738*
D02*
X176530Y112286*
D01*
X185738*
D02*
X176530Y112476*
D01*
X184150*
D02*
X176530Y112666*
D01*
X184150*
D02*
X175260Y112856*
D01*
X184150*
D02*
X175260Y113046*
D01*
X184150*
D02*
X175260Y113236*
D01*
X184150*
D02*
X175260Y113426*
D01*
X184150*
D02*
X175260Y113616*
D01*
X184150*
D02*
X175260Y113806*
D01*
X184150*
D02*
X175260Y113996*
D01*
X184150*
D02*
X175260Y114186*
D01*
X184150*
D02*
X175260Y114376*
D01*
X184150*
D02*
X175260Y114566*
D01*
X184150*
D02*
X175260Y114756*
D01*
X184150*
D02*
X175260Y114946*
D01*
X185738*
D02*
X175260Y115136*
D01*
X185738*
D02*
X175260Y115326*
D01*
X185738*
D02*
X175260Y115516*
D01*
X185738*
D02*
X175260Y115706*
D01*
X185738*
D02*
X175268Y115896*
D01*
X185738*
D02*
X175458Y116086*
D01*
X185738*
D02*
X175648Y116276*
D01*
X185738*
D02*
X175838Y116466*
D01*
X185738*
D02*
X176028Y116656*
D01*
X185738*
D02*
X176218Y116846*
D01*
X185738*
D02*
X176408Y117036*
D01*
X185738*
D02*
X176598Y117226*
D01*
X185738*
D02*
X176788Y117416*
D01*
X185738*
D02*
X176978Y117606*
D01*
X185738*
D02*
X177168Y117796*
D01*
X185738*
D02*
X177358Y117986*
D01*
X185738*
D02*
X177548Y118176*
D01*
X185738*
D02*
X177738Y118366*
D01*
X185738*
D02*
X177800Y118556*
D01*
X185738*
D02*
X177800Y118746*
D01*
X185738*
D02*
X177800Y118936*
D01*
X185738*
D02*
X177800Y119126*
D01*
X185738*
D02*
X177800Y119316*
D01*
X185738*
D02*
X177800Y119506*
D01*
X185738*
D02*
X177800Y119696*
D01*
X185738*
D02*
X177800Y119886*
D01*
X185738*
D02*
X177800Y120076*
D01*
X185738*
D02*
X177800Y120266*
D01*
X185738*
D02*
X177800Y120456*
D01*
X185738*
D02*
X177800Y120646*
D01*
X185738*
D02*
X177800Y120836*
D01*
X185738*
D02*
X177800Y121026*
D01*
X185738*
D02*
X177800Y121216*
D01*
X185738*
D02*
X177800Y121406*
D01*
X185738*
D02*
X177800Y121596*
D01*
X185738*
D02*
X177800Y121786*
D01*
X185738*
D02*
X177800Y121976*
D01*
X185738*
D02*
X177800Y122166*
D01*
X185738*
D02*
X177800Y122356*
D01*
X185620*
D02*
X177800Y122546*
D01*
X185430*
D02*
X177800Y122736*
D01*
X185240*
D02*
X177800Y122926*
D01*
X185050*
D02*
X177800Y123116*
D01*
X184860*
D02*
X177684Y123306*
D01*
X184670*
D02*
X177494Y123496*
D01*
X184480*
D02*
X177304Y123686*
D01*
X184290*
D02*
X177114Y123876*
D01*
X184100*
D02*
X176924Y124066*
D01*
X183910*
D02*
X176734Y124256*
D01*
X183720*
D02*
X176544Y124446*
D01*
X183530*
D02*
X176354Y124636*
D01*
X183340*
D02*
X176164Y124826*
D01*
X183198*
D02*
X175974Y125016*
D01*
X183198*
D02*
X175895Y125206*
D01*
X183198*
D02*
X175895Y125396*
D01*
X183198*
D02*
X175895Y125586*
D01*
X183198*
D02*
X175895Y125776*
D01*
X183198*
D02*
X175895Y125966*
D01*
X183198*
D02*
X175895Y126156*
D01*
X183198*
D02*
X175895Y126346*
D01*
X183198*
D02*
X175895Y126536*
D01*
X183198*
D02*
X175895Y126726*
D01*
X183198*
D02*
X175895Y126916*
D01*
X183198*
D02*
X175895Y127106*
D01*
X183198*
D02*
X175895Y127296*
D01*
X183198*
D02*
X175895Y127486*
D01*
X183198*
D02*
X175895Y127676*
D01*
X183198*
D02*
X175895Y127866*
D01*
X183198*
D02*
X175895Y128056*
D01*
X183198*
D02*
X175895Y128246*
D01*
X183198*
D02*
X181610Y128435*
D01*
X183198*
D02*
X181610Y128625*
D01*
X183198*
D02*
X181610Y128815*
D01*
X183198*
D02*
X181610Y129006*
D01*
X183198*
D02*
X181610Y129196*
D01*
X183198*
D02*
X181610Y129386*
D01*
X183198*
D02*
X181610Y129576*
D01*
X183198*
D02*
X181610Y129766*
D01*
X183198*
D02*
X181610Y129956*
D01*
X183198*
D02*
X181610Y130146*
D01*
X183198*
D02*
X175895Y130336*
D01*
X183198*
D02*
X175895Y130526*
D01*
X183198*
D02*
X175895Y130715*
D01*
X183198*
D02*
X175895Y130905*
D01*
X183198*
D02*
X175895Y131096*
D01*
X183198*
D02*
X177958Y131286*
D01*
X183198*
D02*
X178148Y131476*
D01*
X183198*
D02*
X178338Y131666*
D01*
X183198*
D02*
X178528Y131856*
D01*
X183198*
D02*
X178718Y132046*
D01*
X183198*
D02*
X178908Y132236*
D01*
X183198*
D02*
X179098Y132426*
D01*
X183198*
D02*
X179288Y132616*
D01*
X183198*
D02*
X179478Y132806*
D01*
X183198*
D02*
X179668Y132996*
D01*
X183198*
D02*
X179858Y133186*
D01*
X183198*
D02*
X180048Y133376*
D01*
X183198*
D02*
X180238Y133566*
D01*
X183198*
D51*
D02*
X184184Y116310*
D01*
X184785*
D43*
D02*
X183134Y102810*
D01*
X184934*
D35*
D02*
X179884Y102910*
D01*
Y102709*
D31*
D02*
X169884Y109009*
D01*
X169384*
D02*
X169884Y112310*
D01*
X169384*
D02*
X169884Y111209*
D01*
X169384*
D43*
D02*
X169734Y113859*
D01*
X169535*
D31*
D02*
X169884Y105709*
D01*
X169384*
D02*
X169884Y103660*
D01*
X169384*
D02*
X169884Y104609*
D01*
X169384*
D02*
X169884Y106810*
D01*
X169384*
D02*
X169884Y110109*
D01*
X169384*
D02*
X169884Y107910*
D01*
X169384*
D16*
D02*
X169545Y111125*
D01*
X168910*
D02*
X169545Y112395*
D01*
X171133*
D02*
X169545Y110173*
D01*
X168910*
D02*
X173673*
D01*
X169545*
D02*
Y108903*
D01*
X173673*
D02*
X168910Y107950*
D01*
X169545*
X170815*
D02*
X169545Y105728*
D01*
X168910*
D38*
D02*
X144780Y100965D03*
D16*
X150401Y100990*
D01*
Y103490*
D02*
X149901Y101240*
D01*
Y103490*
D02*
Y101240*
D01*
X149225Y100564*
D14*
D02*
X143335Y100472*
D01*
X145876*
D02*
X143525Y100662*
D01*
X146066*
D02*
X143715Y100852*
D01*
X146256*
D02*
X143905Y101042*
D01*
X146446*
D02*
X144095Y101232*
D01*
X146636*
D02*
X145098Y101422*
D01*
X146826*
D02*
X145098Y101612*
D01*
X147003*
D02*
X145098Y101802*
D01*
X147003*
D02*
X146442Y101992*
D01*
X147003*
D02*
X146632Y102182*
D01*
X147003*
D02*
X146822Y102372*
D01*
X147003*
D02*
X145733Y100330*
D01*
X147003Y101600*
D02*
X143193Y100330*
D01*
X145733*
D02*
X144145Y101283*
D01*
X143193Y100330*
D02*
X144145Y101283*
D01*
X145098*
Y101918*
X146368*
X147003Y102553*
Y101600*
D38*
D02*
X141605Y105728D03*
X140970Y104140D03*
Y103188D03*
Y102235D03*
X141923Y103188D03*
X147955Y88900D03*
Y86995D03*
D47*
X137319Y92075*
D01*
Y94298*
D02*
Y88583*
D01*
Y86360*
D02*
X144621Y92075*
D01*
Y94298*
D02*
Y88583*
D01*
Y86360*
D46*
D02*
X137319Y88583*
D01*
Y89376*
D38*
D02*
X140970Y92075D03*
X141923D03*
X142875D03*
D46*
X140970*
D01*
X142875*
D02*
Y91123*
D01*
Y92075*
D02*
Y91123*
D01*
X144621Y89377*
D02*
Y88583*
D01*
Y89377*
D39*
D02*
X146838Y99695D03*
X148438D03*
X146838Y97473D03*
X148438D03*
X142240Y99225D03*
Y97625D03*
X144463Y99225D03*
Y97625D03*
D16*
X150401Y100990*
D01*
X149860Y100449*
D02*
X149225Y100330*
D01*
Y100564*
D02*
X148590Y99695*
D01*
X149225Y100330*
D02*
X149860Y98743*
D01*
Y100449*
D02*
X148590Y97473*
D01*
X149860Y98743*
D02*
X142240Y97473*
D01*
X143193Y96520*
X145733*
X146685Y97473*
D02*
X144463*
D01*
X145415*
X145733Y97790*
D02*
Y98743*
D01*
X146685Y99695*
D02*
X145733Y97790*
D01*
Y98743*
D20*
D02*
X144463Y99378*
D01*
X142240*
X141605Y100013*
D46*
D02*
X138430Y90488*
D01*
X137319Y89376*
D38*
D02*
X138430Y90488D03*
X140335D03*
X139383D03*
D46*
X138430*
D01*
X140335*
D14*
D02*
X137795Y91440*
D01*
X136208Y89853*
Y85408*
X138430*
Y88900*
X139065Y89535*
X142875*
X143510Y88900*
Y85408*
X145733*
Y89853*
X143828Y91758*
Y93028*
X140018*
Y91440*
X137795*
D38*
D02*
X136208Y94298D03*
X138430D03*
X145098Y95250D03*
X144145D03*
X143193D03*
X146050D03*
X137795D03*
X136843D03*
X137795Y97155D03*
X132715D03*
X150495Y95250D03*
X125095Y89535D03*
X140335Y86995D03*
D58*
X123095Y121325D03*
X125095Y123825D03*
Y121325D03*
X123095Y123825D03*
D116*
X120295Y128625D03*
Y116525D03*
D20*
X125413Y113983*
D01*
X126365*
D38*
D02*
X178435Y98108D03*
D16*
X129540Y127953*
D01*
X130738Y126755*
D38*
D02*
X130493Y132398D03*
Y131128D03*
D16*
X136843Y126048*
D01*
X130493Y132398*
D02*
X136843Y126048*
D01*
Y114935*
D02*
X136208Y125413*
D01*
X130493Y131128*
D02*
X136208Y114618*
D01*
Y125413*
D14*
D02*
X137653Y115078*
D01*
X141923*
D02*
X137478Y115268*
D01*
X141923*
D02*
X137478Y115458*
D01*
X141923*
D02*
X137478Y115648*
D01*
X141923*
D02*
X137478Y115837*
D01*
X141923*
D02*
X137478Y116027*
D01*
X141923*
D02*
X137478Y116217*
D01*
X141923*
D02*
X137478Y116407*
D01*
X141923*
D02*
X137478Y116597*
D01*
X141923*
D02*
X137478Y116787*
D01*
X141923*
D02*
X137478Y116977*
D01*
X141923*
D02*
X137478Y117167*
D01*
X141923*
D02*
X137478Y117357*
D01*
X141923*
D02*
X137478Y117547*
D01*
X138430*
D02*
X137478Y117737*
D01*
X138430*
D02*
X137478Y117927*
D01*
X138430*
D02*
X137478Y118117*
D01*
X138430*
D02*
X137478Y118307*
D01*
X138430*
D02*
X137478Y118497*
D01*
X138430*
D02*
X137478Y118687*
D01*
X138430*
D02*
X137478Y118877*
D01*
X138430*
D02*
X137478Y119067*
D01*
X138430*
D02*
X137478Y119257*
D01*
X138430*
D02*
X137478Y119447*
D01*
X138430*
D02*
X137478Y119637*
D01*
X138430*
D02*
X137478Y119827*
D01*
X138430*
D02*
X137478Y120017*
D01*
X138430*
D02*
X137478Y120207*
D01*
X138430*
D02*
X137478Y120397*
D01*
X138430*
D02*
X137478Y120587*
D01*
X138430*
D02*
X137478Y120777*
D01*
X138430*
D02*
X137478Y120967*
D01*
X138430*
D02*
X137478Y121157*
D01*
X138430*
D02*
X137478Y121347*
D01*
X138430*
D02*
X137478Y121537*
D01*
X138430*
D02*
X137478Y121727*
D01*
X138430*
D02*
X137478Y121917*
D01*
X138430*
D02*
X137478Y122107*
D01*
X138430*
D02*
X137478Y122297*
D01*
X138430*
D02*
X137478Y122487*
D01*
X138430*
D02*
X137478Y122677*
D01*
X138430*
D02*
X137478Y122867*
D01*
X138430*
D02*
X137478Y123057*
D01*
X138430*
D02*
X137478Y123247*
D01*
X138430*
D02*
X137478Y123437*
D01*
X138430*
D02*
X137478Y123627*
D01*
X138430*
D02*
X137478Y123817*
D01*
X138430*
D02*
X137478Y124007*
D01*
X138430*
D02*
X137478Y124197*
D01*
X138430*
D02*
X137478Y124387*
D01*
X138430*
D02*
X137478Y124577*
D01*
X138430*
D02*
X137478Y124767*
D01*
X138430*
D02*
X137478Y124957*
D01*
X138430*
D02*
X137478Y125147*
D01*
X138430*
D02*
X137478Y125337*
D01*
X138430*
D02*
X137478Y125527*
D01*
X138430*
D02*
X137478Y125717*
D01*
X138430*
D02*
X137478Y125907*
D01*
X138430*
D02*
X137478Y126097*
D01*
X138430*
D02*
X137478Y126287*
D01*
X138430*
D02*
X137478Y126477*
D01*
X138430*
D02*
X137478Y126667*
D01*
X138430*
D02*
X137303Y126857*
D01*
X138430*
D02*
X137113Y127047*
D01*
X138430*
D02*
X136923Y127237*
D01*
X138430*
D02*
X136733Y127427*
D01*
X138430*
D02*
X136543Y127617*
D01*
X138430*
D02*
X136353Y127807*
D01*
X144608*
D02*
X136163Y127997*
D01*
X144418*
D02*
X135973Y128187*
D01*
X144228*
D02*
X135783Y128377*
D01*
X144038*
D02*
X135593Y128567*
D01*
X143848*
D02*
X135403Y128757*
D01*
X143658*
D02*
X135213Y128947*
D01*
X143468*
D02*
X135023Y129137*
D01*
X143278*
D02*
X134833Y129327*
D01*
X143088*
D02*
X134643Y129517*
D01*
X142898*
D02*
X134453Y129707*
D01*
X142708*
D02*
X134263Y129897*
D01*
X142518*
D02*
X134073Y130087*
D01*
X142328*
D02*
X133883Y130277*
D01*
X142138*
D02*
X133693Y130467*
D01*
X141948*
D02*
X133503Y130657*
D01*
X141758*
D02*
X133313Y130847*
D01*
X141568*
D02*
X133123Y131037*
D01*
X141378*
D02*
X132933Y131227*
D01*
X141188*
D02*
X132743Y131417*
D01*
X140998*
D02*
X132553Y131607*
D01*
X140808*
D02*
X132363Y131797*
D01*
X140653*
D02*
X132173Y131987*
D01*
X140653*
D02*
X131983Y132177*
D01*
X140653*
D02*
X131793Y132367*
D01*
X140653*
D02*
X131603Y132557*
D01*
X140653*
D02*
X131413Y132747*
D01*
X140653*
D02*
X131223Y132937*
D01*
X140653*
D02*
X131033Y133127*
D01*
X140653*
D02*
X130843Y133317*
D01*
X140653*
D02*
X130653Y133507*
D01*
X140653*
D02*
X130463Y133697*
D01*
X139700*
D02*
X130273Y133887*
D01*
X139700*
D02*
X130175Y134077*
D01*
X139700*
D02*
X130175Y134267*
D01*
X139700*
D02*
X130175Y134457*
D01*
X139700*
D02*
X130175Y134647*
D01*
X139700*
D02*
X130175Y134837*
D01*
X139700*
D02*
X130175Y135027*
D01*
X139700*
D02*
X130175Y135217*
D01*
X139700*
D02*
X130175Y135407*
D01*
X139700*
D02*
X130175Y135597*
D01*
X139700*
D02*
X130175Y135787*
D01*
X139700*
D02*
X130175Y135977*
D01*
X139700*
D02*
X130175Y136167*
D01*
X139700*
D02*
X130175Y136357*
D01*
X139700*
D02*
X130175Y136547*
D01*
X139700*
D02*
X130175Y136737*
D01*
X139700*
D02*
X130175Y136927*
D01*
X139700*
D02*
X130175Y137117*
D01*
X139700*
D02*
X130175Y137307*
D01*
X139700*
D02*
X130175Y133985*
D01*
X137478Y126683*
D02*
X130175Y133985*
D01*
Y137478*
X139700*
Y133668*
X140653*
D02*
Y131763*
D01*
Y133668*
D02*
X144780Y127635*
D01*
X140653Y131763*
D02*
X138430Y127635*
D01*
X144780*
D02*
X138430Y117475*
D01*
Y127635*
D02*
X141923Y117475*
D01*
X138430*
D02*
X141923Y114935*
D01*
Y117475*
D02*
X137795Y114935*
D01*
X141923*
D02*
X137478Y115253*
D01*
X137795Y114935*
D02*
X137478Y126683*
D01*
Y115253*
D38*
D02*
X137795Y135255D03*
X162243Y90488D03*
X161290D03*
D46*
X160655Y86995*
D01*
Y88900*
D38*
D02*
X159385D03*
D46*
X163195Y90488*
D01*
X161290*
D14*
D02*
X156845Y88583*
D01*
Y94298*
D02*
Y88583*
D01*
X161290*
Y88900*
X160338Y89853*
Y91123*
X160973Y91758*
X163830*
X164465Y91123*
Y88583*
D02*
X167640*
D01*
X164465*
D02*
X167640Y98425*
D01*
Y88583*
D02*
X167005Y99060*
D01*
X167640Y98425*
D02*
X157163Y99060*
D01*
X167005*
D02*
X157163Y96520*
D01*
Y99060*
D02*
X154623Y96520*
D01*
X157163*
D02*
X154623Y97473*
D01*
Y96520*
D02*
X151765Y97473*
D01*
X154623*
D02*
X151765Y99695*
D01*
Y97473*
D02*
X150495Y99695*
D01*
X151765*
D02*
X150495*
D01*
Y97790*
X148590Y95885*
X142558*
X140970Y97473*
Y99060*
X136208*
Y98425*
X132398*
Y93028*
X133668*
Y91123*
X129540*
D02*
Y89853*
D01*
Y91123*
D02*
X128588Y88900*
D01*
X129540Y89853*
D02*
X126683Y88900*
D01*
X128588*
D02*
X125730Y89853*
D01*
X126683Y88900*
D02*
X125730Y95568*
D01*
Y89853*
D02*
X120968Y95568*
D01*
X125730*
D02*
X118745Y97790*
D01*
X120968Y95568*
D02*
X118745Y103505*
D01*
Y97790*
D02*
X117793Y103505*
D01*
X118745*
D02*
X117793Y84773*
D01*
Y103505*
D02*
X148908Y84773*
D01*
X117793*
D02*
X148908Y88583*
D01*
Y84773*
D02*
X149860Y88583*
D01*
X148908*
D02*
X149860Y93980*
D01*
Y88583*
D02*
X152083Y96203*
D01*
X149860Y93980*
D02*
X158115Y96203*
D01*
X152083*
D02*
X158115Y94298*
D01*
Y96203*
D02*
X156845Y94298*
D01*
X158115*
D02*
X140018Y93028*
D01*
Y91440*
D02*
X143828Y93028*
D01*
X140018*
D02*
X143828Y91758*
D01*
Y93028*
D02*
X145733Y89853*
D01*
X143828Y91758*
D02*
X145733Y85408*
D01*
Y89853*
D02*
X143510Y85408*
D01*
X145733*
D02*
X143510Y88900*
D01*
Y85408*
D02*
X142875Y89535*
D01*
X143510Y88900*
D02*
X139065Y89535*
D01*
X142875*
D02*
X138430Y88900*
D01*
X139065Y89535*
D02*
X138430Y85408*
D01*
Y88900*
D02*
X136208Y85408*
D01*
X138430*
D02*
X136208Y89853*
D01*
Y85408*
D02*
X137795Y91440*
D01*
X136208Y89853*
D02*
X140018Y91440*
D01*
X137795*
D02*
X117793Y84916*
D01*
X148908*
D02*
X117793Y85105*
D01*
X148908*
D02*
X117793Y85295*
D01*
X148908*
D02*
X117793Y85485*
D01*
X136208*
D02*
X138430*
D01*
X143510*
D02*
X145733*
D01*
X148908*
D02*
X117793Y85675*
D01*
X136208*
D02*
X138430*
D01*
X143510*
D02*
X145733*
D01*
X148908*
D02*
X117793Y85865*
D01*
X136208*
D02*
X138430*
D01*
X143510*
D02*
X145733*
D01*
X148908*
D02*
X117793Y86055*
D01*
X136208*
D02*
X138430*
D01*
X143510*
D02*
X145733*
D01*
X148908*
D02*
X117793Y86245*
D01*
X136208*
D02*
X138430*
D01*
X143510*
D02*
X145733*
D01*
X148908*
D02*
X117793Y86435*
D01*
X136208*
D02*
X138430*
D01*
X143510*
D02*
X145733*
D01*
X148908*
D02*
X117793Y86625*
D01*
X136208*
D02*
X138430*
D01*
X143510*
D02*
X145733*
D01*
X148908*
D02*
X117793Y86815*
D01*
X136208*
D02*
X138430*
D01*
X143510*
D02*
X145733*
D01*
X148908*
D02*
X117793Y87005*
D01*
X136208*
D02*
X138430*
D01*
X143510*
D02*
X145733*
D01*
X148908*
D02*
X117793Y87195*
D01*
X136208*
D02*
X138430*
D01*
X143510*
D02*
X145733*
D01*
X148908*
D02*
X117793Y87385*
D01*
X136208*
D02*
X138430*
D01*
X143510*
D02*
X145733*
D01*
X148908*
D02*
X117793Y87575*
D01*
X136208*
D02*
X138430*
D01*
X143510*
D02*
X145733*
D01*
X148908*
D02*
X117793Y87765*
D01*
X136208*
D02*
X138430*
D01*
X143510*
D02*
X145733*
D01*
X148908*
D02*
X117793Y87955*
D01*
X136208*
D02*
X138430*
D01*
X143510*
D02*
X145733*
D01*
X148908*
D02*
X117793Y88145*
D01*
X136208*
D02*
X138430*
D01*
X143510*
D02*
X145733*
D01*
X148908*
D02*
X117793Y88335*
D01*
X136208*
D02*
X138430*
D01*
X143510*
D02*
X145733*
D01*
X148908*
D02*
X117793Y88525*
D01*
X136208*
D02*
X138430*
D01*
X143510*
D02*
X145733*
D01*
X148908*
D02*
X117793Y88715*
D01*
X136208*
D02*
X138430*
D01*
X143510*
D02*
X145733*
D01*
X149860*
D02*
X156845*
D01*
X161290*
D02*
X164465*
D01*
X167640*
D02*
X117793Y88905*
D01*
X126678*
D02*
X128593*
D01*
X136208*
D02*
X138435*
D01*
X143505*
D02*
X145733*
D01*
X149860*
D02*
X156845*
D01*
X161285*
D02*
X164465*
D01*
X167640*
D02*
X117793Y89095*
D01*
X126488*
D02*
X128783*
D01*
X136208*
D02*
X138625*
D01*
X143315*
D02*
X145733*
D01*
X149860*
D02*
X156845*
D01*
X161095*
D02*
X164465*
D01*
X167640*
D02*
X117793Y89285*
D01*
X126298*
D02*
X128973*
D01*
X136208*
D02*
X138815*
D01*
X143125*
D02*
X145733*
D01*
X149860*
D02*
X156845*
D01*
X160905*
D02*
X164465*
D01*
X167640*
D02*
X117793Y89475*
D01*
X126108*
D02*
X129163*
D01*
X136208*
D02*
X139005*
D01*
X142935*
D02*
X145733*
D01*
X149860*
D02*
X156845*
D01*
X160715*
D02*
X164465*
D01*
X167640*
D02*
X117793Y89665*
D01*
X125918*
D02*
X129353*
D01*
X136208*
D02*
X145733*
D01*
X149860*
D02*
X156845*
D01*
X160525*
D02*
X164465*
D01*
X167640*
D02*
X117793Y89855*
D01*
X125730*
D02*
X129540*
D01*
X136210*
D02*
X145731*
D01*
X149860*
D02*
X156845*
D01*
X160338*
D02*
X164465*
D01*
X167640*
D02*
X117793Y90045*
D01*
X125730*
D02*
X129540*
D01*
X136400*
D02*
X145541*
D01*
X149860*
D02*
X156845*
D01*
X160338*
D02*
X164465*
D01*
X167640*
D02*
X117793Y90235*
D01*
X125730*
D02*
X129540*
D01*
X136590*
D02*
X145351*
D01*
X149860*
D02*
X156845*
D01*
X160338*
D02*
X164465*
D01*
X167640*
D02*
X117793Y90425*
D01*
X125730*
D02*
X129540*
D01*
X136780*
D02*
X145161*
D01*
X149860*
D02*
X156845*
D01*
X160338*
D02*
X164465*
D01*
X167640*
D02*
X117793Y90615*
D01*
X125730*
D02*
X129540*
D01*
X136970*
D02*
X144971*
D01*
X149860*
D02*
X156845*
D01*
X160338*
D02*
X164465*
D01*
X167640*
D02*
X117793Y90805*
D01*
X125730*
D02*
X129540*
D01*
X137160*
D02*
X144781*
D01*
X149860*
D02*
X156845*
D01*
X160338*
D02*
X164465*
D01*
X167640*
D02*
X117793Y90995*
D01*
X125730*
D02*
X129540*
D01*
X137350*
D02*
X144591*
D01*
X149860*
D02*
X156845*
D01*
X160338*
D02*
X164465*
D01*
X167640*
D02*
X117793Y91185*
D01*
X125730*
D02*
X133668*
D01*
X137540*
D02*
X144401*
D01*
X149860*
D02*
X156845*
D01*
X160400*
D02*
X164403*
D01*
X167640*
D02*
X117793Y91375*
D01*
X125730*
D02*
X133668*
D01*
X137730*
D02*
X144211*
D01*
X149860*
D02*
X156845*
D01*
X160590*
D02*
X164213*
D01*
X167640*
D02*
X117793Y91565*
D01*
X125730*
D02*
X133668*
D01*
X140018*
D02*
X144021*
D01*
X149860*
D02*
X156845*
D01*
X160780*
D02*
X164023*
D01*
X167640*
D02*
X117793Y91755*
D01*
X125730*
D02*
X133668*
D01*
X140018*
D02*
X143831*
D01*
X149860*
D02*
X156845*
D01*
X160970*
D02*
X163833*
D01*
X167640*
D02*
X117793Y91945*
D01*
X125730*
D02*
X133668*
D01*
X140018*
D02*
X143828*
D01*
X149860*
D02*
X156845*
D01*
X167640*
D02*
X117793Y92135*
D01*
X125730*
D02*
X133668*
D01*
X140018*
D02*
X143828*
D01*
X149860*
D02*
X156845*
D01*
X167640*
D02*
X117793Y92325*
D01*
X125730*
D02*
X133668*
D01*
X140018*
D02*
X143828*
D01*
X149860*
D02*
X156845*
D01*
X167640*
D02*
X117793Y92515*
D01*
X125730*
D02*
X133668*
D01*
X140018*
D02*
X143828*
D01*
X149860*
D02*
X156845*
D01*
X167640*
D02*
X117793Y92705*
D01*
X125730*
D02*
X133668*
D01*
X140018*
D02*
X143828*
D01*
X149860*
D02*
X156845*
D01*
X167640*
D02*
X117793Y92895*
D01*
X125730*
D02*
X133668*
D01*
X140018*
D02*
X143828*
D01*
X149860*
D02*
X156845*
D01*
X167640*
D02*
X117793Y93085*
D01*
X125730*
D02*
X132398*
D01*
X149860*
D02*
X156845*
D01*
X167640*
D02*
X117793Y93275*
D01*
X125730*
D02*
X132398*
D01*
X149860*
D02*
X156845*
D01*
X167640*
D02*
X117793Y93465*
D01*
X125730*
D02*
X132398*
D01*
X149860*
D02*
X156845*
D01*
X167640*
D02*
X117793Y93655*
D01*
X125730*
D02*
X132398*
D01*
X149860*
D02*
X156845*
D01*
X167640*
D02*
X117793Y93845*
D01*
X125730*
D02*
X132398*
D01*
X149860*
D02*
X156845*
D01*
X167640*
D02*
X117793Y94035*
D01*
X125730*
D02*
X132398*
D01*
X149915*
D02*
X156845*
D01*
X167640*
D02*
X117793Y94225*
D01*
X125730*
D02*
X132398*
D01*
X150105*
D02*
X156845*
D01*
X167640*
D02*
X117793Y94415*
D01*
X125730*
D02*
X132398*
D01*
X150295*
D02*
X158115*
D01*
X167640*
D02*
X117793Y94605*
D01*
X125730*
D02*
X132398*
D01*
X150485*
D02*
X158115*
D01*
X167640*
D02*
X117793Y94795*
D01*
X125730*
D02*
X132398*
D01*
X150675*
D02*
X158115*
D01*
X167640*
D02*
X117793Y94985*
D01*
X125730*
D02*
X132398*
D01*
X150865*
D02*
X158115*
D01*
X167640*
D02*
X117793Y95175*
D01*
X125730*
D02*
X132398*
D01*
X151055*
D02*
X158115*
D01*
X167640*
D02*
X117793Y95365*
D01*
X125730*
D02*
X132398*
D01*
X151245*
D02*
X158115*
D01*
X167640*
D02*
X117793Y95555*
D01*
X125730*
D02*
X132398*
D01*
X151435*
D02*
X158115*
D01*
X167640*
D02*
X117793Y95745*
D01*
X120790*
D02*
X132398*
D01*
X151625*
D02*
X158115*
D01*
X167640*
D02*
X117793Y95935*
D01*
X120600*
D02*
X132398*
D01*
X142508*
D02*
X148640*
D01*
X151815*
D02*
X158115*
D01*
X167640*
D02*
X117793Y96125*
D01*
X120410*
D02*
X132398*
D01*
X142318*
D02*
X148830*
D01*
X152005*
D02*
X158115*
D01*
X167640*
D02*
X117793Y96315*
D01*
X120220*
D02*
X132398*
D01*
X142128*
D02*
X149020*
D01*
X167640*
D02*
X117793Y96505*
D01*
X120030*
D02*
X132398*
D01*
X141938*
D02*
X149210*
D01*
X167640*
D02*
X117793Y96695*
D01*
X119840*
D02*
X132398*
D01*
X141748*
D02*
X149400*
D01*
X154623*
D02*
X157163*
D01*
X167640*
D02*
X117793Y96885*
D01*
X119650*
D02*
X132398*
D01*
X141558*
D02*
X149590*
D01*
X154623*
D02*
X157163*
D01*
X167640*
D02*
X117793Y97075*
D01*
X119460*
D02*
X132398*
D01*
X141368*
D02*
X149780*
D01*
X154623*
D02*
X157163*
D01*
X167640*
D02*
X117793Y97265*
D01*
X119270*
D02*
X132398*
D01*
X141178*
D02*
X149970*
D01*
X154623*
D02*
X157163*
D01*
X167640*
D02*
X117793Y97455*
D01*
X119080*
D02*
X132398*
D01*
X140988*
D02*
X150160*
D01*
X154623*
D02*
X157163*
D01*
X167640*
D02*
X117793Y97645*
D01*
X118890*
D02*
X132398*
D01*
X140970*
D02*
X150350*
D01*
X151765*
D02*
X157163*
D01*
X167640*
D02*
X117793Y97835*
D01*
X118745*
D02*
X132398*
D01*
X140970*
D02*
X150495*
D01*
X151765*
D02*
X157163*
D01*
X167640*
D02*
X117793Y98025*
D01*
X118745*
D02*
X132398*
D01*
X140970*
D02*
X150495*
D01*
X151765*
D02*
X157163*
D01*
X167640*
D02*
X117793Y98215*
D01*
X118745*
D02*
X132398*
D01*
X140970*
D02*
X150495*
D01*
X151765*
D02*
X157163*
D01*
X167640*
D02*
X117793Y98405*
D01*
X118745*
D02*
X132398*
D01*
X140970*
D02*
X150495*
D01*
X151765*
D02*
X157163*
D01*
X167640*
D02*
X117793Y98595*
D01*
X118745*
D02*
X136208*
D01*
X140970*
D02*
X150495*
D01*
X151765*
D02*
X157163*
D01*
X167470*
D02*
X117793Y98785*
D01*
X118745*
D02*
X136208*
D01*
X140970*
D02*
X150495*
D01*
X151765*
D02*
X157163*
D01*
X167280*
D02*
X117793Y98975*
D01*
X118745*
D02*
X136208*
D01*
X140970*
D02*
X150495*
D01*
X151765*
D02*
X157163*
D01*
X167090*
D02*
X117793Y99165*
D01*
X118745*
D02*
X150495*
D01*
X151765*
D02*
X117793Y99355*
D01*
X118745*
D02*
X150495*
D01*
X151765*
D02*
X117793Y99545*
D01*
X118745*
D02*
X150495*
D01*
X151765*
D02*
X117793Y99735*
D01*
X118745*
D02*
X117793Y99925*
D01*
X118745*
D02*
X117793Y100115*
D01*
X118745*
D02*
X117793Y100305*
D01*
X118745*
D02*
X117793Y100495*
D01*
X118745*
D02*
X117793Y100685*
D01*
X118745*
D02*
X117793Y100875*
D01*
X118745*
D02*
X117793Y101065*
D01*
X118745*
D02*
X117793Y101255*
D01*
X118745*
D02*
X117793Y101445*
D01*
X118745*
D02*
X117793Y101635*
D01*
X118745*
D02*
X117793Y101825*
D01*
X118745*
D02*
X117793Y102015*
D01*
X118745*
D02*
X117793Y102205*
D01*
X118745*
D02*
X117793Y102395*
D01*
X118745*
D02*
X117793Y102585*
D01*
X118745*
D02*
X117793Y102775*
D01*
X118745*
D02*
X117793Y102965*
D01*
X118745*
D02*
X117793Y103155*
D01*
X118745*
D02*
X117793Y103345*
D01*
X118745*
D38*
D02*
X138430Y100013D03*
X140335D03*
X172403Y107633D03*
D16*
X171133*
D01*
X172403*
D38*
D02*
X172085Y106363D03*
X173673D03*
X171768Y104140D03*
D16*
X169863Y104775*
D01*
X171133*
X171768Y104140*
D38*
D02*
X172403Y105093D03*
D16*
X172085Y106363*
D01*
X173673*
D02*
X169863Y106680*
D01*
X170815*
X171133Y106363*
X172085*
D02*
X169545Y105728*
D01*
X171133*
X171768Y105093*
X172403*
D02*
X143193Y115888*
D01*
X143842Y115239*
D02*
X143193Y115888*
D01*
X143842Y115239*
D02*
X144901*
D01*
X143842*
D02*
X142558Y115570*
D01*
X143389Y114739*
D02*
X144901*
D01*
X143389*
D02*
X144901Y113239*
D01*
X143619*
D02*
X144901Y112739*
D01*
X143166*
D02*
X137087Y113739*
D01*
X142166*
D02*
X143166Y112739*
D01*
X142166Y113739*
D02*
X143619Y113239*
D01*
X142619Y114239*
D02*
X137539*
D01*
X142619*
D26*
D02*
X136843Y112395*
D01*
X142240*
D16*
D02*
X145651Y112239*
D01*
X141923*
D02*
X142875Y120650*
D01*
Y121285*
D38*
D03*
X142558Y122555D03*
D20*
X140658Y122205*
D01*
X141255*
D02*
X141605Y122555*
D01*
X141255Y122205*
D38*
D02*
X141605Y123825D03*
Y124778D03*
D20*
D01*
Y123825*
Y122555*
D02*
X142558*
D01*
X143193*
X144145Y121603*
D02*
Y123508*
D01*
X143193Y122555*
D02*
X144145Y126365*
D01*
Y123508*
D39*
D02*
X142393Y124778D03*
X143993D03*
D20*
X141605*
D01*
X142240*
D14*
D02*
X145733Y121746*
D01*
X149347*
D02*
X145733Y121935*
D01*
X149510*
D02*
X145733Y122125*
D01*
X149673*
D02*
X145733Y122315*
D01*
X149836*
D02*
X145733Y122505*
D01*
X149999*
D02*
X145733Y122695*
D01*
X150162*
D02*
X145733Y122885*
D01*
X150325*
D02*
X145733Y123075*
D01*
X150487*
D02*
X146685Y123265*
D01*
X150650*
D02*
X146685Y123455*
D01*
X150813*
D02*
X146685Y123645*
D01*
X150976*
D02*
X146685Y123835*
D01*
X151130*
D02*
X146685Y124025*
D01*
X151130*
D02*
X146685Y124215*
D01*
X151130*
D02*
X146685Y124405*
D01*
X151130*
D02*
X146685Y124595*
D01*
X151130*
D02*
X146685Y124785*
D01*
X151130*
D02*
X146685Y124975*
D01*
X151130*
D02*
X146685Y125165*
D01*
X151130*
D02*
X146685Y125355*
D01*
X151130*
D02*
X146685Y125545*
D01*
X151130*
D02*
X146685Y125735*
D01*
X151130*
D02*
X146685Y125925*
D01*
X151130*
D02*
X146685Y126115*
D01*
X151130*
D02*
X146685Y126305*
D01*
X151130*
D02*
X146685Y126495*
D01*
X151130*
D02*
X146685Y126685*
D01*
X151130*
D02*
X146685Y126875*
D01*
X151130*
D02*
X146685Y127065*
D01*
X151130*
D02*
X146685Y127255*
D01*
X151130*
D02*
X146685Y127445*
D01*
X151130*
D02*
X146685Y127635*
D01*
X151130*
D02*
X146495Y127825*
D01*
X151130*
D02*
X146305Y128015*
D01*
X151130*
D02*
X146115Y128205*
D01*
X151130*
D02*
X145925Y128395*
D01*
X151130*
D02*
X145735Y128585*
D01*
X151130*
D02*
X145545Y128775*
D01*
X155258*
D02*
X145355Y128965*
D01*
X155258*
D02*
X145165Y129155*
D01*
X155258*
D02*
X144975Y129345*
D01*
X155258*
D02*
X144785Y129535*
D01*
X155258*
D02*
X144595Y129725*
D01*
X155258*
D02*
X144405Y129915*
D01*
X155258*
D02*
X144215Y130105*
D01*
X155258*
D02*
X144025Y130295*
D01*
X155138*
D02*
X143835Y130485*
D01*
X154948*
D02*
X143645Y130675*
D01*
X154758*
D02*
X143455Y130865*
D01*
X154568*
D02*
X143265Y131055*
D01*
X154378*
D02*
X143075Y131245*
D01*
X154188*
D02*
X142885Y131435*
D01*
X153998*
D02*
X142695Y131625*
D01*
X153808*
D02*
X142505Y131815*
D01*
X148856*
D02*
X142315Y132005*
D01*
X148666*
D02*
X142125Y132195*
D01*
X148476*
D02*
X141935Y132385*
D01*
X148286*
D02*
X141923Y132575*
D01*
X148096*
D02*
X141923Y132765*
D01*
X147906*
D02*
X141923Y132955*
D01*
X147716*
D02*
X141923Y133145*
D01*
X147526*
D02*
X141923Y133335*
D01*
X147336*
D02*
X141923Y133525*
D01*
X147146*
D02*
X146685Y127635*
D01*
X141923Y132398*
D02*
X146685Y123190*
D01*
Y127635*
D02*
X145733Y123190*
D01*
X146685*
D02*
X145733Y121603*
D01*
Y123190*
D02*
X149225Y121603*
D01*
X145733*
D02*
X151130Y123825*
D01*
X149225Y121603*
D02*
X151130Y128588*
D01*
Y123825*
D02*
X155258Y128588*
D01*
X151130*
D02*
X155258Y130175*
D01*
Y128588*
D02*
X153670Y131763*
D01*
X155258Y130175*
D02*
X148908Y131763*
D01*
X153670*
D02*
X147003Y133668*
D01*
X148908Y131763*
D02*
X141923Y133668*
D01*
X147003*
D02*
X141923Y132398*
D01*
Y133668*
D39*
D02*
X127470Y124778D03*
X129070D03*
X127470Y120968D03*
X129070D03*
X127470Y122873D03*
X129070D03*
D16*
X122557Y132715*
D01*
X126048Y129223*
X127318*
D02*
Y124778*
D01*
Y125413*
X127953Y126048*
X129540*
D02*
X127318Y129223*
D01*
X130436Y126105*
D02*
X131558*
D01*
X130436*
D02*
X129540Y126048*
D01*
X130133Y125455*
D02*
X131558*
D01*
X130133*
D38*
D02*
X130175Y123825D03*
D20*
X131558Y124805*
D01*
X129223*
D02*
X131558Y122855*
D01*
X130175*
D16*
D02*
Y123825*
D01*
X130810*
D02*
X131558Y124155*
D01*
X131140*
D02*
X130810Y123825*
D01*
X131140Y124155*
D20*
D02*
X129223Y122873*
D01*
Y124805*
D38*
D02*
X130175Y121285D03*
D20*
Y122238*
D01*
Y120968*
D38*
D02*
Y122238D03*
D20*
X129223Y122873*
D01*
X130175*
Y122238*
D16*
D02*
X129223Y120968*
D01*
Y121603*
X128905Y121920*
X127635*
X127318Y122238*
Y122873*
X126365Y123825*
D02*
X127318Y120968*
D01*
X126683*
X126365Y121285*
X125095*
D38*
D02*
X126365Y126048D03*
D16*
D01*
Y123825*
D39*
D02*
X134938Y115405D03*
Y117005D03*
X132715Y115405D03*
Y117005D03*
X127470Y119063D03*
X129070D03*
X127470Y117158D03*
X129070D03*
D20*
X133350*
D01*
X132715*
D02*
X134303Y120968*
D01*
Y118110*
X133350Y117158*
D02*
X134938Y121603*
D01*
Y117158*
D16*
D02*
X129223Y119063*
D01*
X130493Y117793*
Y116523*
X131763Y115253*
X132715*
D02*
X134938Y115570*
D01*
X133668Y114300*
X131763*
X128905Y117158*
D20*
D02*
X127318Y119063*
D01*
Y117158*
X131128Y113348*
X134620*
D14*
D02*
X138113Y101108*
D01*
X141430*
D02*
X138113Y101298*
D01*
X141620*
D02*
X138113Y101488*
D01*
X141810*
D02*
X138113Y101678*
D01*
X142000*
D02*
X138113Y101867*
D01*
X142190*
D02*
X138113Y102057*
D01*
X142380*
D02*
X138113Y102247*
D01*
X142558*
D02*
X138113Y102437*
D01*
X142558*
D02*
X138113Y102627*
D01*
X142558*
D02*
X138113Y102817*
D01*
X142558*
D02*
X138113Y103007*
D01*
X142558*
D02*
X117793Y103197*
D01*
X142558*
D02*
X117793Y103387*
D01*
X142558*
D02*
X117793Y103577*
D01*
X142486*
D02*
X117793Y103767*
D01*
X142296*
D02*
X117793Y103957*
D01*
X142106*
D02*
X117793Y104147*
D01*
X141916*
D02*
X117793Y104337*
D01*
X141726*
D02*
X117793Y104527*
D01*
X141536*
D02*
X117793Y104717*
D01*
X141346*
D02*
X117793Y104907*
D01*
X141156*
D02*
X117793Y105097*
D01*
X140966*
D02*
X117793Y105287*
D01*
X140776*
D02*
X117793Y105477*
D01*
X140586*
D02*
X117793Y105667*
D01*
X140396*
D02*
X117793Y105857*
D01*
X140206*
D02*
X117793Y106047*
D01*
X140016*
D02*
X117793Y106237*
D01*
X139826*
D02*
X117793Y106427*
D01*
X139700*
D02*
X117793Y106617*
D01*
X139700*
D02*
X117793Y106807*
D01*
X139700*
D02*
X117793Y106997*
D01*
X139700*
D02*
X117793Y107187*
D01*
X139700*
D02*
X117793Y107377*
D01*
X127256*
D02*
X128015*
D01*
X139778*
D02*
X117793Y107567*
D01*
X127066*
D02*
X128205*
D01*
X140016*
D02*
X117793Y107757*
D01*
X126876*
D02*
X128395*
D01*
X140253*
D02*
X117793Y107947*
D01*
X126686*
D02*
X128585*
D01*
X140491*
D02*
X117793Y108137*
D01*
X126496*
D02*
X128775*
D01*
X140728*
D02*
X117793Y108327*
D01*
X126306*
D02*
X128965*
D01*
X140966*
D02*
X117793Y108517*
D01*
X126116*
D02*
X129155*
D01*
X141204*
D02*
X117793Y108707*
D01*
X125926*
D02*
X129345*
D01*
X141288*
D02*
X117793Y108897*
D01*
X125736*
D02*
X129535*
D01*
X141288*
D02*
X117793Y109087*
D01*
X125546*
D02*
X129725*
D01*
X141288*
D02*
X117793Y109277*
D01*
X125356*
D02*
X129915*
D01*
X141288*
D02*
X117793Y109467*
D01*
X125166*
D02*
X130105*
D01*
X141288*
D02*
X130175Y109657*
D01*
X141288*
D02*
X130175Y109847*
D01*
X141288*
D02*
X130175Y110037*
D01*
X141288*
D02*
X130175Y110227*
D01*
X141288*
D02*
X130175Y110417*
D01*
X141288*
D02*
X130175Y110607*
D01*
X141288*
D02*
X130175Y110797*
D01*
X141288*
D02*
X127139Y110987*
D01*
X141288*
D02*
X126949Y111177*
D01*
X141288*
D02*
X126759Y111367*
D01*
X141288*
D02*
X126569Y111557*
D01*
X141288*
D02*
X126379Y111747*
D01*
X141288*
D02*
X126189Y111937*
D01*
X133033*
D02*
X126048Y112127*
D01*
X133033*
D02*
X126048Y112317*
D01*
X133033*
D02*
X126048Y112507*
D01*
X131016*
D02*
X126048Y112697*
D01*
X130826*
D02*
X126048Y112887*
D01*
X130636*
D02*
X126048Y113077*
D01*
X130446*
D02*
X126048Y113267*
D01*
X130256*
D02*
X126048Y113457*
D01*
X130066*
D02*
X126048Y113647*
D01*
X129876*
D02*
X126048Y113837*
D01*
X129686*
D02*
X126048Y114027*
D01*
X129496*
D02*
X126048Y114217*
D01*
X129306*
D02*
X126048Y114407*
D01*
X129116*
D02*
X126048Y114597*
D01*
X128926*
D02*
X126048Y114787*
D01*
X128736*
D02*
X123190Y114977*
D01*
X128546*
D02*
X123190Y115167*
D01*
X128356*
D02*
X123190Y115357*
D01*
X128166*
D02*
X123190Y115547*
D01*
X127976*
D02*
X123190Y115737*
D01*
X127786*
D02*
X123190Y115927*
D01*
X127596*
D02*
X123190Y116117*
D01*
X127406*
D02*
X123190Y116307*
D01*
X126365*
D02*
X123190Y116497*
D01*
X126365*
D02*
X123190Y116687*
D01*
X126365*
D02*
X123190Y116877*
D01*
X126365*
D02*
X123190Y117067*
D01*
X126365*
D02*
X123190Y117257*
D01*
X126365*
D02*
X123190Y117447*
D01*
X126365*
D02*
X123190Y117637*
D01*
X126365*
D02*
X123156Y117827*
D01*
X126365*
D02*
X122966Y118017*
D01*
X126365*
D02*
X122776Y118207*
D01*
X126365*
D02*
X122586Y118397*
D01*
X126365*
D02*
X122396Y118587*
D01*
X126365*
D02*
X122206Y118777*
D01*
X126365*
D02*
X122016Y118967*
D01*
X126365*
D02*
X121826Y119157*
D01*
X126365*
D02*
X121636Y119347*
D01*
X126365*
D02*
X117793Y119537*
D01*
X126365*
D02*
X117793Y119727*
D01*
X126365*
D02*
X117793Y119917*
D01*
X126365*
D02*
X117793Y120107*
D01*
X122146*
D02*
X117793Y120297*
D01*
X121956*
D02*
X117793Y120487*
D01*
X121766*
D02*
X117793Y120677*
D01*
X121603*
D02*
X117793Y120867*
D01*
X121603*
D02*
X117793Y121057*
D01*
X121603*
D02*
X117793Y121247*
D01*
X121603*
D02*
X117793Y121437*
D01*
X121603*
D02*
X117793Y121627*
D01*
X121603*
D02*
X117793Y121817*
D01*
X121603*
D02*
X117793Y122007*
D01*
X121603*
D02*
X117793Y122197*
D01*
X121603*
D02*
X117793Y122387*
D01*
X121603*
D02*
X117793Y122577*
D01*
X121603*
D02*
X117793Y122767*
D01*
X121603*
D02*
X117793Y122957*
D01*
X121603*
D02*
X117793Y123147*
D01*
X121603*
D02*
X117793Y123337*
D01*
X121603*
D02*
X117793Y123527*
D01*
X121603*
D02*
X117793Y123717*
D01*
X121603*
D02*
X117793Y123907*
D01*
X121603*
D02*
X117793Y124097*
D01*
X121603*
D02*
X117793Y124287*
D01*
X121603*
D02*
X117793Y124477*
D01*
X121603*
D02*
X117793Y124667*
D01*
X121603*
D02*
X117793Y124857*
D01*
X121603*
D02*
X117793Y125047*
D01*
X121603*
D02*
X117793Y125237*
D01*
X121603*
D02*
X117793Y125427*
D01*
X121603*
D02*
X117793Y125617*
D01*
X121603*
D02*
Y125730*
D01*
Y120650*
D02*
X117793Y125730*
D01*
X121603*
D02*
X117793Y119380*
D01*
Y125730*
D02*
X121603Y119380*
D01*
X117793*
D02*
X123190Y117793*
D01*
X121603Y119380*
D02*
X123190Y114935*
D01*
Y117793*
D02*
X126048Y114935*
D01*
X123190*
D02*
X126048Y112078*
D01*
Y114935*
D02*
X127318Y110808*
D01*
X126048Y112078*
D02*
X130175Y110808*
D01*
X127318*
D02*
X130175Y109538*
D01*
Y110808*
D02*
X127953Y107315*
D01*
X130175Y109538*
D02*
X127318Y107315*
D01*
X127953*
D02*
X125095Y109538*
D01*
X127318Y107315*
D02*
X117793Y109538*
D01*
X125095*
D02*
X117793Y103188*
D01*
Y109538*
D02*
X138113Y103188*
D01*
X117793*
D02*
X138113Y100965*
D01*
Y103188*
D02*
X141288Y100965*
D01*
X138113*
D02*
X142558Y102235*
D01*
X141288Y100965*
D02*
X142558Y103505*
D01*
Y102235*
D02*
X139700Y106363*
D01*
X142558Y103505*
D02*
X139700Y107315*
D01*
Y106363*
D02*
X141288Y108585*
D01*
X139700Y107315*
D02*
X141288Y111760*
D01*
Y108585*
D02*
X133033Y111760*
D01*
X141288*
D02*
X133033Y112395*
D01*
Y111760*
D02*
X131128Y112395*
D01*
X133033*
D02*
X127318Y116205*
D01*
X131128Y112395*
D02*
X126365Y116205*
D01*
X127318*
D02*
X126365Y120015*
D01*
Y116205*
D02*
X122238Y120015*
D01*
X126365*
D02*
X121603Y120650*
D01*
X122238Y120015*
D16*
D02*
X167640Y100330*
D01*
X160020*
D02*
X167323Y99695*
D01*
X159703*
D02*
X158401Y102740*
D01*
Y101949*
D02*
X160020Y100330*
D01*
X158401Y101949*
D02*
X157901Y103490*
D01*
Y101497*
D02*
X159703Y99695*
D01*
X157901Y101497*
D38*
D02*
X153670Y121920D03*
X154940D03*
D58*
X122556Y135255D03*
X125096D03*
X127636D03*
X122556Y132715D03*
X125096D03*
X127636D03*
D16*
X123825Y133985*
D01*
X122557Y135255*
D02*
X128588Y133985*
D01*
X123825*
D02*
X129540Y127953*
D01*
Y133033*
X128588Y133985*
D48*
D02*
X143891Y135254*
D01*
Y133033*
D16*
D02*
X162151Y107740*
D01*
X164401*
X168318Y103823*
D02*
X169545*
D01*
X168318*
D02*
G01X0Y0*
M00*
