ARM GAS  C:\Users\SUZUKI~1\AppData\Local\Temp\ccsGMWBs.s 			page 1


   1              		.syntax unified
   2              		.cpu cortex-m3
   3              		.fpu softvfp
   4              		.eabi_attribute 20, 1
   5              		.eabi_attribute 21, 1
   6              		.eabi_attribute 23, 3
   7              		.eabi_attribute 24, 1
   8              		.eabi_attribute 25, 1
   9              		.eabi_attribute 26, 1
  10              		.eabi_attribute 30, 2
  11              		.eabi_attribute 18, 4
  12              		.thumb
  13              		.file	"IRQ_ADC.c"
  14              		.section	.debug_abbrev,"",%progbits
  15              	.Ldebug_abbrev0:
  16              		.section	.debug_info,"",%progbits
  17              	.Ldebug_info0:
  18              		.section	.debug_line,"",%progbits
  19              	.Ldebug_line0:
  20 0000 CE010000 		.text
  20      02005F00 
  20      00000201 
  20      FB0E0D00 
  20      01010101 
  21              	.Ltext0:
  22              		.cfi_sections	.debug_frame
  23              		.section	.text.IRQ_ADC_Start,"ax",%progbits
  24              		.align	2
  25              		.global	IRQ_ADC_Start
  26              		.thumb
  27              		.thumb_func
  28              		.type	IRQ_ADC_Start, %function
  29              	IRQ_ADC_Start:
  30              	.LFB0:
  31              		.file 1 ".\\Generated_Source\\PSoC5\\IRQ_ADC.c"
   1:.\Generated_Source\PSoC5/IRQ_ADC.c **** /*******************************************************************************
   2:.\Generated_Source\PSoC5/IRQ_ADC.c **** * File Name: IRQ_ADC.c  
   3:.\Generated_Source\PSoC5/IRQ_ADC.c **** * Version 1.60
   4:.\Generated_Source\PSoC5/IRQ_ADC.c **** *
   5:.\Generated_Source\PSoC5/IRQ_ADC.c **** *  Description:
   6:.\Generated_Source\PSoC5/IRQ_ADC.c **** *   API for controlling the state of an interrupt.
   7:.\Generated_Source\PSoC5/IRQ_ADC.c **** *
   8:.\Generated_Source\PSoC5/IRQ_ADC.c **** *
   9:.\Generated_Source\PSoC5/IRQ_ADC.c **** *  Note:
  10:.\Generated_Source\PSoC5/IRQ_ADC.c **** *
  11:.\Generated_Source\PSoC5/IRQ_ADC.c **** ********************************************************************************
  12:.\Generated_Source\PSoC5/IRQ_ADC.c **** * Copyright 2008-2010, Cypress Semiconductor Corporation.  All rights reserved.
  13:.\Generated_Source\PSoC5/IRQ_ADC.c **** * You may use this file only in accordance with the license, terms, conditions, 
  14:.\Generated_Source\PSoC5/IRQ_ADC.c **** * disclaimers, and limitations in the end user license agreement accompanying 
  15:.\Generated_Source\PSoC5/IRQ_ADC.c **** * the software package with which this file was provided.
  16:.\Generated_Source\PSoC5/IRQ_ADC.c **** ********************************************************************************/
  17:.\Generated_Source\PSoC5/IRQ_ADC.c **** 
  18:.\Generated_Source\PSoC5/IRQ_ADC.c **** 
  19:.\Generated_Source\PSoC5/IRQ_ADC.c **** #include <CYDEVICE.H>
  20:.\Generated_Source\PSoC5/IRQ_ADC.c **** #include <CYDEVICE_TRM.H>
  21:.\Generated_Source\PSoC5/IRQ_ADC.c **** #include <CYLIB.H>
  22:.\Generated_Source\PSoC5/IRQ_ADC.c **** #include <IRQ_ADC.H>
ARM GAS  C:\Users\SUZUKI~1\AppData\Local\Temp\ccsGMWBs.s 			page 2


  23:.\Generated_Source\PSoC5/IRQ_ADC.c **** 
  24:.\Generated_Source\PSoC5/IRQ_ADC.c **** 
  25:.\Generated_Source\PSoC5/IRQ_ADC.c **** /*******************************************************************************
  26:.\Generated_Source\PSoC5/IRQ_ADC.c **** *  Place your includes, defines and code here 
  27:.\Generated_Source\PSoC5/IRQ_ADC.c **** ********************************************************************************/
  28:.\Generated_Source\PSoC5/IRQ_ADC.c **** /* `#START IRQ_ADC_intc` */
  29:.\Generated_Source\PSoC5/IRQ_ADC.c **** 
  30:.\Generated_Source\PSoC5/IRQ_ADC.c **** /* `#END` */
  31:.\Generated_Source\PSoC5/IRQ_ADC.c **** 
  32:.\Generated_Source\PSoC5/IRQ_ADC.c **** #ifndef CYINT_IRQ_BASE
  33:.\Generated_Source\PSoC5/IRQ_ADC.c **** #define CYINT_IRQ_BASE	16
  34:.\Generated_Source\PSoC5/IRQ_ADC.c **** #endif
  35:.\Generated_Source\PSoC5/IRQ_ADC.c **** #ifndef CYINT_VECT_TABLE
  36:.\Generated_Source\PSoC5/IRQ_ADC.c **** #define CYINT_VECT_TABLE    ((cyisraddress **) CYREG_NVIC_VECT_OFFSET)
  37:.\Generated_Source\PSoC5/IRQ_ADC.c **** #endif
  38:.\Generated_Source\PSoC5/IRQ_ADC.c **** 
  39:.\Generated_Source\PSoC5/IRQ_ADC.c **** /* Declared in startup, used to set unused interrupts to. */
  40:.\Generated_Source\PSoC5/IRQ_ADC.c **** CY_ISR_PROTO(IntDefaultHandler);
  41:.\Generated_Source\PSoC5/IRQ_ADC.c **** 
  42:.\Generated_Source\PSoC5/IRQ_ADC.c **** /*******************************************************************************
  43:.\Generated_Source\PSoC5/IRQ_ADC.c **** * Function Name: IRQ_ADC_Start
  44:.\Generated_Source\PSoC5/IRQ_ADC.c **** ********************************************************************************
  45:.\Generated_Source\PSoC5/IRQ_ADC.c **** * Summary:
  46:.\Generated_Source\PSoC5/IRQ_ADC.c **** *  Set up the interrupt and enable it.
  47:.\Generated_Source\PSoC5/IRQ_ADC.c **** *
  48:.\Generated_Source\PSoC5/IRQ_ADC.c **** * Parameters:  
  49:.\Generated_Source\PSoC5/IRQ_ADC.c **** *   void.
  50:.\Generated_Source\PSoC5/IRQ_ADC.c **** *
  51:.\Generated_Source\PSoC5/IRQ_ADC.c **** *
  52:.\Generated_Source\PSoC5/IRQ_ADC.c **** * Return:
  53:.\Generated_Source\PSoC5/IRQ_ADC.c **** *   void.
  54:.\Generated_Source\PSoC5/IRQ_ADC.c **** *
  55:.\Generated_Source\PSoC5/IRQ_ADC.c **** *******************************************************************************/
  56:.\Generated_Source\PSoC5/IRQ_ADC.c **** void IRQ_ADC_Start(void)
  57:.\Generated_Source\PSoC5/IRQ_ADC.c **** {
  32              		.loc 1 57 0
  33              		.cfi_startproc
  34              		@ args = 0, pretend = 0, frame = 0
  35              		@ frame_needed = 0, uses_anonymous_args = 0
  36              		@ link register save eliminated.
  37 0000 30B4     		push	{r4, r5}
  38              	.LCFI0:
  39              		.cfi_def_cfa_offset 8
  40              	.LBB22:
  41              	.LBB25:
  58:.\Generated_Source\PSoC5/IRQ_ADC.c ****     /* For all we know the interrupt is active. */
  59:.\Generated_Source\PSoC5/IRQ_ADC.c ****     IRQ_ADC_Disable();
  60:.\Generated_Source\PSoC5/IRQ_ADC.c **** 
  61:.\Generated_Source\PSoC5/IRQ_ADC.c ****     /* Set the ISR to point to the IRQ_ADC Interrupt. */
  62:.\Generated_Source\PSoC5/IRQ_ADC.c ****     IRQ_ADC_SetVector(IRQ_ADC_Interrupt);
  63:.\Generated_Source\PSoC5/IRQ_ADC.c **** 
  64:.\Generated_Source\PSoC5/IRQ_ADC.c ****     /* Set the priority. */
  65:.\Generated_Source\PSoC5/IRQ_ADC.c ****     IRQ_ADC_SetPriority(IRQ_ADC_INTC_PRIOR_NUMBER);
  66:.\Generated_Source\PSoC5/IRQ_ADC.c **** 
  67:.\Generated_Source\PSoC5/IRQ_ADC.c ****     /* Enable it. */
  68:.\Generated_Source\PSoC5/IRQ_ADC.c ****     IRQ_ADC_Enable();
  69:.\Generated_Source\PSoC5/IRQ_ADC.c **** }
ARM GAS  C:\Users\SUZUKI~1\AppData\Local\Temp\ccsGMWBs.s 			page 3


  70:.\Generated_Source\PSoC5/IRQ_ADC.c **** 
  71:.\Generated_Source\PSoC5/IRQ_ADC.c **** /*******************************************************************************
  72:.\Generated_Source\PSoC5/IRQ_ADC.c **** * Function Name: IRQ_ADC_StartEx
  73:.\Generated_Source\PSoC5/IRQ_ADC.c **** ********************************************************************************
  74:.\Generated_Source\PSoC5/IRQ_ADC.c **** * Summary:
  75:.\Generated_Source\PSoC5/IRQ_ADC.c **** *  Set up the interrupt and enable it.
  76:.\Generated_Source\PSoC5/IRQ_ADC.c **** *
  77:.\Generated_Source\PSoC5/IRQ_ADC.c **** * Parameters:  
  78:.\Generated_Source\PSoC5/IRQ_ADC.c **** *   address: Address of the ISR to set in the interrupt vector table.
  79:.\Generated_Source\PSoC5/IRQ_ADC.c **** *
  80:.\Generated_Source\PSoC5/IRQ_ADC.c **** *
  81:.\Generated_Source\PSoC5/IRQ_ADC.c **** * Return:
  82:.\Generated_Source\PSoC5/IRQ_ADC.c **** *   void.
  83:.\Generated_Source\PSoC5/IRQ_ADC.c **** *
  84:.\Generated_Source\PSoC5/IRQ_ADC.c **** *******************************************************************************/
  85:.\Generated_Source\PSoC5/IRQ_ADC.c **** void IRQ_ADC_StartEx(cyisraddress address)
  86:.\Generated_Source\PSoC5/IRQ_ADC.c **** {
  87:.\Generated_Source\PSoC5/IRQ_ADC.c ****     /* For all we know the interrupt is active. */
  88:.\Generated_Source\PSoC5/IRQ_ADC.c ****     IRQ_ADC_Disable();
  89:.\Generated_Source\PSoC5/IRQ_ADC.c **** 
  90:.\Generated_Source\PSoC5/IRQ_ADC.c ****     /* Set the ISR to point to the IRQ_ADC Interrupt. */
  91:.\Generated_Source\PSoC5/IRQ_ADC.c ****     IRQ_ADC_SetVector(address);
  92:.\Generated_Source\PSoC5/IRQ_ADC.c **** 
  93:.\Generated_Source\PSoC5/IRQ_ADC.c ****     /* Set the priority. */
  94:.\Generated_Source\PSoC5/IRQ_ADC.c ****     IRQ_ADC_SetPriority(IRQ_ADC_INTC_PRIOR_NUMBER);
  95:.\Generated_Source\PSoC5/IRQ_ADC.c **** 
  96:.\Generated_Source\PSoC5/IRQ_ADC.c ****     /* Enable it. */
  97:.\Generated_Source\PSoC5/IRQ_ADC.c ****     IRQ_ADC_Enable();
  98:.\Generated_Source\PSoC5/IRQ_ADC.c **** }
  99:.\Generated_Source\PSoC5/IRQ_ADC.c **** 
 100:.\Generated_Source\PSoC5/IRQ_ADC.c **** /*******************************************************************************
 101:.\Generated_Source\PSoC5/IRQ_ADC.c **** * Function Name: IRQ_ADC_Stop
 102:.\Generated_Source\PSoC5/IRQ_ADC.c **** ********************************************************************************
 103:.\Generated_Source\PSoC5/IRQ_ADC.c **** * Summary:
 104:.\Generated_Source\PSoC5/IRQ_ADC.c **** *   Disables and removes the interrupt.
 105:.\Generated_Source\PSoC5/IRQ_ADC.c **** *
 106:.\Generated_Source\PSoC5/IRQ_ADC.c **** * Parameters:  
 107:.\Generated_Source\PSoC5/IRQ_ADC.c **** *
 108:.\Generated_Source\PSoC5/IRQ_ADC.c **** *
 109:.\Generated_Source\PSoC5/IRQ_ADC.c **** * Return:
 110:.\Generated_Source\PSoC5/IRQ_ADC.c **** *   void.
 111:.\Generated_Source\PSoC5/IRQ_ADC.c **** *
 112:.\Generated_Source\PSoC5/IRQ_ADC.c **** *******************************************************************************/
 113:.\Generated_Source\PSoC5/IRQ_ADC.c **** void IRQ_ADC_Stop(void) 
 114:.\Generated_Source\PSoC5/IRQ_ADC.c **** {
 115:.\Generated_Source\PSoC5/IRQ_ADC.c ****     /* Disable this interrupt. */
 116:.\Generated_Source\PSoC5/IRQ_ADC.c ****     IRQ_ADC_Disable();
 117:.\Generated_Source\PSoC5/IRQ_ADC.c **** 
 118:.\Generated_Source\PSoC5/IRQ_ADC.c ****     /* Set the ISR to point to the passive one. */
 119:.\Generated_Source\PSoC5/IRQ_ADC.c ****     IRQ_ADC_SetVector(IntDefaultHandler);
 120:.\Generated_Source\PSoC5/IRQ_ADC.c **** }
 121:.\Generated_Source\PSoC5/IRQ_ADC.c **** 
 122:.\Generated_Source\PSoC5/IRQ_ADC.c **** /*******************************************************************************
 123:.\Generated_Source\PSoC5/IRQ_ADC.c **** * Function Name: IRQ_ADC_Interrupt
 124:.\Generated_Source\PSoC5/IRQ_ADC.c **** ********************************************************************************
 125:.\Generated_Source\PSoC5/IRQ_ADC.c **** * Summary:
 126:.\Generated_Source\PSoC5/IRQ_ADC.c **** *   The default Interrupt Service Routine for IRQ_ADC.
ARM GAS  C:\Users\SUZUKI~1\AppData\Local\Temp\ccsGMWBs.s 			page 4


 127:.\Generated_Source\PSoC5/IRQ_ADC.c **** *
 128:.\Generated_Source\PSoC5/IRQ_ADC.c **** *   Add custom code between the coments to keep the next version of this file
 129:.\Generated_Source\PSoC5/IRQ_ADC.c **** *   from over writting your code.
 130:.\Generated_Source\PSoC5/IRQ_ADC.c **** *
 131:.\Generated_Source\PSoC5/IRQ_ADC.c **** *
 132:.\Generated_Source\PSoC5/IRQ_ADC.c **** *
 133:.\Generated_Source\PSoC5/IRQ_ADC.c **** * Parameters:  
 134:.\Generated_Source\PSoC5/IRQ_ADC.c **** *
 135:.\Generated_Source\PSoC5/IRQ_ADC.c **** *
 136:.\Generated_Source\PSoC5/IRQ_ADC.c **** * Return:
 137:.\Generated_Source\PSoC5/IRQ_ADC.c **** *   void.
 138:.\Generated_Source\PSoC5/IRQ_ADC.c **** *
 139:.\Generated_Source\PSoC5/IRQ_ADC.c **** *******************************************************************************/
 140:.\Generated_Source\PSoC5/IRQ_ADC.c **** CY_ISR(IRQ_ADC_Interrupt)
 141:.\Generated_Source\PSoC5/IRQ_ADC.c **** {
 142:.\Generated_Source\PSoC5/IRQ_ADC.c ****     /*  Place your Interrupt code here. */
 143:.\Generated_Source\PSoC5/IRQ_ADC.c ****     /* `#START IRQ_ADC_Interrupt` */
 144:.\Generated_Source\PSoC5/IRQ_ADC.c **** 
 145:.\Generated_Source\PSoC5/IRQ_ADC.c ****     /* `#END` */
 146:.\Generated_Source\PSoC5/IRQ_ADC.c **** }
 147:.\Generated_Source\PSoC5/IRQ_ADC.c **** 
 148:.\Generated_Source\PSoC5/IRQ_ADC.c **** /*******************************************************************************
 149:.\Generated_Source\PSoC5/IRQ_ADC.c **** * Function Name: IRQ_ADC_SetVector
 150:.\Generated_Source\PSoC5/IRQ_ADC.c **** ********************************************************************************
 151:.\Generated_Source\PSoC5/IRQ_ADC.c **** * Summary:
 152:.\Generated_Source\PSoC5/IRQ_ADC.c **** *   Change the ISR vector for the Interrupt. Note calling IRQ_ADC_Start
 153:.\Generated_Source\PSoC5/IRQ_ADC.c **** *   will override any effect this method would have had. To set the vector before
 154:.\Generated_Source\PSoC5/IRQ_ADC.c **** *   the component has been started use IRQ_ADC_StartEx instead.
 155:.\Generated_Source\PSoC5/IRQ_ADC.c **** *
 156:.\Generated_Source\PSoC5/IRQ_ADC.c **** *
 157:.\Generated_Source\PSoC5/IRQ_ADC.c **** * Parameters:
 158:.\Generated_Source\PSoC5/IRQ_ADC.c **** *   address: Address of the ISR to set in the interrupt vector table.
 159:.\Generated_Source\PSoC5/IRQ_ADC.c **** *
 160:.\Generated_Source\PSoC5/IRQ_ADC.c **** *
 161:.\Generated_Source\PSoC5/IRQ_ADC.c **** * Return:
 162:.\Generated_Source\PSoC5/IRQ_ADC.c **** *   void.
 163:.\Generated_Source\PSoC5/IRQ_ADC.c **** *
 164:.\Generated_Source\PSoC5/IRQ_ADC.c **** *
 165:.\Generated_Source\PSoC5/IRQ_ADC.c **** *******************************************************************************/
 166:.\Generated_Source\PSoC5/IRQ_ADC.c **** void IRQ_ADC_SetVector(cyisraddress address) 
 167:.\Generated_Source\PSoC5/IRQ_ADC.c **** {
 168:.\Generated_Source\PSoC5/IRQ_ADC.c ****     cyisraddress * ramVectorTable;
 169:.\Generated_Source\PSoC5/IRQ_ADC.c **** 
 170:.\Generated_Source\PSoC5/IRQ_ADC.c ****     ramVectorTable = (cyisraddress *) *CYINT_VECT_TABLE;
  42              		.loc 1 170 0
  43 0002 4EF60854 		movw	r4, #:lower16:-536810232
  44              		.cfi_offset 5, -4
  45              		.cfi_offset 4, -8
  46 0006 CEF20004 		movt	r4, #:upper16:-536810232
  47              	.LBE25:
  48              	.LBE22:
  49              	.LBB28:
  50              	.LBB30:
 171:.\Generated_Source\PSoC5/IRQ_ADC.c **** 
 172:.\Generated_Source\PSoC5/IRQ_ADC.c ****     ramVectorTable[CYINT_IRQ_BASE + IRQ_ADC__INTC_NUMBER] = address;
 173:.\Generated_Source\PSoC5/IRQ_ADC.c **** }
 174:.\Generated_Source\PSoC5/IRQ_ADC.c **** 
ARM GAS  C:\Users\SUZUKI~1\AppData\Local\Temp\ccsGMWBs.s 			page 5


 175:.\Generated_Source\PSoC5/IRQ_ADC.c **** /*******************************************************************************
 176:.\Generated_Source\PSoC5/IRQ_ADC.c **** * Function Name: IRQ_ADC_GetVector
 177:.\Generated_Source\PSoC5/IRQ_ADC.c **** ********************************************************************************
 178:.\Generated_Source\PSoC5/IRQ_ADC.c **** * Summary:
 179:.\Generated_Source\PSoC5/IRQ_ADC.c **** *   Gets the "address" of the current ISR vector for the Interrupt.
 180:.\Generated_Source\PSoC5/IRQ_ADC.c **** *
 181:.\Generated_Source\PSoC5/IRQ_ADC.c **** *
 182:.\Generated_Source\PSoC5/IRQ_ADC.c **** * Parameters:
 183:.\Generated_Source\PSoC5/IRQ_ADC.c **** *   void.
 184:.\Generated_Source\PSoC5/IRQ_ADC.c **** *
 185:.\Generated_Source\PSoC5/IRQ_ADC.c **** *
 186:.\Generated_Source\PSoC5/IRQ_ADC.c **** * Return:
 187:.\Generated_Source\PSoC5/IRQ_ADC.c **** *   Address of the ISR in the interrupt vector table.
 188:.\Generated_Source\PSoC5/IRQ_ADC.c **** *
 189:.\Generated_Source\PSoC5/IRQ_ADC.c **** *
 190:.\Generated_Source\PSoC5/IRQ_ADC.c **** *******************************************************************************/
 191:.\Generated_Source\PSoC5/IRQ_ADC.c **** cyisraddress IRQ_ADC_GetVector(void) 
 192:.\Generated_Source\PSoC5/IRQ_ADC.c **** {
 193:.\Generated_Source\PSoC5/IRQ_ADC.c ****     cyisraddress * ramVectorTable;
 194:.\Generated_Source\PSoC5/IRQ_ADC.c **** 
 195:.\Generated_Source\PSoC5/IRQ_ADC.c ****     ramVectorTable = (cyisraddress *) *CYINT_VECT_TABLE;
 196:.\Generated_Source\PSoC5/IRQ_ADC.c **** 
 197:.\Generated_Source\PSoC5/IRQ_ADC.c ****     return ramVectorTable[CYINT_IRQ_BASE + IRQ_ADC__INTC_NUMBER];
 198:.\Generated_Source\PSoC5/IRQ_ADC.c **** }
 199:.\Generated_Source\PSoC5/IRQ_ADC.c **** 
 200:.\Generated_Source\PSoC5/IRQ_ADC.c **** /*******************************************************************************
 201:.\Generated_Source\PSoC5/IRQ_ADC.c **** * Function Name: IRQ_ADC_SetPriority
 202:.\Generated_Source\PSoC5/IRQ_ADC.c **** ********************************************************************************
 203:.\Generated_Source\PSoC5/IRQ_ADC.c **** * Summary:
 204:.\Generated_Source\PSoC5/IRQ_ADC.c **** *   Sets the Priority of the Interrupt. Note calling IRQ_ADC_Start
 205:.\Generated_Source\PSoC5/IRQ_ADC.c **** *   or IRQ_ADC_StartEx will override any effect this method would have had. 
 206:.\Generated_Source\PSoC5/IRQ_ADC.c **** *	This method should only be called after IRQ_ADC_Start or 
 207:.\Generated_Source\PSoC5/IRQ_ADC.c **** *	IRQ_ADC_StartEx has been called. To set the initial
 208:.\Generated_Source\PSoC5/IRQ_ADC.c **** *	priority for the component use the cydwr file in the tool.
 209:.\Generated_Source\PSoC5/IRQ_ADC.c **** *
 210:.\Generated_Source\PSoC5/IRQ_ADC.c **** *
 211:.\Generated_Source\PSoC5/IRQ_ADC.c **** * Parameters:
 212:.\Generated_Source\PSoC5/IRQ_ADC.c **** *   priority: Priority of the interrupt. 0 - 7, 0 being the highest.
 213:.\Generated_Source\PSoC5/IRQ_ADC.c **** *
 214:.\Generated_Source\PSoC5/IRQ_ADC.c **** *
 215:.\Generated_Source\PSoC5/IRQ_ADC.c **** * Return:
 216:.\Generated_Source\PSoC5/IRQ_ADC.c **** *   void.
 217:.\Generated_Source\PSoC5/IRQ_ADC.c **** *
 218:.\Generated_Source\PSoC5/IRQ_ADC.c **** *
 219:.\Generated_Source\PSoC5/IRQ_ADC.c **** *******************************************************************************/
 220:.\Generated_Source\PSoC5/IRQ_ADC.c **** void IRQ_ADC_SetPriority(uint8 priority) 
 221:.\Generated_Source\PSoC5/IRQ_ADC.c **** {
 222:.\Generated_Source\PSoC5/IRQ_ADC.c ****     *IRQ_ADC_INTC_PRIOR = priority << 5;
 223:.\Generated_Source\PSoC5/IRQ_ADC.c **** }
 224:.\Generated_Source\PSoC5/IRQ_ADC.c **** 
 225:.\Generated_Source\PSoC5/IRQ_ADC.c **** /*******************************************************************************
 226:.\Generated_Source\PSoC5/IRQ_ADC.c **** * Function Name: IRQ_ADC_GetPriority
 227:.\Generated_Source\PSoC5/IRQ_ADC.c **** ********************************************************************************
 228:.\Generated_Source\PSoC5/IRQ_ADC.c **** * Summary:
 229:.\Generated_Source\PSoC5/IRQ_ADC.c **** *   Gets the Priority of the Interrupt.
 230:.\Generated_Source\PSoC5/IRQ_ADC.c **** *
 231:.\Generated_Source\PSoC5/IRQ_ADC.c **** *
ARM GAS  C:\Users\SUZUKI~1\AppData\Local\Temp\ccsGMWBs.s 			page 6


 232:.\Generated_Source\PSoC5/IRQ_ADC.c **** * Parameters:
 233:.\Generated_Source\PSoC5/IRQ_ADC.c **** *   void.
 234:.\Generated_Source\PSoC5/IRQ_ADC.c **** *
 235:.\Generated_Source\PSoC5/IRQ_ADC.c **** *
 236:.\Generated_Source\PSoC5/IRQ_ADC.c **** * Return:
 237:.\Generated_Source\PSoC5/IRQ_ADC.c **** *   Priority of the interrupt. 0 - 7, 0 being the highest.
 238:.\Generated_Source\PSoC5/IRQ_ADC.c **** *
 239:.\Generated_Source\PSoC5/IRQ_ADC.c **** *
 240:.\Generated_Source\PSoC5/IRQ_ADC.c **** *******************************************************************************/
 241:.\Generated_Source\PSoC5/IRQ_ADC.c **** uint8 IRQ_ADC_GetPriority(void) 
 242:.\Generated_Source\PSoC5/IRQ_ADC.c **** {
 243:.\Generated_Source\PSoC5/IRQ_ADC.c ****     uint8 priority;
 244:.\Generated_Source\PSoC5/IRQ_ADC.c **** 
 245:.\Generated_Source\PSoC5/IRQ_ADC.c **** 
 246:.\Generated_Source\PSoC5/IRQ_ADC.c ****     priority = *IRQ_ADC_INTC_PRIOR >> 5;
 247:.\Generated_Source\PSoC5/IRQ_ADC.c **** 
 248:.\Generated_Source\PSoC5/IRQ_ADC.c ****     return priority;
 249:.\Generated_Source\PSoC5/IRQ_ADC.c **** }
 250:.\Generated_Source\PSoC5/IRQ_ADC.c **** 
 251:.\Generated_Source\PSoC5/IRQ_ADC.c **** /*******************************************************************************
 252:.\Generated_Source\PSoC5/IRQ_ADC.c **** * Function Name: IRQ_ADC_Enable
 253:.\Generated_Source\PSoC5/IRQ_ADC.c **** ********************************************************************************
 254:.\Generated_Source\PSoC5/IRQ_ADC.c **** * Summary:
 255:.\Generated_Source\PSoC5/IRQ_ADC.c **** *   Enables the interrupt.
 256:.\Generated_Source\PSoC5/IRQ_ADC.c **** *
 257:.\Generated_Source\PSoC5/IRQ_ADC.c **** *
 258:.\Generated_Source\PSoC5/IRQ_ADC.c **** * Parameters:
 259:.\Generated_Source\PSoC5/IRQ_ADC.c **** *   void.
 260:.\Generated_Source\PSoC5/IRQ_ADC.c **** *
 261:.\Generated_Source\PSoC5/IRQ_ADC.c **** *
 262:.\Generated_Source\PSoC5/IRQ_ADC.c **** * Return:
 263:.\Generated_Source\PSoC5/IRQ_ADC.c **** *   void.
 264:.\Generated_Source\PSoC5/IRQ_ADC.c **** *
 265:.\Generated_Source\PSoC5/IRQ_ADC.c **** *
 266:.\Generated_Source\PSoC5/IRQ_ADC.c **** *******************************************************************************/
 267:.\Generated_Source\PSoC5/IRQ_ADC.c **** void IRQ_ADC_Enable(void) 
 268:.\Generated_Source\PSoC5/IRQ_ADC.c **** {
 269:.\Generated_Source\PSoC5/IRQ_ADC.c ****     /* Enable the general interrupt. */
 270:.\Generated_Source\PSoC5/IRQ_ADC.c ****     *IRQ_ADC_INTC_SET_EN = IRQ_ADC__INTC_MASK;
 271:.\Generated_Source\PSoC5/IRQ_ADC.c **** }
 272:.\Generated_Source\PSoC5/IRQ_ADC.c **** 
 273:.\Generated_Source\PSoC5/IRQ_ADC.c **** /*******************************************************************************
 274:.\Generated_Source\PSoC5/IRQ_ADC.c **** * Function Name: IRQ_ADC_GetState
 275:.\Generated_Source\PSoC5/IRQ_ADC.c **** ********************************************************************************
 276:.\Generated_Source\PSoC5/IRQ_ADC.c **** * Summary:
 277:.\Generated_Source\PSoC5/IRQ_ADC.c **** *   Gets the state (enabled, disabled) of the Interrupt.
 278:.\Generated_Source\PSoC5/IRQ_ADC.c **** *
 279:.\Generated_Source\PSoC5/IRQ_ADC.c **** *
 280:.\Generated_Source\PSoC5/IRQ_ADC.c **** * Parameters:
 281:.\Generated_Source\PSoC5/IRQ_ADC.c **** *   void.
 282:.\Generated_Source\PSoC5/IRQ_ADC.c **** *
 283:.\Generated_Source\PSoC5/IRQ_ADC.c **** *
 284:.\Generated_Source\PSoC5/IRQ_ADC.c **** * Return:
 285:.\Generated_Source\PSoC5/IRQ_ADC.c **** *   1 if enabled, 0 if disabled.
 286:.\Generated_Source\PSoC5/IRQ_ADC.c **** *
 287:.\Generated_Source\PSoC5/IRQ_ADC.c **** *
 288:.\Generated_Source\PSoC5/IRQ_ADC.c **** *******************************************************************************/
ARM GAS  C:\Users\SUZUKI~1\AppData\Local\Temp\ccsGMWBs.s 			page 7


 289:.\Generated_Source\PSoC5/IRQ_ADC.c **** uint8 IRQ_ADC_GetState(void) 
 290:.\Generated_Source\PSoC5/IRQ_ADC.c **** {
 291:.\Generated_Source\PSoC5/IRQ_ADC.c ****     /* Get the state of the general interrupt. */
 292:.\Generated_Source\PSoC5/IRQ_ADC.c ****     return (*IRQ_ADC_INTC_SET_EN & IRQ_ADC__INTC_MASK) ? 1:0;
 293:.\Generated_Source\PSoC5/IRQ_ADC.c **** }
 294:.\Generated_Source\PSoC5/IRQ_ADC.c **** 
 295:.\Generated_Source\PSoC5/IRQ_ADC.c **** /*******************************************************************************
 296:.\Generated_Source\PSoC5/IRQ_ADC.c **** * Function Name: IRQ_ADC_Disable
 297:.\Generated_Source\PSoC5/IRQ_ADC.c **** ********************************************************************************
 298:.\Generated_Source\PSoC5/IRQ_ADC.c **** * Summary:
 299:.\Generated_Source\PSoC5/IRQ_ADC.c **** *   Disables the Interrupt.
 300:.\Generated_Source\PSoC5/IRQ_ADC.c **** *
 301:.\Generated_Source\PSoC5/IRQ_ADC.c **** *
 302:.\Generated_Source\PSoC5/IRQ_ADC.c **** * Parameters:
 303:.\Generated_Source\PSoC5/IRQ_ADC.c **** *   void.
 304:.\Generated_Source\PSoC5/IRQ_ADC.c **** *
 305:.\Generated_Source\PSoC5/IRQ_ADC.c **** *
 306:.\Generated_Source\PSoC5/IRQ_ADC.c **** * Return:
 307:.\Generated_Source\PSoC5/IRQ_ADC.c **** *   void.
 308:.\Generated_Source\PSoC5/IRQ_ADC.c **** *
 309:.\Generated_Source\PSoC5/IRQ_ADC.c **** *
 310:.\Generated_Source\PSoC5/IRQ_ADC.c **** *******************************************************************************/
 311:.\Generated_Source\PSoC5/IRQ_ADC.c **** void IRQ_ADC_Disable(void) 
 312:.\Generated_Source\PSoC5/IRQ_ADC.c **** {
 313:.\Generated_Source\PSoC5/IRQ_ADC.c ****     /* Disable the general interrupt. */
 314:.\Generated_Source\PSoC5/IRQ_ADC.c ****     *IRQ_ADC_INTC_CLR_EN = IRQ_ADC__INTC_MASK;
  51              		.loc 1 314 0
  52 000a 4EF28011 		movw	r1, #:lower16:-536813184
  53              	.LBE30:
  54              	.LBE28:
  55              	.LBB32:
  56              	.LBB24:
  57              		.loc 1 170 0
  58 000e 2568     		ldr	r5, [r4, #0]
  59              	.LVL0:
  60              	.LBE24:
  61              	.LBE32:
  62              	.LBB33:
  63              	.LBB29:
  64              		.loc 1 314 0
  65 0010 CEF20001 		movt	r1, #:upper16:-536813184
  66 0014 0124     		movs	r4, #1
  67              	.LBE29:
  68              	.LBE33:
  69              	.LBB34:
  70              	.LBB26:
  71              		.loc 1 172 0
  72 0016 40F20000 		movw	r0, #:lower16:IRQ_ADC_Interrupt
  73              	.LBE26:
  74              	.LBE34:
  75              	.LBB35:
  76              	.LBB37:
  77              		.loc 1 222 0
  78 001a 4EF20042 		movw	r2, #:lower16:-536812544
  79              	.LBE37:
  80              	.LBE35:
  81              	.LBB40:
ARM GAS  C:\Users\SUZUKI~1\AppData\Local\Temp\ccsGMWBs.s 			page 8


  82              	.LBB42:
  83              		.loc 1 270 0
  84 001e 4EF20013 		movw	r3, #:lower16:-536813312
  85              	.LBE42:
  86              	.LBE40:
  87              	.LBB44:
  88              	.LBB31:
  89              		.loc 1 314 0
  90 0022 0C60     		str	r4, [r1, #0]
  91              	.LBE31:
  92              	.LBE44:
  93              	.LBB45:
  94              	.LBB23:
  95              		.loc 1 172 0
  96 0024 C0F20000 		movt	r0, #:upper16:IRQ_ADC_Interrupt
  97              	.LBE23:
  98              	.LBE45:
  99              	.LBB46:
 100              	.LBB38:
 101              		.loc 1 222 0
 102 0028 CEF20002 		movt	r2, #:upper16:-536812544
 103              	.LBE38:
 104              	.LBE46:
 105              	.LBB47:
 106              	.LBB41:
 107              		.loc 1 270 0
 108 002c CEF20003 		movt	r3, #:upper16:-536813312
 109              	.LBE41:
 110              	.LBE47:
 111              	.LBB48:
 112              	.LBB36:
 113              		.loc 1 222 0
 114 0030 6FF01F01 		mvn	r1, #31
 115              	.LBE36:
 116              	.LBE48:
 117              	.LBB49:
 118              	.LBB27:
 119              		.loc 1 172 0
 120 0034 2864     		str	r0, [r5, #64]
 121              	.LBE27:
 122              	.LBE49:
 123              	.LBB50:
 124              	.LBB39:
 125              		.loc 1 222 0
 126 0036 1170     		strb	r1, [r2, #0]
 127              	.LBE39:
 128              	.LBE50:
 129              	.LBB51:
 130              	.LBB43:
 131              		.loc 1 270 0
 132 0038 1C60     		str	r4, [r3, #0]
 133              	.LBE43:
 134              	.LBE51:
 135              		.loc 1 69 0
 136 003a 30BC     		pop	{r4, r5}
 137 003c 7047     		bx	lr
 138              		.cfi_endproc
ARM GAS  C:\Users\SUZUKI~1\AppData\Local\Temp\ccsGMWBs.s 			page 9


 139              	.LFE0:
 140              		.size	IRQ_ADC_Start, .-IRQ_ADC_Start
 141 003e 00BF     		.section	.text.IRQ_ADC_StartEx,"ax",%progbits
 142              		.align	2
 143              		.global	IRQ_ADC_StartEx
 144              		.thumb
 145              		.thumb_func
 146              		.type	IRQ_ADC_StartEx, %function
 147              	IRQ_ADC_StartEx:
 148              	.LFB1:
 149              		.loc 1 86 0
 150              		.cfi_startproc
 151              		@ args = 0, pretend = 0, frame = 0
 152              		@ frame_needed = 0, uses_anonymous_args = 0
 153              		@ link register save eliminated.
 154              	.LVL1:
 155 0000 30B4     		push	{r4, r5}
 156              	.LCFI1:
 157              		.cfi_def_cfa_offset 8
 158              	.LBB52:
 159              	.LBB54:
 160              		.loc 1 170 0
 161 0002 4EF60854 		movw	r4, #:lower16:-536810232
 162              		.cfi_offset 5, -4
 163              		.cfi_offset 4, -8
 164 0006 CEF20004 		movt	r4, #:upper16:-536810232
 165              	.LBE54:
 166              	.LBE52:
 167              	.LBB56:
 168              	.LBB58:
 169              		.loc 1 314 0
 170 000a 4EF28011 		movw	r1, #:lower16:-536813184
 171              	.LBE58:
 172              	.LBE56:
 173              	.LBB60:
 174              	.LBB53:
 175              		.loc 1 170 0
 176 000e 2568     		ldr	r5, [r4, #0]
 177              	.LVL2:
 178              	.LBE53:
 179              	.LBE60:
 180              	.LBB61:
 181              	.LBB57:
 182              		.loc 1 314 0
 183 0010 CEF20001 		movt	r1, #:upper16:-536813184
 184 0014 0124     		movs	r4, #1
 185              	.LBE57:
 186              	.LBE61:
 187              	.LBB62:
 188              	.LBB64:
 189              		.loc 1 222 0
 190 0016 4EF20042 		movw	r2, #:lower16:-536812544
 191              	.LBE64:
 192              	.LBE62:
 193              	.LBB67:
 194              	.LBB69:
 195              		.loc 1 270 0
ARM GAS  C:\Users\SUZUKI~1\AppData\Local\Temp\ccsGMWBs.s 			page 10


 196 001a 4EF20013 		movw	r3, #:lower16:-536813312
 197              	.LBE69:
 198              	.LBE67:
 199              	.LBB71:
 200              	.LBB59:
 201              		.loc 1 314 0
 202 001e 0C60     		str	r4, [r1, #0]
 203              	.LBE59:
 204              	.LBE71:
 205              	.LBB72:
 206              	.LBB65:
 207              		.loc 1 222 0
 208 0020 CEF20002 		movt	r2, #:upper16:-536812544
 209              	.LBE65:
 210              	.LBE72:
 211              	.LBB73:
 212              	.LBB68:
 213              		.loc 1 270 0
 214 0024 CEF20003 		movt	r3, #:upper16:-536813312
 215              	.LBE68:
 216              	.LBE73:
 217              	.LBB74:
 218              	.LBB63:
 219              		.loc 1 222 0
 220 0028 6FF01F01 		mvn	r1, #31
 221              	.LBE63:
 222              	.LBE74:
 223              	.LBB75:
 224              	.LBB55:
 225              		.loc 1 172 0
 226 002c 2864     		str	r0, [r5, #64]
 227              	.LBE55:
 228              	.LBE75:
 229              	.LBB76:
 230              	.LBB66:
 231              		.loc 1 222 0
 232 002e 1170     		strb	r1, [r2, #0]
 233              	.LBE66:
 234              	.LBE76:
 235              	.LBB77:
 236              	.LBB70:
 237              		.loc 1 270 0
 238 0030 1C60     		str	r4, [r3, #0]
 239              	.LBE70:
 240              	.LBE77:
 241              		.loc 1 98 0
 242 0032 30BC     		pop	{r4, r5}
 243 0034 7047     		bx	lr
 244              		.cfi_endproc
 245              	.LFE1:
 246              		.size	IRQ_ADC_StartEx, .-IRQ_ADC_StartEx
 247 0036 00BF     		.section	.text.IRQ_ADC_Stop,"ax",%progbits
 248              		.align	2
 249              		.global	IRQ_ADC_Stop
 250              		.thumb
 251              		.thumb_func
 252              		.type	IRQ_ADC_Stop, %function
ARM GAS  C:\Users\SUZUKI~1\AppData\Local\Temp\ccsGMWBs.s 			page 11


 253              	IRQ_ADC_Stop:
 254              	.LFB2:
 255              		.loc 1 114 0
 256              		.cfi_startproc
 257              		@ args = 0, pretend = 0, frame = 0
 258              		@ frame_needed = 0, uses_anonymous_args = 0
 259              		@ link register save eliminated.
 260              	.LBB78:
 261              	.LBB80:
 262              		.loc 1 170 0
 263 0000 4EF60853 		movw	r3, #:lower16:-536810232
 264 0004 CEF20003 		movt	r3, #:upper16:-536810232
 265 0008 1968     		ldr	r1, [r3, #0]
 266              	.LVL3:
 267              	.LBE80:
 268              	.LBE78:
 269              	.LBB83:
 270              	.LBB85:
 271              		.loc 1 314 0
 272 000a 4EF28012 		movw	r2, #:lower16:-536813184
 273              	.LBE85:
 274              	.LBE83:
 275              	.LBB87:
 276              	.LBB81:
 277              		.loc 1 172 0
 278 000e 40F20003 		movw	r3, #:lower16:IntDefaultHandler
 279              	.LBE81:
 280              	.LBE87:
 281              	.LBB88:
 282              	.LBB84:
 283              		.loc 1 314 0
 284 0012 CEF20002 		movt	r2, #:upper16:-536813184
 285              	.LBE84:
 286              	.LBE88:
 287              	.LBB89:
 288              	.LBB79:
 289              		.loc 1 172 0
 290 0016 C0F20003 		movt	r3, #:upper16:IntDefaultHandler
 291              	.LBE79:
 292              	.LBE89:
 293              	.LBB90:
 294              	.LBB86:
 295              		.loc 1 314 0
 296 001a 0120     		movs	r0, #1
 297 001c 1060     		str	r0, [r2, #0]
 298              	.LBE86:
 299              	.LBE90:
 300              	.LBB91:
 301              	.LBB82:
 302              		.loc 1 172 0
 303 001e 0B64     		str	r3, [r1, #64]
 304              	.LBE82:
 305              	.LBE91:
 306              		.loc 1 120 0
 307 0020 7047     		bx	lr
 308              		.cfi_endproc
 309              	.LFE2:
ARM GAS  C:\Users\SUZUKI~1\AppData\Local\Temp\ccsGMWBs.s 			page 12


 310              		.size	IRQ_ADC_Stop, .-IRQ_ADC_Stop
 311 0022 00BF     		.section	.text.IRQ_ADC_Interrupt,"ax",%progbits
 312              		.align	2
 313              		.global	IRQ_ADC_Interrupt
 314              		.thumb
 315              		.thumb_func
 316              		.type	IRQ_ADC_Interrupt, %function
 317              	IRQ_ADC_Interrupt:
 318              	.LFB3:
 319              		.loc 1 141 0
 320              		.cfi_startproc
 321              		@ args = 0, pretend = 0, frame = 0
 322              		@ frame_needed = 0, uses_anonymous_args = 0
 323              		@ link register save eliminated.
 324              		.loc 1 146 0
 325 0000 7047     		bx	lr
 326              		.cfi_endproc
 327              	.LFE3:
 328              		.size	IRQ_ADC_Interrupt, .-IRQ_ADC_Interrupt
 329 0002 00BF     		.section	.text.IRQ_ADC_SetVector,"ax",%progbits
 330              		.align	2
 331              		.global	IRQ_ADC_SetVector
 332              		.thumb
 333              		.thumb_func
 334              		.type	IRQ_ADC_SetVector, %function
 335              	IRQ_ADC_SetVector:
 336              	.LFB4:
 337              		.loc 1 167 0
 338              		.cfi_startproc
 339              		@ args = 0, pretend = 0, frame = 0
 340              		@ frame_needed = 0, uses_anonymous_args = 0
 341              		@ link register save eliminated.
 342              	.LVL4:
 343              		.loc 1 170 0
 344 0000 4EF60851 		movw	r1, #:lower16:-536810232
 345 0004 CEF20001 		movt	r1, #:upper16:-536810232
 346 0008 0B68     		ldr	r3, [r1, #0]
 347              	.LVL5:
 348              		.loc 1 172 0
 349 000a 1864     		str	r0, [r3, #64]
 350              		.loc 1 173 0
 351 000c 7047     		bx	lr
 352              		.cfi_endproc
 353              	.LFE4:
 354              		.size	IRQ_ADC_SetVector, .-IRQ_ADC_SetVector
 355 000e 00BF     		.section	.text.IRQ_ADC_GetVector,"ax",%progbits
 356              		.align	2
 357              		.global	IRQ_ADC_GetVector
 358              		.thumb
 359              		.thumb_func
 360              		.type	IRQ_ADC_GetVector, %function
 361              	IRQ_ADC_GetVector:
 362              	.LFB5:
 363              		.loc 1 192 0
 364              		.cfi_startproc
 365              		@ args = 0, pretend = 0, frame = 0
 366              		@ frame_needed = 0, uses_anonymous_args = 0
ARM GAS  C:\Users\SUZUKI~1\AppData\Local\Temp\ccsGMWBs.s 			page 13


 367              		@ link register save eliminated.
 368              		.loc 1 195 0
 369 0000 4EF60850 		movw	r0, #:lower16:-536810232
 370 0004 CEF20000 		movt	r0, #:upper16:-536810232
 371 0008 0368     		ldr	r3, [r0, #0]
 372              	.LVL6:
 373              		.loc 1 198 0
 374 000a 186C     		ldr	r0, [r3, #64]
 375 000c 7047     		bx	lr
 376              		.cfi_endproc
 377              	.LFE5:
 378              		.size	IRQ_ADC_GetVector, .-IRQ_ADC_GetVector
 379              		.section	.text.IRQ_ADC_SetPriority,"ax",%progbits
 380              		.align	2
 381              		.global	IRQ_ADC_SetPriority
 382              		.thumb
 383              		.thumb_func
 384              		.type	IRQ_ADC_SetPriority, %function
 385              	IRQ_ADC_SetPriority:
 386              	.LFB6:
 387              		.loc 1 221 0
 388              		.cfi_startproc
 389              		@ args = 0, pretend = 0, frame = 0
 390              		@ frame_needed = 0, uses_anonymous_args = 0
 391              		@ link register save eliminated.
 392              	.LVL7:
 393              		.loc 1 222 0
 394 0000 4101     		lsls	r1, r0, #5
 395 0002 4EF20043 		movw	r3, #:lower16:-536812544
 396 0006 C8B2     		uxtb	r0, r1
 397              	.LVL8:
 398 0008 CEF20003 		movt	r3, #:upper16:-536812544
 399 000c 1870     		strb	r0, [r3, #0]
 400              		.loc 1 223 0
 401 000e 7047     		bx	lr
 402              		.cfi_endproc
 403              	.LFE6:
 404              		.size	IRQ_ADC_SetPriority, .-IRQ_ADC_SetPriority
 405              		.section	.text.IRQ_ADC_GetPriority,"ax",%progbits
 406              		.align	2
 407              		.global	IRQ_ADC_GetPriority
 408              		.thumb
 409              		.thumb_func
 410              		.type	IRQ_ADC_GetPriority, %function
 411              	IRQ_ADC_GetPriority:
 412              	.LFB7:
 413              		.loc 1 242 0
 414              		.cfi_startproc
 415              		@ args = 0, pretend = 0, frame = 0
 416              		@ frame_needed = 0, uses_anonymous_args = 0
 417              		@ link register save eliminated.
 418              		.loc 1 246 0
 419 0000 4EF20043 		movw	r3, #:lower16:-536812544
 420 0004 CEF20003 		movt	r3, #:upper16:-536812544
 421 0008 1878     		ldrb	r0, [r3, #0]	@ zero_extendqisi2
 422              		.loc 1 249 0
 423 000a 4009     		lsrs	r0, r0, #5
ARM GAS  C:\Users\SUZUKI~1\AppData\Local\Temp\ccsGMWBs.s 			page 14


 424 000c 7047     		bx	lr
 425              		.cfi_endproc
 426              	.LFE7:
 427              		.size	IRQ_ADC_GetPriority, .-IRQ_ADC_GetPriority
 428 000e 00BF     		.section	.text.IRQ_ADC_Enable,"ax",%progbits
 429              		.align	2
 430              		.global	IRQ_ADC_Enable
 431              		.thumb
 432              		.thumb_func
 433              		.type	IRQ_ADC_Enable, %function
 434              	IRQ_ADC_Enable:
 435              	.LFB8:
 436              		.loc 1 268 0
 437              		.cfi_startproc
 438              		@ args = 0, pretend = 0, frame = 0
 439              		@ frame_needed = 0, uses_anonymous_args = 0
 440              		@ link register save eliminated.
 441              		.loc 1 270 0
 442 0000 4EF20013 		movw	r3, #:lower16:-536813312
 443 0004 CEF20003 		movt	r3, #:upper16:-536813312
 444 0008 0122     		movs	r2, #1
 445 000a 1A60     		str	r2, [r3, #0]
 446              		.loc 1 271 0
 447 000c 7047     		bx	lr
 448              		.cfi_endproc
 449              	.LFE8:
 450              		.size	IRQ_ADC_Enable, .-IRQ_ADC_Enable
 451 000e 00BF     		.section	.text.IRQ_ADC_GetState,"ax",%progbits
 452              		.align	2
 453              		.global	IRQ_ADC_GetState
 454              		.thumb
 455              		.thumb_func
 456              		.type	IRQ_ADC_GetState, %function
 457              	IRQ_ADC_GetState:
 458              	.LFB9:
 459              		.loc 1 290 0
 460              		.cfi_startproc
 461              		@ args = 0, pretend = 0, frame = 0
 462              		@ frame_needed = 0, uses_anonymous_args = 0
 463              		@ link register save eliminated.
 464              		.loc 1 292 0
 465 0000 4EF20013 		movw	r3, #:lower16:-536813312
 466 0004 CEF20003 		movt	r3, #:upper16:-536813312
 467 0008 1868     		ldr	r0, [r3, #0]
 468              		.loc 1 293 0
 469 000a 00F00100 		and	r0, r0, #1
 470 000e 7047     		bx	lr
 471              		.cfi_endproc
 472              	.LFE9:
 473              		.size	IRQ_ADC_GetState, .-IRQ_ADC_GetState
 474              		.section	.text.IRQ_ADC_Disable,"ax",%progbits
 475              		.align	2
 476              		.global	IRQ_ADC_Disable
 477              		.thumb
 478              		.thumb_func
 479              		.type	IRQ_ADC_Disable, %function
 480              	IRQ_ADC_Disable:
ARM GAS  C:\Users\SUZUKI~1\AppData\Local\Temp\ccsGMWBs.s 			page 15


 481              	.LFB10:
 482              		.loc 1 312 0
 483              		.cfi_startproc
 484              		@ args = 0, pretend = 0, frame = 0
 485              		@ frame_needed = 0, uses_anonymous_args = 0
 486              		@ link register save eliminated.
 487              		.loc 1 314 0
 488 0000 4EF28013 		movw	r3, #:lower16:-536813184
 489 0004 CEF20003 		movt	r3, #:upper16:-536813184
 490 0008 0122     		movs	r2, #1
 491 000a 1A60     		str	r2, [r3, #0]
 315:.\Generated_Source\PSoC5/IRQ_ADC.c **** }
 492              		.loc 1 315 0
 493 000c 7047     		bx	lr
 494              		.cfi_endproc
 495              	.LFE10:
 496              		.size	IRQ_ADC_Disable, .-IRQ_ADC_Disable
 497 000e 00BF     		.section	.text.IRQ_ADC_SetPending,"ax",%progbits
 498              		.align	2
 499              		.global	IRQ_ADC_SetPending
 500              		.thumb
 501              		.thumb_func
 502              		.type	IRQ_ADC_SetPending, %function
 503              	IRQ_ADC_SetPending:
 504              	.LFB11:
 316:.\Generated_Source\PSoC5/IRQ_ADC.c **** 
 317:.\Generated_Source\PSoC5/IRQ_ADC.c **** /*******************************************************************************
 318:.\Generated_Source\PSoC5/IRQ_ADC.c **** * Function Name: IRQ_ADC_SetPending
 319:.\Generated_Source\PSoC5/IRQ_ADC.c **** ********************************************************************************
 320:.\Generated_Source\PSoC5/IRQ_ADC.c **** * Summary:
 321:.\Generated_Source\PSoC5/IRQ_ADC.c **** *   Causes the Interrupt to enter the pending state, a software method of
 322:.\Generated_Source\PSoC5/IRQ_ADC.c **** *   generating the interrupt.
 323:.\Generated_Source\PSoC5/IRQ_ADC.c **** *
 324:.\Generated_Source\PSoC5/IRQ_ADC.c **** *
 325:.\Generated_Source\PSoC5/IRQ_ADC.c **** * Parameters:
 326:.\Generated_Source\PSoC5/IRQ_ADC.c **** *   void.
 327:.\Generated_Source\PSoC5/IRQ_ADC.c **** *
 328:.\Generated_Source\PSoC5/IRQ_ADC.c **** *
 329:.\Generated_Source\PSoC5/IRQ_ADC.c **** * Return:
 330:.\Generated_Source\PSoC5/IRQ_ADC.c **** *   void.
 331:.\Generated_Source\PSoC5/IRQ_ADC.c **** *
 332:.\Generated_Source\PSoC5/IRQ_ADC.c **** *
 333:.\Generated_Source\PSoC5/IRQ_ADC.c **** *******************************************************************************/
 334:.\Generated_Source\PSoC5/IRQ_ADC.c **** void IRQ_ADC_SetPending(void) 
 335:.\Generated_Source\PSoC5/IRQ_ADC.c **** {
 505              		.loc 1 335 0
 506              		.cfi_startproc
 507              		@ args = 0, pretend = 0, frame = 0
 508              		@ frame_needed = 0, uses_anonymous_args = 0
 509              		@ link register save eliminated.
 336:.\Generated_Source\PSoC5/IRQ_ADC.c ****     *IRQ_ADC_INTC_SET_PD = IRQ_ADC__INTC_MASK;
 510              		.loc 1 336 0
 511 0000 4EF20023 		movw	r3, #:lower16:-536813056
 512 0004 CEF20003 		movt	r3, #:upper16:-536813056
 513 0008 0122     		movs	r2, #1
 514 000a 1A60     		str	r2, [r3, #0]
 337:.\Generated_Source\PSoC5/IRQ_ADC.c **** }
ARM GAS  C:\Users\SUZUKI~1\AppData\Local\Temp\ccsGMWBs.s 			page 16


 515              		.loc 1 337 0
 516 000c 7047     		bx	lr
 517              		.cfi_endproc
 518              	.LFE11:
 519              		.size	IRQ_ADC_SetPending, .-IRQ_ADC_SetPending
 520 000e 00BF     		.section	.text.IRQ_ADC_ClearPending,"ax",%progbits
 521              		.align	2
 522              		.global	IRQ_ADC_ClearPending
 523              		.thumb
 524              		.thumb_func
 525              		.type	IRQ_ADC_ClearPending, %function
 526              	IRQ_ADC_ClearPending:
 527              	.LFB12:
 338:.\Generated_Source\PSoC5/IRQ_ADC.c **** 
 339:.\Generated_Source\PSoC5/IRQ_ADC.c **** /*******************************************************************************
 340:.\Generated_Source\PSoC5/IRQ_ADC.c **** * Function Name: IRQ_ADC_ClearPending
 341:.\Generated_Source\PSoC5/IRQ_ADC.c **** ********************************************************************************
 342:.\Generated_Source\PSoC5/IRQ_ADC.c **** * Summary:
 343:.\Generated_Source\PSoC5/IRQ_ADC.c **** *   Clears a pending interrupt.
 344:.\Generated_Source\PSoC5/IRQ_ADC.c **** *
 345:.\Generated_Source\PSoC5/IRQ_ADC.c **** * Parameters:
 346:.\Generated_Source\PSoC5/IRQ_ADC.c **** *   void.
 347:.\Generated_Source\PSoC5/IRQ_ADC.c **** *
 348:.\Generated_Source\PSoC5/IRQ_ADC.c **** *
 349:.\Generated_Source\PSoC5/IRQ_ADC.c **** * Return:
 350:.\Generated_Source\PSoC5/IRQ_ADC.c **** *   void.
 351:.\Generated_Source\PSoC5/IRQ_ADC.c **** *
 352:.\Generated_Source\PSoC5/IRQ_ADC.c **** *
 353:.\Generated_Source\PSoC5/IRQ_ADC.c **** *******************************************************************************/
 354:.\Generated_Source\PSoC5/IRQ_ADC.c **** void IRQ_ADC_ClearPending(void) 
 355:.\Generated_Source\PSoC5/IRQ_ADC.c **** {
 528              		.loc 1 355 0
 529              		.cfi_startproc
 530              		@ args = 0, pretend = 0, frame = 0
 531              		@ frame_needed = 0, uses_anonymous_args = 0
 532              		@ link register save eliminated.
 356:.\Generated_Source\PSoC5/IRQ_ADC.c ****     *IRQ_ADC_INTC_CLR_PD = IRQ_ADC__INTC_MASK;
 533              		.loc 1 356 0
 534 0000 4EF28023 		movw	r3, #:lower16:-536812928
 535 0004 CEF20003 		movt	r3, #:upper16:-536812928
 536 0008 0122     		movs	r2, #1
 537 000a 1A60     		str	r2, [r3, #0]
 357:.\Generated_Source\PSoC5/IRQ_ADC.c **** }
 538              		.loc 1 357 0
 539 000c 7047     		bx	lr
 540              		.cfi_endproc
 541              	.LFE12:
 542              		.size	IRQ_ADC_ClearPending, .-IRQ_ADC_ClearPending
 543 000e 00BF     		.text
 544              	.Letext0:
 545              		.section	.debug_loc,"",%progbits
 546              	.Ldebug_loc0:
 547              	.LLST0:
 548 0000 00000000 		.4byte	.LFB0
 549 0004 02000000 		.4byte	.LCFI0
 550 0008 0100     		.2byte	0x1
 551 000a 5D       		.byte	0x5d
ARM GAS  C:\Users\SUZUKI~1\AppData\Local\Temp\ccsGMWBs.s 			page 17


 552 000b 02000000 		.4byte	.LCFI0
 553 000f 3E000000 		.4byte	.LFE0
 554 0013 0200     		.2byte	0x2
 555 0015 7D       		.byte	0x7d
 556 0016 08       		.sleb128 8
 557 0017 00000000 		.4byte	0x0
 558 001b 00000000 		.4byte	0x0
 559              	.LLST1:
 560 001f 00000000 		.4byte	.LFB1
 561 0023 02000000 		.4byte	.LCFI1
 562 0027 0100     		.2byte	0x1
 563 0029 5D       		.byte	0x5d
 564 002a 02000000 		.4byte	.LCFI1
 565 002e 36000000 		.4byte	.LFE1
 566 0032 0200     		.2byte	0x2
 567 0034 7D       		.byte	0x7d
 568 0035 08       		.sleb128 8
 569 0036 00000000 		.4byte	0x0
 570 003a 00000000 		.4byte	0x0
 571              	.LLST7:
 572 003e 00000000 		.4byte	.LVL7
 573 0042 08000000 		.4byte	.LVL8
 574 0046 0100     		.2byte	0x1
 575 0048 50       		.byte	0x50
 576 0049 00000000 		.4byte	0x0
 577 004d 00000000 		.4byte	0x0
 578              		.file 2 "./Generated_Source/PSoC5/cytypes.h"
 579              		.section	.debug_info
 580 0000 38030000 		.4byte	0x338
 581 0004 0200     		.2byte	0x2
 582 0006 00000000 		.4byte	.Ldebug_abbrev0
 583 000a 04       		.byte	0x4
 584 000b 01       		.uleb128 0x1
 585 000c A0010000 		.4byte	.LASF27
 586 0010 01       		.byte	0x1
 587 0011 85000000 		.4byte	.LASF28
 588 0015 41000000 		.4byte	.LASF29
 589 0019 00000000 		.4byte	0x0
 590 001d 00000000 		.4byte	0x0
 591 0021 E0010000 		.4byte	.Ldebug_ranges0+0x1e0
 592 0025 00000000 		.4byte	.Ldebug_line0
 593 0029 02       		.uleb128 0x2
 594 002a 01       		.byte	0x1
 595 002b 06       		.byte	0x6
 596 002c E7010000 		.4byte	.LASF0
 597 0030 02       		.uleb128 0x2
 598 0031 01       		.byte	0x1
 599 0032 08       		.byte	0x8
 600 0033 B9000000 		.4byte	.LASF1
 601 0037 02       		.uleb128 0x2
 602 0038 02       		.byte	0x2
 603 0039 05       		.byte	0x5
 604 003a C0010000 		.4byte	.LASF2
 605 003e 02       		.uleb128 0x2
 606 003f 02       		.byte	0x2
 607 0040 07       		.byte	0x7
 608 0041 2E000000 		.4byte	.LASF3
ARM GAS  C:\Users\SUZUKI~1\AppData\Local\Temp\ccsGMWBs.s 			page 18


 609 0045 02       		.uleb128 0x2
 610 0046 04       		.byte	0x4
 611 0047 05       		.byte	0x5
 612 0048 DE010000 		.4byte	.LASF4
 613 004c 02       		.uleb128 0x2
 614 004d 04       		.byte	0x4
 615 004e 07       		.byte	0x7
 616 004f C7000000 		.4byte	.LASF5
 617 0053 02       		.uleb128 0x2
 618 0054 08       		.byte	0x8
 619 0055 05       		.byte	0x5
 620 0056 00000000 		.4byte	.LASF6
 621 005a 02       		.uleb128 0x2
 622 005b 08       		.byte	0x8
 623 005c 07       		.byte	0x7
 624 005d 6C010000 		.4byte	.LASF7
 625 0061 03       		.uleb128 0x3
 626 0062 04       		.byte	0x4
 627 0063 05       		.byte	0x5
 628 0064 696E7400 		.ascii	"int\000"
 629 0068 02       		.uleb128 0x2
 630 0069 04       		.byte	0x4
 631 006a 07       		.byte	0x7
 632 006b 57010000 		.4byte	.LASF8
 633 006f 02       		.uleb128 0x2
 634 0070 01       		.byte	0x1
 635 0071 08       		.byte	0x8
 636 0072 AC010000 		.4byte	.LASF9
 637 0076 04       		.uleb128 0x4
 638 0077 E8000000 		.4byte	.LASF10
 639 007b 02       		.byte	0x2
 640 007c 60       		.byte	0x60
 641 007d 30000000 		.4byte	0x30
 642 0081 05       		.uleb128 0x5
 643 0082 93010000 		.4byte	.LASF11
 644 0086 02       		.byte	0x2
 645 0087 2B01     		.2byte	0x12b
 646 0089 8D000000 		.4byte	0x8d
 647 008d 06       		.uleb128 0x6
 648 008e 04       		.byte	0x4
 649 008f 93000000 		.4byte	0x93
 650 0093 07       		.uleb128 0x7
 651 0094 01       		.byte	0x1
 652 0095 08       		.uleb128 0x8
 653 0096 04       		.byte	0x4
 654 0097 07       		.byte	0x7
 655 0098 09       		.uleb128 0x9
 656 0099 01       		.byte	0x1
 657 009a F3010000 		.4byte	.LASF16
 658 009e 01       		.byte	0x1
 659 009f 3701     		.2byte	0x137
 660 00a1 01       		.byte	0x1
 661 00a2 01       		.byte	0x1
 662 00a3 0A       		.uleb128 0xa
 663 00a4 01       		.byte	0x1
 664 00a5 0E000000 		.4byte	.LASF12
 665 00a9 01       		.byte	0x1
ARM GAS  C:\Users\SUZUKI~1\AppData\Local\Temp\ccsGMWBs.s 			page 19


 666 00aa A6       		.byte	0xa6
 667 00ab 01       		.byte	0x1
 668 00ac 01       		.byte	0x1
 669 00ad C8000000 		.4byte	0xc8
 670 00b1 0B       		.uleb128 0xb
 671 00b2 64010000 		.4byte	.LASF14
 672 00b6 01       		.byte	0x1
 673 00b7 A6       		.byte	0xa6
 674 00b8 81000000 		.4byte	0x81
 675 00bc 0C       		.uleb128 0xc
 676 00bd B1010000 		.4byte	.LASF23
 677 00c1 01       		.byte	0x1
 678 00c2 A8       		.byte	0xa8
 679 00c3 C8000000 		.4byte	0xc8
 680 00c7 00       		.byte	0x0
 681 00c8 06       		.uleb128 0x6
 682 00c9 04       		.byte	0x4
 683 00ca 81000000 		.4byte	0x81
 684 00ce 0A       		.uleb128 0xa
 685 00cf 01       		.byte	0x1
 686 00d0 CA010000 		.4byte	.LASF13
 687 00d4 01       		.byte	0x1
 688 00d5 DC       		.byte	0xdc
 689 00d6 01       		.byte	0x1
 690 00d7 01       		.byte	0x1
 691 00d8 E8000000 		.4byte	0xe8
 692 00dc 0B       		.uleb128 0xb
 693 00dd EE000000 		.4byte	.LASF15
 694 00e1 01       		.byte	0x1
 695 00e2 DC       		.byte	0xdc
 696 00e3 76000000 		.4byte	0x76
 697 00e7 00       		.byte	0x0
 698 00e8 09       		.uleb128 0x9
 699 00e9 01       		.byte	0x1
 700 00ea D9000000 		.4byte	.LASF17
 701 00ee 01       		.byte	0x1
 702 00ef 0B01     		.2byte	0x10b
 703 00f1 01       		.byte	0x1
 704 00f2 01       		.byte	0x1
 705 00f3 0D       		.uleb128 0xd
 706 00f4 01       		.byte	0x1
 707 00f5 20000000 		.4byte	.LASF18
 708 00f9 01       		.byte	0x1
 709 00fa 38       		.byte	0x38
 710 00fb 01       		.byte	0x1
 711 00fc 00000000 		.4byte	.LFB0
 712 0100 3E000000 		.4byte	.LFE0
 713 0104 00000000 		.4byte	.LLST0
 714 0108 6A010000 		.4byte	0x16a
 715 010c 0E       		.uleb128 0xe
 716 010d A3000000 		.4byte	0xa3
 717 0111 02000000 		.4byte	.LBB22
 718 0115 00000000 		.4byte	.Ldebug_ranges0+0x0
 719 0119 01       		.byte	0x1
 720 011a 3E       		.byte	0x3e
 721 011b 32010000 		.4byte	0x132
 722 011f 0F       		.uleb128 0xf
ARM GAS  C:\Users\SUZUKI~1\AppData\Local\Temp\ccsGMWBs.s 			page 20


 723 0120 B1000000 		.4byte	0xb1
 724 0124 10       		.uleb128 0x10
 725 0125 30000000 		.4byte	.Ldebug_ranges0+0x30
 726 0129 11       		.uleb128 0x11
 727 012a BC000000 		.4byte	0xbc
 728 012e 01       		.byte	0x1
 729 012f 55       		.byte	0x55
 730 0130 00       		.byte	0x0
 731 0131 00       		.byte	0x0
 732 0132 12       		.uleb128 0x12
 733 0133 98000000 		.4byte	0x98
 734 0137 0A000000 		.4byte	.LBB28
 735 013b 60000000 		.4byte	.Ldebug_ranges0+0x60
 736 013f 01       		.byte	0x1
 737 0140 3B       		.byte	0x3b
 738 0141 0E       		.uleb128 0xe
 739 0142 CE000000 		.4byte	0xce
 740 0146 1A000000 		.4byte	.LBB35
 741 014a 80000000 		.4byte	.Ldebug_ranges0+0x80
 742 014e 01       		.byte	0x1
 743 014f 41       		.byte	0x41
 744 0150 5A010000 		.4byte	0x15a
 745 0154 0F       		.uleb128 0xf
 746 0155 DC000000 		.4byte	0xdc
 747 0159 00       		.byte	0x0
 748 015a 12       		.uleb128 0x12
 749 015b E8000000 		.4byte	0xe8
 750 015f 1E000000 		.4byte	.LBB40
 751 0163 A8000000 		.4byte	.Ldebug_ranges0+0xa8
 752 0167 01       		.byte	0x1
 753 0168 44       		.byte	0x44
 754 0169 00       		.byte	0x0
 755 016a 0D       		.uleb128 0xd
 756 016b 01       		.byte	0x1
 757 016c 83010000 		.4byte	.LASF19
 758 0170 01       		.byte	0x1
 759 0171 55       		.byte	0x55
 760 0172 01       		.byte	0x1
 761 0173 00000000 		.4byte	.LFB1
 762 0177 36000000 		.4byte	.LFE1
 763 017b 1F000000 		.4byte	.LLST1
 764 017f EE010000 		.4byte	0x1ee
 765 0183 13       		.uleb128 0x13
 766 0184 64010000 		.4byte	.LASF14
 767 0188 01       		.byte	0x1
 768 0189 55       		.byte	0x55
 769 018a 81000000 		.4byte	0x81
 770 018e 01       		.byte	0x1
 771 018f 50       		.byte	0x50
 772 0190 0E       		.uleb128 0xe
 773 0191 A3000000 		.4byte	0xa3
 774 0195 02000000 		.4byte	.LBB52
 775 0199 C8000000 		.4byte	.Ldebug_ranges0+0xc8
 776 019d 01       		.byte	0x1
 777 019e 5B       		.byte	0x5b
 778 019f B6010000 		.4byte	0x1b6
 779 01a3 0F       		.uleb128 0xf
ARM GAS  C:\Users\SUZUKI~1\AppData\Local\Temp\ccsGMWBs.s 			page 21


 780 01a4 B1000000 		.4byte	0xb1
 781 01a8 10       		.uleb128 0x10
 782 01a9 E8000000 		.4byte	.Ldebug_ranges0+0xe8
 783 01ad 11       		.uleb128 0x11
 784 01ae BC000000 		.4byte	0xbc
 785 01b2 01       		.byte	0x1
 786 01b3 55       		.byte	0x55
 787 01b4 00       		.byte	0x0
 788 01b5 00       		.byte	0x0
 789 01b6 12       		.uleb128 0x12
 790 01b7 98000000 		.4byte	0x98
 791 01bb 0A000000 		.4byte	.LBB56
 792 01bf 08010000 		.4byte	.Ldebug_ranges0+0x108
 793 01c3 01       		.byte	0x1
 794 01c4 58       		.byte	0x58
 795 01c5 0E       		.uleb128 0xe
 796 01c6 CE000000 		.4byte	0xce
 797 01ca 16000000 		.4byte	.LBB62
 798 01ce 28010000 		.4byte	.Ldebug_ranges0+0x128
 799 01d2 01       		.byte	0x1
 800 01d3 5E       		.byte	0x5e
 801 01d4 DE010000 		.4byte	0x1de
 802 01d8 0F       		.uleb128 0xf
 803 01d9 DC000000 		.4byte	0xdc
 804 01dd 00       		.byte	0x0
 805 01de 12       		.uleb128 0x12
 806 01df E8000000 		.4byte	0xe8
 807 01e3 1A000000 		.4byte	.LBB67
 808 01e7 50010000 		.4byte	.Ldebug_ranges0+0x150
 809 01eb 01       		.byte	0x1
 810 01ec 61       		.byte	0x61
 811 01ed 00       		.byte	0x0
 812 01ee 14       		.uleb128 0x14
 813 01ef 01       		.byte	0x1
 814 01f0 78000000 		.4byte	.LASF20
 815 01f4 01       		.byte	0x1
 816 01f5 71       		.byte	0x71
 817 01f6 01       		.byte	0x1
 818 01f7 00000000 		.4byte	.LFB2
 819 01fb 22000000 		.4byte	.LFE2
 820 01ff 01       		.byte	0x1
 821 0200 5D       		.byte	0x5d
 822 0201 3B020000 		.4byte	0x23b
 823 0205 0E       		.uleb128 0xe
 824 0206 A3000000 		.4byte	0xa3
 825 020a 00000000 		.4byte	.LBB78
 826 020e 70010000 		.4byte	.Ldebug_ranges0+0x170
 827 0212 01       		.byte	0x1
 828 0213 77       		.byte	0x77
 829 0214 2B020000 		.4byte	0x22b
 830 0218 0F       		.uleb128 0xf
 831 0219 B1000000 		.4byte	0xb1
 832 021d 10       		.uleb128 0x10
 833 021e 98010000 		.4byte	.Ldebug_ranges0+0x198
 834 0222 11       		.uleb128 0x11
 835 0223 BC000000 		.4byte	0xbc
 836 0227 01       		.byte	0x1
ARM GAS  C:\Users\SUZUKI~1\AppData\Local\Temp\ccsGMWBs.s 			page 22


 837 0228 51       		.byte	0x51
 838 0229 00       		.byte	0x0
 839 022a 00       		.byte	0x0
 840 022b 12       		.uleb128 0x12
 841 022c 98000000 		.4byte	0x98
 842 0230 0A000000 		.4byte	.LBB83
 843 0234 C0010000 		.4byte	.Ldebug_ranges0+0x1c0
 844 0238 01       		.byte	0x1
 845 0239 74       		.byte	0x74
 846 023a 00       		.byte	0x0
 847 023b 15       		.uleb128 0x15
 848 023c 01       		.byte	0x1
 849 023d 32010000 		.4byte	.LASF24
 850 0241 01       		.byte	0x1
 851 0242 8C       		.byte	0x8c
 852 0243 01       		.byte	0x1
 853 0244 00000000 		.4byte	.LFB3
 854 0248 02000000 		.4byte	.LFE3
 855 024c 01       		.byte	0x1
 856 024d 5D       		.byte	0x5d
 857 024e 16       		.uleb128 0x16
 858 024f A3000000 		.4byte	0xa3
 859 0253 00000000 		.4byte	.LFB4
 860 0257 0E000000 		.4byte	.LFE4
 861 025b 01       		.byte	0x1
 862 025c 5D       		.byte	0x5d
 863 025d 70020000 		.4byte	0x270
 864 0261 17       		.uleb128 0x17
 865 0262 B1000000 		.4byte	0xb1
 866 0266 01       		.byte	0x1
 867 0267 50       		.byte	0x50
 868 0268 11       		.uleb128 0x11
 869 0269 BC000000 		.4byte	0xbc
 870 026d 01       		.byte	0x1
 871 026e 53       		.byte	0x53
 872 026f 00       		.byte	0x0
 873 0270 18       		.uleb128 0x18
 874 0271 01       		.byte	0x1
 875 0272 20010000 		.4byte	.LASF21
 876 0276 01       		.byte	0x1
 877 0277 BF       		.byte	0xbf
 878 0278 01       		.byte	0x1
 879 0279 81000000 		.4byte	0x81
 880 027d 00000000 		.4byte	.LFB5
 881 0281 0E000000 		.4byte	.LFE5
 882 0285 01       		.byte	0x1
 883 0286 5D       		.byte	0x5d
 884 0287 99020000 		.4byte	0x299
 885 028b 19       		.uleb128 0x19
 886 028c B1010000 		.4byte	.LASF23
 887 0290 01       		.byte	0x1
 888 0291 C1       		.byte	0xc1
 889 0292 C8000000 		.4byte	0xc8
 890 0296 01       		.byte	0x1
 891 0297 53       		.byte	0x53
 892 0298 00       		.byte	0x0
 893 0299 16       		.uleb128 0x16
ARM GAS  C:\Users\SUZUKI~1\AppData\Local\Temp\ccsGMWBs.s 			page 23


 894 029a CE000000 		.4byte	0xce
 895 029e 00000000 		.4byte	.LFB6
 896 02a2 10000000 		.4byte	.LFE6
 897 02a6 01       		.byte	0x1
 898 02a7 5D       		.byte	0x5d
 899 02a8 B6020000 		.4byte	0x2b6
 900 02ac 1A       		.uleb128 0x1a
 901 02ad DC000000 		.4byte	0xdc
 902 02b1 3E000000 		.4byte	.LLST7
 903 02b5 00       		.byte	0x0
 904 02b6 18       		.uleb128 0x18
 905 02b7 01       		.byte	0x1
 906 02b8 F7000000 		.4byte	.LASF22
 907 02bc 01       		.byte	0x1
 908 02bd F1       		.byte	0xf1
 909 02be 01       		.byte	0x1
 910 02bf 76000000 		.4byte	0x76
 911 02c3 00000000 		.4byte	.LFB7
 912 02c7 0E000000 		.4byte	.LFE7
 913 02cb 01       		.byte	0x1
 914 02cc 5D       		.byte	0x5d
 915 02cd DD020000 		.4byte	0x2dd
 916 02d1 0C       		.uleb128 0xc
 917 02d2 EE000000 		.4byte	.LASF15
 918 02d6 01       		.byte	0x1
 919 02d7 F3       		.byte	0xf3
 920 02d8 76000000 		.4byte	0x76
 921 02dc 00       		.byte	0x0
 922 02dd 1B       		.uleb128 0x1b
 923 02de E8000000 		.4byte	0xe8
 924 02e2 00000000 		.4byte	.LFB8
 925 02e6 0E000000 		.4byte	.LFE8
 926 02ea 01       		.byte	0x1
 927 02eb 5D       		.byte	0x5d
 928 02ec 1C       		.uleb128 0x1c
 929 02ed 01       		.byte	0x1
 930 02ee A8000000 		.4byte	.LASF30
 931 02f2 01       		.byte	0x1
 932 02f3 2101     		.2byte	0x121
 933 02f5 01       		.byte	0x1
 934 02f6 76000000 		.4byte	0x76
 935 02fa 00000000 		.4byte	.LFB9
 936 02fe 10000000 		.4byte	.LFE9
 937 0302 01       		.byte	0x1
 938 0303 5D       		.byte	0x5d
 939 0304 1B       		.uleb128 0x1b
 940 0305 98000000 		.4byte	0x98
 941 0309 00000000 		.4byte	.LFB10
 942 030d 0E000000 		.4byte	.LFE10
 943 0311 01       		.byte	0x1
 944 0312 5D       		.byte	0x5d
 945 0313 1D       		.uleb128 0x1d
 946 0314 01       		.byte	0x1
 947 0315 44010000 		.4byte	.LASF25
 948 0319 01       		.byte	0x1
 949 031a 4E01     		.2byte	0x14e
 950 031c 01       		.byte	0x1
ARM GAS  C:\Users\SUZUKI~1\AppData\Local\Temp\ccsGMWBs.s 			page 24


 951 031d 00000000 		.4byte	.LFB11
 952 0321 0E000000 		.4byte	.LFE11
 953 0325 01       		.byte	0x1
 954 0326 5D       		.byte	0x5d
 955 0327 1D       		.uleb128 0x1d
 956 0328 01       		.byte	0x1
 957 0329 0B010000 		.4byte	.LASF26
 958 032d 01       		.byte	0x1
 959 032e 6201     		.2byte	0x162
 960 0330 01       		.byte	0x1
 961 0331 00000000 		.4byte	.LFB12
 962 0335 0E000000 		.4byte	.LFE12
 963 0339 01       		.byte	0x1
 964 033a 5D       		.byte	0x5d
 965 033b 00       		.byte	0x0
 966              		.section	.debug_abbrev
 967 0000 01       		.uleb128 0x1
 968 0001 11       		.uleb128 0x11
 969 0002 01       		.byte	0x1
 970 0003 25       		.uleb128 0x25
 971 0004 0E       		.uleb128 0xe
 972 0005 13       		.uleb128 0x13
 973 0006 0B       		.uleb128 0xb
 974 0007 03       		.uleb128 0x3
 975 0008 0E       		.uleb128 0xe
 976 0009 1B       		.uleb128 0x1b
 977 000a 0E       		.uleb128 0xe
 978 000b 11       		.uleb128 0x11
 979 000c 01       		.uleb128 0x1
 980 000d 52       		.uleb128 0x52
 981 000e 01       		.uleb128 0x1
 982 000f 55       		.uleb128 0x55
 983 0010 06       		.uleb128 0x6
 984 0011 10       		.uleb128 0x10
 985 0012 06       		.uleb128 0x6
 986 0013 00       		.byte	0x0
 987 0014 00       		.byte	0x0
 988 0015 02       		.uleb128 0x2
 989 0016 24       		.uleb128 0x24
 990 0017 00       		.byte	0x0
 991 0018 0B       		.uleb128 0xb
 992 0019 0B       		.uleb128 0xb
 993 001a 3E       		.uleb128 0x3e
 994 001b 0B       		.uleb128 0xb
 995 001c 03       		.uleb128 0x3
 996 001d 0E       		.uleb128 0xe
 997 001e 00       		.byte	0x0
 998 001f 00       		.byte	0x0
 999 0020 03       		.uleb128 0x3
 1000 0021 24       		.uleb128 0x24
 1001 0022 00       		.byte	0x0
 1002 0023 0B       		.uleb128 0xb
 1003 0024 0B       		.uleb128 0xb
 1004 0025 3E       		.uleb128 0x3e
 1005 0026 0B       		.uleb128 0xb
 1006 0027 03       		.uleb128 0x3
 1007 0028 08       		.uleb128 0x8
ARM GAS  C:\Users\SUZUKI~1\AppData\Local\Temp\ccsGMWBs.s 			page 25


 1008 0029 00       		.byte	0x0
 1009 002a 00       		.byte	0x0
 1010 002b 04       		.uleb128 0x4
 1011 002c 16       		.uleb128 0x16
 1012 002d 00       		.byte	0x0
 1013 002e 03       		.uleb128 0x3
 1014 002f 0E       		.uleb128 0xe
 1015 0030 3A       		.uleb128 0x3a
 1016 0031 0B       		.uleb128 0xb
 1017 0032 3B       		.uleb128 0x3b
 1018 0033 0B       		.uleb128 0xb
 1019 0034 49       		.uleb128 0x49
 1020 0035 13       		.uleb128 0x13
 1021 0036 00       		.byte	0x0
 1022 0037 00       		.byte	0x0
 1023 0038 05       		.uleb128 0x5
 1024 0039 16       		.uleb128 0x16
 1025 003a 00       		.byte	0x0
 1026 003b 03       		.uleb128 0x3
 1027 003c 0E       		.uleb128 0xe
 1028 003d 3A       		.uleb128 0x3a
 1029 003e 0B       		.uleb128 0xb
 1030 003f 3B       		.uleb128 0x3b
 1031 0040 05       		.uleb128 0x5
 1032 0041 49       		.uleb128 0x49
 1033 0042 13       		.uleb128 0x13
 1034 0043 00       		.byte	0x0
 1035 0044 00       		.byte	0x0
 1036 0045 06       		.uleb128 0x6
 1037 0046 0F       		.uleb128 0xf
 1038 0047 00       		.byte	0x0
 1039 0048 0B       		.uleb128 0xb
 1040 0049 0B       		.uleb128 0xb
 1041 004a 49       		.uleb128 0x49
 1042 004b 13       		.uleb128 0x13
 1043 004c 00       		.byte	0x0
 1044 004d 00       		.byte	0x0
 1045 004e 07       		.uleb128 0x7
 1046 004f 15       		.uleb128 0x15
 1047 0050 00       		.byte	0x0
 1048 0051 27       		.uleb128 0x27
 1049 0052 0C       		.uleb128 0xc
 1050 0053 00       		.byte	0x0
 1051 0054 00       		.byte	0x0
 1052 0055 08       		.uleb128 0x8
 1053 0056 24       		.uleb128 0x24
 1054 0057 00       		.byte	0x0
 1055 0058 0B       		.uleb128 0xb
 1056 0059 0B       		.uleb128 0xb
 1057 005a 3E       		.uleb128 0x3e
 1058 005b 0B       		.uleb128 0xb
 1059 005c 00       		.byte	0x0
 1060 005d 00       		.byte	0x0
 1061 005e 09       		.uleb128 0x9
 1062 005f 2E       		.uleb128 0x2e
 1063 0060 00       		.byte	0x0
 1064 0061 3F       		.uleb128 0x3f
ARM GAS  C:\Users\SUZUKI~1\AppData\Local\Temp\ccsGMWBs.s 			page 26


 1065 0062 0C       		.uleb128 0xc
 1066 0063 03       		.uleb128 0x3
 1067 0064 0E       		.uleb128 0xe
 1068 0065 3A       		.uleb128 0x3a
 1069 0066 0B       		.uleb128 0xb
 1070 0067 3B       		.uleb128 0x3b
 1071 0068 05       		.uleb128 0x5
 1072 0069 27       		.uleb128 0x27
 1073 006a 0C       		.uleb128 0xc
 1074 006b 20       		.uleb128 0x20
 1075 006c 0B       		.uleb128 0xb
 1076 006d 00       		.byte	0x0
 1077 006e 00       		.byte	0x0
 1078 006f 0A       		.uleb128 0xa
 1079 0070 2E       		.uleb128 0x2e
 1080 0071 01       		.byte	0x1
 1081 0072 3F       		.uleb128 0x3f
 1082 0073 0C       		.uleb128 0xc
 1083 0074 03       		.uleb128 0x3
 1084 0075 0E       		.uleb128 0xe
 1085 0076 3A       		.uleb128 0x3a
 1086 0077 0B       		.uleb128 0xb
 1087 0078 3B       		.uleb128 0x3b
 1088 0079 0B       		.uleb128 0xb
 1089 007a 27       		.uleb128 0x27
 1090 007b 0C       		.uleb128 0xc
 1091 007c 20       		.uleb128 0x20
 1092 007d 0B       		.uleb128 0xb
 1093 007e 01       		.uleb128 0x1
 1094 007f 13       		.uleb128 0x13
 1095 0080 00       		.byte	0x0
 1096 0081 00       		.byte	0x0
 1097 0082 0B       		.uleb128 0xb
 1098 0083 05       		.uleb128 0x5
 1099 0084 00       		.byte	0x0
 1100 0085 03       		.uleb128 0x3
 1101 0086 0E       		.uleb128 0xe
 1102 0087 3A       		.uleb128 0x3a
 1103 0088 0B       		.uleb128 0xb
 1104 0089 3B       		.uleb128 0x3b
 1105 008a 0B       		.uleb128 0xb
 1106 008b 49       		.uleb128 0x49
 1107 008c 13       		.uleb128 0x13
 1108 008d 00       		.byte	0x0
 1109 008e 00       		.byte	0x0
 1110 008f 0C       		.uleb128 0xc
 1111 0090 34       		.uleb128 0x34
 1112 0091 00       		.byte	0x0
 1113 0092 03       		.uleb128 0x3
 1114 0093 0E       		.uleb128 0xe
 1115 0094 3A       		.uleb128 0x3a
 1116 0095 0B       		.uleb128 0xb
 1117 0096 3B       		.uleb128 0x3b
 1118 0097 0B       		.uleb128 0xb
 1119 0098 49       		.uleb128 0x49
 1120 0099 13       		.uleb128 0x13
 1121 009a 00       		.byte	0x0
ARM GAS  C:\Users\SUZUKI~1\AppData\Local\Temp\ccsGMWBs.s 			page 27


 1122 009b 00       		.byte	0x0
 1123 009c 0D       		.uleb128 0xd
 1124 009d 2E       		.uleb128 0x2e
 1125 009e 01       		.byte	0x1
 1126 009f 3F       		.uleb128 0x3f
 1127 00a0 0C       		.uleb128 0xc
 1128 00a1 03       		.uleb128 0x3
 1129 00a2 0E       		.uleb128 0xe
 1130 00a3 3A       		.uleb128 0x3a
 1131 00a4 0B       		.uleb128 0xb
 1132 00a5 3B       		.uleb128 0x3b
 1133 00a6 0B       		.uleb128 0xb
 1134 00a7 27       		.uleb128 0x27
 1135 00a8 0C       		.uleb128 0xc
 1136 00a9 11       		.uleb128 0x11
 1137 00aa 01       		.uleb128 0x1
 1138 00ab 12       		.uleb128 0x12
 1139 00ac 01       		.uleb128 0x1
 1140 00ad 40       		.uleb128 0x40
 1141 00ae 06       		.uleb128 0x6
 1142 00af 01       		.uleb128 0x1
 1143 00b0 13       		.uleb128 0x13
 1144 00b1 00       		.byte	0x0
 1145 00b2 00       		.byte	0x0
 1146 00b3 0E       		.uleb128 0xe
 1147 00b4 1D       		.uleb128 0x1d
 1148 00b5 01       		.byte	0x1
 1149 00b6 31       		.uleb128 0x31
 1150 00b7 13       		.uleb128 0x13
 1151 00b8 52       		.uleb128 0x52
 1152 00b9 01       		.uleb128 0x1
 1153 00ba 55       		.uleb128 0x55
 1154 00bb 06       		.uleb128 0x6
 1155 00bc 58       		.uleb128 0x58
 1156 00bd 0B       		.uleb128 0xb
 1157 00be 59       		.uleb128 0x59
 1158 00bf 0B       		.uleb128 0xb
 1159 00c0 01       		.uleb128 0x1
 1160 00c1 13       		.uleb128 0x13
 1161 00c2 00       		.byte	0x0
 1162 00c3 00       		.byte	0x0
 1163 00c4 0F       		.uleb128 0xf
 1164 00c5 05       		.uleb128 0x5
 1165 00c6 00       		.byte	0x0
 1166 00c7 31       		.uleb128 0x31
 1167 00c8 13       		.uleb128 0x13
 1168 00c9 00       		.byte	0x0
 1169 00ca 00       		.byte	0x0
 1170 00cb 10       		.uleb128 0x10
 1171 00cc 0B       		.uleb128 0xb
 1172 00cd 01       		.byte	0x1
 1173 00ce 55       		.uleb128 0x55
 1174 00cf 06       		.uleb128 0x6
 1175 00d0 00       		.byte	0x0
 1176 00d1 00       		.byte	0x0
 1177 00d2 11       		.uleb128 0x11
 1178 00d3 34       		.uleb128 0x34
ARM GAS  C:\Users\SUZUKI~1\AppData\Local\Temp\ccsGMWBs.s 			page 28


 1179 00d4 00       		.byte	0x0
 1180 00d5 31       		.uleb128 0x31
 1181 00d6 13       		.uleb128 0x13
 1182 00d7 02       		.uleb128 0x2
 1183 00d8 0A       		.uleb128 0xa
 1184 00d9 00       		.byte	0x0
 1185 00da 00       		.byte	0x0
 1186 00db 12       		.uleb128 0x12
 1187 00dc 1D       		.uleb128 0x1d
 1188 00dd 00       		.byte	0x0
 1189 00de 31       		.uleb128 0x31
 1190 00df 13       		.uleb128 0x13
 1191 00e0 52       		.uleb128 0x52
 1192 00e1 01       		.uleb128 0x1
 1193 00e2 55       		.uleb128 0x55
 1194 00e3 06       		.uleb128 0x6
 1195 00e4 58       		.uleb128 0x58
 1196 00e5 0B       		.uleb128 0xb
 1197 00e6 59       		.uleb128 0x59
 1198 00e7 0B       		.uleb128 0xb
 1199 00e8 00       		.byte	0x0
 1200 00e9 00       		.byte	0x0
 1201 00ea 13       		.uleb128 0x13
 1202 00eb 05       		.uleb128 0x5
 1203 00ec 00       		.byte	0x0
 1204 00ed 03       		.uleb128 0x3
 1205 00ee 0E       		.uleb128 0xe
 1206 00ef 3A       		.uleb128 0x3a
 1207 00f0 0B       		.uleb128 0xb
 1208 00f1 3B       		.uleb128 0x3b
 1209 00f2 0B       		.uleb128 0xb
 1210 00f3 49       		.uleb128 0x49
 1211 00f4 13       		.uleb128 0x13
 1212 00f5 02       		.uleb128 0x2
 1213 00f6 0A       		.uleb128 0xa
 1214 00f7 00       		.byte	0x0
 1215 00f8 00       		.byte	0x0
 1216 00f9 14       		.uleb128 0x14
 1217 00fa 2E       		.uleb128 0x2e
 1218 00fb 01       		.byte	0x1
 1219 00fc 3F       		.uleb128 0x3f
 1220 00fd 0C       		.uleb128 0xc
 1221 00fe 03       		.uleb128 0x3
 1222 00ff 0E       		.uleb128 0xe
 1223 0100 3A       		.uleb128 0x3a
 1224 0101 0B       		.uleb128 0xb
 1225 0102 3B       		.uleb128 0x3b
 1226 0103 0B       		.uleb128 0xb
 1227 0104 27       		.uleb128 0x27
 1228 0105 0C       		.uleb128 0xc
 1229 0106 11       		.uleb128 0x11
 1230 0107 01       		.uleb128 0x1
 1231 0108 12       		.uleb128 0x12
 1232 0109 01       		.uleb128 0x1
 1233 010a 40       		.uleb128 0x40
 1234 010b 0A       		.uleb128 0xa
 1235 010c 01       		.uleb128 0x1
ARM GAS  C:\Users\SUZUKI~1\AppData\Local\Temp\ccsGMWBs.s 			page 29


 1236 010d 13       		.uleb128 0x13
 1237 010e 00       		.byte	0x0
 1238 010f 00       		.byte	0x0
 1239 0110 15       		.uleb128 0x15
 1240 0111 2E       		.uleb128 0x2e
 1241 0112 00       		.byte	0x0
 1242 0113 3F       		.uleb128 0x3f
 1243 0114 0C       		.uleb128 0xc
 1244 0115 03       		.uleb128 0x3
 1245 0116 0E       		.uleb128 0xe
 1246 0117 3A       		.uleb128 0x3a
 1247 0118 0B       		.uleb128 0xb
 1248 0119 3B       		.uleb128 0x3b
 1249 011a 0B       		.uleb128 0xb
 1250 011b 27       		.uleb128 0x27
 1251 011c 0C       		.uleb128 0xc
 1252 011d 11       		.uleb128 0x11
 1253 011e 01       		.uleb128 0x1
 1254 011f 12       		.uleb128 0x12
 1255 0120 01       		.uleb128 0x1
 1256 0121 40       		.uleb128 0x40
 1257 0122 0A       		.uleb128 0xa
 1258 0123 00       		.byte	0x0
 1259 0124 00       		.byte	0x0
 1260 0125 16       		.uleb128 0x16
 1261 0126 2E       		.uleb128 0x2e
 1262 0127 01       		.byte	0x1
 1263 0128 31       		.uleb128 0x31
 1264 0129 13       		.uleb128 0x13
 1265 012a 11       		.uleb128 0x11
 1266 012b 01       		.uleb128 0x1
 1267 012c 12       		.uleb128 0x12
 1268 012d 01       		.uleb128 0x1
 1269 012e 40       		.uleb128 0x40
 1270 012f 0A       		.uleb128 0xa
 1271 0130 01       		.uleb128 0x1
 1272 0131 13       		.uleb128 0x13
 1273 0132 00       		.byte	0x0
 1274 0133 00       		.byte	0x0
 1275 0134 17       		.uleb128 0x17
 1276 0135 05       		.uleb128 0x5
 1277 0136 00       		.byte	0x0
 1278 0137 31       		.uleb128 0x31
 1279 0138 13       		.uleb128 0x13
 1280 0139 02       		.uleb128 0x2
 1281 013a 0A       		.uleb128 0xa
 1282 013b 00       		.byte	0x0
 1283 013c 00       		.byte	0x0
 1284 013d 18       		.uleb128 0x18
 1285 013e 2E       		.uleb128 0x2e
 1286 013f 01       		.byte	0x1
 1287 0140 3F       		.uleb128 0x3f
 1288 0141 0C       		.uleb128 0xc
 1289 0142 03       		.uleb128 0x3
 1290 0143 0E       		.uleb128 0xe
 1291 0144 3A       		.uleb128 0x3a
 1292 0145 0B       		.uleb128 0xb
ARM GAS  C:\Users\SUZUKI~1\AppData\Local\Temp\ccsGMWBs.s 			page 30


 1293 0146 3B       		.uleb128 0x3b
 1294 0147 0B       		.uleb128 0xb
 1295 0148 27       		.uleb128 0x27
 1296 0149 0C       		.uleb128 0xc
 1297 014a 49       		.uleb128 0x49
 1298 014b 13       		.uleb128 0x13
 1299 014c 11       		.uleb128 0x11
 1300 014d 01       		.uleb128 0x1
 1301 014e 12       		.uleb128 0x12
 1302 014f 01       		.uleb128 0x1
 1303 0150 40       		.uleb128 0x40
 1304 0151 0A       		.uleb128 0xa
 1305 0152 01       		.uleb128 0x1
 1306 0153 13       		.uleb128 0x13
 1307 0154 00       		.byte	0x0
 1308 0155 00       		.byte	0x0
 1309 0156 19       		.uleb128 0x19
 1310 0157 34       		.uleb128 0x34
 1311 0158 00       		.byte	0x0
 1312 0159 03       		.uleb128 0x3
 1313 015a 0E       		.uleb128 0xe
 1314 015b 3A       		.uleb128 0x3a
 1315 015c 0B       		.uleb128 0xb
 1316 015d 3B       		.uleb128 0x3b
 1317 015e 0B       		.uleb128 0xb
 1318 015f 49       		.uleb128 0x49
 1319 0160 13       		.uleb128 0x13
 1320 0161 02       		.uleb128 0x2
 1321 0162 0A       		.uleb128 0xa
 1322 0163 00       		.byte	0x0
 1323 0164 00       		.byte	0x0
 1324 0165 1A       		.uleb128 0x1a
 1325 0166 05       		.uleb128 0x5
 1326 0167 00       		.byte	0x0
 1327 0168 31       		.uleb128 0x31
 1328 0169 13       		.uleb128 0x13
 1329 016a 02       		.uleb128 0x2
 1330 016b 06       		.uleb128 0x6
 1331 016c 00       		.byte	0x0
 1332 016d 00       		.byte	0x0
 1333 016e 1B       		.uleb128 0x1b
 1334 016f 2E       		.uleb128 0x2e
 1335 0170 00       		.byte	0x0
 1336 0171 31       		.uleb128 0x31
 1337 0172 13       		.uleb128 0x13
 1338 0173 11       		.uleb128 0x11
 1339 0174 01       		.uleb128 0x1
 1340 0175 12       		.uleb128 0x12
 1341 0176 01       		.uleb128 0x1
 1342 0177 40       		.uleb128 0x40
 1343 0178 0A       		.uleb128 0xa
 1344 0179 00       		.byte	0x0
 1345 017a 00       		.byte	0x0
 1346 017b 1C       		.uleb128 0x1c
 1347 017c 2E       		.uleb128 0x2e
 1348 017d 00       		.byte	0x0
 1349 017e 3F       		.uleb128 0x3f
ARM GAS  C:\Users\SUZUKI~1\AppData\Local\Temp\ccsGMWBs.s 			page 31


 1350 017f 0C       		.uleb128 0xc
 1351 0180 03       		.uleb128 0x3
 1352 0181 0E       		.uleb128 0xe
 1353 0182 3A       		.uleb128 0x3a
 1354 0183 0B       		.uleb128 0xb
 1355 0184 3B       		.uleb128 0x3b
 1356 0185 05       		.uleb128 0x5
 1357 0186 27       		.uleb128 0x27
 1358 0187 0C       		.uleb128 0xc
 1359 0188 49       		.uleb128 0x49
 1360 0189 13       		.uleb128 0x13
 1361 018a 11       		.uleb128 0x11
 1362 018b 01       		.uleb128 0x1
 1363 018c 12       		.uleb128 0x12
 1364 018d 01       		.uleb128 0x1
 1365 018e 40       		.uleb128 0x40
 1366 018f 0A       		.uleb128 0xa
 1367 0190 00       		.byte	0x0
 1368 0191 00       		.byte	0x0
 1369 0192 1D       		.uleb128 0x1d
 1370 0193 2E       		.uleb128 0x2e
 1371 0194 00       		.byte	0x0
 1372 0195 3F       		.uleb128 0x3f
 1373 0196 0C       		.uleb128 0xc
 1374 0197 03       		.uleb128 0x3
 1375 0198 0E       		.uleb128 0xe
 1376 0199 3A       		.uleb128 0x3a
 1377 019a 0B       		.uleb128 0xb
 1378 019b 3B       		.uleb128 0x3b
 1379 019c 05       		.uleb128 0x5
 1380 019d 27       		.uleb128 0x27
 1381 019e 0C       		.uleb128 0xc
 1382 019f 11       		.uleb128 0x11
 1383 01a0 01       		.uleb128 0x1
 1384 01a1 12       		.uleb128 0x12
 1385 01a2 01       		.uleb128 0x1
 1386 01a3 40       		.uleb128 0x40
 1387 01a4 0A       		.uleb128 0xa
 1388 01a5 00       		.byte	0x0
 1389 01a6 00       		.byte	0x0
 1390 01a7 00       		.byte	0x0
 1391              		.section	.debug_pubnames,"",%progbits
 1392 0000 23010000 		.4byte	0x123
 1393 0004 0200     		.2byte	0x2
 1394 0006 00000000 		.4byte	.Ldebug_info0
 1395 000a 3C030000 		.4byte	0x33c
 1396 000e F3000000 		.4byte	0xf3
 1397 0012 4952515F 		.ascii	"IRQ_ADC_Start\000"
 1397      4144435F 
 1397      53746172 
 1397      7400
 1398 0020 6A010000 		.4byte	0x16a
 1399 0024 4952515F 		.ascii	"IRQ_ADC_StartEx\000"
 1399      4144435F 
 1399      53746172 
 1399      74457800 
 1400 0034 EE010000 		.4byte	0x1ee
ARM GAS  C:\Users\SUZUKI~1\AppData\Local\Temp\ccsGMWBs.s 			page 32


 1401 0038 4952515F 		.ascii	"IRQ_ADC_Stop\000"
 1401      4144435F 
 1401      53746F70 
 1401      00
 1402 0045 3B020000 		.4byte	0x23b
 1403 0049 4952515F 		.ascii	"IRQ_ADC_Interrupt\000"
 1403      4144435F 
 1403      496E7465 
 1403      72727570 
 1403      7400
 1404 005b 4E020000 		.4byte	0x24e
 1405 005f 4952515F 		.ascii	"IRQ_ADC_SetVector\000"
 1405      4144435F 
 1405      53657456 
 1405      6563746F 
 1405      7200
 1406 0071 70020000 		.4byte	0x270
 1407 0075 4952515F 		.ascii	"IRQ_ADC_GetVector\000"
 1407      4144435F 
 1407      47657456 
 1407      6563746F 
 1407      7200
 1408 0087 99020000 		.4byte	0x299
 1409 008b 4952515F 		.ascii	"IRQ_ADC_SetPriority\000"
 1409      4144435F 
 1409      53657450 
 1409      72696F72 
 1409      69747900 
 1410 009f B6020000 		.4byte	0x2b6
 1411 00a3 4952515F 		.ascii	"IRQ_ADC_GetPriority\000"
 1411      4144435F 
 1411      47657450 
 1411      72696F72 
 1411      69747900 
 1412 00b7 DD020000 		.4byte	0x2dd
 1413 00bb 4952515F 		.ascii	"IRQ_ADC_Enable\000"
 1413      4144435F 
 1413      456E6162 
 1413      6C6500
 1414 00ca EC020000 		.4byte	0x2ec
 1415 00ce 4952515F 		.ascii	"IRQ_ADC_GetState\000"
 1415      4144435F 
 1415      47657453 
 1415      74617465 
 1415      00
 1416 00df 04030000 		.4byte	0x304
 1417 00e3 4952515F 		.ascii	"IRQ_ADC_Disable\000"
 1417      4144435F 
 1417      44697361 
 1417      626C6500 
 1418 00f3 13030000 		.4byte	0x313
 1419 00f7 4952515F 		.ascii	"IRQ_ADC_SetPending\000"
 1419      4144435F 
 1419      53657450 
 1419      656E6469 
 1419      6E6700
 1420 010a 27030000 		.4byte	0x327
ARM GAS  C:\Users\SUZUKI~1\AppData\Local\Temp\ccsGMWBs.s 			page 33


 1421 010e 4952515F 		.ascii	"IRQ_ADC_ClearPending\000"
 1421      4144435F 
 1421      436C6561 
 1421      7250656E 
 1421      64696E67 
 1422 0123 00000000 		.4byte	0x0
 1423              		.section	.debug_aranges,"",%progbits
 1424 0000 7C000000 		.4byte	0x7c
 1425 0004 0200     		.2byte	0x2
 1426 0006 00000000 		.4byte	.Ldebug_info0
 1427 000a 04       		.byte	0x4
 1428 000b 00       		.byte	0x0
 1429 000c 0000     		.2byte	0x0
 1430 000e 0000     		.2byte	0x0
 1431 0010 00000000 		.4byte	.LFB0
 1432 0014 3E000000 		.4byte	.LFE0-.LFB0
 1433 0018 00000000 		.4byte	.LFB1
 1434 001c 36000000 		.4byte	.LFE1-.LFB1
 1435 0020 00000000 		.4byte	.LFB2
 1436 0024 22000000 		.4byte	.LFE2-.LFB2
 1437 0028 00000000 		.4byte	.LFB3
 1438 002c 02000000 		.4byte	.LFE3-.LFB3
 1439 0030 00000000 		.4byte	.LFB4
 1440 0034 0E000000 		.4byte	.LFE4-.LFB4
 1441 0038 00000000 		.4byte	.LFB5
 1442 003c 0E000000 		.4byte	.LFE5-.LFB5
 1443 0040 00000000 		.4byte	.LFB6
 1444 0044 10000000 		.4byte	.LFE6-.LFB6
 1445 0048 00000000 		.4byte	.LFB7
 1446 004c 0E000000 		.4byte	.LFE7-.LFB7
 1447 0050 00000000 		.4byte	.LFB8
 1448 0054 0E000000 		.4byte	.LFE8-.LFB8
 1449 0058 00000000 		.4byte	.LFB9
 1450 005c 10000000 		.4byte	.LFE9-.LFB9
 1451 0060 00000000 		.4byte	.LFB10
 1452 0064 0E000000 		.4byte	.LFE10-.LFB10
 1453 0068 00000000 		.4byte	.LFB11
 1454 006c 0E000000 		.4byte	.LFE11-.LFB11
 1455 0070 00000000 		.4byte	.LFB12
 1456 0074 0E000000 		.4byte	.LFE12-.LFB12
 1457 0078 00000000 		.4byte	0x0
 1458 007c 00000000 		.4byte	0x0
 1459              		.section	.debug_ranges,"",%progbits
 1460              	.Ldebug_ranges0:
 1461 0000 02000000 		.4byte	.LBB22
 1462 0004 0A000000 		.4byte	.LBE22
 1463 0008 34000000 		.4byte	.LBB49
 1464 000c 36000000 		.4byte	.LBE49
 1465 0010 24000000 		.4byte	.LBB45
 1466 0014 28000000 		.4byte	.LBE45
 1467 0018 16000000 		.4byte	.LBB34
 1468 001c 1A000000 		.4byte	.LBE34
 1469 0020 0E000000 		.4byte	.LBB32
 1470 0024 10000000 		.4byte	.LBE32
 1471 0028 00000000 		.4byte	0x0
 1472 002c 00000000 		.4byte	0x0
 1473 0030 02000000 		.4byte	.LBB25
ARM GAS  C:\Users\SUZUKI~1\AppData\Local\Temp\ccsGMWBs.s 			page 34


 1474 0034 0A000000 		.4byte	.LBE25
 1475 0038 34000000 		.4byte	.LBB27
 1476 003c 36000000 		.4byte	.LBE27
 1477 0040 24000000 		.4byte	.LBB23
 1478 0044 28000000 		.4byte	.LBE23
 1479 0048 16000000 		.4byte	.LBB26
 1480 004c 1A000000 		.4byte	.LBE26
 1481 0050 0E000000 		.4byte	.LBB24
 1482 0054 10000000 		.4byte	.LBE24
 1483 0058 00000000 		.4byte	0x0
 1484 005c 00000000 		.4byte	0x0
 1485 0060 0A000000 		.4byte	.LBB28
 1486 0064 0E000000 		.4byte	.LBE28
 1487 0068 22000000 		.4byte	.LBB44
 1488 006c 24000000 		.4byte	.LBE44
 1489 0070 10000000 		.4byte	.LBB33
 1490 0074 16000000 		.4byte	.LBE33
 1491 0078 00000000 		.4byte	0x0
 1492 007c 00000000 		.4byte	0x0
 1493 0080 1A000000 		.4byte	.LBB35
 1494 0084 1E000000 		.4byte	.LBE35
 1495 0088 36000000 		.4byte	.LBB50
 1496 008c 38000000 		.4byte	.LBE50
 1497 0090 30000000 		.4byte	.LBB48
 1498 0094 34000000 		.4byte	.LBE48
 1499 0098 28000000 		.4byte	.LBB46
 1500 009c 2C000000 		.4byte	.LBE46
 1501 00a0 00000000 		.4byte	0x0
 1502 00a4 00000000 		.4byte	0x0
 1503 00a8 1E000000 		.4byte	.LBB40
 1504 00ac 22000000 		.4byte	.LBE40
 1505 00b0 38000000 		.4byte	.LBB51
 1506 00b4 3A000000 		.4byte	.LBE51
 1507 00b8 2C000000 		.4byte	.LBB47
 1508 00bc 30000000 		.4byte	.LBE47
 1509 00c0 00000000 		.4byte	0x0
 1510 00c4 00000000 		.4byte	0x0
 1511 00c8 02000000 		.4byte	.LBB52
 1512 00cc 0A000000 		.4byte	.LBE52
 1513 00d0 2C000000 		.4byte	.LBB75
 1514 00d4 2E000000 		.4byte	.LBE75
 1515 00d8 0E000000 		.4byte	.LBB60
 1516 00dc 10000000 		.4byte	.LBE60
 1517 00e0 00000000 		.4byte	0x0
 1518 00e4 00000000 		.4byte	0x0
 1519 00e8 02000000 		.4byte	.LBB54
 1520 00ec 0A000000 		.4byte	.LBE54
 1521 00f0 2C000000 		.4byte	.LBB55
 1522 00f4 2E000000 		.4byte	.LBE55
 1523 00f8 0E000000 		.4byte	.LBB53
 1524 00fc 10000000 		.4byte	.LBE53
 1525 0100 00000000 		.4byte	0x0
 1526 0104 00000000 		.4byte	0x0
 1527 0108 0A000000 		.4byte	.LBB56
 1528 010c 0E000000 		.4byte	.LBE56
 1529 0110 1E000000 		.4byte	.LBB71
 1530 0114 20000000 		.4byte	.LBE71
ARM GAS  C:\Users\SUZUKI~1\AppData\Local\Temp\ccsGMWBs.s 			page 35


 1531 0118 10000000 		.4byte	.LBB61
 1532 011c 16000000 		.4byte	.LBE61
 1533 0120 00000000 		.4byte	0x0
 1534 0124 00000000 		.4byte	0x0
 1535 0128 16000000 		.4byte	.LBB62
 1536 012c 1A000000 		.4byte	.LBE62
 1537 0130 2E000000 		.4byte	.LBB76
 1538 0134 30000000 		.4byte	.LBE76
 1539 0138 28000000 		.4byte	.LBB74
 1540 013c 2C000000 		.4byte	.LBE74
 1541 0140 20000000 		.4byte	.LBB72
 1542 0144 24000000 		.4byte	.LBE72
 1543 0148 00000000 		.4byte	0x0
 1544 014c 00000000 		.4byte	0x0
 1545 0150 1A000000 		.4byte	.LBB67
 1546 0154 1E000000 		.4byte	.LBE67
 1547 0158 30000000 		.4byte	.LBB77
 1548 015c 32000000 		.4byte	.LBE77
 1549 0160 24000000 		.4byte	.LBB73
 1550 0164 28000000 		.4byte	.LBE73
 1551 0168 00000000 		.4byte	0x0
 1552 016c 00000000 		.4byte	0x0
 1553 0170 00000000 		.4byte	.LBB78
 1554 0174 0A000000 		.4byte	.LBE78
 1555 0178 1E000000 		.4byte	.LBB91
 1556 017c 20000000 		.4byte	.LBE91
 1557 0180 16000000 		.4byte	.LBB89
 1558 0184 1A000000 		.4byte	.LBE89
 1559 0188 0E000000 		.4byte	.LBB87
 1560 018c 12000000 		.4byte	.LBE87
 1561 0190 00000000 		.4byte	0x0
 1562 0194 00000000 		.4byte	0x0
 1563 0198 00000000 		.4byte	.LBB80
 1564 019c 0A000000 		.4byte	.LBE80
 1565 01a0 1E000000 		.4byte	.LBB82
 1566 01a4 20000000 		.4byte	.LBE82
 1567 01a8 16000000 		.4byte	.LBB79
 1568 01ac 1A000000 		.4byte	.LBE79
 1569 01b0 0E000000 		.4byte	.LBB81
 1570 01b4 12000000 		.4byte	.LBE81
 1571 01b8 00000000 		.4byte	0x0
 1572 01bc 00000000 		.4byte	0x0
 1573 01c0 0A000000 		.4byte	.LBB83
 1574 01c4 0E000000 		.4byte	.LBE83
 1575 01c8 1A000000 		.4byte	.LBB90
 1576 01cc 1E000000 		.4byte	.LBE90
 1577 01d0 12000000 		.4byte	.LBB88
 1578 01d4 16000000 		.4byte	.LBE88
 1579 01d8 00000000 		.4byte	0x0
 1580 01dc 00000000 		.4byte	0x0
 1581 01e0 00000000 		.4byte	.Ltext0
 1582 01e4 00000000 		.4byte	.Letext0
 1583 01e8 00000000 		.4byte	.LFB0
 1584 01ec 3E000000 		.4byte	.LFE0
 1585 01f0 00000000 		.4byte	.LFB1
 1586 01f4 36000000 		.4byte	.LFE1
 1587 01f8 00000000 		.4byte	.LFB2
ARM GAS  C:\Users\SUZUKI~1\AppData\Local\Temp\ccsGMWBs.s 			page 36


 1588 01fc 22000000 		.4byte	.LFE2
 1589 0200 00000000 		.4byte	.LFB3
 1590 0204 02000000 		.4byte	.LFE3
 1591 0208 00000000 		.4byte	.LFB4
 1592 020c 0E000000 		.4byte	.LFE4
 1593 0210 00000000 		.4byte	.LFB5
 1594 0214 0E000000 		.4byte	.LFE5
 1595 0218 00000000 		.4byte	.LFB6
 1596 021c 10000000 		.4byte	.LFE6
 1597 0220 00000000 		.4byte	.LFB7
 1598 0224 0E000000 		.4byte	.LFE7
 1599 0228 00000000 		.4byte	.LFB8
 1600 022c 0E000000 		.4byte	.LFE8
 1601 0230 00000000 		.4byte	.LFB9
 1602 0234 10000000 		.4byte	.LFE9
 1603 0238 00000000 		.4byte	.LFB10
 1604 023c 0E000000 		.4byte	.LFE10
 1605 0240 00000000 		.4byte	.LFB11
 1606 0244 0E000000 		.4byte	.LFE11
 1607 0248 00000000 		.4byte	.LFB12
 1608 024c 0E000000 		.4byte	.LFE12
 1609 0250 00000000 		.4byte	0x0
 1610 0254 00000000 		.4byte	0x0
 1611              		.section	.debug_str,"MS",%progbits,1
 1612              	.LASF6:
 1613 0000 6C6F6E67 		.ascii	"long long int\000"
 1613      206C6F6E 
 1613      6720696E 
 1613      7400
 1614              	.LASF12:
 1615 000e 4952515F 		.ascii	"IRQ_ADC_SetVector\000"
 1615      4144435F 
 1615      53657456 
 1615      6563746F 
 1615      7200
 1616              	.LASF18:
 1617 0020 4952515F 		.ascii	"IRQ_ADC_Start\000"
 1617      4144435F 
 1617      53746172 
 1617      7400
 1618              	.LASF3:
 1619 002e 73686F72 		.ascii	"short unsigned int\000"
 1619      7420756E 
 1619      7369676E 
 1619      65642069 
 1619      6E7400
 1620              	.LASF29:
 1621 0041 463A5C44 		.ascii	"F:\\Documents\\PSoC_Creator\\ledmatrix\\ledmatrixff"
 1621      6F63756D 
 1621      656E7473 
 1621      5C50536F 
 1621      435F4372 
 1622 0070 742E6379 		.ascii	"t.cydsn\000"
 1622      64736E00 
 1623              	.LASF20:
 1624 0078 4952515F 		.ascii	"IRQ_ADC_Stop\000"
 1624      4144435F 
ARM GAS  C:\Users\SUZUKI~1\AppData\Local\Temp\ccsGMWBs.s 			page 37


 1624      53746F70 
 1624      00
 1625              	.LASF28:
 1626 0085 2E5C4765 		.ascii	".\\Generated_Source\\PSoC5\\IRQ_ADC.c\000"
 1626      6E657261 
 1626      7465645F 
 1626      536F7572 
 1626      63655C50 
 1627              	.LASF30:
 1628 00a8 4952515F 		.ascii	"IRQ_ADC_GetState\000"
 1628      4144435F 
 1628      47657453 
 1628      74617465 
 1628      00
 1629              	.LASF1:
 1630 00b9 756E7369 		.ascii	"unsigned char\000"
 1630      676E6564 
 1630      20636861 
 1630      7200
 1631              	.LASF5:
 1632 00c7 6C6F6E67 		.ascii	"long unsigned int\000"
 1632      20756E73 
 1632      69676E65 
 1632      6420696E 
 1632      7400
 1633              	.LASF17:
 1634 00d9 4952515F 		.ascii	"IRQ_ADC_Enable\000"
 1634      4144435F 
 1634      456E6162 
 1634      6C6500
 1635              	.LASF10:
 1636 00e8 75696E74 		.ascii	"uint8\000"
 1636      3800
 1637              	.LASF15:
 1638 00ee 7072696F 		.ascii	"priority\000"
 1638      72697479 
 1638      00
 1639              	.LASF22:
 1640 00f7 4952515F 		.ascii	"IRQ_ADC_GetPriority\000"
 1640      4144435F 
 1640      47657450 
 1640      72696F72 
 1640      69747900 
 1641              	.LASF26:
 1642 010b 4952515F 		.ascii	"IRQ_ADC_ClearPending\000"
 1642      4144435F 
 1642      436C6561 
 1642      7250656E 
 1642      64696E67 
 1643              	.LASF21:
 1644 0120 4952515F 		.ascii	"IRQ_ADC_GetVector\000"
 1644      4144435F 
 1644      47657456 
 1644      6563746F 
 1644      7200
 1645              	.LASF24:
 1646 0132 4952515F 		.ascii	"IRQ_ADC_Interrupt\000"
ARM GAS  C:\Users\SUZUKI~1\AppData\Local\Temp\ccsGMWBs.s 			page 38


 1646      4144435F 
 1646      496E7465 
 1646      72727570 
 1646      7400
 1647              	.LASF25:
 1648 0144 4952515F 		.ascii	"IRQ_ADC_SetPending\000"
 1648      4144435F 
 1648      53657450 
 1648      656E6469 
 1648      6E6700
 1649              	.LASF8:
 1650 0157 756E7369 		.ascii	"unsigned int\000"
 1650      676E6564 
 1650      20696E74 
 1650      00
 1651              	.LASF14:
 1652 0164 61646472 		.ascii	"address\000"
 1652      65737300 
 1653              	.LASF7:
 1654 016c 6C6F6E67 		.ascii	"long long unsigned int\000"
 1654      206C6F6E 
 1654      6720756E 
 1654      7369676E 
 1654      65642069 
 1655              	.LASF19:
 1656 0183 4952515F 		.ascii	"IRQ_ADC_StartEx\000"
 1656      4144435F 
 1656      53746172 
 1656      74457800 
 1657              	.LASF11:
 1658 0193 63796973 		.ascii	"cyisraddress\000"
 1658      72616464 
 1658      72657373 
 1658      00
 1659              	.LASF27:
 1660 01a0 474E5520 		.ascii	"GNU C 4.4.1\000"
 1660      4320342E 
 1660      342E3100 
 1661              	.LASF9:
 1662 01ac 63686172 		.ascii	"char\000"
 1662      00
 1663              	.LASF23:
 1664 01b1 72616D56 		.ascii	"ramVectorTable\000"
 1664      6563746F 
 1664      72546162 
 1664      6C6500
 1665              	.LASF2:
 1666 01c0 73686F72 		.ascii	"short int\000"
 1666      7420696E 
 1666      7400
 1667              	.LASF13:
 1668 01ca 4952515F 		.ascii	"IRQ_ADC_SetPriority\000"
 1668      4144435F 
 1668      53657450 
 1668      72696F72 
 1668      69747900 
 1669              	.LASF4:
ARM GAS  C:\Users\SUZUKI~1\AppData\Local\Temp\ccsGMWBs.s 			page 39


 1670 01de 6C6F6E67 		.ascii	"long int\000"
 1670      20696E74 
 1670      00
 1671              	.LASF0:
 1672 01e7 7369676E 		.ascii	"signed char\000"
 1672      65642063 
 1672      68617200 
 1673              	.LASF16:
 1674 01f3 4952515F 		.ascii	"IRQ_ADC_Disable\000"
 1674      4144435F 
 1674      44697361 
 1674      626C6500 
 1675              		.ident	"GCC: (Sourcery G++ Lite 2010q1-188) 4.4.1"
