ARM GAS  C:\Users\SUZUKI~1\AppData\Local\Temp\ccP47L10.s 			page 1


   1              		.syntax unified
   2              		.cpu cortex-m3
   3              		.fpu softvfp
   4              		.eabi_attribute 20, 1
   5              		.eabi_attribute 21, 1
   6              		.eabi_attribute 23, 3
   7              		.eabi_attribute 24, 1
   8              		.eabi_attribute 25, 1
   9              		.eabi_attribute 26, 1
  10              		.eabi_attribute 30, 2
  11              		.eabi_attribute 18, 4
  12              		.thumb
  13              		.file	"main.c"
  14              		.section	.debug_abbrev,"",%progbits
  15              	.Ldebug_abbrev0:
  16              		.section	.debug_info,"",%progbits
  17              	.Ldebug_info0:
  18              		.section	.debug_line,"",%progbits
  19              	.Ldebug_line0:
  20 0000 22010000 		.text
  20      02005300 
  20      00000201 
  20      FB0E0D00 
  20      01010101 
  21              	.Ltext0:
  22              		.cfi_sections	.debug_frame
  23              		.section	.text.mixdisplaybuffer,"ax",%progbits
  24              		.align	2
  25              		.global	mixdisplaybuffer
  26              		.thumb
  27              		.thumb_func
  28              		.type	mixdisplaybuffer, %function
  29              	mixdisplaybuffer:
  30              	.LFB30:
  31              		.file 1 ".\\main.c"
   1:.\main.c      **** /* ========================================
   2:.\main.c      ****  *
   3:.\main.c      ****  * Copyright YOUR COMPANY, THE YEAR
   4:.\main.c      ****  * All Rights Reserved
   5:.\main.c      ****  * UNPUBLISHED, LICENSED SOFTWARE.
   6:.\main.c      ****  *
   7:.\main.c      ****  * CONFIDENTIAL AND PROPRIETARY INFORMATION
   8:.\main.c      ****  * WHICH IS THE PROPERTY OF your company.
   9:.\main.c      ****  *
  10:.\main.c      ****  * ========================================
  11:.\main.c      **** */
  12:.\main.c      **** #include <device.h>
  13:.\main.c      **** #include "font.h"
  14:.\main.c      **** #include "uart.h"
  15:.\main.c      **** #include "utf8.h"
  16:.\main.c      **** #include "matrix.h"
  17:.\main.c      **** #include "fft.h"
  18:.\main.c      **** #include "clock.h"
  19:.\main.c      **** 
  20:.\main.c      **** void mixdisplaybufer(void);
  21:.\main.c      **** void initialize(void);
  22:.\main.c      **** void buf_initialize(uint8 buf[][16]);
ARM GAS  C:\Users\SUZUKI~1\AppData\Local\Temp\ccP47L10.s 			page 2


  23:.\main.c      **** void delay_ms(uint16);
  24:.\main.c      **** uint8 disp_buf[96][16]; // __attribute__((aligned(16), section(".data2")));
  25:.\main.c      **** 
  26:.\main.c      **** extern uint8 clock_disp_buf[96][16];
  27:.\main.c      **** extern uint8 fft_disp_buf[96][16];
  28:.\main.c      **** 
  29:.\main.c      **** void main()
  30:.\main.c      **** {
  31:.\main.c      **** 	int i;
  32:.\main.c      **** 	initialize();
  33:.\main.c      **** 	while(1) {
  34:.\main.c      **** 		for(i = 0; i < 100000; i++) {}
  35:.\main.c      **** 	}
  36:.\main.c      **** }
  37:.\main.c      **** 
  38:.\main.c      **** void mixdisplaybuffer(void)
  39:.\main.c      **** {
  32              		.loc 1 39 0
  33              		.cfi_startproc
  34              		@ args = 0, pretend = 0, frame = 0
  35              		@ frame_needed = 0, uses_anonymous_args = 0
  36              		@ link register save eliminated.
  37 0000 2DE9F005 		push	{r4, r5, r6, r7, r8, sl}
  38              	.LCFI0:
  39              		.cfi_def_cfa_offset 24
  40              		.loc 1 39 0
  41 0004 40F20006 		movw	r6, #:lower16:fft_disp_buf
  42              		.cfi_offset 10, -4
  43              		.cfi_offset 8, -8
  44              		.cfi_offset 7, -12
  45              		.cfi_offset 6, -16
  46              		.cfi_offset 5, -20
  47              		.cfi_offset 4, -24
  48 0008 40F20005 		movw	r5, #:lower16:clock_disp_buf
  49 000c 40F20004 		movw	r4, #:lower16:disp_buf
  50 0010 C0F20006 		movt	r6, #:upper16:fft_disp_buf
  51 0014 C0F20005 		movt	r5, #:upper16:clock_disp_buf
  52 0018 C0F20004 		movt	r4, #:upper16:disp_buf
  53 001c 3146     		mov	r1, r6
  54 001e 2A46     		mov	r2, r5
  55 0020 2346     		mov	r3, r4
  56 0022 0020     		movs	r0, #0
  57              	.L2:
  40:.\main.c      **** 	// clock_disp_bufとfft_disp_bufをmixする。
  41:.\main.c      **** 	int i, j;
  42:.\main.c      **** 	register uint8 buf;
  43:.\main.c      **** 	for(j = 0; j < 96; j++) {
  44:.\main.c      **** 		for(i = 0; i < 16; i++) {
  45:.\main.c      **** 			buf = fft_disp_buf[j][i] + clock_disp_buf[j][i];
  58              		.loc 1 45 0
  59 0024 475D     		ldrb	r7, [r0, r5]	@ zero_extendqisi2
  60 0026 10F806A0 		ldrb	sl, [r0, r6]	@ zero_extendqisi2
  61 002a 07EB0A08 		add	r8, r7, sl
  62 002e 5FFA88FC 		uxtb	ip, r8
  63              	.LVL0:
  46:.\main.c      **** 			if(buf & 0x08) { buf |= 0x07; }
  64              		.loc 1 46 0
ARM GAS  C:\Users\SUZUKI~1\AppData\Local\Temp\ccP47L10.s 			page 3


  65 0032 1CF0080F 		tst	ip, #8
  66 0036 18BF     		it	ne
  67 0038 4CF0070C 		orrne	ip, ip, #7
  68              	.LVL1:
  69              		.loc 1 45 0
  70 003c 92F801A0 		ldrb	sl, [r2, #1]	@ zero_extendqisi2
  71 0040 91F80180 		ldrb	r8, [r1, #1]	@ zero_extendqisi2
  47:.\main.c      **** 			if(buf & 0x80) { buf |= 0x70; }
  72              		.loc 1 47 0
  73 0044 1CF0800F 		tst	ip, #128
  74 0048 18BF     		it	ne
  75 004a 4CF0700C 		orrne	ip, ip, #112
  76              	.LVL2:
  48:.\main.c      **** 			disp_buf[j][i] = buf & 0x77;
  77              		.loc 1 48 0
  78 004e 0CF07707 		and	r7, ip, #119
  79              		.loc 1 45 0
  80 0052 0AEB080C 		add	ip, sl, r8
  81              	.LVL3:
  82 0056 5FFA8CFC 		uxtb	ip, ip
  83              	.LVL4:
  84              		.loc 1 46 0
  85 005a 1CF0080F 		tst	ip, #8
  86 005e 18BF     		it	ne
  87 0060 4CF0070C 		orrne	ip, ip, #7
  88              	.LVL5:
  89              		.loc 1 45 0
  90 0064 92F802A0 		ldrb	sl, [r2, #2]	@ zero_extendqisi2
  91 0068 91F80280 		ldrb	r8, [r1, #2]	@ zero_extendqisi2
  92              		.loc 1 47 0
  93 006c 1CF0800F 		tst	ip, #128
  94 0070 18BF     		it	ne
  95 0072 4CF0700C 		orrne	ip, ip, #112
  96              	.LVL6:
  97              		.loc 1 48 0
  98 0076 0755     		strb	r7, [r0, r4]
  99 0078 0CF07707 		and	r7, ip, #119
 100              		.loc 1 45 0
 101 007c 0AEB080C 		add	ip, sl, r8
 102              	.LVL7:
 103 0080 5FFA8CFC 		uxtb	ip, ip
 104              	.LVL8:
 105              		.loc 1 46 0
 106 0084 1CF0080F 		tst	ip, #8
 107 0088 18BF     		it	ne
 108 008a 4CF0070C 		orrne	ip, ip, #7
 109              	.LVL9:
 110              		.loc 1 45 0
 111 008e 92F803A0 		ldrb	sl, [r2, #3]	@ zero_extendqisi2
 112 0092 91F80380 		ldrb	r8, [r1, #3]	@ zero_extendqisi2
 113              		.loc 1 47 0
 114 0096 1CF0800F 		tst	ip, #128
 115 009a 18BF     		it	ne
 116 009c 4CF0700C 		orrne	ip, ip, #112
 117              	.LVL10:
 118              		.loc 1 48 0
 119 00a0 5F70     		strb	r7, [r3, #1]
ARM GAS  C:\Users\SUZUKI~1\AppData\Local\Temp\ccP47L10.s 			page 4


 120 00a2 0CF07707 		and	r7, ip, #119
 121              		.loc 1 45 0
 122 00a6 0AEB080C 		add	ip, sl, r8
 123              	.LVL11:
 124 00aa 5FFA8CFC 		uxtb	ip, ip
 125              	.LVL12:
 126              		.loc 1 46 0
 127 00ae 1CF0080F 		tst	ip, #8
 128 00b2 18BF     		it	ne
 129 00b4 4CF0070C 		orrne	ip, ip, #7
 130              	.LVL13:
 131              		.loc 1 45 0
 132 00b8 92F804A0 		ldrb	sl, [r2, #4]	@ zero_extendqisi2
 133 00bc 91F80480 		ldrb	r8, [r1, #4]	@ zero_extendqisi2
 134              		.loc 1 47 0
 135 00c0 1CF0800F 		tst	ip, #128
 136 00c4 18BF     		it	ne
 137 00c6 4CF0700C 		orrne	ip, ip, #112
 138              	.LVL14:
 139              		.loc 1 48 0
 140 00ca 9F70     		strb	r7, [r3, #2]
 141 00cc 0CF07707 		and	r7, ip, #119
 142              		.loc 1 45 0
 143 00d0 0AEB080C 		add	ip, sl, r8
 144              	.LVL15:
 145 00d4 5FFA8CFC 		uxtb	ip, ip
 146              	.LVL16:
 147              		.loc 1 46 0
 148 00d8 1CF0080F 		tst	ip, #8
 149 00dc 18BF     		it	ne
 150 00de 4CF0070C 		orrne	ip, ip, #7
 151              	.LVL17:
 152              		.loc 1 45 0
 153 00e2 92F805A0 		ldrb	sl, [r2, #5]	@ zero_extendqisi2
 154 00e6 91F80580 		ldrb	r8, [r1, #5]	@ zero_extendqisi2
 155              		.loc 1 47 0
 156 00ea 1CF0800F 		tst	ip, #128
 157 00ee 18BF     		it	ne
 158 00f0 4CF0700C 		orrne	ip, ip, #112
 159              	.LVL18:
 160              		.loc 1 48 0
 161 00f4 DF70     		strb	r7, [r3, #3]
 162 00f6 0CF07707 		and	r7, ip, #119
 163              		.loc 1 45 0
 164 00fa 0AEB080C 		add	ip, sl, r8
 165              	.LVL19:
 166 00fe 5FFA8CFC 		uxtb	ip, ip
 167              	.LVL20:
 168              		.loc 1 46 0
 169 0102 1CF0080F 		tst	ip, #8
 170 0106 18BF     		it	ne
 171 0108 4CF0070C 		orrne	ip, ip, #7
 172              	.LVL21:
 173              		.loc 1 45 0
 174 010c 92F806A0 		ldrb	sl, [r2, #6]	@ zero_extendqisi2
 175 0110 91F80680 		ldrb	r8, [r1, #6]	@ zero_extendqisi2
 176              		.loc 1 47 0
ARM GAS  C:\Users\SUZUKI~1\AppData\Local\Temp\ccP47L10.s 			page 5


 177 0114 1CF0800F 		tst	ip, #128
 178 0118 18BF     		it	ne
 179 011a 4CF0700C 		orrne	ip, ip, #112
 180              	.LVL22:
 181              		.loc 1 48 0
 182 011e 1F71     		strb	r7, [r3, #4]
 183 0120 0CF07707 		and	r7, ip, #119
 184              		.loc 1 45 0
 185 0124 0AEB080C 		add	ip, sl, r8
 186              	.LVL23:
 187 0128 5FFA8CFC 		uxtb	ip, ip
 188              	.LVL24:
 189              		.loc 1 46 0
 190 012c 1CF0080F 		tst	ip, #8
 191 0130 18BF     		it	ne
 192 0132 4CF0070C 		orrne	ip, ip, #7
 193              	.LVL25:
 194              		.loc 1 45 0
 195 0136 92F807A0 		ldrb	sl, [r2, #7]	@ zero_extendqisi2
 196 013a 91F80780 		ldrb	r8, [r1, #7]	@ zero_extendqisi2
 197              		.loc 1 47 0
 198 013e 1CF0800F 		tst	ip, #128
 199 0142 18BF     		it	ne
 200 0144 4CF0700C 		orrne	ip, ip, #112
 201              	.LVL26:
 202              		.loc 1 48 0
 203 0148 5F71     		strb	r7, [r3, #5]
 204 014a 0CF07707 		and	r7, ip, #119
 205              		.loc 1 45 0
 206 014e 0AEB080C 		add	ip, sl, r8
 207              	.LVL27:
 208 0152 5FFA8CFC 		uxtb	ip, ip
 209              	.LVL28:
 210              		.loc 1 46 0
 211 0156 1CF0080F 		tst	ip, #8
 212 015a 18BF     		it	ne
 213 015c 4CF0070C 		orrne	ip, ip, #7
 214              	.LVL29:
 215              		.loc 1 45 0
 216 0160 92F808A0 		ldrb	sl, [r2, #8]	@ zero_extendqisi2
 217 0164 91F80880 		ldrb	r8, [r1, #8]	@ zero_extendqisi2
 218              		.loc 1 47 0
 219 0168 1CF0800F 		tst	ip, #128
 220 016c 18BF     		it	ne
 221 016e 4CF0700C 		orrne	ip, ip, #112
 222              	.LVL30:
 223              		.loc 1 48 0
 224 0172 9F71     		strb	r7, [r3, #6]
 225 0174 0CF07707 		and	r7, ip, #119
 226              		.loc 1 45 0
 227 0178 0AEB080C 		add	ip, sl, r8
 228              	.LVL31:
 229 017c 5FFA8CFC 		uxtb	ip, ip
 230              	.LVL32:
 231              		.loc 1 46 0
 232 0180 1CF0080F 		tst	ip, #8
 233 0184 18BF     		it	ne
ARM GAS  C:\Users\SUZUKI~1\AppData\Local\Temp\ccP47L10.s 			page 6


 234 0186 4CF0070C 		orrne	ip, ip, #7
 235              	.LVL33:
 236              		.loc 1 45 0
 237 018a 92F809A0 		ldrb	sl, [r2, #9]	@ zero_extendqisi2
 238 018e 91F80980 		ldrb	r8, [r1, #9]	@ zero_extendqisi2
 239              		.loc 1 47 0
 240 0192 1CF0800F 		tst	ip, #128
 241 0196 18BF     		it	ne
 242 0198 4CF0700C 		orrne	ip, ip, #112
 243              	.LVL34:
 244              		.loc 1 48 0
 245 019c DF71     		strb	r7, [r3, #7]
 246 019e 0CF07707 		and	r7, ip, #119
 247              		.loc 1 45 0
 248 01a2 0AEB080C 		add	ip, sl, r8
 249              	.LVL35:
 250 01a6 5FFA8CFC 		uxtb	ip, ip
 251              	.LVL36:
 252              		.loc 1 46 0
 253 01aa 1CF0080F 		tst	ip, #8
 254 01ae 18BF     		it	ne
 255 01b0 4CF0070C 		orrne	ip, ip, #7
 256              	.LVL37:
 257              		.loc 1 45 0
 258 01b4 92F80AA0 		ldrb	sl, [r2, #10]	@ zero_extendqisi2
 259 01b8 91F80A80 		ldrb	r8, [r1, #10]	@ zero_extendqisi2
 260              		.loc 1 47 0
 261 01bc 1CF0800F 		tst	ip, #128
 262 01c0 18BF     		it	ne
 263 01c2 4CF0700C 		orrne	ip, ip, #112
 264              	.LVL38:
 265              		.loc 1 48 0
 266 01c6 1F72     		strb	r7, [r3, #8]
 267 01c8 0CF07707 		and	r7, ip, #119
 268              		.loc 1 45 0
 269 01cc 0AEB080C 		add	ip, sl, r8
 270              	.LVL39:
 271 01d0 5FFA8CFC 		uxtb	ip, ip
 272              	.LVL40:
 273              		.loc 1 46 0
 274 01d4 1CF0080F 		tst	ip, #8
 275 01d8 18BF     		it	ne
 276 01da 4CF0070C 		orrne	ip, ip, #7
 277              	.LVL41:
 278              		.loc 1 45 0
 279 01de 92F80BA0 		ldrb	sl, [r2, #11]	@ zero_extendqisi2
 280 01e2 91F80B80 		ldrb	r8, [r1, #11]	@ zero_extendqisi2
 281              		.loc 1 47 0
 282 01e6 1CF0800F 		tst	ip, #128
 283 01ea 18BF     		it	ne
 284 01ec 4CF0700C 		orrne	ip, ip, #112
 285              	.LVL42:
 286              		.loc 1 48 0
 287 01f0 5F72     		strb	r7, [r3, #9]
 288 01f2 0CF07707 		and	r7, ip, #119
 289              		.loc 1 45 0
 290 01f6 0AEB080C 		add	ip, sl, r8
ARM GAS  C:\Users\SUZUKI~1\AppData\Local\Temp\ccP47L10.s 			page 7


 291              	.LVL43:
 292 01fa 5FFA8CFC 		uxtb	ip, ip
 293              	.LVL44:
 294              		.loc 1 46 0
 295 01fe 1CF0080F 		tst	ip, #8
 296 0202 18BF     		it	ne
 297 0204 4CF0070C 		orrne	ip, ip, #7
 298              	.LVL45:
 299              		.loc 1 48 0
 300 0208 9F72     		strb	r7, [r3, #10]
 301              		.loc 1 47 0
 302 020a 1CF0800F 		tst	ip, #128
 303              		.loc 1 45 0
 304 020e 92F80CA0 		ldrb	sl, [r2, #12]	@ zero_extendqisi2
 305 0212 91F80C80 		ldrb	r8, [r1, #12]	@ zero_extendqisi2
 306              		.loc 1 47 0
 307 0216 18BF     		it	ne
 308 0218 4CF0700C 		orrne	ip, ip, #112
 309              	.LVL46:
 310              		.loc 1 48 0
 311 021c 0CF07707 		and	r7, ip, #119
 312              		.loc 1 45 0
 313 0220 0AEB080C 		add	ip, sl, r8
 314              	.LVL47:
 315 0224 5FFA8CFC 		uxtb	ip, ip
 316              	.LVL48:
 317              		.loc 1 46 0
 318 0228 1CF0080F 		tst	ip, #8
 319 022c 18BF     		it	ne
 320 022e 4CF0070C 		orrne	ip, ip, #7
 321              	.LVL49:
 322              		.loc 1 47 0
 323 0232 1CF0800F 		tst	ip, #128
 324              		.loc 1 45 0
 325 0236 92F80DA0 		ldrb	sl, [r2, #13]	@ zero_extendqisi2
 326 023a 91F80D80 		ldrb	r8, [r1, #13]	@ zero_extendqisi2
 327              		.loc 1 47 0
 328 023e 18BF     		it	ne
 329 0240 4CF0700C 		orrne	ip, ip, #112
 330              	.LVL50:
 331              		.loc 1 48 0
 332 0244 DF72     		strb	r7, [r3, #11]
 333 0246 0CF07707 		and	r7, ip, #119
 334              		.loc 1 45 0
 335 024a 0AEB080C 		add	ip, sl, r8
 336              	.LVL51:
 337 024e 5FFA8CFC 		uxtb	ip, ip
 338              	.LVL52:
 339              		.loc 1 46 0
 340 0252 1CF0080F 		tst	ip, #8
 341 0256 18BF     		it	ne
 342 0258 4CF0070C 		orrne	ip, ip, #7
 343              	.LVL53:
 344              		.loc 1 47 0
 345 025c 1CF0800F 		tst	ip, #128
 346              		.loc 1 45 0
 347 0260 92F80EA0 		ldrb	sl, [r2, #14]	@ zero_extendqisi2
ARM GAS  C:\Users\SUZUKI~1\AppData\Local\Temp\ccP47L10.s 			page 8


 348 0264 91F80E80 		ldrb	r8, [r1, #14]	@ zero_extendqisi2
 349              		.loc 1 47 0
 350 0268 18BF     		it	ne
 351 026a 4CF0700C 		orrne	ip, ip, #112
 352              	.LVL54:
 353              		.loc 1 48 0
 354 026e 1F73     		strb	r7, [r3, #12]
 355 0270 0CF07707 		and	r7, ip, #119
 356              		.loc 1 45 0
 357 0274 0AEB080C 		add	ip, sl, r8
 358              	.LVL55:
 359 0278 5FFA8CFC 		uxtb	ip, ip
 360              	.LVL56:
 361              		.loc 1 46 0
 362 027c 1CF0080F 		tst	ip, #8
 363 0280 18BF     		it	ne
 364 0282 4CF0070C 		orrne	ip, ip, #7
 365              	.LVL57:
 366              		.loc 1 47 0
 367 0286 1CF0800F 		tst	ip, #128
 368              		.loc 1 45 0
 369 028a 92F80FA0 		ldrb	sl, [r2, #15]	@ zero_extendqisi2
 370 028e 91F80F80 		ldrb	r8, [r1, #15]	@ zero_extendqisi2
 371              		.loc 1 47 0
 372 0292 18BF     		it	ne
 373 0294 4CF0700C 		orrne	ip, ip, #112
 374              	.LVL58:
 375              		.loc 1 48 0
 376 0298 5F73     		strb	r7, [r3, #13]
 377 029a 0CF07707 		and	r7, ip, #119
 378              		.loc 1 45 0
 379 029e 0AEB080C 		add	ip, sl, r8
 380              	.LVL59:
 381 02a2 5FFA8CFC 		uxtb	ip, ip
 382              	.LVL60:
 383              		.loc 1 46 0
 384 02a6 1CF0080F 		tst	ip, #8
 385 02aa 18BF     		it	ne
 386 02ac 4CF0070C 		orrne	ip, ip, #7
 387              	.LVL61:
 388              		.loc 1 47 0
 389 02b0 1CF0800F 		tst	ip, #128
 390 02b4 18BF     		it	ne
 391 02b6 4CF0700C 		orrne	ip, ip, #112
 392              	.LVL62:
 393              		.loc 1 48 0
 394 02ba 0CF0770C 		and	ip, ip, #119
 395              	.LVL63:
 396 02be 1030     		adds	r0, r0, #16
 397 02c0 9F73     		strb	r7, [r3, #14]
 398 02c2 83F80FC0 		strb	ip, [r3, #15]
 399 02c6 1031     		adds	r1, r1, #16
 400 02c8 1032     		adds	r2, r2, #16
 401 02ca 1033     		adds	r3, r3, #16
 402              		.loc 1 43 0
 403 02cc B0F5C06F 		cmp	r0, #1536
 404 02d0 7FF4A8AE 		bne	.L2
ARM GAS  C:\Users\SUZUKI~1\AppData\Local\Temp\ccP47L10.s 			page 9


  49:.\main.c      **** 		}
  50:.\main.c      **** 	}
  51:.\main.c      **** 	return;
  52:.\main.c      **** }
 405              		.loc 1 52 0
 406 02d4 BDE8F005 		pop	{r4, r5, r6, r7, r8, sl}
 407 02d8 7047     		bx	lr
 408              		.cfi_endproc
 409              	.LFE30:
 410              		.size	mixdisplaybuffer, .-mixdisplaybuffer
 411 02da 00BF     		.section	.text.buf_initialize,"ax",%progbits
 412              		.align	2
 413              		.global	buf_initialize
 414              		.thumb
 415              		.thumb_func
 416              		.type	buf_initialize, %function
 417              	buf_initialize:
 418              	.LFB32:
  53:.\main.c      **** 
  54:.\main.c      **** void initialize(void)
  55:.\main.c      **** {
  56:.\main.c      **** 	uint8 ret = 0;
  57:.\main.c      **** 	
  58:.\main.c      **** 	UART_Start();
  59:.\main.c      **** 	Timer_Start();
  60:.\main.c      **** 	Timer_WriteCounter(0);
  61:.\main.c      **** 	buf_initialize(disp_buf);
  62:.\main.c      **** 	Matrix_Start();
  63:.\main.c      **** 	Matrix_SetBaseAddress((uint8*)fft_disp_buf);
  64:.\main.c      **** //	ret = openFont("JISKAN1.BDF", "CTABLE.TXT");
  65:.\main.c      **** 	FFT_Start();
  66:.\main.c      **** 	clock_Start();
  67:.\main.c      **** 	
  68:.\main.c      **** 	CyGlobalIntEnable;
  69:.\main.c      **** //	shift_irq_StartEx(shift_isr);
  70:.\main.c      **** //	rx_irq_StartEx(rx_isr);
  71:.\main.c      **** 	disp_buf[ret][3] = 0xff;
  72:.\main.c      **** 	return;
  73:.\main.c      **** }
  74:.\main.c      **** 
  75:.\main.c      **** void buf_initialize(uint8 buf[][16])
  76:.\main.c      **** {
 419              		.loc 1 76 0
 420              		.cfi_startproc
 421              		@ args = 0, pretend = 0, frame = 0
 422              		@ frame_needed = 0, uses_anonymous_args = 0
 423              		@ link register save eliminated.
 424              	.LVL64:
 425              		.loc 1 75 0
 426 0000 00F54061 		add	r1, r0, #3072
 427              	.LVL65:
  77:.\main.c      **** 	int16 i, j;
  78:.\main.c      **** 	for(i = 0; i < 192; i++) {
  79:.\main.c      **** 		for(j = 0; j < 16; j++) {
  80:.\main.c      **** 			buf[i][j] = 0x00;
 428              		.loc 1 80 0
 429 0004 0023     		movs	r3, #0
ARM GAS  C:\Users\SUZUKI~1\AppData\Local\Temp\ccP47L10.s 			page 10


 430              	.L40:
 431 0006 00F11002 		add	r2, r0, #16
 432 000a 0374     		strb	r3, [r0, #16]
 433 000c 0370     		strb	r3, [r0, #0]
 434 000e 4370     		strb	r3, [r0, #1]
 435 0010 8370     		strb	r3, [r0, #2]
 436 0012 C370     		strb	r3, [r0, #3]
 437 0014 0371     		strb	r3, [r0, #4]
 438 0016 4371     		strb	r3, [r0, #5]
 439 0018 8371     		strb	r3, [r0, #6]
 440 001a C371     		strb	r3, [r0, #7]
 441 001c 0372     		strb	r3, [r0, #8]
 442 001e 4372     		strb	r3, [r0, #9]
 443 0020 8372     		strb	r3, [r0, #10]
 444 0022 C372     		strb	r3, [r0, #11]
 445 0024 0373     		strb	r3, [r0, #12]
 446 0026 4373     		strb	r3, [r0, #13]
 447 0028 8373     		strb	r3, [r0, #14]
 448 002a C373     		strb	r3, [r0, #15]
 449 002c 02F11000 		add	r0, r2, #16
 450              		.loc 1 78 0
 451 0030 8842     		cmp	r0, r1
 452              		.loc 1 80 0
 453 0032 5370     		strb	r3, [r2, #1]
 454 0034 9370     		strb	r3, [r2, #2]
 455 0036 D370     		strb	r3, [r2, #3]
 456 0038 1371     		strb	r3, [r2, #4]
 457 003a 5371     		strb	r3, [r2, #5]
 458 003c 9371     		strb	r3, [r2, #6]
 459 003e D371     		strb	r3, [r2, #7]
 460 0040 1372     		strb	r3, [r2, #8]
 461 0042 5372     		strb	r3, [r2, #9]
 462 0044 9372     		strb	r3, [r2, #10]
 463 0046 D372     		strb	r3, [r2, #11]
 464 0048 1373     		strb	r3, [r2, #12]
 465 004a 5373     		strb	r3, [r2, #13]
 466 004c 9373     		strb	r3, [r2, #14]
 467 004e D373     		strb	r3, [r2, #15]
 468              		.loc 1 78 0
 469 0050 D9D1     		bne	.L40
  81:.\main.c      **** 		}
  82:.\main.c      **** 	}
  83:.\main.c      **** 	return;
  84:.\main.c      **** }
 470              		.loc 1 84 0
 471 0052 7047     		bx	lr
 472              		.cfi_endproc
 473              	.LFE32:
 474              		.size	buf_initialize, .-buf_initialize
 475              		.section	.text.delay_ms,"ax",%progbits
 476              		.align	2
 477              		.global	delay_ms
 478              		.thumb
 479              		.thumb_func
 480              		.type	delay_ms, %function
 481              	delay_ms:
 482              	.LFB33:
ARM GAS  C:\Users\SUZUKI~1\AppData\Local\Temp\ccP47L10.s 			page 11


  85:.\main.c      **** 
  86:.\main.c      **** void delay_ms(uint16 delay)
  87:.\main.c      **** {
 483              		.loc 1 87 0
 484              		.cfi_startproc
 485              		@ args = 0, pretend = 0, frame = 0
 486              		@ frame_needed = 0, uses_anonymous_args = 0
 487              	.LVL66:
 488 0000 08B5     		push	{r3, lr}
 489              	.LCFI1:
 490              		.cfi_def_cfa_offset 8
  88:.\main.c      **** 	Timer_WriteCounter(delay);
 491              		.loc 1 88 0
 492              		.cfi_offset 14, -4
 493              		.cfi_offset 3, -8
 494 0002 FFF7FEFF 		bl	Timer_WriteCounter
 495              	.LVL67:
 496              	.L45:
  89:.\main.c      **** 	while(Timer_ReadCounter() != 0) {}
 497              		.loc 1 89 0
 498 0006 FFF7FEFF 		bl	Timer_ReadCounter
 499 000a 0028     		cmp	r0, #0
 500 000c FBD1     		bne	.L45
  90:.\main.c      **** 	return;
  91:.\main.c      **** }
 501              		.loc 1 91 0
 502 000e 08BD     		pop	{r3, pc}
 503              		.cfi_endproc
 504              	.LFE33:
 505              		.size	delay_ms, .-delay_ms
 506              		.section	.text.initialize,"ax",%progbits
 507              		.align	2
 508              		.global	initialize
 509              		.thumb
 510              		.thumb_func
 511              		.type	initialize, %function
 512              	initialize:
 513              	.LFB31:
 514              		.loc 1 55 0
 515              		.cfi_startproc
 516              		@ args = 0, pretend = 0, frame = 0
 517              		@ frame_needed = 0, uses_anonymous_args = 0
 518 0000 10B5     		push	{r4, lr}
 519              	.LCFI2:
 520              		.cfi_def_cfa_offset 8
 521              		.loc 1 60 0
 522 0002 40F20004 		movw	r4, #:lower16:disp_buf
 523              		.cfi_offset 14, -4
 524              		.cfi_offset 4, -8
 525              		.loc 1 58 0
 526 0006 FFF7FEFF 		bl	UART_Start
 527              		.loc 1 60 0
 528 000a C0F20004 		movt	r4, #:upper16:disp_buf
 529              		.loc 1 59 0
 530 000e FFF7FEFF 		bl	Timer_Start
 531              		.loc 1 60 0
 532 0012 0020     		movs	r0, #0
ARM GAS  C:\Users\SUZUKI~1\AppData\Local\Temp\ccP47L10.s 			page 12


 533 0014 FFF7FEFF 		bl	Timer_WriteCounter
 534 0018 2246     		mov	r2, r4
 535              		.loc 1 54 0
 536 001a 04F54060 		add	r0, r4, #3072
 537              	.LBB4:
 538              	.LBB5:
 539              		.loc 1 80 0
 540 001e 0023     		movs	r3, #0
 541              	.L49:
 542 0020 02F11001 		add	r1, r2, #16
 543 0024 1374     		strb	r3, [r2, #16]
 544 0026 1370     		strb	r3, [r2, #0]
 545 0028 5370     		strb	r3, [r2, #1]
 546 002a 9370     		strb	r3, [r2, #2]
 547 002c D370     		strb	r3, [r2, #3]
 548 002e 1371     		strb	r3, [r2, #4]
 549 0030 5371     		strb	r3, [r2, #5]
 550 0032 9371     		strb	r3, [r2, #6]
 551 0034 D371     		strb	r3, [r2, #7]
 552 0036 1372     		strb	r3, [r2, #8]
 553 0038 5372     		strb	r3, [r2, #9]
 554 003a 9372     		strb	r3, [r2, #10]
 555 003c D372     		strb	r3, [r2, #11]
 556 003e 1373     		strb	r3, [r2, #12]
 557 0040 5373     		strb	r3, [r2, #13]
 558 0042 9373     		strb	r3, [r2, #14]
 559 0044 D373     		strb	r3, [r2, #15]
 560 0046 01F11002 		add	r2, r1, #16
 561              		.loc 1 78 0
 562 004a 8242     		cmp	r2, r0
 563              		.loc 1 80 0
 564 004c 4B70     		strb	r3, [r1, #1]
 565 004e 8B70     		strb	r3, [r1, #2]
 566 0050 CB70     		strb	r3, [r1, #3]
 567 0052 0B71     		strb	r3, [r1, #4]
 568 0054 4B71     		strb	r3, [r1, #5]
 569 0056 8B71     		strb	r3, [r1, #6]
 570 0058 CB71     		strb	r3, [r1, #7]
 571 005a 0B72     		strb	r3, [r1, #8]
 572 005c 4B72     		strb	r3, [r1, #9]
 573 005e 8B72     		strb	r3, [r1, #10]
 574 0060 CB72     		strb	r3, [r1, #11]
 575 0062 0B73     		strb	r3, [r1, #12]
 576 0064 4B73     		strb	r3, [r1, #13]
 577 0066 8B73     		strb	r3, [r1, #14]
 578 0068 CB73     		strb	r3, [r1, #15]
 579              		.loc 1 78 0
 580 006a D9D1     		bne	.L49
 581              	.LBE5:
 582              	.LBE4:
 583              		.loc 1 62 0
 584 006c FFF7FEFF 		bl	Matrix_Start
 585              		.loc 1 63 0
 586 0070 40F20000 		movw	r0, #:lower16:fft_disp_buf
 587 0074 C0F20000 		movt	r0, #:upper16:fft_disp_buf
 588 0078 FFF7FEFF 		bl	Matrix_SetBaseAddress
 589              		.loc 1 65 0
ARM GAS  C:\Users\SUZUKI~1\AppData\Local\Temp\ccP47L10.s 			page 13


 590 007c FFF7FEFF 		bl	FFT_Start
 591              		.loc 1 66 0
 592 0080 FFF7FEFF 		bl	clock_Start
 593              		.loc 1 68 0
 594              	@ 68 ".\main.c" 1
 595 0084 62B6     		CPSIE   i
 596              	@ 0 "" 2
 597              		.loc 1 71 0
 598              		.thumb
 599 0086 4FF0FF33 		mov	r3, #-1
 600 008a E370     		strb	r3, [r4, #3]
 601              		.loc 1 73 0
 602 008c 10BD     		pop	{r4, pc}
 603              		.cfi_endproc
 604              	.LFE31:
 605              		.size	initialize, .-initialize
 606 008e 00BF     		.section	.text.main,"ax",%progbits
 607              		.align	2
 608              		.global	main
 609              		.thumb
 610              		.thumb_func
 611              		.type	main, %function
 612              	main:
 613              	.LFB29:
 614              		.loc 1 30 0
 615              		.cfi_startproc
 616              		@ args = 0, pretend = 0, frame = 0
 617              		@ frame_needed = 0, uses_anonymous_args = 0
 618 0000 08B5     		push	{r3, lr}
 619              	.LCFI3:
 620              		.cfi_def_cfa_offset 8
 621              		.loc 1 32 0
 622              		.cfi_offset 14, -4
 623              		.cfi_offset 3, -8
 624 0002 FFF7FEFF 		bl	initialize
 625              	.L56:
 626 0006 FEE7     		b	.L56
 627              		.cfi_endproc
 628              	.LFE29:
 629              		.size	main, .-main
 630              		.comm	disp_buf,1536,4
 631              		.text
 632              	.Letext0:
 633              		.section	.debug_loc,"",%progbits
 634              	.Ldebug_loc0:
 635              	.LLST0:
 636 0000 00000000 		.4byte	.LFB30
 637 0004 04000000 		.4byte	.LCFI0
 638 0008 0100     		.2byte	0x1
 639 000a 5D       		.byte	0x5d
 640 000b 04000000 		.4byte	.LCFI0
 641 000f DA020000 		.4byte	.LFE30
 642 0013 0200     		.2byte	0x2
 643 0015 7D       		.byte	0x7d
 644 0016 18       		.sleb128 24
 645 0017 00000000 		.4byte	0x0
 646 001b 00000000 		.4byte	0x0
ARM GAS  C:\Users\SUZUKI~1\AppData\Local\Temp\ccP47L10.s 			page 14


 647              	.LLST1:
 648 001f 32000000 		.4byte	.LVL0
 649 0023 56000000 		.4byte	.LVL3
 650 0027 0100     		.2byte	0x1
 651 0029 5C       		.byte	0x5c
 652 002a 5A000000 		.4byte	.LVL4
 653 002e 80000000 		.4byte	.LVL7
 654 0032 0100     		.2byte	0x1
 655 0034 5C       		.byte	0x5c
 656 0035 84000000 		.4byte	.LVL8
 657 0039 AA000000 		.4byte	.LVL11
 658 003d 0100     		.2byte	0x1
 659 003f 5C       		.byte	0x5c
 660 0040 AE000000 		.4byte	.LVL12
 661 0044 D4000000 		.4byte	.LVL15
 662 0048 0100     		.2byte	0x1
 663 004a 5C       		.byte	0x5c
 664 004b D8000000 		.4byte	.LVL16
 665 004f FE000000 		.4byte	.LVL19
 666 0053 0100     		.2byte	0x1
 667 0055 5C       		.byte	0x5c
 668 0056 02010000 		.4byte	.LVL20
 669 005a 28010000 		.4byte	.LVL23
 670 005e 0100     		.2byte	0x1
 671 0060 5C       		.byte	0x5c
 672 0061 2C010000 		.4byte	.LVL24
 673 0065 52010000 		.4byte	.LVL27
 674 0069 0100     		.2byte	0x1
 675 006b 5C       		.byte	0x5c
 676 006c 56010000 		.4byte	.LVL28
 677 0070 7C010000 		.4byte	.LVL31
 678 0074 0100     		.2byte	0x1
 679 0076 5C       		.byte	0x5c
 680 0077 80010000 		.4byte	.LVL32
 681 007b A6010000 		.4byte	.LVL35
 682 007f 0100     		.2byte	0x1
 683 0081 5C       		.byte	0x5c
 684 0082 AA010000 		.4byte	.LVL36
 685 0086 D0010000 		.4byte	.LVL39
 686 008a 0100     		.2byte	0x1
 687 008c 5C       		.byte	0x5c
 688 008d D4010000 		.4byte	.LVL40
 689 0091 FA010000 		.4byte	.LVL43
 690 0095 0100     		.2byte	0x1
 691 0097 5C       		.byte	0x5c
 692 0098 FE010000 		.4byte	.LVL44
 693 009c 24020000 		.4byte	.LVL47
 694 00a0 0100     		.2byte	0x1
 695 00a2 5C       		.byte	0x5c
 696 00a3 28020000 		.4byte	.LVL48
 697 00a7 4E020000 		.4byte	.LVL51
 698 00ab 0100     		.2byte	0x1
 699 00ad 5C       		.byte	0x5c
 700 00ae 52020000 		.4byte	.LVL52
 701 00b2 78020000 		.4byte	.LVL55
 702 00b6 0100     		.2byte	0x1
 703 00b8 5C       		.byte	0x5c
ARM GAS  C:\Users\SUZUKI~1\AppData\Local\Temp\ccP47L10.s 			page 15


 704 00b9 7C020000 		.4byte	.LVL56
 705 00bd A2020000 		.4byte	.LVL59
 706 00c1 0100     		.2byte	0x1
 707 00c3 5C       		.byte	0x5c
 708 00c4 A6020000 		.4byte	.LVL60
 709 00c8 BE020000 		.4byte	.LVL63
 710 00cc 0100     		.2byte	0x1
 711 00ce 5C       		.byte	0x5c
 712 00cf 00000000 		.4byte	0x0
 713 00d3 00000000 		.4byte	0x0
 714              	.LLST3:
 715 00d7 00000000 		.4byte	.LVL64
 716 00db 04000000 		.4byte	.LVL65
 717 00df 0100     		.2byte	0x1
 718 00e1 50       		.byte	0x50
 719 00e2 00000000 		.4byte	0x0
 720 00e6 00000000 		.4byte	0x0
 721              	.LLST4:
 722 00ea 00000000 		.4byte	.LFB33
 723 00ee 02000000 		.4byte	.LCFI1
 724 00f2 0100     		.2byte	0x1
 725 00f4 5D       		.byte	0x5d
 726 00f5 02000000 		.4byte	.LCFI1
 727 00f9 10000000 		.4byte	.LFE33
 728 00fd 0200     		.2byte	0x2
 729 00ff 7D       		.byte	0x7d
 730 0100 08       		.sleb128 8
 731 0101 00000000 		.4byte	0x0
 732 0105 00000000 		.4byte	0x0
 733              	.LLST5:
 734 0109 00000000 		.4byte	.LVL66
 735 010d 06000000 		.4byte	.LVL67
 736 0111 0100     		.2byte	0x1
 737 0113 50       		.byte	0x50
 738 0114 00000000 		.4byte	0x0
 739 0118 00000000 		.4byte	0x0
 740              	.LLST6:
 741 011c 00000000 		.4byte	.LFB31
 742 0120 02000000 		.4byte	.LCFI2
 743 0124 0100     		.2byte	0x1
 744 0126 5D       		.byte	0x5d
 745 0127 02000000 		.4byte	.LCFI2
 746 012b 8E000000 		.4byte	.LFE31
 747 012f 0200     		.2byte	0x2
 748 0131 7D       		.byte	0x7d
 749 0132 08       		.sleb128 8
 750 0133 00000000 		.4byte	0x0
 751 0137 00000000 		.4byte	0x0
 752              	.LLST7:
 753 013b 00000000 		.4byte	.LFB29
 754 013f 02000000 		.4byte	.LCFI3
 755 0143 0100     		.2byte	0x1
 756 0145 5D       		.byte	0x5d
 757 0146 02000000 		.4byte	.LCFI3
 758 014a 08000000 		.4byte	.LFE29
 759 014e 0200     		.2byte	0x2
 760 0150 7D       		.byte	0x7d
ARM GAS  C:\Users\SUZUKI~1\AppData\Local\Temp\ccP47L10.s 			page 16


 761 0151 08       		.sleb128 8
 762 0152 00000000 		.4byte	0x0
 763 0156 00000000 		.4byte	0x0
 764              		.file 2 "./Generated_Source/PSoC5/cytypes.h"
 765              		.file 3 "./Generated_Source/PSoC5/core_cm3.h"
 766              		.section	.debug_info
 767 0000 29020000 		.4byte	0x229
 768 0004 0200     		.2byte	0x2
 769 0006 00000000 		.4byte	.Ldebug_abbrev0
 770 000a 04       		.byte	0x4
 771 000b 01       		.uleb128 0x1
 772 000c 23010000 		.4byte	.LASF20
 773 0010 01       		.byte	0x1
 774 0011 94000000 		.4byte	.LASF21
 775 0015 2A000000 		.4byte	.LASF22
 776 0019 00000000 		.4byte	0x0
 777 001d 00000000 		.4byte	0x0
 778 0021 00000000 		.4byte	.Ldebug_ranges0+0x0
 779 0025 00000000 		.4byte	.Ldebug_line0
 780 0029 02       		.uleb128 0x2
 781 002a 01       		.byte	0x1
 782 002b 06       		.byte	0x6
 783 002c 4D010000 		.4byte	.LASF0
 784 0030 02       		.uleb128 0x2
 785 0031 01       		.byte	0x1
 786 0032 08       		.byte	0x8
 787 0033 7D000000 		.4byte	.LASF1
 788 0037 02       		.uleb128 0x2
 789 0038 02       		.byte	0x2
 790 0039 05       		.byte	0x5
 791 003a 34010000 		.4byte	.LASF2
 792 003e 02       		.uleb128 0x2
 793 003f 02       		.byte	0x2
 794 0040 07       		.byte	0x7
 795 0041 B5000000 		.4byte	.LASF3
 796 0045 02       		.uleb128 0x2
 797 0046 04       		.byte	0x4
 798 0047 05       		.byte	0x5
 799 0048 44010000 		.4byte	.LASF4
 800 004c 02       		.uleb128 0x2
 801 004d 04       		.byte	0x4
 802 004e 07       		.byte	0x7
 803 004f A3000000 		.4byte	.LASF5
 804 0053 02       		.uleb128 0x2
 805 0054 08       		.byte	0x8
 806 0055 05       		.byte	0x5
 807 0056 00000000 		.4byte	.LASF6
 808 005a 02       		.uleb128 0x2
 809 005b 08       		.byte	0x8
 810 005c 07       		.byte	0x7
 811 005d 07010000 		.4byte	.LASF7
 812 0061 03       		.uleb128 0x3
 813 0062 04       		.byte	0x4
 814 0063 05       		.byte	0x5
 815 0064 696E7400 		.ascii	"int\000"
 816 0068 02       		.uleb128 0x2
 817 0069 04       		.byte	0x4
ARM GAS  C:\Users\SUZUKI~1\AppData\Local\Temp\ccP47L10.s 			page 17


 818 006a 07       		.byte	0x7
 819 006b FA000000 		.4byte	.LASF8
 820 006f 02       		.uleb128 0x2
 821 0070 01       		.byte	0x1
 822 0071 08       		.byte	0x8
 823 0072 2F010000 		.4byte	.LASF9
 824 0076 04       		.uleb128 0x4
 825 0077 3E010000 		.4byte	.LASF10
 826 007b 02       		.byte	0x2
 827 007c 60       		.byte	0x60
 828 007d 30000000 		.4byte	0x30
 829 0081 04       		.uleb128 0x4
 830 0082 E4000000 		.4byte	.LASF11
 831 0086 02       		.byte	0x2
 832 0087 61       		.byte	0x61
 833 0088 3E000000 		.4byte	0x3e
 834 008c 04       		.uleb128 0x4
 835 008d 9D000000 		.4byte	.LASF12
 836 0091 02       		.byte	0x2
 837 0092 65       		.byte	0x65
 838 0093 37000000 		.4byte	0x37
 839 0097 05       		.uleb128 0x5
 840 0098 04       		.byte	0x4
 841 0099 07       		.byte	0x7
 842 009a 06       		.uleb128 0x6
 843 009b 76000000 		.4byte	0x76
 844 009f AA000000 		.4byte	0xaa
 845 00a3 07       		.uleb128 0x7
 846 00a4 97000000 		.4byte	0x97
 847 00a8 0F       		.byte	0xf
 848 00a9 00       		.byte	0x0
 849 00aa 08       		.uleb128 0x8
 850 00ab 01       		.byte	0x1
 851 00ac D5000000 		.4byte	.LASF23
 852 00b0 01       		.byte	0x1
 853 00b1 4B       		.byte	0x4b
 854 00b2 01       		.byte	0x1
 855 00b3 01       		.byte	0x1
 856 00b4 D6000000 		.4byte	0xd6
 857 00b8 09       		.uleb128 0x9
 858 00b9 62756600 		.ascii	"buf\000"
 859 00bd 01       		.byte	0x1
 860 00be 4B       		.byte	0x4b
 861 00bf D6000000 		.4byte	0xd6
 862 00c3 0A       		.uleb128 0xa
 863 00c4 6900     		.ascii	"i\000"
 864 00c6 01       		.byte	0x1
 865 00c7 4D       		.byte	0x4d
 866 00c8 8C000000 		.4byte	0x8c
 867 00cc 0A       		.uleb128 0xa
 868 00cd 6A00     		.ascii	"j\000"
 869 00cf 01       		.byte	0x1
 870 00d0 4D       		.byte	0x4d
 871 00d1 8C000000 		.4byte	0x8c
 872 00d5 00       		.byte	0x0
 873 00d6 0B       		.uleb128 0xb
 874 00d7 04       		.byte	0x4
ARM GAS  C:\Users\SUZUKI~1\AppData\Local\Temp\ccP47L10.s 			page 18


 875 00d8 9A000000 		.4byte	0x9a
 876 00dc 0C       		.uleb128 0xc
 877 00dd 01       		.byte	0x1
 878 00de 0E000000 		.4byte	.LASF13
 879 00e2 01       		.byte	0x1
 880 00e3 26       		.byte	0x26
 881 00e4 01       		.byte	0x1
 882 00e5 00000000 		.4byte	.LFB30
 883 00e9 DA020000 		.4byte	.LFE30
 884 00ed 00000000 		.4byte	.LLST0
 885 00f1 17010000 		.4byte	0x117
 886 00f5 0A       		.uleb128 0xa
 887 00f6 6900     		.ascii	"i\000"
 888 00f8 01       		.byte	0x1
 889 00f9 29       		.byte	0x29
 890 00fa 61000000 		.4byte	0x61
 891 00fe 0A       		.uleb128 0xa
 892 00ff 6A00     		.ascii	"j\000"
 893 0101 01       		.byte	0x1
 894 0102 29       		.byte	0x29
 895 0103 61000000 		.4byte	0x61
 896 0107 0D       		.uleb128 0xd
 897 0108 62756600 		.ascii	"buf\000"
 898 010c 01       		.byte	0x1
 899 010d 2A       		.byte	0x2a
 900 010e 76000000 		.4byte	0x76
 901 0112 1F000000 		.4byte	.LLST1
 902 0116 00       		.byte	0x0
 903 0117 0E       		.uleb128 0xe
 904 0118 AA000000 		.4byte	0xaa
 905 011c 00000000 		.4byte	.LFB32
 906 0120 54000000 		.4byte	.LFE32
 907 0124 01       		.byte	0x1
 908 0125 5D       		.byte	0x5d
 909 0126 3E010000 		.4byte	0x13e
 910 012a 0F       		.uleb128 0xf
 911 012b B8000000 		.4byte	0xb8
 912 012f D7000000 		.4byte	.LLST3
 913 0133 10       		.uleb128 0x10
 914 0134 C3000000 		.4byte	0xc3
 915 0138 10       		.uleb128 0x10
 916 0139 CC000000 		.4byte	0xcc
 917 013d 00       		.byte	0x0
 918 013e 0C       		.uleb128 0xc
 919 013f 01       		.byte	0x1
 920 0140 8B000000 		.4byte	.LASF14
 921 0144 01       		.byte	0x1
 922 0145 56       		.byte	0x56
 923 0146 01       		.byte	0x1
 924 0147 00000000 		.4byte	.LFB33
 925 014b 10000000 		.4byte	.LFE33
 926 014f EA000000 		.4byte	.LLST4
 927 0153 67010000 		.4byte	0x167
 928 0157 11       		.uleb128 0x11
 929 0158 6A000000 		.4byte	.LASF24
 930 015c 01       		.byte	0x1
 931 015d 56       		.byte	0x56
ARM GAS  C:\Users\SUZUKI~1\AppData\Local\Temp\ccP47L10.s 			page 19


 932 015e 81000000 		.4byte	0x81
 933 0162 09010000 		.4byte	.LLST5
 934 0166 00       		.byte	0x0
 935 0167 0C       		.uleb128 0xc
 936 0168 01       		.byte	0x1
 937 0169 1F000000 		.4byte	.LASF15
 938 016d 01       		.byte	0x1
 939 016e 36       		.byte	0x36
 940 016f 01       		.byte	0x1
 941 0170 00000000 		.4byte	.LFB31
 942 0174 8E000000 		.4byte	.LFE31
 943 0178 1C010000 		.4byte	.LLST6
 944 017c B5010000 		.4byte	0x1b5
 945 0180 0A       		.uleb128 0xa
 946 0181 72657400 		.ascii	"ret\000"
 947 0185 01       		.byte	0x1
 948 0186 38       		.byte	0x38
 949 0187 76000000 		.4byte	0x76
 950 018b 12       		.uleb128 0x12
 951 018c AA000000 		.4byte	0xaa
 952 0190 1E000000 		.4byte	.LBB4
 953 0194 6C000000 		.4byte	.LBE4
 954 0198 01       		.byte	0x1
 955 0199 3D       		.byte	0x3d
 956 019a 13       		.uleb128 0x13
 957 019b 2A010000 		.4byte	0x12a
 958 019f 14       		.uleb128 0x14
 959 01a0 1E000000 		.4byte	.LBB5
 960 01a4 6C000000 		.4byte	.LBE5
 961 01a8 10       		.uleb128 0x10
 962 01a9 C3000000 		.4byte	0xc3
 963 01ad 10       		.uleb128 0x10
 964 01ae CC000000 		.4byte	0xcc
 965 01b2 00       		.byte	0x0
 966 01b3 00       		.byte	0x0
 967 01b4 00       		.byte	0x0
 968 01b5 15       		.uleb128 0x15
 969 01b6 01       		.byte	0x1
 970 01b7 1E010000 		.4byte	.LASF25
 971 01bb 01       		.byte	0x1
 972 01bc 1D       		.byte	0x1d
 973 01bd 00000000 		.4byte	.LFB29
 974 01c1 08000000 		.4byte	.LFE29
 975 01c5 3B010000 		.4byte	.LLST7
 976 01c9 D7010000 		.4byte	0x1d7
 977 01cd 0A       		.uleb128 0xa
 978 01ce 6900     		.ascii	"i\000"
 979 01d0 01       		.byte	0x1
 980 01d1 1F       		.byte	0x1f
 981 01d2 61000000 		.4byte	0x61
 982 01d6 00       		.byte	0x0
 983 01d7 16       		.uleb128 0x16
 984 01d8 C8000000 		.4byte	.LASF16
 985 01dc 03       		.byte	0x3
 986 01dd CE06     		.2byte	0x6ce
 987 01df E5010000 		.4byte	0x1e5
 988 01e3 01       		.byte	0x1
ARM GAS  C:\Users\SUZUKI~1\AppData\Local\Temp\ccP47L10.s 			page 20


 989 01e4 01       		.byte	0x1
 990 01e5 17       		.uleb128 0x17
 991 01e6 61000000 		.4byte	0x61
 992 01ea 06       		.uleb128 0x6
 993 01eb 76000000 		.4byte	0x76
 994 01ef 00020000 		.4byte	0x200
 995 01f3 07       		.uleb128 0x7
 996 01f4 97000000 		.4byte	0x97
 997 01f8 5F       		.byte	0x5f
 998 01f9 07       		.uleb128 0x7
 999 01fa 97000000 		.4byte	0x97
 1000 01fe 0F       		.byte	0xf
 1001 01ff 00       		.byte	0x0
 1002 0200 18       		.uleb128 0x18
 1003 0201 61000000 		.4byte	.LASF17
 1004 0205 01       		.byte	0x1
 1005 0206 18       		.byte	0x18
 1006 0207 EA010000 		.4byte	0x1ea
 1007 020b 01       		.byte	0x1
 1008 020c 05       		.byte	0x5
 1009 020d 03       		.byte	0x3
 1010 020e 00000000 		.4byte	disp_buf
 1011 0212 19       		.uleb128 0x19
 1012 0213 EB000000 		.4byte	.LASF18
 1013 0217 01       		.byte	0x1
 1014 0218 1A       		.byte	0x1a
 1015 0219 EA010000 		.4byte	0x1ea
 1016 021d 01       		.byte	0x1
 1017 021e 01       		.byte	0x1
 1018 021f 19       		.uleb128 0x19
 1019 0220 70000000 		.4byte	.LASF19
 1020 0224 01       		.byte	0x1
 1021 0225 1B       		.byte	0x1b
 1022 0226 EA010000 		.4byte	0x1ea
 1023 022a 01       		.byte	0x1
 1024 022b 01       		.byte	0x1
 1025 022c 00       		.byte	0x0
 1026              		.section	.debug_abbrev
 1027 0000 01       		.uleb128 0x1
 1028 0001 11       		.uleb128 0x11
 1029 0002 01       		.byte	0x1
 1030 0003 25       		.uleb128 0x25
 1031 0004 0E       		.uleb128 0xe
 1032 0005 13       		.uleb128 0x13
 1033 0006 0B       		.uleb128 0xb
 1034 0007 03       		.uleb128 0x3
 1035 0008 0E       		.uleb128 0xe
 1036 0009 1B       		.uleb128 0x1b
 1037 000a 0E       		.uleb128 0xe
 1038 000b 11       		.uleb128 0x11
 1039 000c 01       		.uleb128 0x1
 1040 000d 52       		.uleb128 0x52
 1041 000e 01       		.uleb128 0x1
 1042 000f 55       		.uleb128 0x55
 1043 0010 06       		.uleb128 0x6
 1044 0011 10       		.uleb128 0x10
 1045 0012 06       		.uleb128 0x6
ARM GAS  C:\Users\SUZUKI~1\AppData\Local\Temp\ccP47L10.s 			page 21


 1046 0013 00       		.byte	0x0
 1047 0014 00       		.byte	0x0
 1048 0015 02       		.uleb128 0x2
 1049 0016 24       		.uleb128 0x24
 1050 0017 00       		.byte	0x0
 1051 0018 0B       		.uleb128 0xb
 1052 0019 0B       		.uleb128 0xb
 1053 001a 3E       		.uleb128 0x3e
 1054 001b 0B       		.uleb128 0xb
 1055 001c 03       		.uleb128 0x3
 1056 001d 0E       		.uleb128 0xe
 1057 001e 00       		.byte	0x0
 1058 001f 00       		.byte	0x0
 1059 0020 03       		.uleb128 0x3
 1060 0021 24       		.uleb128 0x24
 1061 0022 00       		.byte	0x0
 1062 0023 0B       		.uleb128 0xb
 1063 0024 0B       		.uleb128 0xb
 1064 0025 3E       		.uleb128 0x3e
 1065 0026 0B       		.uleb128 0xb
 1066 0027 03       		.uleb128 0x3
 1067 0028 08       		.uleb128 0x8
 1068 0029 00       		.byte	0x0
 1069 002a 00       		.byte	0x0
 1070 002b 04       		.uleb128 0x4
 1071 002c 16       		.uleb128 0x16
 1072 002d 00       		.byte	0x0
 1073 002e 03       		.uleb128 0x3
 1074 002f 0E       		.uleb128 0xe
 1075 0030 3A       		.uleb128 0x3a
 1076 0031 0B       		.uleb128 0xb
 1077 0032 3B       		.uleb128 0x3b
 1078 0033 0B       		.uleb128 0xb
 1079 0034 49       		.uleb128 0x49
 1080 0035 13       		.uleb128 0x13
 1081 0036 00       		.byte	0x0
 1082 0037 00       		.byte	0x0
 1083 0038 05       		.uleb128 0x5
 1084 0039 24       		.uleb128 0x24
 1085 003a 00       		.byte	0x0
 1086 003b 0B       		.uleb128 0xb
 1087 003c 0B       		.uleb128 0xb
 1088 003d 3E       		.uleb128 0x3e
 1089 003e 0B       		.uleb128 0xb
 1090 003f 00       		.byte	0x0
 1091 0040 00       		.byte	0x0
 1092 0041 06       		.uleb128 0x6
 1093 0042 01       		.uleb128 0x1
 1094 0043 01       		.byte	0x1
 1095 0044 49       		.uleb128 0x49
 1096 0045 13       		.uleb128 0x13
 1097 0046 01       		.uleb128 0x1
 1098 0047 13       		.uleb128 0x13
 1099 0048 00       		.byte	0x0
 1100 0049 00       		.byte	0x0
 1101 004a 07       		.uleb128 0x7
 1102 004b 21       		.uleb128 0x21
ARM GAS  C:\Users\SUZUKI~1\AppData\Local\Temp\ccP47L10.s 			page 22


 1103 004c 00       		.byte	0x0
 1104 004d 49       		.uleb128 0x49
 1105 004e 13       		.uleb128 0x13
 1106 004f 2F       		.uleb128 0x2f
 1107 0050 0B       		.uleb128 0xb
 1108 0051 00       		.byte	0x0
 1109 0052 00       		.byte	0x0
 1110 0053 08       		.uleb128 0x8
 1111 0054 2E       		.uleb128 0x2e
 1112 0055 01       		.byte	0x1
 1113 0056 3F       		.uleb128 0x3f
 1114 0057 0C       		.uleb128 0xc
 1115 0058 03       		.uleb128 0x3
 1116 0059 0E       		.uleb128 0xe
 1117 005a 3A       		.uleb128 0x3a
 1118 005b 0B       		.uleb128 0xb
 1119 005c 3B       		.uleb128 0x3b
 1120 005d 0B       		.uleb128 0xb
 1121 005e 27       		.uleb128 0x27
 1122 005f 0C       		.uleb128 0xc
 1123 0060 20       		.uleb128 0x20
 1124 0061 0B       		.uleb128 0xb
 1125 0062 01       		.uleb128 0x1
 1126 0063 13       		.uleb128 0x13
 1127 0064 00       		.byte	0x0
 1128 0065 00       		.byte	0x0
 1129 0066 09       		.uleb128 0x9
 1130 0067 05       		.uleb128 0x5
 1131 0068 00       		.byte	0x0
 1132 0069 03       		.uleb128 0x3
 1133 006a 08       		.uleb128 0x8
 1134 006b 3A       		.uleb128 0x3a
 1135 006c 0B       		.uleb128 0xb
 1136 006d 3B       		.uleb128 0x3b
 1137 006e 0B       		.uleb128 0xb
 1138 006f 49       		.uleb128 0x49
 1139 0070 13       		.uleb128 0x13
 1140 0071 00       		.byte	0x0
 1141 0072 00       		.byte	0x0
 1142 0073 0A       		.uleb128 0xa
 1143 0074 34       		.uleb128 0x34
 1144 0075 00       		.byte	0x0
 1145 0076 03       		.uleb128 0x3
 1146 0077 08       		.uleb128 0x8
 1147 0078 3A       		.uleb128 0x3a
 1148 0079 0B       		.uleb128 0xb
 1149 007a 3B       		.uleb128 0x3b
 1150 007b 0B       		.uleb128 0xb
 1151 007c 49       		.uleb128 0x49
 1152 007d 13       		.uleb128 0x13
 1153 007e 00       		.byte	0x0
 1154 007f 00       		.byte	0x0
 1155 0080 0B       		.uleb128 0xb
 1156 0081 0F       		.uleb128 0xf
 1157 0082 00       		.byte	0x0
 1158 0083 0B       		.uleb128 0xb
 1159 0084 0B       		.uleb128 0xb
ARM GAS  C:\Users\SUZUKI~1\AppData\Local\Temp\ccP47L10.s 			page 23


 1160 0085 49       		.uleb128 0x49
 1161 0086 13       		.uleb128 0x13
 1162 0087 00       		.byte	0x0
 1163 0088 00       		.byte	0x0
 1164 0089 0C       		.uleb128 0xc
 1165 008a 2E       		.uleb128 0x2e
 1166 008b 01       		.byte	0x1
 1167 008c 3F       		.uleb128 0x3f
 1168 008d 0C       		.uleb128 0xc
 1169 008e 03       		.uleb128 0x3
 1170 008f 0E       		.uleb128 0xe
 1171 0090 3A       		.uleb128 0x3a
 1172 0091 0B       		.uleb128 0xb
 1173 0092 3B       		.uleb128 0x3b
 1174 0093 0B       		.uleb128 0xb
 1175 0094 27       		.uleb128 0x27
 1176 0095 0C       		.uleb128 0xc
 1177 0096 11       		.uleb128 0x11
 1178 0097 01       		.uleb128 0x1
 1179 0098 12       		.uleb128 0x12
 1180 0099 01       		.uleb128 0x1
 1181 009a 40       		.uleb128 0x40
 1182 009b 06       		.uleb128 0x6
 1183 009c 01       		.uleb128 0x1
 1184 009d 13       		.uleb128 0x13
 1185 009e 00       		.byte	0x0
 1186 009f 00       		.byte	0x0
 1187 00a0 0D       		.uleb128 0xd
 1188 00a1 34       		.uleb128 0x34
 1189 00a2 00       		.byte	0x0
 1190 00a3 03       		.uleb128 0x3
 1191 00a4 08       		.uleb128 0x8
 1192 00a5 3A       		.uleb128 0x3a
 1193 00a6 0B       		.uleb128 0xb
 1194 00a7 3B       		.uleb128 0x3b
 1195 00a8 0B       		.uleb128 0xb
 1196 00a9 49       		.uleb128 0x49
 1197 00aa 13       		.uleb128 0x13
 1198 00ab 02       		.uleb128 0x2
 1199 00ac 06       		.uleb128 0x6
 1200 00ad 00       		.byte	0x0
 1201 00ae 00       		.byte	0x0
 1202 00af 0E       		.uleb128 0xe
 1203 00b0 2E       		.uleb128 0x2e
 1204 00b1 01       		.byte	0x1
 1205 00b2 31       		.uleb128 0x31
 1206 00b3 13       		.uleb128 0x13
 1207 00b4 11       		.uleb128 0x11
 1208 00b5 01       		.uleb128 0x1
 1209 00b6 12       		.uleb128 0x12
 1210 00b7 01       		.uleb128 0x1
 1211 00b8 40       		.uleb128 0x40
 1212 00b9 0A       		.uleb128 0xa
 1213 00ba 01       		.uleb128 0x1
 1214 00bb 13       		.uleb128 0x13
 1215 00bc 00       		.byte	0x0
 1216 00bd 00       		.byte	0x0
ARM GAS  C:\Users\SUZUKI~1\AppData\Local\Temp\ccP47L10.s 			page 24


 1217 00be 0F       		.uleb128 0xf
 1218 00bf 05       		.uleb128 0x5
 1219 00c0 00       		.byte	0x0
 1220 00c1 31       		.uleb128 0x31
 1221 00c2 13       		.uleb128 0x13
 1222 00c3 02       		.uleb128 0x2
 1223 00c4 06       		.uleb128 0x6
 1224 00c5 00       		.byte	0x0
 1225 00c6 00       		.byte	0x0
 1226 00c7 10       		.uleb128 0x10
 1227 00c8 34       		.uleb128 0x34
 1228 00c9 00       		.byte	0x0
 1229 00ca 31       		.uleb128 0x31
 1230 00cb 13       		.uleb128 0x13
 1231 00cc 00       		.byte	0x0
 1232 00cd 00       		.byte	0x0
 1233 00ce 11       		.uleb128 0x11
 1234 00cf 05       		.uleb128 0x5
 1235 00d0 00       		.byte	0x0
 1236 00d1 03       		.uleb128 0x3
 1237 00d2 0E       		.uleb128 0xe
 1238 00d3 3A       		.uleb128 0x3a
 1239 00d4 0B       		.uleb128 0xb
 1240 00d5 3B       		.uleb128 0x3b
 1241 00d6 0B       		.uleb128 0xb
 1242 00d7 49       		.uleb128 0x49
 1243 00d8 13       		.uleb128 0x13
 1244 00d9 02       		.uleb128 0x2
 1245 00da 06       		.uleb128 0x6
 1246 00db 00       		.byte	0x0
 1247 00dc 00       		.byte	0x0
 1248 00dd 12       		.uleb128 0x12
 1249 00de 1D       		.uleb128 0x1d
 1250 00df 01       		.byte	0x1
 1251 00e0 31       		.uleb128 0x31
 1252 00e1 13       		.uleb128 0x13
 1253 00e2 11       		.uleb128 0x11
 1254 00e3 01       		.uleb128 0x1
 1255 00e4 12       		.uleb128 0x12
 1256 00e5 01       		.uleb128 0x1
 1257 00e6 58       		.uleb128 0x58
 1258 00e7 0B       		.uleb128 0xb
 1259 00e8 59       		.uleb128 0x59
 1260 00e9 0B       		.uleb128 0xb
 1261 00ea 00       		.byte	0x0
 1262 00eb 00       		.byte	0x0
 1263 00ec 13       		.uleb128 0x13
 1264 00ed 05       		.uleb128 0x5
 1265 00ee 00       		.byte	0x0
 1266 00ef 31       		.uleb128 0x31
 1267 00f0 13       		.uleb128 0x13
 1268 00f1 00       		.byte	0x0
 1269 00f2 00       		.byte	0x0
 1270 00f3 14       		.uleb128 0x14
 1271 00f4 0B       		.uleb128 0xb
 1272 00f5 01       		.byte	0x1
 1273 00f6 11       		.uleb128 0x11
ARM GAS  C:\Users\SUZUKI~1\AppData\Local\Temp\ccP47L10.s 			page 25


 1274 00f7 01       		.uleb128 0x1
 1275 00f8 12       		.uleb128 0x12
 1276 00f9 01       		.uleb128 0x1
 1277 00fa 00       		.byte	0x0
 1278 00fb 00       		.byte	0x0
 1279 00fc 15       		.uleb128 0x15
 1280 00fd 2E       		.uleb128 0x2e
 1281 00fe 01       		.byte	0x1
 1282 00ff 3F       		.uleb128 0x3f
 1283 0100 0C       		.uleb128 0xc
 1284 0101 03       		.uleb128 0x3
 1285 0102 0E       		.uleb128 0xe
 1286 0103 3A       		.uleb128 0x3a
 1287 0104 0B       		.uleb128 0xb
 1288 0105 3B       		.uleb128 0x3b
 1289 0106 0B       		.uleb128 0xb
 1290 0107 11       		.uleb128 0x11
 1291 0108 01       		.uleb128 0x1
 1292 0109 12       		.uleb128 0x12
 1293 010a 01       		.uleb128 0x1
 1294 010b 40       		.uleb128 0x40
 1295 010c 06       		.uleb128 0x6
 1296 010d 01       		.uleb128 0x1
 1297 010e 13       		.uleb128 0x13
 1298 010f 00       		.byte	0x0
 1299 0110 00       		.byte	0x0
 1300 0111 16       		.uleb128 0x16
 1301 0112 34       		.uleb128 0x34
 1302 0113 00       		.byte	0x0
 1303 0114 03       		.uleb128 0x3
 1304 0115 0E       		.uleb128 0xe
 1305 0116 3A       		.uleb128 0x3a
 1306 0117 0B       		.uleb128 0xb
 1307 0118 3B       		.uleb128 0x3b
 1308 0119 05       		.uleb128 0x5
 1309 011a 49       		.uleb128 0x49
 1310 011b 13       		.uleb128 0x13
 1311 011c 3F       		.uleb128 0x3f
 1312 011d 0C       		.uleb128 0xc
 1313 011e 3C       		.uleb128 0x3c
 1314 011f 0C       		.uleb128 0xc
 1315 0120 00       		.byte	0x0
 1316 0121 00       		.byte	0x0
 1317 0122 17       		.uleb128 0x17
 1318 0123 35       		.uleb128 0x35
 1319 0124 00       		.byte	0x0
 1320 0125 49       		.uleb128 0x49
 1321 0126 13       		.uleb128 0x13
 1322 0127 00       		.byte	0x0
 1323 0128 00       		.byte	0x0
 1324 0129 18       		.uleb128 0x18
 1325 012a 34       		.uleb128 0x34
 1326 012b 00       		.byte	0x0
 1327 012c 03       		.uleb128 0x3
 1328 012d 0E       		.uleb128 0xe
 1329 012e 3A       		.uleb128 0x3a
 1330 012f 0B       		.uleb128 0xb
ARM GAS  C:\Users\SUZUKI~1\AppData\Local\Temp\ccP47L10.s 			page 26


 1331 0130 3B       		.uleb128 0x3b
 1332 0131 0B       		.uleb128 0xb
 1333 0132 49       		.uleb128 0x49
 1334 0133 13       		.uleb128 0x13
 1335 0134 3F       		.uleb128 0x3f
 1336 0135 0C       		.uleb128 0xc
 1337 0136 02       		.uleb128 0x2
 1338 0137 0A       		.uleb128 0xa
 1339 0138 00       		.byte	0x0
 1340 0139 00       		.byte	0x0
 1341 013a 19       		.uleb128 0x19
 1342 013b 34       		.uleb128 0x34
 1343 013c 00       		.byte	0x0
 1344 013d 03       		.uleb128 0x3
 1345 013e 0E       		.uleb128 0xe
 1346 013f 3A       		.uleb128 0x3a
 1347 0140 0B       		.uleb128 0xb
 1348 0141 3B       		.uleb128 0x3b
 1349 0142 0B       		.uleb128 0xb
 1350 0143 49       		.uleb128 0x49
 1351 0144 13       		.uleb128 0x13
 1352 0145 3F       		.uleb128 0x3f
 1353 0146 0C       		.uleb128 0xc
 1354 0147 3C       		.uleb128 0x3c
 1355 0148 0C       		.uleb128 0xc
 1356 0149 00       		.byte	0x0
 1357 014a 00       		.byte	0x0
 1358 014b 00       		.byte	0x0
 1359              		.section	.debug_pubnames,"",%progbits
 1360 0000 68000000 		.4byte	0x68
 1361 0004 0200     		.2byte	0x2
 1362 0006 00000000 		.4byte	.Ldebug_info0
 1363 000a 2D020000 		.4byte	0x22d
 1364 000e DC000000 		.4byte	0xdc
 1365 0012 6D697864 		.ascii	"mixdisplaybuffer\000"
 1365      6973706C 
 1365      61796275 
 1365      66666572 
 1365      00
 1366 0023 17010000 		.4byte	0x117
 1367 0027 6275665F 		.ascii	"buf_initialize\000"
 1367      696E6974 
 1367      69616C69 
 1367      7A6500
 1368 0036 3E010000 		.4byte	0x13e
 1369 003a 64656C61 		.ascii	"delay_ms\000"
 1369      795F6D73 
 1369      00
 1370 0043 67010000 		.4byte	0x167
 1371 0047 696E6974 		.ascii	"initialize\000"
 1371      69616C69 
 1371      7A6500
 1372 0052 B5010000 		.4byte	0x1b5
 1373 0056 6D61696E 		.ascii	"main\000"
 1373      00
 1374 005b 00020000 		.4byte	0x200
 1375 005f 64697370 		.ascii	"disp_buf\000"
ARM GAS  C:\Users\SUZUKI~1\AppData\Local\Temp\ccP47L10.s 			page 27


 1375      5F627566 
 1375      00
 1376 0068 00000000 		.4byte	0x0
 1377              		.section	.debug_aranges,"",%progbits
 1378 0000 3C000000 		.4byte	0x3c
 1379 0004 0200     		.2byte	0x2
 1380 0006 00000000 		.4byte	.Ldebug_info0
 1381 000a 04       		.byte	0x4
 1382 000b 00       		.byte	0x0
 1383 000c 0000     		.2byte	0x0
 1384 000e 0000     		.2byte	0x0
 1385 0010 00000000 		.4byte	.LFB30
 1386 0014 DA020000 		.4byte	.LFE30-.LFB30
 1387 0018 00000000 		.4byte	.LFB32
 1388 001c 54000000 		.4byte	.LFE32-.LFB32
 1389 0020 00000000 		.4byte	.LFB33
 1390 0024 10000000 		.4byte	.LFE33-.LFB33
 1391 0028 00000000 		.4byte	.LFB31
 1392 002c 8E000000 		.4byte	.LFE31-.LFB31
 1393 0030 00000000 		.4byte	.LFB29
 1394 0034 08000000 		.4byte	.LFE29-.LFB29
 1395 0038 00000000 		.4byte	0x0
 1396 003c 00000000 		.4byte	0x0
 1397              		.section	.debug_ranges,"",%progbits
 1398              	.Ldebug_ranges0:
 1399 0000 00000000 		.4byte	.Ltext0
 1400 0004 00000000 		.4byte	.Letext0
 1401 0008 00000000 		.4byte	.LFB30
 1402 000c DA020000 		.4byte	.LFE30
 1403 0010 00000000 		.4byte	.LFB32
 1404 0014 54000000 		.4byte	.LFE32
 1405 0018 00000000 		.4byte	.LFB33
 1406 001c 10000000 		.4byte	.LFE33
 1407 0020 00000000 		.4byte	.LFB31
 1408 0024 8E000000 		.4byte	.LFE31
 1409 0028 00000000 		.4byte	.LFB29
 1410 002c 08000000 		.4byte	.LFE29
 1411 0030 00000000 		.4byte	0x0
 1412 0034 00000000 		.4byte	0x0
 1413              		.section	.debug_str,"MS",%progbits,1
 1414              	.LASF6:
 1415 0000 6C6F6E67 		.ascii	"long long int\000"
 1415      206C6F6E 
 1415      6720696E 
 1415      7400
 1416              	.LASF13:
 1417 000e 6D697864 		.ascii	"mixdisplaybuffer\000"
 1417      6973706C 
 1417      61796275 
 1417      66666572 
 1417      00
 1418              	.LASF15:
 1419 001f 696E6974 		.ascii	"initialize\000"
 1419      69616C69 
 1419      7A6500
 1420              	.LASF22:
 1421 002a 463A5C44 		.ascii	"F:\\Documents\\PSoC_Creator\\ledmatrix\\ledmatrixff"
ARM GAS  C:\Users\SUZUKI~1\AppData\Local\Temp\ccP47L10.s 			page 28


 1421      6F63756D 
 1421      656E7473 
 1421      5C50536F 
 1421      435F4372 
 1422 0059 742E6379 		.ascii	"t.cydsn\000"
 1422      64736E00 
 1423              	.LASF17:
 1424 0061 64697370 		.ascii	"disp_buf\000"
 1424      5F627566 
 1424      00
 1425              	.LASF24:
 1426 006a 64656C61 		.ascii	"delay\000"
 1426      7900
 1427              	.LASF19:
 1428 0070 6666745F 		.ascii	"fft_disp_buf\000"
 1428      64697370 
 1428      5F627566 
 1428      00
 1429              	.LASF1:
 1430 007d 756E7369 		.ascii	"unsigned char\000"
 1430      676E6564 
 1430      20636861 
 1430      7200
 1431              	.LASF14:
 1432 008b 64656C61 		.ascii	"delay_ms\000"
 1432      795F6D73 
 1432      00
 1433              	.LASF21:
 1434 0094 2E5C6D61 		.ascii	".\\main.c\000"
 1434      696E2E63 
 1434      00
 1435              	.LASF12:
 1436 009d 696E7431 		.ascii	"int16\000"
 1436      3600
 1437              	.LASF5:
 1438 00a3 6C6F6E67 		.ascii	"long unsigned int\000"
 1438      20756E73 
 1438      69676E65 
 1438      6420696E 
 1438      7400
 1439              	.LASF3:
 1440 00b5 73686F72 		.ascii	"short unsigned int\000"
 1440      7420756E 
 1440      7369676E 
 1440      65642069 
 1440      6E7400
 1441              	.LASF16:
 1442 00c8 49544D5F 		.ascii	"ITM_RxBuffer\000"
 1442      52784275 
 1442      66666572 
 1442      00
 1443              	.LASF23:
 1444 00d5 6275665F 		.ascii	"buf_initialize\000"
 1444      696E6974 
 1444      69616C69 
 1444      7A6500
 1445              	.LASF11:
ARM GAS  C:\Users\SUZUKI~1\AppData\Local\Temp\ccP47L10.s 			page 29


 1446 00e4 75696E74 		.ascii	"uint16\000"
 1446      313600
 1447              	.LASF18:
 1448 00eb 636C6F63 		.ascii	"clock_disp_buf\000"
 1448      6B5F6469 
 1448      73705F62 
 1448      756600
 1449              	.LASF8:
 1450 00fa 756E7369 		.ascii	"unsigned int\000"
 1450      676E6564 
 1450      20696E74 
 1450      00
 1451              	.LASF7:
 1452 0107 6C6F6E67 		.ascii	"long long unsigned int\000"
 1452      206C6F6E 
 1452      6720756E 
 1452      7369676E 
 1452      65642069 
 1453              	.LASF25:
 1454 011e 6D61696E 		.ascii	"main\000"
 1454      00
 1455              	.LASF20:
 1456 0123 474E5520 		.ascii	"GNU C 4.4.1\000"
 1456      4320342E 
 1456      342E3100 
 1457              	.LASF9:
 1458 012f 63686172 		.ascii	"char\000"
 1458      00
 1459              	.LASF2:
 1460 0134 73686F72 		.ascii	"short int\000"
 1460      7420696E 
 1460      7400
 1461              	.LASF10:
 1462 013e 75696E74 		.ascii	"uint8\000"
 1462      3800
 1463              	.LASF4:
 1464 0144 6C6F6E67 		.ascii	"long int\000"
 1464      20696E74 
 1464      00
 1465              	.LASF0:
 1466 014d 7369676E 		.ascii	"signed char\000"
 1466      65642063 
 1466      68617200 
 1467              		.ident	"GCC: (Sourcery G++ Lite 2010q1-188) 4.4.1"
