ARM GAS  C:\Users\SUZUKI~1\AppData\Local\Temp\ccGVrOUy.s 			page 1


   1              		.syntax unified
   2              		.cpu cortex-m3
   3              		.fpu softvfp
   4              		.eabi_attribute 20, 1
   5              		.eabi_attribute 21, 1
   6              		.eabi_attribute 23, 3
   7              		.eabi_attribute 24, 1
   8              		.eabi_attribute 25, 1
   9              		.eabi_attribute 26, 1
  10              		.eabi_attribute 30, 2
  11              		.eabi_attribute 18, 4
  12              		.thumb
  13              		.file	"MOSI_1.c"
  14              		.section	.debug_abbrev,"",%progbits
  15              	.Ldebug_abbrev0:
  16              		.section	.debug_info,"",%progbits
  17              	.Ldebug_info0:
  18              		.section	.debug_line,"",%progbits
  19              	.Ldebug_line0:
  20 0000 AC000000 		.text
  20      02005F00 
  20      00000201 
  20      FB0E0D00 
  20      01010101 
  21              	.Ltext0:
  22              		.cfi_sections	.debug_frame
  23              		.section	.text.MOSI_1_Write,"ax",%progbits
  24              		.align	2
  25              		.global	MOSI_1_Write
  26              		.thumb
  27              		.thumb_func
  28              		.type	MOSI_1_Write, %function
  29              	MOSI_1_Write:
  30              	.LFB0:
  31              		.file 1 ".\\Generated_Source\\PSoC5\\MOSI_1.c"
   1:.\Generated_Source\PSoC5/MOSI_1.c **** /*******************************************************************************
   2:.\Generated_Source\PSoC5/MOSI_1.c **** * File Name: MOSI_1.c  
   3:.\Generated_Source\PSoC5/MOSI_1.c **** * Version 1.70
   4:.\Generated_Source\PSoC5/MOSI_1.c **** *
   5:.\Generated_Source\PSoC5/MOSI_1.c **** * Description:
   6:.\Generated_Source\PSoC5/MOSI_1.c **** *  This file contains API to enable firmware control of a Pins component.
   7:.\Generated_Source\PSoC5/MOSI_1.c **** *
   8:.\Generated_Source\PSoC5/MOSI_1.c **** * Note:
   9:.\Generated_Source\PSoC5/MOSI_1.c **** *
  10:.\Generated_Source\PSoC5/MOSI_1.c **** ********************************************************************************
  11:.\Generated_Source\PSoC5/MOSI_1.c **** * Copyright 2008-2010, Cypress Semiconductor Corporation.  All rights reserved.
  12:.\Generated_Source\PSoC5/MOSI_1.c **** * You may use this file only in accordance with the license, terms, conditions, 
  13:.\Generated_Source\PSoC5/MOSI_1.c **** * disclaimers, and limitations in the end user license agreement accompanying 
  14:.\Generated_Source\PSoC5/MOSI_1.c **** * the software package with which this file was provided.
  15:.\Generated_Source\PSoC5/MOSI_1.c **** ********************************************************************************/
  16:.\Generated_Source\PSoC5/MOSI_1.c **** 
  17:.\Generated_Source\PSoC5/MOSI_1.c **** #include "cytypes.h"
  18:.\Generated_Source\PSoC5/MOSI_1.c **** #include "MOSI_1.h"
  19:.\Generated_Source\PSoC5/MOSI_1.c **** 
  20:.\Generated_Source\PSoC5/MOSI_1.c **** /* APIs are not generated for P15[7:6] */
  21:.\Generated_Source\PSoC5/MOSI_1.c **** #if !(CY_PSOC5A &&\
  22:.\Generated_Source\PSoC5/MOSI_1.c **** 	 MOSI_1__PORT == 15 && (MOSI_1__MASK & 0xC0))
ARM GAS  C:\Users\SUZUKI~1\AppData\Local\Temp\ccGVrOUy.s 			page 2


  23:.\Generated_Source\PSoC5/MOSI_1.c **** 
  24:.\Generated_Source\PSoC5/MOSI_1.c **** /*******************************************************************************
  25:.\Generated_Source\PSoC5/MOSI_1.c **** * Function Name: MOSI_1_Write
  26:.\Generated_Source\PSoC5/MOSI_1.c **** ********************************************************************************
  27:.\Generated_Source\PSoC5/MOSI_1.c **** * Summary:
  28:.\Generated_Source\PSoC5/MOSI_1.c **** *  Assign a new value to the digital port's data output register.  
  29:.\Generated_Source\PSoC5/MOSI_1.c **** *
  30:.\Generated_Source\PSoC5/MOSI_1.c **** * Parameters:  
  31:.\Generated_Source\PSoC5/MOSI_1.c **** *  prtValue:  The value to be assigned to the Digital Port. 
  32:.\Generated_Source\PSoC5/MOSI_1.c **** *
  33:.\Generated_Source\PSoC5/MOSI_1.c **** * Return: 
  34:.\Generated_Source\PSoC5/MOSI_1.c **** *  void 
  35:.\Generated_Source\PSoC5/MOSI_1.c **** *  
  36:.\Generated_Source\PSoC5/MOSI_1.c **** *******************************************************************************/
  37:.\Generated_Source\PSoC5/MOSI_1.c **** void MOSI_1_Write(uint8 value) 
  38:.\Generated_Source\PSoC5/MOSI_1.c **** {
  32              		.loc 1 38 0
  33              		.cfi_startproc
  34              		@ args = 0, pretend = 0, frame = 0
  35              		@ frame_needed = 0, uses_anonymous_args = 0
  36              		@ link register save eliminated.
  37              	.LVL0:
  39:.\Generated_Source\PSoC5/MOSI_1.c ****     uint8 staticBits = MOSI_1_DR & ~MOSI_1_MASK;
  38              		.loc 1 39 0
  39 0000 45F25013 		movw	r3, #:lower16:1073762640
  40 0004 C4F20003 		movt	r3, #:upper16:1073762640
  41 0008 93F800C0 		ldrb	ip, [r3, #0]	@ zero_extendqisi2
  40:.\Generated_Source\PSoC5/MOSI_1.c ****     MOSI_1_DR = staticBits | ((value << MOSI_1_SHIFT) & MOSI_1_MASK);
  42              		.loc 1 40 0
  43 000c 8200     		lsls	r2, r0, #2
  44 000e 02F00400 		and	r0, r2, #4
  45              	.LVL1:
  46 0012 0CF0FB01 		and	r1, ip, #251
  47 0016 40EA0102 		orr	r2, r0, r1
  48 001a 1A70     		strb	r2, [r3, #0]
  41:.\Generated_Source\PSoC5/MOSI_1.c **** }
  49              		.loc 1 41 0
  50 001c 7047     		bx	lr
  51              		.cfi_endproc
  52              	.LFE0:
  53              		.size	MOSI_1_Write, .-MOSI_1_Write
  54 001e 00BF     		.section	.text.MOSI_1_SetDriveMode,"ax",%progbits
  55              		.align	2
  56              		.global	MOSI_1_SetDriveMode
  57              		.thumb
  58              		.thumb_func
  59              		.type	MOSI_1_SetDriveMode, %function
  60              	MOSI_1_SetDriveMode:
  61              	.LFB1:
  42:.\Generated_Source\PSoC5/MOSI_1.c **** 
  43:.\Generated_Source\PSoC5/MOSI_1.c **** 
  44:.\Generated_Source\PSoC5/MOSI_1.c **** /*******************************************************************************
  45:.\Generated_Source\PSoC5/MOSI_1.c **** * Function Name: MOSI_1_SetDriveMode
  46:.\Generated_Source\PSoC5/MOSI_1.c **** ********************************************************************************
  47:.\Generated_Source\PSoC5/MOSI_1.c **** * Summary:
  48:.\Generated_Source\PSoC5/MOSI_1.c **** *  Change the drive mode on the pins of the port.
  49:.\Generated_Source\PSoC5/MOSI_1.c **** * 
ARM GAS  C:\Users\SUZUKI~1\AppData\Local\Temp\ccGVrOUy.s 			page 3


  50:.\Generated_Source\PSoC5/MOSI_1.c **** * Parameters:  
  51:.\Generated_Source\PSoC5/MOSI_1.c **** *  mode:  Change the pins to this drive mode.
  52:.\Generated_Source\PSoC5/MOSI_1.c **** *
  53:.\Generated_Source\PSoC5/MOSI_1.c **** * Return: 
  54:.\Generated_Source\PSoC5/MOSI_1.c **** *  void
  55:.\Generated_Source\PSoC5/MOSI_1.c **** *
  56:.\Generated_Source\PSoC5/MOSI_1.c **** *******************************************************************************/
  57:.\Generated_Source\PSoC5/MOSI_1.c **** void MOSI_1_SetDriveMode(uint8 mode) 
  58:.\Generated_Source\PSoC5/MOSI_1.c **** {
  62              		.loc 1 58 0
  63              		.cfi_startproc
  64              		@ args = 0, pretend = 0, frame = 0
  65              		@ frame_needed = 0, uses_anonymous_args = 0
  66              		@ link register save eliminated.
  67              	.LVL2:
  59:.\Generated_Source\PSoC5/MOSI_1.c **** 	CyPins_SetPinDriveMode(MOSI_1_0, mode);
  68              		.loc 1 59 0
  69 0000 45F22A03 		movw	r3, #:lower16:1073762346
  70 0004 C4F20003 		movt	r3, #:upper16:1073762346
  71 0008 93F800C0 		ldrb	ip, [r3, #0]	@ zero_extendqisi2
  72 000c 00F00E00 		and	r0, r0, #14
  73              	.LVL3:
  74 0010 0CF0F101 		and	r1, ip, #241
  75 0014 40EA0102 		orr	r2, r0, r1
  76 0018 1A70     		strb	r2, [r3, #0]
  60:.\Generated_Source\PSoC5/MOSI_1.c **** }
  77              		.loc 1 60 0
  78 001a 7047     		bx	lr
  79              		.cfi_endproc
  80              	.LFE1:
  81              		.size	MOSI_1_SetDriveMode, .-MOSI_1_SetDriveMode
  82              		.section	.text.MOSI_1_Read,"ax",%progbits
  83              		.align	2
  84              		.global	MOSI_1_Read
  85              		.thumb
  86              		.thumb_func
  87              		.type	MOSI_1_Read, %function
  88              	MOSI_1_Read:
  89              	.LFB2:
  61:.\Generated_Source\PSoC5/MOSI_1.c **** 
  62:.\Generated_Source\PSoC5/MOSI_1.c **** 
  63:.\Generated_Source\PSoC5/MOSI_1.c **** /*******************************************************************************
  64:.\Generated_Source\PSoC5/MOSI_1.c **** * Function Name: MOSI_1_Read
  65:.\Generated_Source\PSoC5/MOSI_1.c **** ********************************************************************************
  66:.\Generated_Source\PSoC5/MOSI_1.c **** * Summary:
  67:.\Generated_Source\PSoC5/MOSI_1.c **** *  Read the current value on the pins of the Digital Port in right justified 
  68:.\Generated_Source\PSoC5/MOSI_1.c **** *  form.
  69:.\Generated_Source\PSoC5/MOSI_1.c **** *
  70:.\Generated_Source\PSoC5/MOSI_1.c **** * Parameters:  
  71:.\Generated_Source\PSoC5/MOSI_1.c **** *  void 
  72:.\Generated_Source\PSoC5/MOSI_1.c **** *
  73:.\Generated_Source\PSoC5/MOSI_1.c **** * Return: 
  74:.\Generated_Source\PSoC5/MOSI_1.c **** *  Returns the current value of the Digital Port as a right justified number
  75:.\Generated_Source\PSoC5/MOSI_1.c **** *  
  76:.\Generated_Source\PSoC5/MOSI_1.c **** * Note:
  77:.\Generated_Source\PSoC5/MOSI_1.c **** *  Macro MOSI_1_ReadPS calls this function. 
  78:.\Generated_Source\PSoC5/MOSI_1.c **** *  
ARM GAS  C:\Users\SUZUKI~1\AppData\Local\Temp\ccGVrOUy.s 			page 4


  79:.\Generated_Source\PSoC5/MOSI_1.c **** *******************************************************************************/
  80:.\Generated_Source\PSoC5/MOSI_1.c **** uint8 MOSI_1_Read(void) 
  81:.\Generated_Source\PSoC5/MOSI_1.c **** {
  90              		.loc 1 81 0
  91              		.cfi_startproc
  92              		@ args = 0, pretend = 0, frame = 0
  93              		@ frame_needed = 0, uses_anonymous_args = 0
  94              		@ link register save eliminated.
  82:.\Generated_Source\PSoC5/MOSI_1.c ****     return (MOSI_1_PS & MOSI_1_MASK) >> MOSI_1_SHIFT;
  95              		.loc 1 82 0
  96 0000 45F25113 		movw	r3, #:lower16:1073762641
  97 0004 C4F20003 		movt	r3, #:upper16:1073762641
  98 0008 1878     		ldrb	r0, [r3, #0]	@ zero_extendqisi2
  83:.\Generated_Source\PSoC5/MOSI_1.c **** }
  99              		.loc 1 83 0
 100 000a C0F38000 		ubfx	r0, r0, #2, #1
 101 000e 7047     		bx	lr
 102              		.cfi_endproc
 103              	.LFE2:
 104              		.size	MOSI_1_Read, .-MOSI_1_Read
 105              		.section	.text.MOSI_1_ReadDataReg,"ax",%progbits
 106              		.align	2
 107              		.global	MOSI_1_ReadDataReg
 108              		.thumb
 109              		.thumb_func
 110              		.type	MOSI_1_ReadDataReg, %function
 111              	MOSI_1_ReadDataReg:
 112              	.LFB3:
  84:.\Generated_Source\PSoC5/MOSI_1.c **** 
  85:.\Generated_Source\PSoC5/MOSI_1.c **** 
  86:.\Generated_Source\PSoC5/MOSI_1.c **** /*******************************************************************************
  87:.\Generated_Source\PSoC5/MOSI_1.c **** * Function Name: MOSI_1_ReadDataReg
  88:.\Generated_Source\PSoC5/MOSI_1.c **** ********************************************************************************
  89:.\Generated_Source\PSoC5/MOSI_1.c **** * Summary:
  90:.\Generated_Source\PSoC5/MOSI_1.c **** *  Read the current value assigned to a Digital Port's data output register
  91:.\Generated_Source\PSoC5/MOSI_1.c **** *
  92:.\Generated_Source\PSoC5/MOSI_1.c **** * Parameters:  
  93:.\Generated_Source\PSoC5/MOSI_1.c **** *  void 
  94:.\Generated_Source\PSoC5/MOSI_1.c **** *
  95:.\Generated_Source\PSoC5/MOSI_1.c **** * Return: 
  96:.\Generated_Source\PSoC5/MOSI_1.c **** *  Returns the current value assigned to the Digital Port's data output register
  97:.\Generated_Source\PSoC5/MOSI_1.c **** *  
  98:.\Generated_Source\PSoC5/MOSI_1.c **** *******************************************************************************/
  99:.\Generated_Source\PSoC5/MOSI_1.c **** uint8 MOSI_1_ReadDataReg(void) 
 100:.\Generated_Source\PSoC5/MOSI_1.c **** {
 113              		.loc 1 100 0
 114              		.cfi_startproc
 115              		@ args = 0, pretend = 0, frame = 0
 116              		@ frame_needed = 0, uses_anonymous_args = 0
 117              		@ link register save eliminated.
 101:.\Generated_Source\PSoC5/MOSI_1.c ****     return (MOSI_1_DR & MOSI_1_MASK) >> MOSI_1_SHIFT;
 118              		.loc 1 101 0
 119 0000 45F25013 		movw	r3, #:lower16:1073762640
 120 0004 C4F20003 		movt	r3, #:upper16:1073762640
 121 0008 1878     		ldrb	r0, [r3, #0]	@ zero_extendqisi2
 102:.\Generated_Source\PSoC5/MOSI_1.c **** }
 122              		.loc 1 102 0
ARM GAS  C:\Users\SUZUKI~1\AppData\Local\Temp\ccGVrOUy.s 			page 5


 123 000a C0F38000 		ubfx	r0, r0, #2, #1
 124 000e 7047     		bx	lr
 125              		.cfi_endproc
 126              	.LFE3:
 127              		.size	MOSI_1_ReadDataReg, .-MOSI_1_ReadDataReg
 128              		.text
 129              	.Letext0:
 130              		.section	.debug_loc,"",%progbits
 131              	.Ldebug_loc0:
 132              	.LLST1:
 133 0000 00000000 		.4byte	.LVL0
 134 0004 12000000 		.4byte	.LVL1
 135 0008 0100     		.2byte	0x1
 136 000a 50       		.byte	0x50
 137 000b 00000000 		.4byte	0x0
 138 000f 00000000 		.4byte	0x0
 139              	.LLST3:
 140 0013 00000000 		.4byte	.LVL2
 141 0017 10000000 		.4byte	.LVL3
 142 001b 0100     		.2byte	0x1
 143 001d 50       		.byte	0x50
 144 001e 00000000 		.4byte	0x0
 145 0022 00000000 		.4byte	0x0
 146              		.file 2 ".\\Generated_Source\\PSoC5\\/cytypes.h"
 147              		.section	.debug_info
 148 0000 05010000 		.4byte	0x105
 149 0004 0200     		.2byte	0x2
 150 0006 00000000 		.4byte	.Ldebug_abbrev0
 151 000a 04       		.byte	0x4
 152 000b 01       		.uleb128 0x1
 153 000c 00010000 		.4byte	.LASF16
 154 0010 01       		.byte	0x1
 155 0011 3F000000 		.4byte	.LASF17
 156 0015 61000000 		.4byte	.LASF18
 157 0019 00000000 		.4byte	0x0
 158 001d 00000000 		.4byte	0x0
 159 0021 00000000 		.4byte	.Ldebug_ranges0+0x0
 160 0025 00000000 		.4byte	.Ldebug_line0
 161 0029 02       		.uleb128 0x2
 162 002a 01       		.byte	0x1
 163 002b 06       		.byte	0x6
 164 002c 3E010000 		.4byte	.LASF0
 165 0030 02       		.uleb128 0x2
 166 0031 01       		.byte	0x1
 167 0032 08       		.byte	0x8
 168 0033 98000000 		.4byte	.LASF1
 169 0037 02       		.uleb128 0x2
 170 0038 02       		.byte	0x2
 171 0039 05       		.byte	0x5
 172 003a 11010000 		.4byte	.LASF2
 173 003e 02       		.uleb128 0x2
 174 003f 02       		.byte	0x2
 175 0040 07       		.byte	0x7
 176 0041 B8000000 		.4byte	.LASF3
 177 0045 02       		.uleb128 0x2
 178 0046 04       		.byte	0x4
 179 0047 05       		.byte	0x5
ARM GAS  C:\Users\SUZUKI~1\AppData\Local\Temp\ccGVrOUy.s 			page 6


 180 0048 35010000 		.4byte	.LASF4
 181 004c 02       		.uleb128 0x2
 182 004d 04       		.byte	0x4
 183 004e 07       		.byte	0x7
 184 004f A6000000 		.4byte	.LASF5
 185 0053 02       		.uleb128 0x2
 186 0054 08       		.byte	0x8
 187 0055 05       		.byte	0x5
 188 0056 00000000 		.4byte	.LASF6
 189 005a 02       		.uleb128 0x2
 190 005b 08       		.byte	0x8
 191 005c 07       		.byte	0x7
 192 005d E4000000 		.4byte	.LASF7
 193 0061 03       		.uleb128 0x3
 194 0062 04       		.byte	0x4
 195 0063 05       		.byte	0x5
 196 0064 696E7400 		.ascii	"int\000"
 197 0068 02       		.uleb128 0x2
 198 0069 04       		.byte	0x4
 199 006a 07       		.byte	0x7
 200 006b D7000000 		.4byte	.LASF8
 201 006f 02       		.uleb128 0x2
 202 0070 01       		.byte	0x1
 203 0071 08       		.byte	0x8
 204 0072 0C010000 		.4byte	.LASF9
 205 0076 04       		.uleb128 0x4
 206 0077 1B010000 		.4byte	.LASF19
 207 007b 02       		.byte	0x2
 208 007c 60       		.byte	0x60
 209 007d 30000000 		.4byte	0x30
 210 0081 05       		.uleb128 0x5
 211 0082 01       		.byte	0x1
 212 0083 21000000 		.4byte	.LASF10
 213 0087 01       		.byte	0x1
 214 0088 25       		.byte	0x25
 215 0089 01       		.byte	0x1
 216 008a 00000000 		.4byte	.LFB0
 217 008e 1E000000 		.4byte	.LFE0
 218 0092 01       		.byte	0x1
 219 0093 5D       		.byte	0x5d
 220 0094 B3000000 		.4byte	0xb3
 221 0098 06       		.uleb128 0x6
 222 0099 2E000000 		.4byte	.LASF12
 223 009d 01       		.byte	0x1
 224 009e 25       		.byte	0x25
 225 009f 76000000 		.4byte	0x76
 226 00a3 00000000 		.4byte	.LLST1
 227 00a7 07       		.uleb128 0x7
 228 00a8 34000000 		.4byte	.LASF20
 229 00ac 01       		.byte	0x1
 230 00ad 27       		.byte	0x27
 231 00ae 76000000 		.4byte	0x76
 232 00b2 00       		.byte	0x0
 233 00b3 05       		.uleb128 0x5
 234 00b4 01       		.byte	0x1
 235 00b5 21010000 		.4byte	.LASF11
 236 00b9 01       		.byte	0x1
ARM GAS  C:\Users\SUZUKI~1\AppData\Local\Temp\ccGVrOUy.s 			page 7


 237 00ba 39       		.byte	0x39
 238 00bb 01       		.byte	0x1
 239 00bc 00000000 		.4byte	.LFB1
 240 00c0 1C000000 		.4byte	.LFE1
 241 00c4 01       		.byte	0x1
 242 00c5 5D       		.byte	0x5d
 243 00c6 DA000000 		.4byte	0xda
 244 00ca 06       		.uleb128 0x6
 245 00cb FB000000 		.4byte	.LASF13
 246 00cf 01       		.byte	0x1
 247 00d0 39       		.byte	0x39
 248 00d1 76000000 		.4byte	0x76
 249 00d5 13000000 		.4byte	.LLST3
 250 00d9 00       		.byte	0x0
 251 00da 08       		.uleb128 0x8
 252 00db 01       		.byte	0x1
 253 00dc CB000000 		.4byte	.LASF14
 254 00e0 01       		.byte	0x1
 255 00e1 50       		.byte	0x50
 256 00e2 01       		.byte	0x1
 257 00e3 76000000 		.4byte	0x76
 258 00e7 00000000 		.4byte	.LFB2
 259 00eb 10000000 		.4byte	.LFE2
 260 00ef 01       		.byte	0x1
 261 00f0 5D       		.byte	0x5d
 262 00f1 08       		.uleb128 0x8
 263 00f2 01       		.byte	0x1
 264 00f3 0E000000 		.4byte	.LASF15
 265 00f7 01       		.byte	0x1
 266 00f8 63       		.byte	0x63
 267 00f9 01       		.byte	0x1
 268 00fa 76000000 		.4byte	0x76
 269 00fe 00000000 		.4byte	.LFB3
 270 0102 10000000 		.4byte	.LFE3
 271 0106 01       		.byte	0x1
 272 0107 5D       		.byte	0x5d
 273 0108 00       		.byte	0x0
 274              		.section	.debug_abbrev
 275 0000 01       		.uleb128 0x1
 276 0001 11       		.uleb128 0x11
 277 0002 01       		.byte	0x1
 278 0003 25       		.uleb128 0x25
 279 0004 0E       		.uleb128 0xe
 280 0005 13       		.uleb128 0x13
 281 0006 0B       		.uleb128 0xb
 282 0007 03       		.uleb128 0x3
 283 0008 0E       		.uleb128 0xe
 284 0009 1B       		.uleb128 0x1b
 285 000a 0E       		.uleb128 0xe
 286 000b 11       		.uleb128 0x11
 287 000c 01       		.uleb128 0x1
 288 000d 52       		.uleb128 0x52
 289 000e 01       		.uleb128 0x1
 290 000f 55       		.uleb128 0x55
 291 0010 06       		.uleb128 0x6
 292 0011 10       		.uleb128 0x10
 293 0012 06       		.uleb128 0x6
ARM GAS  C:\Users\SUZUKI~1\AppData\Local\Temp\ccGVrOUy.s 			page 8


 294 0013 00       		.byte	0x0
 295 0014 00       		.byte	0x0
 296 0015 02       		.uleb128 0x2
 297 0016 24       		.uleb128 0x24
 298 0017 00       		.byte	0x0
 299 0018 0B       		.uleb128 0xb
 300 0019 0B       		.uleb128 0xb
 301 001a 3E       		.uleb128 0x3e
 302 001b 0B       		.uleb128 0xb
 303 001c 03       		.uleb128 0x3
 304 001d 0E       		.uleb128 0xe
 305 001e 00       		.byte	0x0
 306 001f 00       		.byte	0x0
 307 0020 03       		.uleb128 0x3
 308 0021 24       		.uleb128 0x24
 309 0022 00       		.byte	0x0
 310 0023 0B       		.uleb128 0xb
 311 0024 0B       		.uleb128 0xb
 312 0025 3E       		.uleb128 0x3e
 313 0026 0B       		.uleb128 0xb
 314 0027 03       		.uleb128 0x3
 315 0028 08       		.uleb128 0x8
 316 0029 00       		.byte	0x0
 317 002a 00       		.byte	0x0
 318 002b 04       		.uleb128 0x4
 319 002c 16       		.uleb128 0x16
 320 002d 00       		.byte	0x0
 321 002e 03       		.uleb128 0x3
 322 002f 0E       		.uleb128 0xe
 323 0030 3A       		.uleb128 0x3a
 324 0031 0B       		.uleb128 0xb
 325 0032 3B       		.uleb128 0x3b
 326 0033 0B       		.uleb128 0xb
 327 0034 49       		.uleb128 0x49
 328 0035 13       		.uleb128 0x13
 329 0036 00       		.byte	0x0
 330 0037 00       		.byte	0x0
 331 0038 05       		.uleb128 0x5
 332 0039 2E       		.uleb128 0x2e
 333 003a 01       		.byte	0x1
 334 003b 3F       		.uleb128 0x3f
 335 003c 0C       		.uleb128 0xc
 336 003d 03       		.uleb128 0x3
 337 003e 0E       		.uleb128 0xe
 338 003f 3A       		.uleb128 0x3a
 339 0040 0B       		.uleb128 0xb
 340 0041 3B       		.uleb128 0x3b
 341 0042 0B       		.uleb128 0xb
 342 0043 27       		.uleb128 0x27
 343 0044 0C       		.uleb128 0xc
 344 0045 11       		.uleb128 0x11
 345 0046 01       		.uleb128 0x1
 346 0047 12       		.uleb128 0x12
 347 0048 01       		.uleb128 0x1
 348 0049 40       		.uleb128 0x40
 349 004a 0A       		.uleb128 0xa
 350 004b 01       		.uleb128 0x1
ARM GAS  C:\Users\SUZUKI~1\AppData\Local\Temp\ccGVrOUy.s 			page 9


 351 004c 13       		.uleb128 0x13
 352 004d 00       		.byte	0x0
 353 004e 00       		.byte	0x0
 354 004f 06       		.uleb128 0x6
 355 0050 05       		.uleb128 0x5
 356 0051 00       		.byte	0x0
 357 0052 03       		.uleb128 0x3
 358 0053 0E       		.uleb128 0xe
 359 0054 3A       		.uleb128 0x3a
 360 0055 0B       		.uleb128 0xb
 361 0056 3B       		.uleb128 0x3b
 362 0057 0B       		.uleb128 0xb
 363 0058 49       		.uleb128 0x49
 364 0059 13       		.uleb128 0x13
 365 005a 02       		.uleb128 0x2
 366 005b 06       		.uleb128 0x6
 367 005c 00       		.byte	0x0
 368 005d 00       		.byte	0x0
 369 005e 07       		.uleb128 0x7
 370 005f 34       		.uleb128 0x34
 371 0060 00       		.byte	0x0
 372 0061 03       		.uleb128 0x3
 373 0062 0E       		.uleb128 0xe
 374 0063 3A       		.uleb128 0x3a
 375 0064 0B       		.uleb128 0xb
 376 0065 3B       		.uleb128 0x3b
 377 0066 0B       		.uleb128 0xb
 378 0067 49       		.uleb128 0x49
 379 0068 13       		.uleb128 0x13
 380 0069 00       		.byte	0x0
 381 006a 00       		.byte	0x0
 382 006b 08       		.uleb128 0x8
 383 006c 2E       		.uleb128 0x2e
 384 006d 00       		.byte	0x0
 385 006e 3F       		.uleb128 0x3f
 386 006f 0C       		.uleb128 0xc
 387 0070 03       		.uleb128 0x3
 388 0071 0E       		.uleb128 0xe
 389 0072 3A       		.uleb128 0x3a
 390 0073 0B       		.uleb128 0xb
 391 0074 3B       		.uleb128 0x3b
 392 0075 0B       		.uleb128 0xb
 393 0076 27       		.uleb128 0x27
 394 0077 0C       		.uleb128 0xc
 395 0078 49       		.uleb128 0x49
 396 0079 13       		.uleb128 0x13
 397 007a 11       		.uleb128 0x11
 398 007b 01       		.uleb128 0x1
 399 007c 12       		.uleb128 0x12
 400 007d 01       		.uleb128 0x1
 401 007e 40       		.uleb128 0x40
 402 007f 0A       		.uleb128 0xa
 403 0080 00       		.byte	0x0
 404 0081 00       		.byte	0x0
 405 0082 00       		.byte	0x0
 406              		.section	.debug_pubnames,"",%progbits
 407 0000 5E000000 		.4byte	0x5e
ARM GAS  C:\Users\SUZUKI~1\AppData\Local\Temp\ccGVrOUy.s 			page 10


 408 0004 0200     		.2byte	0x2
 409 0006 00000000 		.4byte	.Ldebug_info0
 410 000a 09010000 		.4byte	0x109
 411 000e 81000000 		.4byte	0x81
 412 0012 4D4F5349 		.ascii	"MOSI_1_Write\000"
 412      5F315F57 
 412      72697465 
 412      00
 413 001f B3000000 		.4byte	0xb3
 414 0023 4D4F5349 		.ascii	"MOSI_1_SetDriveMode\000"
 414      5F315F53 
 414      65744472 
 414      6976654D 
 414      6F646500 
 415 0037 DA000000 		.4byte	0xda
 416 003b 4D4F5349 		.ascii	"MOSI_1_Read\000"
 416      5F315F52 
 416      65616400 
 417 0047 F1000000 		.4byte	0xf1
 418 004b 4D4F5349 		.ascii	"MOSI_1_ReadDataReg\000"
 418      5F315F52 
 418      65616444 
 418      61746152 
 418      656700
 419 005e 00000000 		.4byte	0x0
 420              		.section	.debug_aranges,"",%progbits
 421 0000 34000000 		.4byte	0x34
 422 0004 0200     		.2byte	0x2
 423 0006 00000000 		.4byte	.Ldebug_info0
 424 000a 04       		.byte	0x4
 425 000b 00       		.byte	0x0
 426 000c 0000     		.2byte	0x0
 427 000e 0000     		.2byte	0x0
 428 0010 00000000 		.4byte	.LFB0
 429 0014 1E000000 		.4byte	.LFE0-.LFB0
 430 0018 00000000 		.4byte	.LFB1
 431 001c 1C000000 		.4byte	.LFE1-.LFB1
 432 0020 00000000 		.4byte	.LFB2
 433 0024 10000000 		.4byte	.LFE2-.LFB2
 434 0028 00000000 		.4byte	.LFB3
 435 002c 10000000 		.4byte	.LFE3-.LFB3
 436 0030 00000000 		.4byte	0x0
 437 0034 00000000 		.4byte	0x0
 438              		.section	.debug_ranges,"",%progbits
 439              	.Ldebug_ranges0:
 440 0000 00000000 		.4byte	.Ltext0
 441 0004 00000000 		.4byte	.Letext0
 442 0008 00000000 		.4byte	.LFB0
 443 000c 1E000000 		.4byte	.LFE0
 444 0010 00000000 		.4byte	.LFB1
 445 0014 1C000000 		.4byte	.LFE1
 446 0018 00000000 		.4byte	.LFB2
 447 001c 10000000 		.4byte	.LFE2
 448 0020 00000000 		.4byte	.LFB3
 449 0024 10000000 		.4byte	.LFE3
 450 0028 00000000 		.4byte	0x0
 451 002c 00000000 		.4byte	0x0
ARM GAS  C:\Users\SUZUKI~1\AppData\Local\Temp\ccGVrOUy.s 			page 11


 452              		.section	.debug_str,"MS",%progbits,1
 453              	.LASF6:
 454 0000 6C6F6E67 		.ascii	"long long int\000"
 454      206C6F6E 
 454      6720696E 
 454      7400
 455              	.LASF15:
 456 000e 4D4F5349 		.ascii	"MOSI_1_ReadDataReg\000"
 456      5F315F52 
 456      65616444 
 456      61746152 
 456      656700
 457              	.LASF10:
 458 0021 4D4F5349 		.ascii	"MOSI_1_Write\000"
 458      5F315F57 
 458      72697465 
 458      00
 459              	.LASF12:
 460 002e 76616C75 		.ascii	"value\000"
 460      6500
 461              	.LASF20:
 462 0034 73746174 		.ascii	"staticBits\000"
 462      69634269 
 462      747300
 463              	.LASF17:
 464 003f 2E5C4765 		.ascii	".\\Generated_Source\\PSoC5\\MOSI_1.c\000"
 464      6E657261 
 464      7465645F 
 464      536F7572 
 464      63655C50 
 465              	.LASF18:
 466 0061 463A5C44 		.ascii	"F:\\Documents\\PSoC_Creator\\ledmatrix\\ledmatrixff"
 466      6F63756D 
 466      656E7473 
 466      5C50536F 
 466      435F4372 
 467 0090 742E6379 		.ascii	"t.cydsn\000"
 467      64736E00 
 468              	.LASF1:
 469 0098 756E7369 		.ascii	"unsigned char\000"
 469      676E6564 
 469      20636861 
 469      7200
 470              	.LASF5:
 471 00a6 6C6F6E67 		.ascii	"long unsigned int\000"
 471      20756E73 
 471      69676E65 
 471      6420696E 
 471      7400
 472              	.LASF3:
 473 00b8 73686F72 		.ascii	"short unsigned int\000"
 473      7420756E 
 473      7369676E 
 473      65642069 
 473      6E7400
 474              	.LASF14:
 475 00cb 4D4F5349 		.ascii	"MOSI_1_Read\000"
ARM GAS  C:\Users\SUZUKI~1\AppData\Local\Temp\ccGVrOUy.s 			page 12


 475      5F315F52 
 475      65616400 
 476              	.LASF8:
 477 00d7 756E7369 		.ascii	"unsigned int\000"
 477      676E6564 
 477      20696E74 
 477      00
 478              	.LASF7:
 479 00e4 6C6F6E67 		.ascii	"long long unsigned int\000"
 479      206C6F6E 
 479      6720756E 
 479      7369676E 
 479      65642069 
 480              	.LASF13:
 481 00fb 6D6F6465 		.ascii	"mode\000"
 481      00
 482              	.LASF16:
 483 0100 474E5520 		.ascii	"GNU C 4.4.1\000"
 483      4320342E 
 483      342E3100 
 484              	.LASF9:
 485 010c 63686172 		.ascii	"char\000"
 485      00
 486              	.LASF2:
 487 0111 73686F72 		.ascii	"short int\000"
 487      7420696E 
 487      7400
 488              	.LASF19:
 489 011b 75696E74 		.ascii	"uint8\000"
 489      3800
 490              	.LASF11:
 491 0121 4D4F5349 		.ascii	"MOSI_1_SetDriveMode\000"
 491      5F315F53 
 491      65744472 
 491      6976654D 
 491      6F646500 
 492              	.LASF4:
 493 0135 6C6F6E67 		.ascii	"long int\000"
 493      20696E74 
 493      00
 494              	.LASF0:
 495 013e 7369676E 		.ascii	"signed char\000"
 495      65642063 
 495      68617200 
 496              		.ident	"GCC: (Sourcery G++ Lite 2010q1-188) 4.4.1"
