ARM GAS  C:\Users\SUZUKI~1\AppData\Local\Temp\ccuFc3hg.s 			page 1


   1              		.syntax unified
   2              		.cpu cortex-m3
   3              		.fpu softvfp
   4              		.eabi_attribute 20, 1
   5              		.eabi_attribute 21, 1
   6              		.eabi_attribute 23, 3
   7              		.eabi_attribute 24, 1
   8              		.eabi_attribute 25, 1
   9              		.eabi_attribute 26, 1
  10              		.eabi_attribute 30, 6
  11              		.eabi_attribute 18, 4
  12              		.thumb
  13              		.file	"PhaseCounter.c"
  14              		.section	.debug_abbrev,"",%progbits
  15              	.Ldebug_abbrev0:
  16              		.section	.debug_info,"",%progbits
  17              	.Ldebug_info0:
  18              		.section	.debug_line,"",%progbits
  19              	.Ldebug_line0:
  20 0000 5A010000 		.text
  20      02006500 
  20      00000201 
  20      FB0E0D00 
  20      01010101 
  21              	.Ltext0:
  22              		.cfi_sections	.debug_frame
  23              		.global	PhaseCounter_initVar
  24              		.bss
  25              		.type	PhaseCounter_initVar, %object
  26              		.size	PhaseCounter_initVar, 1
  27              	PhaseCounter_initVar:
  28 0000 00       		.space	1
  29              		.section	.text.PhaseCounter_Init,"ax",%progbits
  30              		.align	2
  31              		.global	PhaseCounter_Init
  32              		.thumb
  33              		.thumb_func
  34              		.type	PhaseCounter_Init, %function
  35              	PhaseCounter_Init:
  36              	.LFB0:
  37              		.file 1 ".\\Generated_Source\\PSoC5\\PhaseCounter.c"
   1:.\Generated_Source\PSoC5/PhaseCounter.c **** /*******************************************************************************
   2:.\Generated_Source\PSoC5/PhaseCounter.c **** * File Name: PhaseCounter.c  
   3:.\Generated_Source\PSoC5/PhaseCounter.c **** * Version 2.20
   4:.\Generated_Source\PSoC5/PhaseCounter.c **** *
   5:.\Generated_Source\PSoC5/PhaseCounter.c **** *  Description:
   6:.\Generated_Source\PSoC5/PhaseCounter.c **** *     The Counter component consists of a 8, 16, 24 or 32-bit counter with
   7:.\Generated_Source\PSoC5/PhaseCounter.c **** *     a selectable period between 2 and 2^Width - 1.  
   8:.\Generated_Source\PSoC5/PhaseCounter.c **** *
   9:.\Generated_Source\PSoC5/PhaseCounter.c **** *   Note:
  10:.\Generated_Source\PSoC5/PhaseCounter.c **** *     None
  11:.\Generated_Source\PSoC5/PhaseCounter.c **** *
  12:.\Generated_Source\PSoC5/PhaseCounter.c **** *******************************************************************************
  13:.\Generated_Source\PSoC5/PhaseCounter.c **** * Copyright 2008-2012, Cypress Semiconductor Corporation.  All rights reserved.
  14:.\Generated_Source\PSoC5/PhaseCounter.c **** * You may use this file only in accordance with the license, terms, conditions, 
  15:.\Generated_Source\PSoC5/PhaseCounter.c **** * disclaimers, and limitations in the end user license agreement accompanying 
  16:.\Generated_Source\PSoC5/PhaseCounter.c **** * the software package with which this file was provided.
ARM GAS  C:\Users\SUZUKI~1\AppData\Local\Temp\ccuFc3hg.s 			page 2


  17:.\Generated_Source\PSoC5/PhaseCounter.c **** ********************************************************************************/
  18:.\Generated_Source\PSoC5/PhaseCounter.c **** 
  19:.\Generated_Source\PSoC5/PhaseCounter.c **** #include "PhaseCounter.h"
  20:.\Generated_Source\PSoC5/PhaseCounter.c **** 
  21:.\Generated_Source\PSoC5/PhaseCounter.c **** uint8 PhaseCounter_initVar = 0u;
  22:.\Generated_Source\PSoC5/PhaseCounter.c **** 
  23:.\Generated_Source\PSoC5/PhaseCounter.c **** 
  24:.\Generated_Source\PSoC5/PhaseCounter.c **** /*******************************************************************************
  25:.\Generated_Source\PSoC5/PhaseCounter.c **** * Function Name: PhaseCounter_Init
  26:.\Generated_Source\PSoC5/PhaseCounter.c **** ********************************************************************************
  27:.\Generated_Source\PSoC5/PhaseCounter.c **** * Summary:
  28:.\Generated_Source\PSoC5/PhaseCounter.c **** *     Initialize to the schematic state
  29:.\Generated_Source\PSoC5/PhaseCounter.c **** * 
  30:.\Generated_Source\PSoC5/PhaseCounter.c **** * Parameters:  
  31:.\Generated_Source\PSoC5/PhaseCounter.c **** *  void  
  32:.\Generated_Source\PSoC5/PhaseCounter.c **** *
  33:.\Generated_Source\PSoC5/PhaseCounter.c **** * Return: 
  34:.\Generated_Source\PSoC5/PhaseCounter.c **** *  void
  35:.\Generated_Source\PSoC5/PhaseCounter.c **** *
  36:.\Generated_Source\PSoC5/PhaseCounter.c **** *******************************************************************************/
  37:.\Generated_Source\PSoC5/PhaseCounter.c **** void PhaseCounter_Init(void) 
  38:.\Generated_Source\PSoC5/PhaseCounter.c **** {
  38              		.loc 1 38 0
  39              		.cfi_startproc
  40              		@ args = 0, pretend = 0, frame = 0
  41              		@ frame_needed = 1, uses_anonymous_args = 0
  42 0000 80B5     		push	{r7, lr}
  43              	.LCFI0:
  44              		.cfi_def_cfa_offset 8
  45 0002 00AF     		add	r7, sp, #0
  46              		.cfi_offset 14, -4
  47              		.cfi_offset 7, -8
  48              	.LCFI1:
  49              		.cfi_def_cfa_register 7
  39:.\Generated_Source\PSoC5/PhaseCounter.c ****         #if (!PhaseCounter_UsingFixedFunction && !PhaseCounter_ControlRegRemoved)
  40:.\Generated_Source\PSoC5/PhaseCounter.c ****             uint8 ctrl;
  41:.\Generated_Source\PSoC5/PhaseCounter.c ****         #endif /* (!PhaseCounter_UsingFixedFunction && !PhaseCounter_ControlRegRemoved) */
  42:.\Generated_Source\PSoC5/PhaseCounter.c ****         
  43:.\Generated_Source\PSoC5/PhaseCounter.c ****         #if(!PhaseCounter_UsingFixedFunction) 
  44:.\Generated_Source\PSoC5/PhaseCounter.c ****             /* Interrupt State Backup for Critical Region*/
  45:.\Generated_Source\PSoC5/PhaseCounter.c ****             uint8 PhaseCounter_interruptState;
  46:.\Generated_Source\PSoC5/PhaseCounter.c ****         #endif /* (!PhaseCounter_UsingFixedFunction) */
  47:.\Generated_Source\PSoC5/PhaseCounter.c ****         
  48:.\Generated_Source\PSoC5/PhaseCounter.c ****         #if (PhaseCounter_UsingFixedFunction)
  49:.\Generated_Source\PSoC5/PhaseCounter.c ****             /* Clear all bits but the enable bit (if it's already set for Timer operation */
  50:.\Generated_Source\PSoC5/PhaseCounter.c ****             PhaseCounter_CONTROL &= PhaseCounter_CTRL_ENABLE;
  50              		.loc 1 50 0
  51 0004 44F60073 		movw	r3, #:lower16:1073762048
  52 0008 C4F20003 		movt	r3, #:upper16:1073762048
  53 000c 44F60072 		movw	r2, #:lower16:1073762048
  54 0010 C4F20002 		movt	r2, #:upper16:1073762048
  55 0014 1278     		ldrb	r2, [r2, #0]
  56 0016 D2B2     		uxtb	r2, r2
  57 0018 02F00102 		and	r2, r2, #1
  58 001c 1A70     		strb	r2, [r3, #0]
  51:.\Generated_Source\PSoC5/PhaseCounter.c ****             
  52:.\Generated_Source\PSoC5/PhaseCounter.c ****             /* Clear the mode bits for continuous run mode */
ARM GAS  C:\Users\SUZUKI~1\AppData\Local\Temp\ccuFc3hg.s 			page 3


  53:.\Generated_Source\PSoC5/PhaseCounter.c ****             #if (CY_PSOC5A)
  54:.\Generated_Source\PSoC5/PhaseCounter.c ****                 PhaseCounter_CONTROL2 &= ~PhaseCounter_CTRL_MODE_MASK;
  59              		.loc 1 54 0
  60 001e 44F60173 		movw	r3, #:lower16:1073762049
  61 0022 C4F20003 		movt	r3, #:upper16:1073762049
  62 0026 44F60172 		movw	r2, #:lower16:1073762049
  63 002a C4F20002 		movt	r2, #:upper16:1073762049
  64 002e 1278     		ldrb	r2, [r2, #0]
  65 0030 D2B2     		uxtb	r2, r2
  66 0032 02F0F102 		and	r2, r2, #241
  67 0036 1A70     		strb	r2, [r3, #0]
  55:.\Generated_Source\PSoC5/PhaseCounter.c ****             #endif /* (CY_PSOC5A) */
  56:.\Generated_Source\PSoC5/PhaseCounter.c ****             #if (CY_PSOC3 || CY_PSOC5LP)
  57:.\Generated_Source\PSoC5/PhaseCounter.c ****                 PhaseCounter_CONTROL3 &= ~PhaseCounter_CTRL_MODE_MASK;                
  58:.\Generated_Source\PSoC5/PhaseCounter.c ****             #endif /* (CY_PSOC3 || CY_PSOC5LP) */
  59:.\Generated_Source\PSoC5/PhaseCounter.c ****             /* Check if One Shot mode is enabled i.e. RunMode !=0*/
  60:.\Generated_Source\PSoC5/PhaseCounter.c ****             #if (PhaseCounter_RunModeUsed != 0x0u)
  61:.\Generated_Source\PSoC5/PhaseCounter.c ****                 /* Set 3rd bit of Control register to enable one shot mode */
  62:.\Generated_Source\PSoC5/PhaseCounter.c ****                 PhaseCounter_CONTROL |= PhaseCounter_ONESHOT;
  63:.\Generated_Source\PSoC5/PhaseCounter.c ****             #endif /* (PhaseCounter_RunModeUsed != 0x0u) */
  64:.\Generated_Source\PSoC5/PhaseCounter.c ****             
  65:.\Generated_Source\PSoC5/PhaseCounter.c ****             /* Set the IRQ to use the status register interrupts */
  66:.\Generated_Source\PSoC5/PhaseCounter.c ****             PhaseCounter_CONTROL2 |= PhaseCounter_CTRL2_IRQ_SEL;
  68              		.loc 1 66 0
  69 0038 44F60173 		movw	r3, #:lower16:1073762049
  70 003c C4F20003 		movt	r3, #:upper16:1073762049
  71 0040 44F60172 		movw	r2, #:lower16:1073762049
  72 0044 C4F20002 		movt	r2, #:upper16:1073762049
  73 0048 1278     		ldrb	r2, [r2, #0]
  74 004a D2B2     		uxtb	r2, r2
  75 004c 42F00102 		orr	r2, r2, #1
  76 0050 D2B2     		uxtb	r2, r2
  77 0052 1A70     		strb	r2, [r3, #0]
  67:.\Generated_Source\PSoC5/PhaseCounter.c ****             
  68:.\Generated_Source\PSoC5/PhaseCounter.c ****             /* Clear and Set SYNCTC and SYNCCMP bits of RT1 register */
  69:.\Generated_Source\PSoC5/PhaseCounter.c ****             PhaseCounter_RT1 &= ~PhaseCounter_RT1_MASK;
  78              		.loc 1 69 0
  79 0054 44F60A73 		movw	r3, #:lower16:1073762058
  80 0058 C4F20003 		movt	r3, #:upper16:1073762058
  81 005c 44F60A72 		movw	r2, #:lower16:1073762058
  82 0060 C4F20002 		movt	r2, #:upper16:1073762058
  83 0064 1278     		ldrb	r2, [r2, #0]
  84 0066 D2B2     		uxtb	r2, r2
  85 0068 02F0CF02 		and	r2, r2, #207
  86 006c 1A70     		strb	r2, [r3, #0]
  70:.\Generated_Source\PSoC5/PhaseCounter.c ****             PhaseCounter_RT1 |= PhaseCounter_SYNC;     
  87              		.loc 1 70 0
  88 006e 44F60A73 		movw	r3, #:lower16:1073762058
  89 0072 C4F20003 		movt	r3, #:upper16:1073762058
  90 0076 44F60A72 		movw	r2, #:lower16:1073762058
  91 007a C4F20002 		movt	r2, #:upper16:1073762058
  92 007e 1278     		ldrb	r2, [r2, #0]
  93 0080 D2B2     		uxtb	r2, r2
  94 0082 42F03002 		orr	r2, r2, #48
  95 0086 D2B2     		uxtb	r2, r2
  96 0088 1A70     		strb	r2, [r3, #0]
  71:.\Generated_Source\PSoC5/PhaseCounter.c ****                     
ARM GAS  C:\Users\SUZUKI~1\AppData\Local\Temp\ccuFc3hg.s 			page 4


  72:.\Generated_Source\PSoC5/PhaseCounter.c ****             /*Enable DSI Sync all all inputs of the Timer*/
  73:.\Generated_Source\PSoC5/PhaseCounter.c ****             PhaseCounter_RT1 &= ~(PhaseCounter_SYNCDSI_MASK);
  97              		.loc 1 73 0
  98 008a 44F60A73 		movw	r3, #:lower16:1073762058
  99 008e C4F20003 		movt	r3, #:upper16:1073762058
 100 0092 44F60A72 		movw	r2, #:lower16:1073762058
 101 0096 C4F20002 		movt	r2, #:upper16:1073762058
 102 009a 1278     		ldrb	r2, [r2, #0]
 103 009c D2B2     		uxtb	r2, r2
 104 009e 02F0F002 		and	r2, r2, #240
 105 00a2 1A70     		strb	r2, [r3, #0]
  74:.\Generated_Source\PSoC5/PhaseCounter.c ****             PhaseCounter_RT1 |= PhaseCounter_SYNCDSI_EN;
 106              		.loc 1 74 0
 107 00a4 44F60A73 		movw	r3, #:lower16:1073762058
 108 00a8 C4F20003 		movt	r3, #:upper16:1073762058
 109 00ac 44F60A72 		movw	r2, #:lower16:1073762058
 110 00b0 C4F20002 		movt	r2, #:upper16:1073762058
 111 00b4 1278     		ldrb	r2, [r2, #0]
 112 00b6 D2B2     		uxtb	r2, r2
 113 00b8 42F00F02 		orr	r2, r2, #15
 114 00bc D2B2     		uxtb	r2, r2
 115 00be 1A70     		strb	r2, [r3, #0]
  75:.\Generated_Source\PSoC5/PhaseCounter.c **** 
  76:.\Generated_Source\PSoC5/PhaseCounter.c ****         #else
  77:.\Generated_Source\PSoC5/PhaseCounter.c ****             #if(!PhaseCounter_ControlRegRemoved)
  78:.\Generated_Source\PSoC5/PhaseCounter.c ****             /* Set the default compare mode defined in the parameter */
  79:.\Generated_Source\PSoC5/PhaseCounter.c ****             ctrl = PhaseCounter_CONTROL & ~PhaseCounter_CTRL_CMPMODE_MASK;
  80:.\Generated_Source\PSoC5/PhaseCounter.c ****             PhaseCounter_CONTROL = ctrl | PhaseCounter_DEFAULT_COMPARE_MODE;
  81:.\Generated_Source\PSoC5/PhaseCounter.c ****             
  82:.\Generated_Source\PSoC5/PhaseCounter.c ****             /* Set the default capture mode defined in the parameter */
  83:.\Generated_Source\PSoC5/PhaseCounter.c ****             ctrl = PhaseCounter_CONTROL & ~PhaseCounter_CTRL_CAPMODE_MASK;
  84:.\Generated_Source\PSoC5/PhaseCounter.c ****             PhaseCounter_CONTROL = ctrl | PhaseCounter_DEFAULT_CAPTURE_MODE;
  85:.\Generated_Source\PSoC5/PhaseCounter.c ****             #endif /* (!PhaseCounter_ControlRegRemoved) */
  86:.\Generated_Source\PSoC5/PhaseCounter.c ****         #endif /* (PhaseCounter_UsingFixedFunction) */
  87:.\Generated_Source\PSoC5/PhaseCounter.c ****         
  88:.\Generated_Source\PSoC5/PhaseCounter.c ****         /* Clear all data in the FIFO's */
  89:.\Generated_Source\PSoC5/PhaseCounter.c ****         #if (!PhaseCounter_UsingFixedFunction)
  90:.\Generated_Source\PSoC5/PhaseCounter.c ****             PhaseCounter_ClearFIFO();
  91:.\Generated_Source\PSoC5/PhaseCounter.c ****         #endif /* (!PhaseCounter_UsingFixedFunction) */
  92:.\Generated_Source\PSoC5/PhaseCounter.c ****         
  93:.\Generated_Source\PSoC5/PhaseCounter.c ****         /* Set Initial values from Configuration */
  94:.\Generated_Source\PSoC5/PhaseCounter.c ****         PhaseCounter_WritePeriod(PhaseCounter_INIT_PERIOD_VALUE);
 116              		.loc 1 94 0
 117 00c0 40F2E730 		movw	r0, #999
 118 00c4 FFF7FEFF 		bl	PhaseCounter_WritePeriod
  95:.\Generated_Source\PSoC5/PhaseCounter.c ****         #if (!(PhaseCounter_UsingFixedFunction && (CY_PSOC5A)))
  96:.\Generated_Source\PSoC5/PhaseCounter.c ****             PhaseCounter_WriteCounter(PhaseCounter_INIT_COUNTER_VALUE);
  97:.\Generated_Source\PSoC5/PhaseCounter.c ****         #endif /* (!(PhaseCounter_UsingFixedFunction && (CY_PSOC5A))) */
  98:.\Generated_Source\PSoC5/PhaseCounter.c ****         PhaseCounter_SetInterruptMode(PhaseCounter_INIT_INTERRUPTS_MASK);
 119              		.loc 1 98 0
 120 00c8 4FF00000 		mov	r0, #0
 121 00cc FFF7FEFF 		bl	PhaseCounter_SetInterruptMode
  99:.\Generated_Source\PSoC5/PhaseCounter.c ****         
 100:.\Generated_Source\PSoC5/PhaseCounter.c ****         #if (!PhaseCounter_UsingFixedFunction)
 101:.\Generated_Source\PSoC5/PhaseCounter.c ****             /* Read the status register to clear the unwanted interrupts */
 102:.\Generated_Source\PSoC5/PhaseCounter.c ****             PhaseCounter_ReadStatusRegister();
 103:.\Generated_Source\PSoC5/PhaseCounter.c ****             /* Set the compare value (only available to non-fixed function implementation */
ARM GAS  C:\Users\SUZUKI~1\AppData\Local\Temp\ccuFc3hg.s 			page 5


 104:.\Generated_Source\PSoC5/PhaseCounter.c ****             PhaseCounter_WriteCompare(PhaseCounter_INIT_COMPARE_VALUE);
 105:.\Generated_Source\PSoC5/PhaseCounter.c ****             /* Use the interrupt output of the status register for IRQ output */
 106:.\Generated_Source\PSoC5/PhaseCounter.c ****             
 107:.\Generated_Source\PSoC5/PhaseCounter.c ****             /* CyEnterCriticalRegion and CyExitCriticalRegion are used to mark following region cri
 108:.\Generated_Source\PSoC5/PhaseCounter.c ****             /* Enter Critical Region*/
 109:.\Generated_Source\PSoC5/PhaseCounter.c ****             PhaseCounter_interruptState = CyEnterCriticalSection();
 110:.\Generated_Source\PSoC5/PhaseCounter.c ****             
 111:.\Generated_Source\PSoC5/PhaseCounter.c ****             PhaseCounter_STATUS_AUX_CTRL |= PhaseCounter_STATUS_ACTL_INT_EN_MASK;
 112:.\Generated_Source\PSoC5/PhaseCounter.c ****             
 113:.\Generated_Source\PSoC5/PhaseCounter.c ****             /* Exit Critical Region*/
 114:.\Generated_Source\PSoC5/PhaseCounter.c ****             CyExitCriticalSection(PhaseCounter_interruptState);
 115:.\Generated_Source\PSoC5/PhaseCounter.c ****             
 116:.\Generated_Source\PSoC5/PhaseCounter.c ****         #endif /* (!PhaseCounter_UsingFixedFunction) */
 117:.\Generated_Source\PSoC5/PhaseCounter.c **** }
 122              		.loc 1 117 0
 123 00d0 80BD     		pop	{r7, pc}
 124              		.cfi_endproc
 125              	.LFE0:
 126              		.size	PhaseCounter_Init, .-PhaseCounter_Init
 127 00d2 00BF     		.section	.text.PhaseCounter_Enable,"ax",%progbits
 128              		.align	2
 129              		.global	PhaseCounter_Enable
 130              		.thumb
 131              		.thumb_func
 132              		.type	PhaseCounter_Enable, %function
 133              	PhaseCounter_Enable:
 134              	.LFB1:
 118:.\Generated_Source\PSoC5/PhaseCounter.c **** 
 119:.\Generated_Source\PSoC5/PhaseCounter.c **** 
 120:.\Generated_Source\PSoC5/PhaseCounter.c **** /*******************************************************************************
 121:.\Generated_Source\PSoC5/PhaseCounter.c **** * Function Name: PhaseCounter_Enable
 122:.\Generated_Source\PSoC5/PhaseCounter.c **** ********************************************************************************
 123:.\Generated_Source\PSoC5/PhaseCounter.c **** * Summary:
 124:.\Generated_Source\PSoC5/PhaseCounter.c **** *     Enable the Counter
 125:.\Generated_Source\PSoC5/PhaseCounter.c **** * 
 126:.\Generated_Source\PSoC5/PhaseCounter.c **** * Parameters:  
 127:.\Generated_Source\PSoC5/PhaseCounter.c **** *  void  
 128:.\Generated_Source\PSoC5/PhaseCounter.c **** *
 129:.\Generated_Source\PSoC5/PhaseCounter.c **** * Return: 
 130:.\Generated_Source\PSoC5/PhaseCounter.c **** *  void
 131:.\Generated_Source\PSoC5/PhaseCounter.c **** *
 132:.\Generated_Source\PSoC5/PhaseCounter.c **** * Side Effects: 
 133:.\Generated_Source\PSoC5/PhaseCounter.c **** *   If the Enable mode is set to Hardware only then this function has no effect 
 134:.\Generated_Source\PSoC5/PhaseCounter.c **** *   on the operation of the counter.
 135:.\Generated_Source\PSoC5/PhaseCounter.c **** *
 136:.\Generated_Source\PSoC5/PhaseCounter.c **** *******************************************************************************/
 137:.\Generated_Source\PSoC5/PhaseCounter.c **** void PhaseCounter_Enable(void) 
 138:.\Generated_Source\PSoC5/PhaseCounter.c **** {
 135              		.loc 1 138 0
 136              		.cfi_startproc
 137              		@ args = 0, pretend = 0, frame = 0
 138              		@ frame_needed = 1, uses_anonymous_args = 0
 139              		@ link register save eliminated.
 140 0000 80B4     		push	{r7}
 141              	.LCFI2:
 142              		.cfi_def_cfa_offset 4
 143 0002 00AF     		add	r7, sp, #0
ARM GAS  C:\Users\SUZUKI~1\AppData\Local\Temp\ccuFc3hg.s 			page 6


 144              		.cfi_offset 7, -4
 145              	.LCFI3:
 146              		.cfi_def_cfa_register 7
 139:.\Generated_Source\PSoC5/PhaseCounter.c ****     /* Globally Enable the Fixed Function Block chosen */
 140:.\Generated_Source\PSoC5/PhaseCounter.c ****     #if (PhaseCounter_UsingFixedFunction)
 141:.\Generated_Source\PSoC5/PhaseCounter.c ****         PhaseCounter_GLOBAL_ENABLE |= PhaseCounter_BLOCK_EN_MASK;
 147              		.loc 1 141 0
 148 0004 44F2A333 		movw	r3, #:lower16:1073759139
 149 0008 C4F20003 		movt	r3, #:upper16:1073759139
 150 000c 44F2A332 		movw	r2, #:lower16:1073759139
 151 0010 C4F20002 		movt	r2, #:upper16:1073759139
 152 0014 1278     		ldrb	r2, [r2, #0]
 153 0016 D2B2     		uxtb	r2, r2
 154 0018 42F00102 		orr	r2, r2, #1
 155 001c D2B2     		uxtb	r2, r2
 156 001e 1A70     		strb	r2, [r3, #0]
 142:.\Generated_Source\PSoC5/PhaseCounter.c ****         PhaseCounter_GLOBAL_STBY_ENABLE |= PhaseCounter_BLOCK_STBY_EN_MASK;
 157              		.loc 1 142 0
 158 0020 44F2B333 		movw	r3, #:lower16:1073759155
 159 0024 C4F20003 		movt	r3, #:upper16:1073759155
 160 0028 44F2B332 		movw	r2, #:lower16:1073759155
 161 002c C4F20002 		movt	r2, #:upper16:1073759155
 162 0030 1278     		ldrb	r2, [r2, #0]
 163 0032 D2B2     		uxtb	r2, r2
 164 0034 42F00102 		orr	r2, r2, #1
 165 0038 D2B2     		uxtb	r2, r2
 166 003a 1A70     		strb	r2, [r3, #0]
 143:.\Generated_Source\PSoC5/PhaseCounter.c ****     #endif /* (PhaseCounter_UsingFixedFunction) */  
 144:.\Generated_Source\PSoC5/PhaseCounter.c ****         
 145:.\Generated_Source\PSoC5/PhaseCounter.c ****     /* Enable the counter from the control register  */
 146:.\Generated_Source\PSoC5/PhaseCounter.c ****     /* If Fixed Function then make sure Mode is set correctly */
 147:.\Generated_Source\PSoC5/PhaseCounter.c ****     /* else make sure reset is clear */
 148:.\Generated_Source\PSoC5/PhaseCounter.c ****     #if(!PhaseCounter_ControlRegRemoved || PhaseCounter_UsingFixedFunction)
 149:.\Generated_Source\PSoC5/PhaseCounter.c ****         PhaseCounter_CONTROL |= PhaseCounter_CTRL_ENABLE;                
 167              		.loc 1 149 0
 168 003c 44F60073 		movw	r3, #:lower16:1073762048
 169 0040 C4F20003 		movt	r3, #:upper16:1073762048
 170 0044 44F60072 		movw	r2, #:lower16:1073762048
 171 0048 C4F20002 		movt	r2, #:upper16:1073762048
 172 004c 1278     		ldrb	r2, [r2, #0]
 173 004e D2B2     		uxtb	r2, r2
 174 0050 42F00102 		orr	r2, r2, #1
 175 0054 D2B2     		uxtb	r2, r2
 176 0056 1A70     		strb	r2, [r3, #0]
 150:.\Generated_Source\PSoC5/PhaseCounter.c ****     #endif /* (!PhaseCounter_ControlRegRemoved || PhaseCounter_UsingFixedFunction) */
 151:.\Generated_Source\PSoC5/PhaseCounter.c ****     
 152:.\Generated_Source\PSoC5/PhaseCounter.c **** }
 177              		.loc 1 152 0
 178 0058 BD46     		mov	sp, r7
 179 005a 80BC     		pop	{r7}
 180 005c 7047     		bx	lr
 181              		.cfi_endproc
 182              	.LFE1:
 183              		.size	PhaseCounter_Enable, .-PhaseCounter_Enable
 184 005e 00BF     		.section	.text.PhaseCounter_Start,"ax",%progbits
 185              		.align	2
 186              		.global	PhaseCounter_Start
ARM GAS  C:\Users\SUZUKI~1\AppData\Local\Temp\ccuFc3hg.s 			page 7


 187              		.thumb
 188              		.thumb_func
 189              		.type	PhaseCounter_Start, %function
 190              	PhaseCounter_Start:
 191              	.LFB2:
 153:.\Generated_Source\PSoC5/PhaseCounter.c **** 
 154:.\Generated_Source\PSoC5/PhaseCounter.c **** 
 155:.\Generated_Source\PSoC5/PhaseCounter.c **** /*******************************************************************************
 156:.\Generated_Source\PSoC5/PhaseCounter.c **** * Function Name: PhaseCounter_Start
 157:.\Generated_Source\PSoC5/PhaseCounter.c **** ********************************************************************************
 158:.\Generated_Source\PSoC5/PhaseCounter.c **** * Summary:
 159:.\Generated_Source\PSoC5/PhaseCounter.c **** *  Enables the counter for operation 
 160:.\Generated_Source\PSoC5/PhaseCounter.c **** *
 161:.\Generated_Source\PSoC5/PhaseCounter.c **** * Parameters:  
 162:.\Generated_Source\PSoC5/PhaseCounter.c **** *  void  
 163:.\Generated_Source\PSoC5/PhaseCounter.c **** *
 164:.\Generated_Source\PSoC5/PhaseCounter.c **** * Return: 
 165:.\Generated_Source\PSoC5/PhaseCounter.c **** *  void
 166:.\Generated_Source\PSoC5/PhaseCounter.c **** *
 167:.\Generated_Source\PSoC5/PhaseCounter.c **** * Global variables:
 168:.\Generated_Source\PSoC5/PhaseCounter.c **** *  PhaseCounter_initVar: Is modified when this function is called for the  
 169:.\Generated_Source\PSoC5/PhaseCounter.c **** *   first time. Is used to ensure that initialization happens only once.
 170:.\Generated_Source\PSoC5/PhaseCounter.c **** *
 171:.\Generated_Source\PSoC5/PhaseCounter.c **** *******************************************************************************/
 172:.\Generated_Source\PSoC5/PhaseCounter.c **** void PhaseCounter_Start(void) 
 173:.\Generated_Source\PSoC5/PhaseCounter.c **** {
 192              		.loc 1 173 0
 193              		.cfi_startproc
 194              		@ args = 0, pretend = 0, frame = 0
 195              		@ frame_needed = 1, uses_anonymous_args = 0
 196 0000 80B5     		push	{r7, lr}
 197              	.LCFI4:
 198              		.cfi_def_cfa_offset 8
 199 0002 00AF     		add	r7, sp, #0
 200              		.cfi_offset 14, -4
 201              		.cfi_offset 7, -8
 202              	.LCFI5:
 203              		.cfi_def_cfa_register 7
 174:.\Generated_Source\PSoC5/PhaseCounter.c ****     if(PhaseCounter_initVar == 0u)
 204              		.loc 1 174 0
 205 0004 40F20003 		movw	r3, #:lower16:PhaseCounter_initVar
 206 0008 C0F20003 		movt	r3, #:upper16:PhaseCounter_initVar
 207 000c 1B78     		ldrb	r3, [r3, #0]	@ zero_extendqisi2
 208 000e 002B     		cmp	r3, #0
 209 0010 08D1     		bne	.L6
 175:.\Generated_Source\PSoC5/PhaseCounter.c ****     {
 176:.\Generated_Source\PSoC5/PhaseCounter.c ****         PhaseCounter_Init();
 210              		.loc 1 176 0
 211 0012 FFF7FEFF 		bl	PhaseCounter_Init
 177:.\Generated_Source\PSoC5/PhaseCounter.c ****         
 178:.\Generated_Source\PSoC5/PhaseCounter.c ****         PhaseCounter_initVar = 1u; /* Clear this bit for Initialization */        
 212              		.loc 1 178 0
 213 0016 40F20003 		movw	r3, #:lower16:PhaseCounter_initVar
 214 001a C0F20003 		movt	r3, #:upper16:PhaseCounter_initVar
 215 001e 4FF00102 		mov	r2, #1
 216 0022 1A70     		strb	r2, [r3, #0]
 217              	.L6:
ARM GAS  C:\Users\SUZUKI~1\AppData\Local\Temp\ccuFc3hg.s 			page 8


 179:.\Generated_Source\PSoC5/PhaseCounter.c ****     }
 180:.\Generated_Source\PSoC5/PhaseCounter.c ****     
 181:.\Generated_Source\PSoC5/PhaseCounter.c ****     /* Enable the Counter */
 182:.\Generated_Source\PSoC5/PhaseCounter.c ****     PhaseCounter_Enable();        
 218              		.loc 1 182 0
 219 0024 FFF7FEFF 		bl	PhaseCounter_Enable
 183:.\Generated_Source\PSoC5/PhaseCounter.c **** }
 220              		.loc 1 183 0
 221 0028 80BD     		pop	{r7, pc}
 222              		.cfi_endproc
 223              	.LFE2:
 224              		.size	PhaseCounter_Start, .-PhaseCounter_Start
 225 002a 00BF     		.section	.text.PhaseCounter_Stop,"ax",%progbits
 226              		.align	2
 227              		.global	PhaseCounter_Stop
 228              		.thumb
 229              		.thumb_func
 230              		.type	PhaseCounter_Stop, %function
 231              	PhaseCounter_Stop:
 232              	.LFB3:
 184:.\Generated_Source\PSoC5/PhaseCounter.c **** 
 185:.\Generated_Source\PSoC5/PhaseCounter.c **** 
 186:.\Generated_Source\PSoC5/PhaseCounter.c **** /*******************************************************************************
 187:.\Generated_Source\PSoC5/PhaseCounter.c **** * Function Name: PhaseCounter_Stop
 188:.\Generated_Source\PSoC5/PhaseCounter.c **** ********************************************************************************
 189:.\Generated_Source\PSoC5/PhaseCounter.c **** * Summary:
 190:.\Generated_Source\PSoC5/PhaseCounter.c **** * Halts the counter, but does not change any modes or disable interrupts.
 191:.\Generated_Source\PSoC5/PhaseCounter.c **** *
 192:.\Generated_Source\PSoC5/PhaseCounter.c **** * Parameters:  
 193:.\Generated_Source\PSoC5/PhaseCounter.c **** *  void  
 194:.\Generated_Source\PSoC5/PhaseCounter.c **** *
 195:.\Generated_Source\PSoC5/PhaseCounter.c **** * Return: 
 196:.\Generated_Source\PSoC5/PhaseCounter.c **** *  void
 197:.\Generated_Source\PSoC5/PhaseCounter.c **** *
 198:.\Generated_Source\PSoC5/PhaseCounter.c **** * Side Effects: If the Enable mode is set to Hardware only then this function
 199:.\Generated_Source\PSoC5/PhaseCounter.c **** *               has no effect on the operation of the counter.
 200:.\Generated_Source\PSoC5/PhaseCounter.c **** *
 201:.\Generated_Source\PSoC5/PhaseCounter.c **** *******************************************************************************/
 202:.\Generated_Source\PSoC5/PhaseCounter.c **** void PhaseCounter_Stop(void) 
 203:.\Generated_Source\PSoC5/PhaseCounter.c **** {
 233              		.loc 1 203 0
 234              		.cfi_startproc
 235              		@ args = 0, pretend = 0, frame = 0
 236              		@ frame_needed = 1, uses_anonymous_args = 0
 237              		@ link register save eliminated.
 238 0000 80B4     		push	{r7}
 239              	.LCFI6:
 240              		.cfi_def_cfa_offset 4
 241 0002 00AF     		add	r7, sp, #0
 242              		.cfi_offset 7, -4
 243              	.LCFI7:
 244              		.cfi_def_cfa_register 7
 204:.\Generated_Source\PSoC5/PhaseCounter.c ****     /* Disable Counter */
 205:.\Generated_Source\PSoC5/PhaseCounter.c ****     #if(!PhaseCounter_ControlRegRemoved || PhaseCounter_UsingFixedFunction)
 206:.\Generated_Source\PSoC5/PhaseCounter.c ****         PhaseCounter_CONTROL &= ~PhaseCounter_CTRL_ENABLE;        
 245              		.loc 1 206 0
 246 0004 44F60073 		movw	r3, #:lower16:1073762048
ARM GAS  C:\Users\SUZUKI~1\AppData\Local\Temp\ccuFc3hg.s 			page 9


 247 0008 C4F20003 		movt	r3, #:upper16:1073762048
 248 000c 44F60072 		movw	r2, #:lower16:1073762048
 249 0010 C4F20002 		movt	r2, #:upper16:1073762048
 250 0014 1278     		ldrb	r2, [r2, #0]
 251 0016 D2B2     		uxtb	r2, r2
 252 0018 02F0FE02 		and	r2, r2, #254
 253 001c 1A70     		strb	r2, [r3, #0]
 207:.\Generated_Source\PSoC5/PhaseCounter.c ****     #endif /* (!PhaseCounter_ControlRegRemoved || PhaseCounter_UsingFixedFunction) */
 208:.\Generated_Source\PSoC5/PhaseCounter.c ****     
 209:.\Generated_Source\PSoC5/PhaseCounter.c ****     /* Globally disable the Fixed Function Block chosen */
 210:.\Generated_Source\PSoC5/PhaseCounter.c ****     #if (PhaseCounter_UsingFixedFunction)
 211:.\Generated_Source\PSoC5/PhaseCounter.c ****         PhaseCounter_GLOBAL_ENABLE &= ~PhaseCounter_BLOCK_EN_MASK;
 254              		.loc 1 211 0
 255 001e 44F2A333 		movw	r3, #:lower16:1073759139
 256 0022 C4F20003 		movt	r3, #:upper16:1073759139
 257 0026 44F2A332 		movw	r2, #:lower16:1073759139
 258 002a C4F20002 		movt	r2, #:upper16:1073759139
 259 002e 1278     		ldrb	r2, [r2, #0]
 260 0030 D2B2     		uxtb	r2, r2
 261 0032 02F0FE02 		and	r2, r2, #254
 262 0036 1A70     		strb	r2, [r3, #0]
 212:.\Generated_Source\PSoC5/PhaseCounter.c ****         PhaseCounter_GLOBAL_STBY_ENABLE &= ~PhaseCounter_BLOCK_STBY_EN_MASK;
 263              		.loc 1 212 0
 264 0038 44F2B333 		movw	r3, #:lower16:1073759155
 265 003c C4F20003 		movt	r3, #:upper16:1073759155
 266 0040 44F2B332 		movw	r2, #:lower16:1073759155
 267 0044 C4F20002 		movt	r2, #:upper16:1073759155
 268 0048 1278     		ldrb	r2, [r2, #0]
 269 004a D2B2     		uxtb	r2, r2
 270 004c 02F0FE02 		and	r2, r2, #254
 271 0050 1A70     		strb	r2, [r3, #0]
 213:.\Generated_Source\PSoC5/PhaseCounter.c ****     #endif /* (PhaseCounter_UsingFixedFunction) */
 214:.\Generated_Source\PSoC5/PhaseCounter.c **** }
 272              		.loc 1 214 0
 273 0052 BD46     		mov	sp, r7
 274 0054 80BC     		pop	{r7}
 275 0056 7047     		bx	lr
 276              		.cfi_endproc
 277              	.LFE3:
 278              		.size	PhaseCounter_Stop, .-PhaseCounter_Stop
 279              		.section	.text.PhaseCounter_SetInterruptMode,"ax",%progbits
 280              		.align	2
 281              		.global	PhaseCounter_SetInterruptMode
 282              		.thumb
 283              		.thumb_func
 284              		.type	PhaseCounter_SetInterruptMode, %function
 285              	PhaseCounter_SetInterruptMode:
 286              	.LFB4:
 215:.\Generated_Source\PSoC5/PhaseCounter.c **** 
 216:.\Generated_Source\PSoC5/PhaseCounter.c **** 
 217:.\Generated_Source\PSoC5/PhaseCounter.c **** /*******************************************************************************
 218:.\Generated_Source\PSoC5/PhaseCounter.c **** * Function Name: PhaseCounter_SetInterruptMode
 219:.\Generated_Source\PSoC5/PhaseCounter.c **** ********************************************************************************
 220:.\Generated_Source\PSoC5/PhaseCounter.c **** * Summary:
 221:.\Generated_Source\PSoC5/PhaseCounter.c **** * Configures which interrupt sources are enabled to generate the final interrupt
 222:.\Generated_Source\PSoC5/PhaseCounter.c **** *
 223:.\Generated_Source\PSoC5/PhaseCounter.c **** * Parameters:  
ARM GAS  C:\Users\SUZUKI~1\AppData\Local\Temp\ccuFc3hg.s 			page 10


 224:.\Generated_Source\PSoC5/PhaseCounter.c **** *  InterruptsMask: This parameter is an or'd collection of the status bits
 225:.\Generated_Source\PSoC5/PhaseCounter.c **** *                   which will be allowed to generate the counters interrupt.   
 226:.\Generated_Source\PSoC5/PhaseCounter.c **** *
 227:.\Generated_Source\PSoC5/PhaseCounter.c **** * Return: 
 228:.\Generated_Source\PSoC5/PhaseCounter.c **** *  void
 229:.\Generated_Source\PSoC5/PhaseCounter.c **** *
 230:.\Generated_Source\PSoC5/PhaseCounter.c **** *******************************************************************************/
 231:.\Generated_Source\PSoC5/PhaseCounter.c **** void PhaseCounter_SetInterruptMode(uint8 interruptsMask) 
 232:.\Generated_Source\PSoC5/PhaseCounter.c **** {
 287              		.loc 1 232 0
 288              		.cfi_startproc
 289              		@ args = 0, pretend = 0, frame = 8
 290              		@ frame_needed = 1, uses_anonymous_args = 0
 291              		@ link register save eliminated.
 292 0000 80B4     		push	{r7}
 293              	.LCFI8:
 294              		.cfi_def_cfa_offset 4
 295 0002 83B0     		sub	sp, sp, #12
 296              	.LCFI9:
 297              		.cfi_def_cfa_offset 16
 298 0004 00AF     		add	r7, sp, #0
 299              		.cfi_offset 7, -4
 300              	.LCFI10:
 301              		.cfi_def_cfa_register 7
 302 0006 0346     		mov	r3, r0
 303 0008 FB71     		strb	r3, [r7, #7]
 233:.\Generated_Source\PSoC5/PhaseCounter.c ****     PhaseCounter_STATUS_MASK = interruptsMask;
 304              		.loc 1 233 0
 305 000a 44F60873 		movw	r3, #:lower16:1073762056
 306 000e C4F20003 		movt	r3, #:upper16:1073762056
 307 0012 FA79     		ldrb	r2, [r7, #7]
 308 0014 1A70     		strb	r2, [r3, #0]
 234:.\Generated_Source\PSoC5/PhaseCounter.c **** }
 309              		.loc 1 234 0
 310 0016 07F10C07 		add	r7, r7, #12
 311 001a BD46     		mov	sp, r7
 312 001c 80BC     		pop	{r7}
 313 001e 7047     		bx	lr
 314              		.cfi_endproc
 315              	.LFE4:
 316              		.size	PhaseCounter_SetInterruptMode, .-PhaseCounter_SetInterruptMode
 317              		.section	.text.PhaseCounter_ReadStatusRegister,"ax",%progbits
 318              		.align	2
 319              		.global	PhaseCounter_ReadStatusRegister
 320              		.thumb
 321              		.thumb_func
 322              		.type	PhaseCounter_ReadStatusRegister, %function
 323              	PhaseCounter_ReadStatusRegister:
 324              	.LFB5:
 235:.\Generated_Source\PSoC5/PhaseCounter.c **** 
 236:.\Generated_Source\PSoC5/PhaseCounter.c **** 
 237:.\Generated_Source\PSoC5/PhaseCounter.c **** /*******************************************************************************
 238:.\Generated_Source\PSoC5/PhaseCounter.c **** * Function Name: PhaseCounter_ReadStatusRegister
 239:.\Generated_Source\PSoC5/PhaseCounter.c **** ********************************************************************************
 240:.\Generated_Source\PSoC5/PhaseCounter.c **** * Summary:
 241:.\Generated_Source\PSoC5/PhaseCounter.c **** *   Reads the status register and returns it's state. This function should use
 242:.\Generated_Source\PSoC5/PhaseCounter.c **** *       defined types for the bit-field information as the bits in this
ARM GAS  C:\Users\SUZUKI~1\AppData\Local\Temp\ccuFc3hg.s 			page 11


 243:.\Generated_Source\PSoC5/PhaseCounter.c **** *       register may be permuteable.
 244:.\Generated_Source\PSoC5/PhaseCounter.c **** *
 245:.\Generated_Source\PSoC5/PhaseCounter.c **** * Parameters:  
 246:.\Generated_Source\PSoC5/PhaseCounter.c **** *  void
 247:.\Generated_Source\PSoC5/PhaseCounter.c **** *
 248:.\Generated_Source\PSoC5/PhaseCounter.c **** * Return: 
 249:.\Generated_Source\PSoC5/PhaseCounter.c **** *  (uint8) The contents of the status register
 250:.\Generated_Source\PSoC5/PhaseCounter.c **** *
 251:.\Generated_Source\PSoC5/PhaseCounter.c **** * Side Effects:
 252:.\Generated_Source\PSoC5/PhaseCounter.c **** *   Status register bits may be clear on read. 
 253:.\Generated_Source\PSoC5/PhaseCounter.c **** *
 254:.\Generated_Source\PSoC5/PhaseCounter.c **** *******************************************************************************/
 255:.\Generated_Source\PSoC5/PhaseCounter.c **** uint8   PhaseCounter_ReadStatusRegister(void) 
 256:.\Generated_Source\PSoC5/PhaseCounter.c **** {
 325              		.loc 1 256 0
 326              		.cfi_startproc
 327              		@ args = 0, pretend = 0, frame = 0
 328              		@ frame_needed = 1, uses_anonymous_args = 0
 329              		@ link register save eliminated.
 330 0000 80B4     		push	{r7}
 331              	.LCFI11:
 332              		.cfi_def_cfa_offset 4
 333 0002 00AF     		add	r7, sp, #0
 334              		.cfi_offset 7, -4
 335              	.LCFI12:
 336              		.cfi_def_cfa_register 7
 257:.\Generated_Source\PSoC5/PhaseCounter.c ****     return PhaseCounter_STATUS;
 337              		.loc 1 257 0
 338 0004 44F60873 		movw	r3, #:lower16:1073762056
 339 0008 C4F20003 		movt	r3, #:upper16:1073762056
 340 000c 1B78     		ldrb	r3, [r3, #0]
 341 000e DBB2     		uxtb	r3, r3
 258:.\Generated_Source\PSoC5/PhaseCounter.c **** }
 342              		.loc 1 258 0
 343 0010 1846     		mov	r0, r3
 344 0012 BD46     		mov	sp, r7
 345 0014 80BC     		pop	{r7}
 346 0016 7047     		bx	lr
 347              		.cfi_endproc
 348              	.LFE5:
 349              		.size	PhaseCounter_ReadStatusRegister, .-PhaseCounter_ReadStatusRegister
 350              		.section	.text.PhaseCounter_ReadControlRegister,"ax",%progbits
 351              		.align	2
 352              		.global	PhaseCounter_ReadControlRegister
 353              		.thumb
 354              		.thumb_func
 355              		.type	PhaseCounter_ReadControlRegister, %function
 356              	PhaseCounter_ReadControlRegister:
 357              	.LFB6:
 259:.\Generated_Source\PSoC5/PhaseCounter.c **** 
 260:.\Generated_Source\PSoC5/PhaseCounter.c **** 
 261:.\Generated_Source\PSoC5/PhaseCounter.c **** #if(!PhaseCounter_ControlRegRemoved)
 262:.\Generated_Source\PSoC5/PhaseCounter.c **** /*******************************************************************************
 263:.\Generated_Source\PSoC5/PhaseCounter.c **** * Function Name: PhaseCounter_ReadControlRegister
 264:.\Generated_Source\PSoC5/PhaseCounter.c **** ********************************************************************************
 265:.\Generated_Source\PSoC5/PhaseCounter.c **** * Summary:
 266:.\Generated_Source\PSoC5/PhaseCounter.c **** *   Reads the control register and returns it's state. This function should use
ARM GAS  C:\Users\SUZUKI~1\AppData\Local\Temp\ccuFc3hg.s 			page 12


 267:.\Generated_Source\PSoC5/PhaseCounter.c **** *       defined types for the bit-field information as the bits in this
 268:.\Generated_Source\PSoC5/PhaseCounter.c **** *       register may be permuteable.
 269:.\Generated_Source\PSoC5/PhaseCounter.c **** *
 270:.\Generated_Source\PSoC5/PhaseCounter.c **** * Parameters:  
 271:.\Generated_Source\PSoC5/PhaseCounter.c **** *  void
 272:.\Generated_Source\PSoC5/PhaseCounter.c **** *
 273:.\Generated_Source\PSoC5/PhaseCounter.c **** * Return: 
 274:.\Generated_Source\PSoC5/PhaseCounter.c **** *  (uint8) The contents of the control register
 275:.\Generated_Source\PSoC5/PhaseCounter.c **** *
 276:.\Generated_Source\PSoC5/PhaseCounter.c **** *******************************************************************************/
 277:.\Generated_Source\PSoC5/PhaseCounter.c **** uint8   PhaseCounter_ReadControlRegister(void) 
 278:.\Generated_Source\PSoC5/PhaseCounter.c **** {
 358              		.loc 1 278 0
 359              		.cfi_startproc
 360              		@ args = 0, pretend = 0, frame = 0
 361              		@ frame_needed = 1, uses_anonymous_args = 0
 362              		@ link register save eliminated.
 363 0000 80B4     		push	{r7}
 364              	.LCFI13:
 365              		.cfi_def_cfa_offset 4
 366 0002 00AF     		add	r7, sp, #0
 367              		.cfi_offset 7, -4
 368              	.LCFI14:
 369              		.cfi_def_cfa_register 7
 279:.\Generated_Source\PSoC5/PhaseCounter.c ****     return PhaseCounter_CONTROL;
 370              		.loc 1 279 0
 371 0004 44F60073 		movw	r3, #:lower16:1073762048
 372 0008 C4F20003 		movt	r3, #:upper16:1073762048
 373 000c 1B78     		ldrb	r3, [r3, #0]
 374 000e DBB2     		uxtb	r3, r3
 280:.\Generated_Source\PSoC5/PhaseCounter.c **** }
 375              		.loc 1 280 0
 376 0010 1846     		mov	r0, r3
 377 0012 BD46     		mov	sp, r7
 378 0014 80BC     		pop	{r7}
 379 0016 7047     		bx	lr
 380              		.cfi_endproc
 381              	.LFE6:
 382              		.size	PhaseCounter_ReadControlRegister, .-PhaseCounter_ReadControlRegister
 383              		.section	.text.PhaseCounter_WriteControlRegister,"ax",%progbits
 384              		.align	2
 385              		.global	PhaseCounter_WriteControlRegister
 386              		.thumb
 387              		.thumb_func
 388              		.type	PhaseCounter_WriteControlRegister, %function
 389              	PhaseCounter_WriteControlRegister:
 390              	.LFB7:
 281:.\Generated_Source\PSoC5/PhaseCounter.c **** 
 282:.\Generated_Source\PSoC5/PhaseCounter.c **** 
 283:.\Generated_Source\PSoC5/PhaseCounter.c **** /*******************************************************************************
 284:.\Generated_Source\PSoC5/PhaseCounter.c **** * Function Name: PhaseCounter_WriteControlRegister
 285:.\Generated_Source\PSoC5/PhaseCounter.c **** ********************************************************************************
 286:.\Generated_Source\PSoC5/PhaseCounter.c **** * Summary:
 287:.\Generated_Source\PSoC5/PhaseCounter.c **** *   Sets the bit-field of the control register.  This function should use
 288:.\Generated_Source\PSoC5/PhaseCounter.c **** *       defined types for the bit-field information as the bits in this
 289:.\Generated_Source\PSoC5/PhaseCounter.c **** *       register may be permuteable.
 290:.\Generated_Source\PSoC5/PhaseCounter.c **** *
ARM GAS  C:\Users\SUZUKI~1\AppData\Local\Temp\ccuFc3hg.s 			page 13


 291:.\Generated_Source\PSoC5/PhaseCounter.c **** * Parameters:  
 292:.\Generated_Source\PSoC5/PhaseCounter.c **** *  void
 293:.\Generated_Source\PSoC5/PhaseCounter.c **** *
 294:.\Generated_Source\PSoC5/PhaseCounter.c **** * Return: 
 295:.\Generated_Source\PSoC5/PhaseCounter.c **** *  (uint8) The contents of the control register
 296:.\Generated_Source\PSoC5/PhaseCounter.c **** *
 297:.\Generated_Source\PSoC5/PhaseCounter.c **** *******************************************************************************/
 298:.\Generated_Source\PSoC5/PhaseCounter.c **** void    PhaseCounter_WriteControlRegister(uint8 control) 
 299:.\Generated_Source\PSoC5/PhaseCounter.c **** {
 391              		.loc 1 299 0
 392              		.cfi_startproc
 393              		@ args = 0, pretend = 0, frame = 8
 394              		@ frame_needed = 1, uses_anonymous_args = 0
 395              		@ link register save eliminated.
 396 0000 80B4     		push	{r7}
 397              	.LCFI15:
 398              		.cfi_def_cfa_offset 4
 399 0002 83B0     		sub	sp, sp, #12
 400              	.LCFI16:
 401              		.cfi_def_cfa_offset 16
 402 0004 00AF     		add	r7, sp, #0
 403              		.cfi_offset 7, -4
 404              	.LCFI17:
 405              		.cfi_def_cfa_register 7
 406 0006 0346     		mov	r3, r0
 407 0008 FB71     		strb	r3, [r7, #7]
 300:.\Generated_Source\PSoC5/PhaseCounter.c ****     PhaseCounter_CONTROL = control;
 408              		.loc 1 300 0
 409 000a 44F60073 		movw	r3, #:lower16:1073762048
 410 000e C4F20003 		movt	r3, #:upper16:1073762048
 411 0012 FA79     		ldrb	r2, [r7, #7]
 412 0014 1A70     		strb	r2, [r3, #0]
 301:.\Generated_Source\PSoC5/PhaseCounter.c **** }
 413              		.loc 1 301 0
 414 0016 07F10C07 		add	r7, r7, #12
 415 001a BD46     		mov	sp, r7
 416 001c 80BC     		pop	{r7}
 417 001e 7047     		bx	lr
 418              		.cfi_endproc
 419              	.LFE7:
 420              		.size	PhaseCounter_WriteControlRegister, .-PhaseCounter_WriteControlRegister
 421              		.section	.text.PhaseCounter_ReadCounter,"ax",%progbits
 422              		.align	2
 423              		.global	PhaseCounter_ReadCounter
 424              		.thumb
 425              		.thumb_func
 426              		.type	PhaseCounter_ReadCounter, %function
 427              	PhaseCounter_ReadCounter:
 428              	.LFB8:
 302:.\Generated_Source\PSoC5/PhaseCounter.c **** 
 303:.\Generated_Source\PSoC5/PhaseCounter.c **** #endif  /* (!PhaseCounter_ControlRegRemoved) */
 304:.\Generated_Source\PSoC5/PhaseCounter.c **** 
 305:.\Generated_Source\PSoC5/PhaseCounter.c **** 
 306:.\Generated_Source\PSoC5/PhaseCounter.c **** #if (!(PhaseCounter_UsingFixedFunction && (CY_PSOC5A)))
 307:.\Generated_Source\PSoC5/PhaseCounter.c **** /*******************************************************************************
 308:.\Generated_Source\PSoC5/PhaseCounter.c **** * Function Name: PhaseCounter_WriteCounter
 309:.\Generated_Source\PSoC5/PhaseCounter.c **** ********************************************************************************
ARM GAS  C:\Users\SUZUKI~1\AppData\Local\Temp\ccuFc3hg.s 			page 14


 310:.\Generated_Source\PSoC5/PhaseCounter.c **** * Summary:
 311:.\Generated_Source\PSoC5/PhaseCounter.c **** *   This funtion is used to set the counter to a specific value
 312:.\Generated_Source\PSoC5/PhaseCounter.c **** *
 313:.\Generated_Source\PSoC5/PhaseCounter.c **** * Parameters:  
 314:.\Generated_Source\PSoC5/PhaseCounter.c **** *  counter:  New counter value. 
 315:.\Generated_Source\PSoC5/PhaseCounter.c **** *
 316:.\Generated_Source\PSoC5/PhaseCounter.c **** * Return: 
 317:.\Generated_Source\PSoC5/PhaseCounter.c **** *  void 
 318:.\Generated_Source\PSoC5/PhaseCounter.c **** *
 319:.\Generated_Source\PSoC5/PhaseCounter.c **** *******************************************************************************/
 320:.\Generated_Source\PSoC5/PhaseCounter.c **** void PhaseCounter_WriteCounter(uint16 counter) \
 321:.\Generated_Source\PSoC5/PhaseCounter.c ****                                    
 322:.\Generated_Source\PSoC5/PhaseCounter.c **** {
 323:.\Generated_Source\PSoC5/PhaseCounter.c ****     #if(PhaseCounter_UsingFixedFunction)
 324:.\Generated_Source\PSoC5/PhaseCounter.c ****         /* assert if block is already enabled */
 325:.\Generated_Source\PSoC5/PhaseCounter.c ****         CYASSERT (!(PhaseCounter_GLOBAL_ENABLE & PhaseCounter_BLOCK_EN_MASK));
 326:.\Generated_Source\PSoC5/PhaseCounter.c ****         /* If block is disabled, enable it and then write the counter */
 327:.\Generated_Source\PSoC5/PhaseCounter.c ****         PhaseCounter_GLOBAL_ENABLE |= PhaseCounter_BLOCK_EN_MASK;
 328:.\Generated_Source\PSoC5/PhaseCounter.c ****         CY_SET_REG16(PhaseCounter_COUNTER_LSB_PTR, (uint16)counter);
 329:.\Generated_Source\PSoC5/PhaseCounter.c ****         PhaseCounter_GLOBAL_ENABLE &= ~PhaseCounter_BLOCK_EN_MASK;
 330:.\Generated_Source\PSoC5/PhaseCounter.c ****     #else
 331:.\Generated_Source\PSoC5/PhaseCounter.c ****         CY_SET_REG16(PhaseCounter_COUNTER_LSB_PTR, counter);
 332:.\Generated_Source\PSoC5/PhaseCounter.c ****     #endif /* (PhaseCounter_UsingFixedFunction) */
 333:.\Generated_Source\PSoC5/PhaseCounter.c **** }
 334:.\Generated_Source\PSoC5/PhaseCounter.c **** #endif /* (!(PhaseCounter_UsingFixedFunction && (CY_PSOC5A))) */
 335:.\Generated_Source\PSoC5/PhaseCounter.c **** 
 336:.\Generated_Source\PSoC5/PhaseCounter.c **** 
 337:.\Generated_Source\PSoC5/PhaseCounter.c **** /*******************************************************************************
 338:.\Generated_Source\PSoC5/PhaseCounter.c **** * Function Name: PhaseCounter_ReadCounter
 339:.\Generated_Source\PSoC5/PhaseCounter.c **** ********************************************************************************
 340:.\Generated_Source\PSoC5/PhaseCounter.c **** * Summary:
 341:.\Generated_Source\PSoC5/PhaseCounter.c **** * Returns the current value of the counter.  It doesn't matter
 342:.\Generated_Source\PSoC5/PhaseCounter.c **** * if the counter is enabled or running.
 343:.\Generated_Source\PSoC5/PhaseCounter.c **** *
 344:.\Generated_Source\PSoC5/PhaseCounter.c **** * Parameters:  
 345:.\Generated_Source\PSoC5/PhaseCounter.c **** *  void:  
 346:.\Generated_Source\PSoC5/PhaseCounter.c **** *
 347:.\Generated_Source\PSoC5/PhaseCounter.c **** * Return: 
 348:.\Generated_Source\PSoC5/PhaseCounter.c **** *  (uint16) The present value of the counter.
 349:.\Generated_Source\PSoC5/PhaseCounter.c **** *
 350:.\Generated_Source\PSoC5/PhaseCounter.c **** *******************************************************************************/
 351:.\Generated_Source\PSoC5/PhaseCounter.c **** uint16 PhaseCounter_ReadCounter(void) 
 352:.\Generated_Source\PSoC5/PhaseCounter.c **** {
 429              		.loc 1 352 0
 430              		.cfi_startproc
 431              		@ args = 0, pretend = 0, frame = 0
 432              		@ frame_needed = 1, uses_anonymous_args = 0
 433              		@ link register save eliminated.
 434 0000 80B4     		push	{r7}
 435              	.LCFI18:
 436              		.cfi_def_cfa_offset 4
 437 0002 00AF     		add	r7, sp, #0
 438              		.cfi_offset 7, -4
 439              	.LCFI19:
 440              		.cfi_def_cfa_register 7
 353:.\Generated_Source\PSoC5/PhaseCounter.c ****     /* Force capture by reading Accumulator */
 354:.\Generated_Source\PSoC5/PhaseCounter.c ****     /* Must first do a software capture to be able to read the counter */
ARM GAS  C:\Users\SUZUKI~1\AppData\Local\Temp\ccuFc3hg.s 			page 15


 355:.\Generated_Source\PSoC5/PhaseCounter.c ****     /* It is up to the user code to make sure there isn't already captured data in the FIFO */
 356:.\Generated_Source\PSoC5/PhaseCounter.c ****     CY_GET_REG8(PhaseCounter_COUNTER_LSB_PTR);
 441              		.loc 1 356 0
 442 0004 44F60473 		movw	r3, #:lower16:1073762052
 443 0008 C4F20003 		movt	r3, #:upper16:1073762052
 444 000c 1B78     		ldrb	r3, [r3, #0]
 357:.\Generated_Source\PSoC5/PhaseCounter.c ****     
 358:.\Generated_Source\PSoC5/PhaseCounter.c ****     /* Read the data from the FIFO (or capture register for Fixed Function)*/
 359:.\Generated_Source\PSoC5/PhaseCounter.c ****     return (CY_GET_REG16(PhaseCounter_STATICCOUNT_LSB_PTR));
 445              		.loc 1 359 0
 446 000e 44F60673 		movw	r3, #:lower16:1073762054
 447 0012 C4F20003 		movt	r3, #:upper16:1073762054
 448 0016 1B88     		ldrh	r3, [r3, #0]	@ movhi
 449 0018 9BB2     		uxth	r3, r3
 360:.\Generated_Source\PSoC5/PhaseCounter.c **** }
 450              		.loc 1 360 0
 451 001a 1846     		mov	r0, r3
 452 001c BD46     		mov	sp, r7
 453 001e 80BC     		pop	{r7}
 454 0020 7047     		bx	lr
 455              		.cfi_endproc
 456              	.LFE8:
 457              		.size	PhaseCounter_ReadCounter, .-PhaseCounter_ReadCounter
 458 0022 00BF     		.section	.text.PhaseCounter_ReadCapture,"ax",%progbits
 459              		.align	2
 460              		.global	PhaseCounter_ReadCapture
 461              		.thumb
 462              		.thumb_func
 463              		.type	PhaseCounter_ReadCapture, %function
 464              	PhaseCounter_ReadCapture:
 465              	.LFB9:
 361:.\Generated_Source\PSoC5/PhaseCounter.c **** 
 362:.\Generated_Source\PSoC5/PhaseCounter.c **** 
 363:.\Generated_Source\PSoC5/PhaseCounter.c **** /*******************************************************************************
 364:.\Generated_Source\PSoC5/PhaseCounter.c **** * Function Name: PhaseCounter_ReadCapture
 365:.\Generated_Source\PSoC5/PhaseCounter.c **** ********************************************************************************
 366:.\Generated_Source\PSoC5/PhaseCounter.c **** * Summary:
 367:.\Generated_Source\PSoC5/PhaseCounter.c **** *   This function returns the last value captured.
 368:.\Generated_Source\PSoC5/PhaseCounter.c **** *
 369:.\Generated_Source\PSoC5/PhaseCounter.c **** * Parameters:  
 370:.\Generated_Source\PSoC5/PhaseCounter.c **** *  void
 371:.\Generated_Source\PSoC5/PhaseCounter.c **** *
 372:.\Generated_Source\PSoC5/PhaseCounter.c **** * Return: 
 373:.\Generated_Source\PSoC5/PhaseCounter.c **** *  (uint16) Present Capture value.
 374:.\Generated_Source\PSoC5/PhaseCounter.c **** *
 375:.\Generated_Source\PSoC5/PhaseCounter.c **** *******************************************************************************/
 376:.\Generated_Source\PSoC5/PhaseCounter.c **** uint16 PhaseCounter_ReadCapture(void) 
 377:.\Generated_Source\PSoC5/PhaseCounter.c **** {
 466              		.loc 1 377 0
 467              		.cfi_startproc
 468              		@ args = 0, pretend = 0, frame = 0
 469              		@ frame_needed = 1, uses_anonymous_args = 0
 470              		@ link register save eliminated.
 471 0000 80B4     		push	{r7}
 472              	.LCFI20:
 473              		.cfi_def_cfa_offset 4
 474 0002 00AF     		add	r7, sp, #0
ARM GAS  C:\Users\SUZUKI~1\AppData\Local\Temp\ccuFc3hg.s 			page 16


 475              		.cfi_offset 7, -4
 476              	.LCFI21:
 477              		.cfi_def_cfa_register 7
 378:.\Generated_Source\PSoC5/PhaseCounter.c ****    return ( CY_GET_REG16(PhaseCounter_STATICCOUNT_LSB_PTR) );  
 478              		.loc 1 378 0
 479 0004 44F60673 		movw	r3, #:lower16:1073762054
 480 0008 C4F20003 		movt	r3, #:upper16:1073762054
 481 000c 1B88     		ldrh	r3, [r3, #0]	@ movhi
 482 000e 9BB2     		uxth	r3, r3
 379:.\Generated_Source\PSoC5/PhaseCounter.c **** }
 483              		.loc 1 379 0
 484 0010 1846     		mov	r0, r3
 485 0012 BD46     		mov	sp, r7
 486 0014 80BC     		pop	{r7}
 487 0016 7047     		bx	lr
 488              		.cfi_endproc
 489              	.LFE9:
 490              		.size	PhaseCounter_ReadCapture, .-PhaseCounter_ReadCapture
 491              		.section	.text.PhaseCounter_WritePeriod,"ax",%progbits
 492              		.align	2
 493              		.global	PhaseCounter_WritePeriod
 494              		.thumb
 495              		.thumb_func
 496              		.type	PhaseCounter_WritePeriod, %function
 497              	PhaseCounter_WritePeriod:
 498              	.LFB10:
 380:.\Generated_Source\PSoC5/PhaseCounter.c **** 
 381:.\Generated_Source\PSoC5/PhaseCounter.c **** 
 382:.\Generated_Source\PSoC5/PhaseCounter.c **** /*******************************************************************************
 383:.\Generated_Source\PSoC5/PhaseCounter.c **** * Function Name: PhaseCounter_WritePeriod
 384:.\Generated_Source\PSoC5/PhaseCounter.c **** ********************************************************************************
 385:.\Generated_Source\PSoC5/PhaseCounter.c **** * Summary:
 386:.\Generated_Source\PSoC5/PhaseCounter.c **** * Changes the period of the counter.  The new period 
 387:.\Generated_Source\PSoC5/PhaseCounter.c **** * will be loaded the next time terminal count is detected.
 388:.\Generated_Source\PSoC5/PhaseCounter.c **** *
 389:.\Generated_Source\PSoC5/PhaseCounter.c **** * Parameters:  
 390:.\Generated_Source\PSoC5/PhaseCounter.c **** *  period: (uint16) A value of 0 will result in
 391:.\Generated_Source\PSoC5/PhaseCounter.c **** *         the counter remaining at zero.  
 392:.\Generated_Source\PSoC5/PhaseCounter.c **** *
 393:.\Generated_Source\PSoC5/PhaseCounter.c **** * Return: 
 394:.\Generated_Source\PSoC5/PhaseCounter.c **** *  void
 395:.\Generated_Source\PSoC5/PhaseCounter.c **** *
 396:.\Generated_Source\PSoC5/PhaseCounter.c **** *******************************************************************************/
 397:.\Generated_Source\PSoC5/PhaseCounter.c **** void PhaseCounter_WritePeriod(uint16 period) 
 398:.\Generated_Source\PSoC5/PhaseCounter.c **** {
 499              		.loc 1 398 0
 500              		.cfi_startproc
 501              		@ args = 0, pretend = 0, frame = 8
 502              		@ frame_needed = 1, uses_anonymous_args = 0
 503              		@ link register save eliminated.
 504 0000 80B4     		push	{r7}
 505              	.LCFI22:
 506              		.cfi_def_cfa_offset 4
 507 0002 83B0     		sub	sp, sp, #12
 508              	.LCFI23:
 509              		.cfi_def_cfa_offset 16
 510 0004 00AF     		add	r7, sp, #0
ARM GAS  C:\Users\SUZUKI~1\AppData\Local\Temp\ccuFc3hg.s 			page 17


 511              		.cfi_offset 7, -4
 512              	.LCFI24:
 513              		.cfi_def_cfa_register 7
 514 0006 0346     		mov	r3, r0
 515 0008 FB80     		strh	r3, [r7, #6]	@ movhi
 399:.\Generated_Source\PSoC5/PhaseCounter.c ****     #if(PhaseCounter_UsingFixedFunction)
 400:.\Generated_Source\PSoC5/PhaseCounter.c ****         CY_SET_REG16(PhaseCounter_PERIOD_LSB_PTR,(uint16)period);
 516              		.loc 1 400 0
 517 000a 44F60273 		movw	r3, #:lower16:1073762050
 518 000e C4F20003 		movt	r3, #:upper16:1073762050
 519 0012 FA88     		ldrh	r2, [r7, #6]	@ movhi
 520 0014 1A80     		strh	r2, [r3, #0]	@ movhi
 401:.\Generated_Source\PSoC5/PhaseCounter.c ****     #else
 402:.\Generated_Source\PSoC5/PhaseCounter.c ****         CY_SET_REG16(PhaseCounter_PERIOD_LSB_PTR,period);
 403:.\Generated_Source\PSoC5/PhaseCounter.c ****     #endif /* (PhaseCounter_UsingFixedFunction) */
 404:.\Generated_Source\PSoC5/PhaseCounter.c **** }
 521              		.loc 1 404 0
 522 0016 07F10C07 		add	r7, r7, #12
 523 001a BD46     		mov	sp, r7
 524 001c 80BC     		pop	{r7}
 525 001e 7047     		bx	lr
 526              		.cfi_endproc
 527              	.LFE10:
 528              		.size	PhaseCounter_WritePeriod, .-PhaseCounter_WritePeriod
 529              		.section	.text.PhaseCounter_ReadPeriod,"ax",%progbits
 530              		.align	2
 531              		.global	PhaseCounter_ReadPeriod
 532              		.thumb
 533              		.thumb_func
 534              		.type	PhaseCounter_ReadPeriod, %function
 535              	PhaseCounter_ReadPeriod:
 536              	.LFB11:
 405:.\Generated_Source\PSoC5/PhaseCounter.c **** 
 406:.\Generated_Source\PSoC5/PhaseCounter.c **** 
 407:.\Generated_Source\PSoC5/PhaseCounter.c **** /*******************************************************************************
 408:.\Generated_Source\PSoC5/PhaseCounter.c **** * Function Name: PhaseCounter_ReadPeriod
 409:.\Generated_Source\PSoC5/PhaseCounter.c **** ********************************************************************************
 410:.\Generated_Source\PSoC5/PhaseCounter.c **** * Summary:
 411:.\Generated_Source\PSoC5/PhaseCounter.c **** * Reads the current period value without affecting counter operation.
 412:.\Generated_Source\PSoC5/PhaseCounter.c **** *
 413:.\Generated_Source\PSoC5/PhaseCounter.c **** * Parameters:  
 414:.\Generated_Source\PSoC5/PhaseCounter.c **** *  void:  
 415:.\Generated_Source\PSoC5/PhaseCounter.c **** *
 416:.\Generated_Source\PSoC5/PhaseCounter.c **** * Return: 
 417:.\Generated_Source\PSoC5/PhaseCounter.c **** *  (uint16) Present period value.
 418:.\Generated_Source\PSoC5/PhaseCounter.c **** *
 419:.\Generated_Source\PSoC5/PhaseCounter.c **** *******************************************************************************/
 420:.\Generated_Source\PSoC5/PhaseCounter.c **** uint16 PhaseCounter_ReadPeriod(void) 
 421:.\Generated_Source\PSoC5/PhaseCounter.c **** {
 537              		.loc 1 421 0
 538              		.cfi_startproc
 539              		@ args = 0, pretend = 0, frame = 0
 540              		@ frame_needed = 1, uses_anonymous_args = 0
 541              		@ link register save eliminated.
 542 0000 80B4     		push	{r7}
 543              	.LCFI25:
 544              		.cfi_def_cfa_offset 4
ARM GAS  C:\Users\SUZUKI~1\AppData\Local\Temp\ccuFc3hg.s 			page 18


 545 0002 00AF     		add	r7, sp, #0
 546              		.cfi_offset 7, -4
 547              	.LCFI26:
 548              		.cfi_def_cfa_register 7
 422:.\Generated_Source\PSoC5/PhaseCounter.c ****    return ( CY_GET_REG16(PhaseCounter_PERIOD_LSB_PTR));
 549              		.loc 1 422 0
 550 0004 44F60273 		movw	r3, #:lower16:1073762050
 551 0008 C4F20003 		movt	r3, #:upper16:1073762050
 552 000c 1B88     		ldrh	r3, [r3, #0]	@ movhi
 553 000e 9BB2     		uxth	r3, r3
 423:.\Generated_Source\PSoC5/PhaseCounter.c **** }
 554              		.loc 1 423 0
 555 0010 1846     		mov	r0, r3
 556 0012 BD46     		mov	sp, r7
 557 0014 80BC     		pop	{r7}
 558 0016 7047     		bx	lr
 559              		.cfi_endproc
 560              	.LFE11:
 561              		.size	PhaseCounter_ReadPeriod, .-PhaseCounter_ReadPeriod
 562              		.text
 563              	.Letext0:
 564              		.section	.debug_loc,"",%progbits
 565              	.Ldebug_loc0:
 566              	.LLST0:
 567 0000 00000000 		.4byte	.LFB0
 568 0004 02000000 		.4byte	.LCFI0
 569 0008 0100     		.2byte	0x1
 570 000a 5D       		.byte	0x5d
 571 000b 02000000 		.4byte	.LCFI0
 572 000f 04000000 		.4byte	.LCFI1
 573 0013 0200     		.2byte	0x2
 574 0015 7D       		.byte	0x7d
 575 0016 08       		.sleb128 8
 576 0017 04000000 		.4byte	.LCFI1
 577 001b D2000000 		.4byte	.LFE0
 578 001f 0200     		.2byte	0x2
 579 0021 77       		.byte	0x77
 580 0022 08       		.sleb128 8
 581 0023 00000000 		.4byte	0x0
 582 0027 00000000 		.4byte	0x0
 583              	.LLST1:
 584 002b 00000000 		.4byte	.LFB1
 585 002f 02000000 		.4byte	.LCFI2
 586 0033 0100     		.2byte	0x1
 587 0035 5D       		.byte	0x5d
 588 0036 02000000 		.4byte	.LCFI2
 589 003a 04000000 		.4byte	.LCFI3
 590 003e 0200     		.2byte	0x2
 591 0040 7D       		.byte	0x7d
 592 0041 04       		.sleb128 4
 593 0042 04000000 		.4byte	.LCFI3
 594 0046 5E000000 		.4byte	.LFE1
 595 004a 0200     		.2byte	0x2
 596 004c 77       		.byte	0x77
 597 004d 04       		.sleb128 4
 598 004e 00000000 		.4byte	0x0
 599 0052 00000000 		.4byte	0x0
ARM GAS  C:\Users\SUZUKI~1\AppData\Local\Temp\ccuFc3hg.s 			page 19


 600              	.LLST2:
 601 0056 00000000 		.4byte	.LFB2
 602 005a 02000000 		.4byte	.LCFI4
 603 005e 0100     		.2byte	0x1
 604 0060 5D       		.byte	0x5d
 605 0061 02000000 		.4byte	.LCFI4
 606 0065 04000000 		.4byte	.LCFI5
 607 0069 0200     		.2byte	0x2
 608 006b 7D       		.byte	0x7d
 609 006c 08       		.sleb128 8
 610 006d 04000000 		.4byte	.LCFI5
 611 0071 2A000000 		.4byte	.LFE2
 612 0075 0200     		.2byte	0x2
 613 0077 77       		.byte	0x77
 614 0078 08       		.sleb128 8
 615 0079 00000000 		.4byte	0x0
 616 007d 00000000 		.4byte	0x0
 617              	.LLST3:
 618 0081 00000000 		.4byte	.LFB3
 619 0085 02000000 		.4byte	.LCFI6
 620 0089 0100     		.2byte	0x1
 621 008b 5D       		.byte	0x5d
 622 008c 02000000 		.4byte	.LCFI6
 623 0090 04000000 		.4byte	.LCFI7
 624 0094 0200     		.2byte	0x2
 625 0096 7D       		.byte	0x7d
 626 0097 04       		.sleb128 4
 627 0098 04000000 		.4byte	.LCFI7
 628 009c 58000000 		.4byte	.LFE3
 629 00a0 0200     		.2byte	0x2
 630 00a2 77       		.byte	0x77
 631 00a3 04       		.sleb128 4
 632 00a4 00000000 		.4byte	0x0
 633 00a8 00000000 		.4byte	0x0
 634              	.LLST4:
 635 00ac 00000000 		.4byte	.LFB4
 636 00b0 02000000 		.4byte	.LCFI8
 637 00b4 0100     		.2byte	0x1
 638 00b6 5D       		.byte	0x5d
 639 00b7 02000000 		.4byte	.LCFI8
 640 00bb 04000000 		.4byte	.LCFI9
 641 00bf 0200     		.2byte	0x2
 642 00c1 7D       		.byte	0x7d
 643 00c2 04       		.sleb128 4
 644 00c3 04000000 		.4byte	.LCFI9
 645 00c7 06000000 		.4byte	.LCFI10
 646 00cb 0200     		.2byte	0x2
 647 00cd 7D       		.byte	0x7d
 648 00ce 10       		.sleb128 16
 649 00cf 06000000 		.4byte	.LCFI10
 650 00d3 20000000 		.4byte	.LFE4
 651 00d7 0200     		.2byte	0x2
 652 00d9 77       		.byte	0x77
 653 00da 10       		.sleb128 16
 654 00db 00000000 		.4byte	0x0
 655 00df 00000000 		.4byte	0x0
 656              	.LLST5:
ARM GAS  C:\Users\SUZUKI~1\AppData\Local\Temp\ccuFc3hg.s 			page 20


 657 00e3 00000000 		.4byte	.LFB5
 658 00e7 02000000 		.4byte	.LCFI11
 659 00eb 0100     		.2byte	0x1
 660 00ed 5D       		.byte	0x5d
 661 00ee 02000000 		.4byte	.LCFI11
 662 00f2 04000000 		.4byte	.LCFI12
 663 00f6 0200     		.2byte	0x2
 664 00f8 7D       		.byte	0x7d
 665 00f9 04       		.sleb128 4
 666 00fa 04000000 		.4byte	.LCFI12
 667 00fe 18000000 		.4byte	.LFE5
 668 0102 0200     		.2byte	0x2
 669 0104 77       		.byte	0x77
 670 0105 04       		.sleb128 4
 671 0106 00000000 		.4byte	0x0
 672 010a 00000000 		.4byte	0x0
 673              	.LLST6:
 674 010e 00000000 		.4byte	.LFB6
 675 0112 02000000 		.4byte	.LCFI13
 676 0116 0100     		.2byte	0x1
 677 0118 5D       		.byte	0x5d
 678 0119 02000000 		.4byte	.LCFI13
 679 011d 04000000 		.4byte	.LCFI14
 680 0121 0200     		.2byte	0x2
 681 0123 7D       		.byte	0x7d
 682 0124 04       		.sleb128 4
 683 0125 04000000 		.4byte	.LCFI14
 684 0129 18000000 		.4byte	.LFE6
 685 012d 0200     		.2byte	0x2
 686 012f 77       		.byte	0x77
 687 0130 04       		.sleb128 4
 688 0131 00000000 		.4byte	0x0
 689 0135 00000000 		.4byte	0x0
 690              	.LLST7:
 691 0139 00000000 		.4byte	.LFB7
 692 013d 02000000 		.4byte	.LCFI15
 693 0141 0100     		.2byte	0x1
 694 0143 5D       		.byte	0x5d
 695 0144 02000000 		.4byte	.LCFI15
 696 0148 04000000 		.4byte	.LCFI16
 697 014c 0200     		.2byte	0x2
 698 014e 7D       		.byte	0x7d
 699 014f 04       		.sleb128 4
 700 0150 04000000 		.4byte	.LCFI16
 701 0154 06000000 		.4byte	.LCFI17
 702 0158 0200     		.2byte	0x2
 703 015a 7D       		.byte	0x7d
 704 015b 10       		.sleb128 16
 705 015c 06000000 		.4byte	.LCFI17
 706 0160 20000000 		.4byte	.LFE7
 707 0164 0200     		.2byte	0x2
 708 0166 77       		.byte	0x77
 709 0167 10       		.sleb128 16
 710 0168 00000000 		.4byte	0x0
 711 016c 00000000 		.4byte	0x0
 712              	.LLST8:
 713 0170 00000000 		.4byte	.LFB8
ARM GAS  C:\Users\SUZUKI~1\AppData\Local\Temp\ccuFc3hg.s 			page 21


 714 0174 02000000 		.4byte	.LCFI18
 715 0178 0100     		.2byte	0x1
 716 017a 5D       		.byte	0x5d
 717 017b 02000000 		.4byte	.LCFI18
 718 017f 04000000 		.4byte	.LCFI19
 719 0183 0200     		.2byte	0x2
 720 0185 7D       		.byte	0x7d
 721 0186 04       		.sleb128 4
 722 0187 04000000 		.4byte	.LCFI19
 723 018b 22000000 		.4byte	.LFE8
 724 018f 0200     		.2byte	0x2
 725 0191 77       		.byte	0x77
 726 0192 04       		.sleb128 4
 727 0193 00000000 		.4byte	0x0
 728 0197 00000000 		.4byte	0x0
 729              	.LLST9:
 730 019b 00000000 		.4byte	.LFB9
 731 019f 02000000 		.4byte	.LCFI20
 732 01a3 0100     		.2byte	0x1
 733 01a5 5D       		.byte	0x5d
 734 01a6 02000000 		.4byte	.LCFI20
 735 01aa 04000000 		.4byte	.LCFI21
 736 01ae 0200     		.2byte	0x2
 737 01b0 7D       		.byte	0x7d
 738 01b1 04       		.sleb128 4
 739 01b2 04000000 		.4byte	.LCFI21
 740 01b6 18000000 		.4byte	.LFE9
 741 01ba 0200     		.2byte	0x2
 742 01bc 77       		.byte	0x77
 743 01bd 04       		.sleb128 4
 744 01be 00000000 		.4byte	0x0
 745 01c2 00000000 		.4byte	0x0
 746              	.LLST10:
 747 01c6 00000000 		.4byte	.LFB10
 748 01ca 02000000 		.4byte	.LCFI22
 749 01ce 0100     		.2byte	0x1
 750 01d0 5D       		.byte	0x5d
 751 01d1 02000000 		.4byte	.LCFI22
 752 01d5 04000000 		.4byte	.LCFI23
 753 01d9 0200     		.2byte	0x2
 754 01db 7D       		.byte	0x7d
 755 01dc 04       		.sleb128 4
 756 01dd 04000000 		.4byte	.LCFI23
 757 01e1 06000000 		.4byte	.LCFI24
 758 01e5 0200     		.2byte	0x2
 759 01e7 7D       		.byte	0x7d
 760 01e8 10       		.sleb128 16
 761 01e9 06000000 		.4byte	.LCFI24
 762 01ed 20000000 		.4byte	.LFE10
 763 01f1 0200     		.2byte	0x2
 764 01f3 77       		.byte	0x77
 765 01f4 10       		.sleb128 16
 766 01f5 00000000 		.4byte	0x0
 767 01f9 00000000 		.4byte	0x0
 768              	.LLST11:
 769 01fd 00000000 		.4byte	.LFB11
 770 0201 02000000 		.4byte	.LCFI25
ARM GAS  C:\Users\SUZUKI~1\AppData\Local\Temp\ccuFc3hg.s 			page 22


 771 0205 0100     		.2byte	0x1
 772 0207 5D       		.byte	0x5d
 773 0208 02000000 		.4byte	.LCFI25
 774 020c 04000000 		.4byte	.LCFI26
 775 0210 0200     		.2byte	0x2
 776 0212 7D       		.byte	0x7d
 777 0213 04       		.sleb128 4
 778 0214 04000000 		.4byte	.LCFI26
 779 0218 18000000 		.4byte	.LFE11
 780 021c 0200     		.2byte	0x2
 781 021e 77       		.byte	0x77
 782 021f 04       		.sleb128 4
 783 0220 00000000 		.4byte	0x0
 784 0224 00000000 		.4byte	0x0
 785              		.file 2 ".\\Generated_Source\\PSoC5\\/cytypes.h"
 786              		.section	.debug_info
 787 0000 EF010000 		.4byte	0x1ef
 788 0004 0200     		.2byte	0x2
 789 0006 00000000 		.4byte	.Ldebug_abbrev0
 790 000a 04       		.byte	0x4
 791 000b 01       		.uleb128 0x1
 792 000c D1010000 		.4byte	.LASF27
 793 0010 01       		.byte	0x1
 794 0011 23020000 		.4byte	.LASF28
 795 0015 B9000000 		.4byte	.LASF29
 796 0019 00000000 		.4byte	0x0
 797 001d 00000000 		.4byte	0x0
 798 0021 00000000 		.4byte	.Ldebug_ranges0+0x0
 799 0025 00000000 		.4byte	.Ldebug_line0
 800 0029 02       		.uleb128 0x2
 801 002a 01       		.byte	0x1
 802 002b 06       		.byte	0x6
 803 002c 54020000 		.4byte	.LASF0
 804 0030 02       		.uleb128 0x2
 805 0031 01       		.byte	0x1
 806 0032 08       		.byte	0x8
 807 0033 AB000000 		.4byte	.LASF1
 808 0037 02       		.uleb128 0x2
 809 0038 02       		.byte	0x2
 810 0039 05       		.byte	0x5
 811 003a E2010000 		.4byte	.LASF2
 812 003e 02       		.uleb128 0x2
 813 003f 02       		.byte	0x2
 814 0040 07       		.byte	0x7
 815 0041 60000000 		.4byte	.LASF3
 816 0045 02       		.uleb128 0x2
 817 0046 04       		.byte	0x4
 818 0047 05       		.byte	0x5
 819 0048 4B020000 		.4byte	.LASF4
 820 004c 02       		.uleb128 0x2
 821 004d 04       		.byte	0x4
 822 004e 07       		.byte	0x7
 823 004f ED000000 		.4byte	.LASF5
 824 0053 02       		.uleb128 0x2
 825 0054 08       		.byte	0x8
 826 0055 05       		.byte	0x5
 827 0056 00000000 		.4byte	.LASF6
ARM GAS  C:\Users\SUZUKI~1\AppData\Local\Temp\ccuFc3hg.s 			page 23


 828 005a 02       		.uleb128 0x2
 829 005b 08       		.byte	0x8
 830 005c 07       		.byte	0x7
 831 005d A6010000 		.4byte	.LASF7
 832 0061 03       		.uleb128 0x3
 833 0062 04       		.byte	0x4
 834 0063 05       		.byte	0x5
 835 0064 696E7400 		.ascii	"int\000"
 836 0068 02       		.uleb128 0x2
 837 0069 04       		.byte	0x4
 838 006a 07       		.byte	0x7
 839 006b 73000000 		.4byte	.LASF8
 840 006f 02       		.uleb128 0x2
 841 0070 01       		.byte	0x1
 842 0071 08       		.byte	0x8
 843 0072 DD010000 		.4byte	.LASF9
 844 0076 04       		.uleb128 0x4
 845 0077 FF000000 		.4byte	.LASF10
 846 007b 02       		.byte	0x2
 847 007c 60       		.byte	0x60
 848 007d 30000000 		.4byte	0x30
 849 0081 04       		.uleb128 0x4
 850 0082 65010000 		.4byte	.LASF11
 851 0086 02       		.byte	0x2
 852 0087 61       		.byte	0x61
 853 0088 3E000000 		.4byte	0x3e
 854 008c 05       		.uleb128 0x5
 855 008d 04       		.byte	0x4
 856 008e 07       		.byte	0x7
 857 008f 06       		.uleb128 0x6
 858 0090 01       		.byte	0x1
 859 0091 27000000 		.4byte	.LASF12
 860 0095 01       		.byte	0x1
 861 0096 25       		.byte	0x25
 862 0097 01       		.byte	0x1
 863 0098 00000000 		.4byte	.LFB0
 864 009c D2000000 		.4byte	.LFE0
 865 00a0 00000000 		.4byte	.LLST0
 866 00a4 06       		.uleb128 0x6
 867 00a5 01       		.byte	0x1
 868 00a6 BD010000 		.4byte	.LASF13
 869 00aa 01       		.byte	0x1
 870 00ab 89       		.byte	0x89
 871 00ac 01       		.byte	0x1
 872 00ad 00000000 		.4byte	.LFB1
 873 00b1 5E000000 		.4byte	.LFE1
 874 00b5 2B000000 		.4byte	.LLST1
 875 00b9 06       		.uleb128 0x6
 876 00ba 01       		.byte	0x1
 877 00bb 98000000 		.4byte	.LASF14
 878 00bf 01       		.byte	0x1
 879 00c0 AC       		.byte	0xac
 880 00c1 01       		.byte	0x1
 881 00c2 00000000 		.4byte	.LFB2
 882 00c6 2A000000 		.4byte	.LFE2
 883 00ca 56000000 		.4byte	.LLST2
 884 00ce 06       		.uleb128 0x6
ARM GAS  C:\Users\SUZUKI~1\AppData\Local\Temp\ccuFc3hg.s 			page 24


 885 00cf 01       		.byte	0x1
 886 00d0 1C010000 		.4byte	.LASF15
 887 00d4 01       		.byte	0x1
 888 00d5 CA       		.byte	0xca
 889 00d6 01       		.byte	0x1
 890 00d7 00000000 		.4byte	.LFB3
 891 00db 58000000 		.4byte	.LFE3
 892 00df 81000000 		.4byte	.LLST3
 893 00e3 07       		.uleb128 0x7
 894 00e4 01       		.byte	0x1
 895 00e5 EC010000 		.4byte	.LASF18
 896 00e9 01       		.byte	0x1
 897 00ea E7       		.byte	0xe7
 898 00eb 01       		.byte	0x1
 899 00ec 00000000 		.4byte	.LFB4
 900 00f0 20000000 		.4byte	.LFE4
 901 00f4 AC000000 		.4byte	.LLST4
 902 00f8 0B010000 		.4byte	0x10b
 903 00fc 08       		.uleb128 0x8
 904 00fd 0D010000 		.4byte	.LASF20
 905 0101 01       		.byte	0x1
 906 0102 E7       		.byte	0xe7
 907 0103 76000000 		.4byte	0x76
 908 0107 02       		.byte	0x2
 909 0108 91       		.byte	0x91
 910 0109 77       		.sleb128 -9
 911 010a 00       		.byte	0x0
 912 010b 09       		.uleb128 0x9
 913 010c 01       		.byte	0x1
 914 010d 39000000 		.4byte	.LASF16
 915 0111 01       		.byte	0x1
 916 0112 FF       		.byte	0xff
 917 0113 01       		.byte	0x1
 918 0114 76000000 		.4byte	0x76
 919 0118 00000000 		.4byte	.LFB5
 920 011c 18000000 		.4byte	.LFE5
 921 0120 E3000000 		.4byte	.LLST5
 922 0124 0A       		.uleb128 0xa
 923 0125 01       		.byte	0x1
 924 0126 85010000 		.4byte	.LASF17
 925 012a 01       		.byte	0x1
 926 012b 1501     		.2byte	0x115
 927 012d 01       		.byte	0x1
 928 012e 76000000 		.4byte	0x76
 929 0132 00000000 		.4byte	.LFB6
 930 0136 18000000 		.4byte	.LFE6
 931 013a 0E010000 		.4byte	.LLST6
 932 013e 0B       		.uleb128 0xb
 933 013f 01       		.byte	0x1
 934 0140 43010000 		.4byte	.LASF19
 935 0144 01       		.byte	0x1
 936 0145 2A01     		.2byte	0x12a
 937 0147 01       		.byte	0x1
 938 0148 00000000 		.4byte	.LFB7
 939 014c 20000000 		.4byte	.LFE7
 940 0150 39010000 		.4byte	.LLST7
 941 0154 68010000 		.4byte	0x168
ARM GAS  C:\Users\SUZUKI~1\AppData\Local\Temp\ccuFc3hg.s 			page 25


 942 0158 0C       		.uleb128 0xc
 943 0159 05010000 		.4byte	.LASF21
 944 015d 01       		.byte	0x1
 945 015e 2A01     		.2byte	0x12a
 946 0160 76000000 		.4byte	0x76
 947 0164 02       		.byte	0x2
 948 0165 91       		.byte	0x91
 949 0166 77       		.sleb128 -9
 950 0167 00       		.byte	0x0
 951 0168 0A       		.uleb128 0xa
 952 0169 01       		.byte	0x1
 953 016a 0A020000 		.4byte	.LASF22
 954 016e 01       		.byte	0x1
 955 016f 5F01     		.2byte	0x15f
 956 0171 01       		.byte	0x1
 957 0172 81000000 		.4byte	0x81
 958 0176 00000000 		.4byte	.LFB8
 959 017a 22000000 		.4byte	.LFE8
 960 017e 70010000 		.4byte	.LLST8
 961 0182 0A       		.uleb128 0xa
 962 0183 01       		.byte	0x1
 963 0184 6C010000 		.4byte	.LASF23
 964 0188 01       		.byte	0x1
 965 0189 7801     		.2byte	0x178
 966 018b 01       		.byte	0x1
 967 018c 81000000 		.4byte	0x81
 968 0190 00000000 		.4byte	.LFB9
 969 0194 18000000 		.4byte	.LFE9
 970 0198 9B010000 		.4byte	.LLST9
 971 019c 0B       		.uleb128 0xb
 972 019d 01       		.byte	0x1
 973 019e 0E000000 		.4byte	.LASF24
 974 01a2 01       		.byte	0x1
 975 01a3 8D01     		.2byte	0x18d
 976 01a5 01       		.byte	0x1
 977 01a6 00000000 		.4byte	.LFB10
 978 01aa 20000000 		.4byte	.LFE10
 979 01ae C6010000 		.4byte	.LLST10
 980 01b2 C6010000 		.4byte	0x1c6
 981 01b6 0C       		.uleb128 0xc
 982 01b7 59000000 		.4byte	.LASF25
 983 01bb 01       		.byte	0x1
 984 01bc 8D01     		.2byte	0x18d
 985 01be 81000000 		.4byte	0x81
 986 01c2 02       		.byte	0x2
 987 01c3 91       		.byte	0x91
 988 01c4 76       		.sleb128 -10
 989 01c5 00       		.byte	0x0
 990 01c6 0A       		.uleb128 0xa
 991 01c7 01       		.byte	0x1
 992 01c8 80000000 		.4byte	.LASF26
 993 01cc 01       		.byte	0x1
 994 01cd A401     		.2byte	0x1a4
 995 01cf 01       		.byte	0x1
 996 01d0 81000000 		.4byte	0x81
 997 01d4 00000000 		.4byte	.LFB11
 998 01d8 18000000 		.4byte	.LFE11
ARM GAS  C:\Users\SUZUKI~1\AppData\Local\Temp\ccuFc3hg.s 			page 26


 999 01dc FD010000 		.4byte	.LLST11
 1000 01e0 0D       		.uleb128 0xd
 1001 01e1 2E010000 		.4byte	.LASF30
 1002 01e5 01       		.byte	0x1
 1003 01e6 15       		.byte	0x15
 1004 01e7 76000000 		.4byte	0x76
 1005 01eb 01       		.byte	0x1
 1006 01ec 05       		.byte	0x5
 1007 01ed 03       		.byte	0x3
 1008 01ee 00000000 		.4byte	PhaseCounter_initVar
 1009 01f2 00       		.byte	0x0
 1010              		.section	.debug_abbrev
 1011 0000 01       		.uleb128 0x1
 1012 0001 11       		.uleb128 0x11
 1013 0002 01       		.byte	0x1
 1014 0003 25       		.uleb128 0x25
 1015 0004 0E       		.uleb128 0xe
 1016 0005 13       		.uleb128 0x13
 1017 0006 0B       		.uleb128 0xb
 1018 0007 03       		.uleb128 0x3
 1019 0008 0E       		.uleb128 0xe
 1020 0009 1B       		.uleb128 0x1b
 1021 000a 0E       		.uleb128 0xe
 1022 000b 11       		.uleb128 0x11
 1023 000c 01       		.uleb128 0x1
 1024 000d 52       		.uleb128 0x52
 1025 000e 01       		.uleb128 0x1
 1026 000f 55       		.uleb128 0x55
 1027 0010 06       		.uleb128 0x6
 1028 0011 10       		.uleb128 0x10
 1029 0012 06       		.uleb128 0x6
 1030 0013 00       		.byte	0x0
 1031 0014 00       		.byte	0x0
 1032 0015 02       		.uleb128 0x2
 1033 0016 24       		.uleb128 0x24
 1034 0017 00       		.byte	0x0
 1035 0018 0B       		.uleb128 0xb
 1036 0019 0B       		.uleb128 0xb
 1037 001a 3E       		.uleb128 0x3e
 1038 001b 0B       		.uleb128 0xb
 1039 001c 03       		.uleb128 0x3
 1040 001d 0E       		.uleb128 0xe
 1041 001e 00       		.byte	0x0
 1042 001f 00       		.byte	0x0
 1043 0020 03       		.uleb128 0x3
 1044 0021 24       		.uleb128 0x24
 1045 0022 00       		.byte	0x0
 1046 0023 0B       		.uleb128 0xb
 1047 0024 0B       		.uleb128 0xb
 1048 0025 3E       		.uleb128 0x3e
 1049 0026 0B       		.uleb128 0xb
 1050 0027 03       		.uleb128 0x3
 1051 0028 08       		.uleb128 0x8
 1052 0029 00       		.byte	0x0
 1053 002a 00       		.byte	0x0
 1054 002b 04       		.uleb128 0x4
 1055 002c 16       		.uleb128 0x16
ARM GAS  C:\Users\SUZUKI~1\AppData\Local\Temp\ccuFc3hg.s 			page 27


 1056 002d 00       		.byte	0x0
 1057 002e 03       		.uleb128 0x3
 1058 002f 0E       		.uleb128 0xe
 1059 0030 3A       		.uleb128 0x3a
 1060 0031 0B       		.uleb128 0xb
 1061 0032 3B       		.uleb128 0x3b
 1062 0033 0B       		.uleb128 0xb
 1063 0034 49       		.uleb128 0x49
 1064 0035 13       		.uleb128 0x13
 1065 0036 00       		.byte	0x0
 1066 0037 00       		.byte	0x0
 1067 0038 05       		.uleb128 0x5
 1068 0039 24       		.uleb128 0x24
 1069 003a 00       		.byte	0x0
 1070 003b 0B       		.uleb128 0xb
 1071 003c 0B       		.uleb128 0xb
 1072 003d 3E       		.uleb128 0x3e
 1073 003e 0B       		.uleb128 0xb
 1074 003f 00       		.byte	0x0
 1075 0040 00       		.byte	0x0
 1076 0041 06       		.uleb128 0x6
 1077 0042 2E       		.uleb128 0x2e
 1078 0043 00       		.byte	0x0
 1079 0044 3F       		.uleb128 0x3f
 1080 0045 0C       		.uleb128 0xc
 1081 0046 03       		.uleb128 0x3
 1082 0047 0E       		.uleb128 0xe
 1083 0048 3A       		.uleb128 0x3a
 1084 0049 0B       		.uleb128 0xb
 1085 004a 3B       		.uleb128 0x3b
 1086 004b 0B       		.uleb128 0xb
 1087 004c 27       		.uleb128 0x27
 1088 004d 0C       		.uleb128 0xc
 1089 004e 11       		.uleb128 0x11
 1090 004f 01       		.uleb128 0x1
 1091 0050 12       		.uleb128 0x12
 1092 0051 01       		.uleb128 0x1
 1093 0052 40       		.uleb128 0x40
 1094 0053 06       		.uleb128 0x6
 1095 0054 00       		.byte	0x0
 1096 0055 00       		.byte	0x0
 1097 0056 07       		.uleb128 0x7
 1098 0057 2E       		.uleb128 0x2e
 1099 0058 01       		.byte	0x1
 1100 0059 3F       		.uleb128 0x3f
 1101 005a 0C       		.uleb128 0xc
 1102 005b 03       		.uleb128 0x3
 1103 005c 0E       		.uleb128 0xe
 1104 005d 3A       		.uleb128 0x3a
 1105 005e 0B       		.uleb128 0xb
 1106 005f 3B       		.uleb128 0x3b
 1107 0060 0B       		.uleb128 0xb
 1108 0061 27       		.uleb128 0x27
 1109 0062 0C       		.uleb128 0xc
 1110 0063 11       		.uleb128 0x11
 1111 0064 01       		.uleb128 0x1
 1112 0065 12       		.uleb128 0x12
ARM GAS  C:\Users\SUZUKI~1\AppData\Local\Temp\ccuFc3hg.s 			page 28


 1113 0066 01       		.uleb128 0x1
 1114 0067 40       		.uleb128 0x40
 1115 0068 06       		.uleb128 0x6
 1116 0069 01       		.uleb128 0x1
 1117 006a 13       		.uleb128 0x13
 1118 006b 00       		.byte	0x0
 1119 006c 00       		.byte	0x0
 1120 006d 08       		.uleb128 0x8
 1121 006e 05       		.uleb128 0x5
 1122 006f 00       		.byte	0x0
 1123 0070 03       		.uleb128 0x3
 1124 0071 0E       		.uleb128 0xe
 1125 0072 3A       		.uleb128 0x3a
 1126 0073 0B       		.uleb128 0xb
 1127 0074 3B       		.uleb128 0x3b
 1128 0075 0B       		.uleb128 0xb
 1129 0076 49       		.uleb128 0x49
 1130 0077 13       		.uleb128 0x13
 1131 0078 02       		.uleb128 0x2
 1132 0079 0A       		.uleb128 0xa
 1133 007a 00       		.byte	0x0
 1134 007b 00       		.byte	0x0
 1135 007c 09       		.uleb128 0x9
 1136 007d 2E       		.uleb128 0x2e
 1137 007e 00       		.byte	0x0
 1138 007f 3F       		.uleb128 0x3f
 1139 0080 0C       		.uleb128 0xc
 1140 0081 03       		.uleb128 0x3
 1141 0082 0E       		.uleb128 0xe
 1142 0083 3A       		.uleb128 0x3a
 1143 0084 0B       		.uleb128 0xb
 1144 0085 3B       		.uleb128 0x3b
 1145 0086 0B       		.uleb128 0xb
 1146 0087 27       		.uleb128 0x27
 1147 0088 0C       		.uleb128 0xc
 1148 0089 49       		.uleb128 0x49
 1149 008a 13       		.uleb128 0x13
 1150 008b 11       		.uleb128 0x11
 1151 008c 01       		.uleb128 0x1
 1152 008d 12       		.uleb128 0x12
 1153 008e 01       		.uleb128 0x1
 1154 008f 40       		.uleb128 0x40
 1155 0090 06       		.uleb128 0x6
 1156 0091 00       		.byte	0x0
 1157 0092 00       		.byte	0x0
 1158 0093 0A       		.uleb128 0xa
 1159 0094 2E       		.uleb128 0x2e
 1160 0095 00       		.byte	0x0
 1161 0096 3F       		.uleb128 0x3f
 1162 0097 0C       		.uleb128 0xc
 1163 0098 03       		.uleb128 0x3
 1164 0099 0E       		.uleb128 0xe
 1165 009a 3A       		.uleb128 0x3a
 1166 009b 0B       		.uleb128 0xb
 1167 009c 3B       		.uleb128 0x3b
 1168 009d 05       		.uleb128 0x5
 1169 009e 27       		.uleb128 0x27
ARM GAS  C:\Users\SUZUKI~1\AppData\Local\Temp\ccuFc3hg.s 			page 29


 1170 009f 0C       		.uleb128 0xc
 1171 00a0 49       		.uleb128 0x49
 1172 00a1 13       		.uleb128 0x13
 1173 00a2 11       		.uleb128 0x11
 1174 00a3 01       		.uleb128 0x1
 1175 00a4 12       		.uleb128 0x12
 1176 00a5 01       		.uleb128 0x1
 1177 00a6 40       		.uleb128 0x40
 1178 00a7 06       		.uleb128 0x6
 1179 00a8 00       		.byte	0x0
 1180 00a9 00       		.byte	0x0
 1181 00aa 0B       		.uleb128 0xb
 1182 00ab 2E       		.uleb128 0x2e
 1183 00ac 01       		.byte	0x1
 1184 00ad 3F       		.uleb128 0x3f
 1185 00ae 0C       		.uleb128 0xc
 1186 00af 03       		.uleb128 0x3
 1187 00b0 0E       		.uleb128 0xe
 1188 00b1 3A       		.uleb128 0x3a
 1189 00b2 0B       		.uleb128 0xb
 1190 00b3 3B       		.uleb128 0x3b
 1191 00b4 05       		.uleb128 0x5
 1192 00b5 27       		.uleb128 0x27
 1193 00b6 0C       		.uleb128 0xc
 1194 00b7 11       		.uleb128 0x11
 1195 00b8 01       		.uleb128 0x1
 1196 00b9 12       		.uleb128 0x12
 1197 00ba 01       		.uleb128 0x1
 1198 00bb 40       		.uleb128 0x40
 1199 00bc 06       		.uleb128 0x6
 1200 00bd 01       		.uleb128 0x1
 1201 00be 13       		.uleb128 0x13
 1202 00bf 00       		.byte	0x0
 1203 00c0 00       		.byte	0x0
 1204 00c1 0C       		.uleb128 0xc
 1205 00c2 05       		.uleb128 0x5
 1206 00c3 00       		.byte	0x0
 1207 00c4 03       		.uleb128 0x3
 1208 00c5 0E       		.uleb128 0xe
 1209 00c6 3A       		.uleb128 0x3a
 1210 00c7 0B       		.uleb128 0xb
 1211 00c8 3B       		.uleb128 0x3b
 1212 00c9 05       		.uleb128 0x5
 1213 00ca 49       		.uleb128 0x49
 1214 00cb 13       		.uleb128 0x13
 1215 00cc 02       		.uleb128 0x2
 1216 00cd 0A       		.uleb128 0xa
 1217 00ce 00       		.byte	0x0
 1218 00cf 00       		.byte	0x0
 1219 00d0 0D       		.uleb128 0xd
 1220 00d1 34       		.uleb128 0x34
 1221 00d2 00       		.byte	0x0
 1222 00d3 03       		.uleb128 0x3
 1223 00d4 0E       		.uleb128 0xe
 1224 00d5 3A       		.uleb128 0x3a
 1225 00d6 0B       		.uleb128 0xb
 1226 00d7 3B       		.uleb128 0x3b
ARM GAS  C:\Users\SUZUKI~1\AppData\Local\Temp\ccuFc3hg.s 			page 30


 1227 00d8 0B       		.uleb128 0xb
 1228 00d9 49       		.uleb128 0x49
 1229 00da 13       		.uleb128 0x13
 1230 00db 3F       		.uleb128 0x3f
 1231 00dc 0C       		.uleb128 0xc
 1232 00dd 02       		.uleb128 0x2
 1233 00de 0A       		.uleb128 0xa
 1234 00df 00       		.byte	0x0
 1235 00e0 00       		.byte	0x0
 1236 00e1 00       		.byte	0x0
 1237              		.section	.debug_pubnames,"",%progbits
 1238 0000 86010000 		.4byte	0x186
 1239 0004 0200     		.2byte	0x2
 1240 0006 00000000 		.4byte	.Ldebug_info0
 1241 000a F3010000 		.4byte	0x1f3
 1242 000e 8F000000 		.4byte	0x8f
 1243 0012 50686173 		.ascii	"PhaseCounter_Init\000"
 1243      65436F75 
 1243      6E746572 
 1243      5F496E69 
 1243      7400
 1244 0024 A4000000 		.4byte	0xa4
 1245 0028 50686173 		.ascii	"PhaseCounter_Enable\000"
 1245      65436F75 
 1245      6E746572 
 1245      5F456E61 
 1245      626C6500 
 1246 003c B9000000 		.4byte	0xb9
 1247 0040 50686173 		.ascii	"PhaseCounter_Start\000"
 1247      65436F75 
 1247      6E746572 
 1247      5F537461 
 1247      727400
 1248 0053 CE000000 		.4byte	0xce
 1249 0057 50686173 		.ascii	"PhaseCounter_Stop\000"
 1249      65436F75 
 1249      6E746572 
 1249      5F53746F 
 1249      7000
 1250 0069 E3000000 		.4byte	0xe3
 1251 006d 50686173 		.ascii	"PhaseCounter_SetInterruptMode\000"
 1251      65436F75 
 1251      6E746572 
 1251      5F536574 
 1251      496E7465 
 1252 008b 0B010000 		.4byte	0x10b
 1253 008f 50686173 		.ascii	"PhaseCounter_ReadStatusRegister\000"
 1253      65436F75 
 1253      6E746572 
 1253      5F526561 
 1253      64537461 
 1254 00af 24010000 		.4byte	0x124
 1255 00b3 50686173 		.ascii	"PhaseCounter_ReadControlRegister\000"
 1255      65436F75 
 1255      6E746572 
 1255      5F526561 
 1255      64436F6E 
ARM GAS  C:\Users\SUZUKI~1\AppData\Local\Temp\ccuFc3hg.s 			page 31


 1256 00d4 3E010000 		.4byte	0x13e
 1257 00d8 50686173 		.ascii	"PhaseCounter_WriteControlRegister\000"
 1257      65436F75 
 1257      6E746572 
 1257      5F577269 
 1257      7465436F 
 1258 00fa 68010000 		.4byte	0x168
 1259 00fe 50686173 		.ascii	"PhaseCounter_ReadCounter\000"
 1259      65436F75 
 1259      6E746572 
 1259      5F526561 
 1259      64436F75 
 1260 0117 82010000 		.4byte	0x182
 1261 011b 50686173 		.ascii	"PhaseCounter_ReadCapture\000"
 1261      65436F75 
 1261      6E746572 
 1261      5F526561 
 1261      64436170 
 1262 0134 9C010000 		.4byte	0x19c
 1263 0138 50686173 		.ascii	"PhaseCounter_WritePeriod\000"
 1263      65436F75 
 1263      6E746572 
 1263      5F577269 
 1263      74655065 
 1264 0151 C6010000 		.4byte	0x1c6
 1265 0155 50686173 		.ascii	"PhaseCounter_ReadPeriod\000"
 1265      65436F75 
 1265      6E746572 
 1265      5F526561 
 1265      64506572 
 1266 016d E0010000 		.4byte	0x1e0
 1267 0171 50686173 		.ascii	"PhaseCounter_initVar\000"
 1267      65436F75 
 1267      6E746572 
 1267      5F696E69 
 1267      74566172 
 1268 0186 00000000 		.4byte	0x0
 1269              		.section	.debug_aranges,"",%progbits
 1270 0000 74000000 		.4byte	0x74
 1271 0004 0200     		.2byte	0x2
 1272 0006 00000000 		.4byte	.Ldebug_info0
 1273 000a 04       		.byte	0x4
 1274 000b 00       		.byte	0x0
 1275 000c 0000     		.2byte	0x0
 1276 000e 0000     		.2byte	0x0
 1277 0010 00000000 		.4byte	.LFB0
 1278 0014 D2000000 		.4byte	.LFE0-.LFB0
 1279 0018 00000000 		.4byte	.LFB1
 1280 001c 5E000000 		.4byte	.LFE1-.LFB1
 1281 0020 00000000 		.4byte	.LFB2
 1282 0024 2A000000 		.4byte	.LFE2-.LFB2
 1283 0028 00000000 		.4byte	.LFB3
 1284 002c 58000000 		.4byte	.LFE3-.LFB3
 1285 0030 00000000 		.4byte	.LFB4
 1286 0034 20000000 		.4byte	.LFE4-.LFB4
 1287 0038 00000000 		.4byte	.LFB5
 1288 003c 18000000 		.4byte	.LFE5-.LFB5
ARM GAS  C:\Users\SUZUKI~1\AppData\Local\Temp\ccuFc3hg.s 			page 32


 1289 0040 00000000 		.4byte	.LFB6
 1290 0044 18000000 		.4byte	.LFE6-.LFB6
 1291 0048 00000000 		.4byte	.LFB7
 1292 004c 20000000 		.4byte	.LFE7-.LFB7
 1293 0050 00000000 		.4byte	.LFB8
 1294 0054 22000000 		.4byte	.LFE8-.LFB8
 1295 0058 00000000 		.4byte	.LFB9
 1296 005c 18000000 		.4byte	.LFE9-.LFB9
 1297 0060 00000000 		.4byte	.LFB10
 1298 0064 20000000 		.4byte	.LFE10-.LFB10
 1299 0068 00000000 		.4byte	.LFB11
 1300 006c 18000000 		.4byte	.LFE11-.LFB11
 1301 0070 00000000 		.4byte	0x0
 1302 0074 00000000 		.4byte	0x0
 1303              		.section	.debug_ranges,"",%progbits
 1304              	.Ldebug_ranges0:
 1305 0000 00000000 		.4byte	.Ltext0
 1306 0004 00000000 		.4byte	.Letext0
 1307 0008 00000000 		.4byte	.LFB0
 1308 000c D2000000 		.4byte	.LFE0
 1309 0010 00000000 		.4byte	.LFB1
 1310 0014 5E000000 		.4byte	.LFE1
 1311 0018 00000000 		.4byte	.LFB2
 1312 001c 2A000000 		.4byte	.LFE2
 1313 0020 00000000 		.4byte	.LFB3
 1314 0024 58000000 		.4byte	.LFE3
 1315 0028 00000000 		.4byte	.LFB4
 1316 002c 20000000 		.4byte	.LFE4
 1317 0030 00000000 		.4byte	.LFB5
 1318 0034 18000000 		.4byte	.LFE5
 1319 0038 00000000 		.4byte	.LFB6
 1320 003c 18000000 		.4byte	.LFE6
 1321 0040 00000000 		.4byte	.LFB7
 1322 0044 20000000 		.4byte	.LFE7
 1323 0048 00000000 		.4byte	.LFB8
 1324 004c 22000000 		.4byte	.LFE8
 1325 0050 00000000 		.4byte	.LFB9
 1326 0054 18000000 		.4byte	.LFE9
 1327 0058 00000000 		.4byte	.LFB10
 1328 005c 20000000 		.4byte	.LFE10
 1329 0060 00000000 		.4byte	.LFB11
 1330 0064 18000000 		.4byte	.LFE11
 1331 0068 00000000 		.4byte	0x0
 1332 006c 00000000 		.4byte	0x0
 1333              		.section	.debug_str,"MS",%progbits,1
 1334              	.LASF6:
 1335 0000 6C6F6E67 		.ascii	"long long int\000"
 1335      206C6F6E 
 1335      6720696E 
 1335      7400
 1336              	.LASF24:
 1337 000e 50686173 		.ascii	"PhaseCounter_WritePeriod\000"
 1337      65436F75 
 1337      6E746572 
 1337      5F577269 
 1337      74655065 
 1338              	.LASF12:
ARM GAS  C:\Users\SUZUKI~1\AppData\Local\Temp\ccuFc3hg.s 			page 33


 1339 0027 50686173 		.ascii	"PhaseCounter_Init\000"
 1339      65436F75 
 1339      6E746572 
 1339      5F496E69 
 1339      7400
 1340              	.LASF16:
 1341 0039 50686173 		.ascii	"PhaseCounter_ReadStatusRegister\000"
 1341      65436F75 
 1341      6E746572 
 1341      5F526561 
 1341      64537461 
 1342              	.LASF25:
 1343 0059 70657269 		.ascii	"period\000"
 1343      6F6400
 1344              	.LASF3:
 1345 0060 73686F72 		.ascii	"short unsigned int\000"
 1345      7420756E 
 1345      7369676E 
 1345      65642069 
 1345      6E7400
 1346              	.LASF8:
 1347 0073 756E7369 		.ascii	"unsigned int\000"
 1347      676E6564 
 1347      20696E74 
 1347      00
 1348              	.LASF26:
 1349 0080 50686173 		.ascii	"PhaseCounter_ReadPeriod\000"
 1349      65436F75 
 1349      6E746572 
 1349      5F526561 
 1349      64506572 
 1350              	.LASF14:
 1351 0098 50686173 		.ascii	"PhaseCounter_Start\000"
 1351      65436F75 
 1351      6E746572 
 1351      5F537461 
 1351      727400
 1352              	.LASF1:
 1353 00ab 756E7369 		.ascii	"unsigned char\000"
 1353      676E6564 
 1353      20636861 
 1353      7200
 1354              	.LASF29:
 1355 00b9 463A5C44 		.ascii	"F:\\Documents\\PSoC_Creator\\ledmatrix\\ledmatrix.c"
 1355      6F63756D 
 1355      656E7473 
 1355      5C50536F 
 1355      435F4372 
 1356 00e8 7964736E 		.ascii	"ydsn\000"
 1356      00
 1357              	.LASF5:
 1358 00ed 6C6F6E67 		.ascii	"long unsigned int\000"
 1358      20756E73 
 1358      69676E65 
 1358      6420696E 
 1358      7400
 1359              	.LASF10:
ARM GAS  C:\Users\SUZUKI~1\AppData\Local\Temp\ccuFc3hg.s 			page 34


 1360 00ff 75696E74 		.ascii	"uint8\000"
 1360      3800
 1361              	.LASF21:
 1362 0105 636F6E74 		.ascii	"control\000"
 1362      726F6C00 
 1363              	.LASF20:
 1364 010d 696E7465 		.ascii	"interruptsMask\000"
 1364      72727570 
 1364      74734D61 
 1364      736B00
 1365              	.LASF15:
 1366 011c 50686173 		.ascii	"PhaseCounter_Stop\000"
 1366      65436F75 
 1366      6E746572 
 1366      5F53746F 
 1366      7000
 1367              	.LASF30:
 1368 012e 50686173 		.ascii	"PhaseCounter_initVar\000"
 1368      65436F75 
 1368      6E746572 
 1368      5F696E69 
 1368      74566172 
 1369              	.LASF19:
 1370 0143 50686173 		.ascii	"PhaseCounter_WriteControlRegister\000"
 1370      65436F75 
 1370      6E746572 
 1370      5F577269 
 1370      7465436F 
 1371              	.LASF11:
 1372 0165 75696E74 		.ascii	"uint16\000"
 1372      313600
 1373              	.LASF23:
 1374 016c 50686173 		.ascii	"PhaseCounter_ReadCapture\000"
 1374      65436F75 
 1374      6E746572 
 1374      5F526561 
 1374      64436170 
 1375              	.LASF17:
 1376 0185 50686173 		.ascii	"PhaseCounter_ReadControlRegister\000"
 1376      65436F75 
 1376      6E746572 
 1376      5F526561 
 1376      64436F6E 
 1377              	.LASF7:
 1378 01a6 6C6F6E67 		.ascii	"long long unsigned int\000"
 1378      206C6F6E 
 1378      6720756E 
 1378      7369676E 
 1378      65642069 
 1379              	.LASF13:
 1380 01bd 50686173 		.ascii	"PhaseCounter_Enable\000"
 1380      65436F75 
 1380      6E746572 
 1380      5F456E61 
 1380      626C6500 
 1381              	.LASF27:
 1382 01d1 474E5520 		.ascii	"GNU C 4.4.1\000"
ARM GAS  C:\Users\SUZUKI~1\AppData\Local\Temp\ccuFc3hg.s 			page 35


 1382      4320342E 
 1382      342E3100 
 1383              	.LASF9:
 1384 01dd 63686172 		.ascii	"char\000"
 1384      00
 1385              	.LASF2:
 1386 01e2 73686F72 		.ascii	"short int\000"
 1386      7420696E 
 1386      7400
 1387              	.LASF18:
 1388 01ec 50686173 		.ascii	"PhaseCounter_SetInterruptMode\000"
 1388      65436F75 
 1388      6E746572 
 1388      5F536574 
 1388      496E7465 
 1389              	.LASF22:
 1390 020a 50686173 		.ascii	"PhaseCounter_ReadCounter\000"
 1390      65436F75 
 1390      6E746572 
 1390      5F526561 
 1390      64436F75 
 1391              	.LASF28:
 1392 0223 2E5C4765 		.ascii	".\\Generated_Source\\PSoC5\\PhaseCounter.c\000"
 1392      6E657261 
 1392      7465645F 
 1392      536F7572 
 1392      63655C50 
 1393              	.LASF4:
 1394 024b 6C6F6E67 		.ascii	"long int\000"
 1394      20696E74 
 1394      00
 1395              	.LASF0:
 1396 0254 7369676E 		.ascii	"signed char\000"
 1396      65642063 
 1396      68617200 
 1397              		.ident	"GCC: (Sourcery G++ Lite 2010q1-188) 4.4.1"
