ARM GAS  C:\Users\SUZUKI~1\AppData\Local\Temp\ccStm1gg.s 			page 1


   1              		.syntax unified
   2              		.cpu cortex-m3
   3              		.fpu softvfp
   4              		.eabi_attribute 20, 1
   5              		.eabi_attribute 21, 1
   6              		.eabi_attribute 23, 3
   7              		.eabi_attribute 24, 1
   8              		.eabi_attribute 25, 1
   9              		.eabi_attribute 26, 1
  10              		.eabi_attribute 30, 6
  11              		.eabi_attribute 18, 4
  12              		.thumb
  13              		.file	"main.c"
  14              		.section	.debug_abbrev,"",%progbits
  15              	.Ldebug_abbrev0:
  16              		.section	.debug_info,"",%progbits
  17              	.Ldebug_info0:
  18              		.section	.debug_line,"",%progbits
  19              	.Ldebug_line0:
  20 0000 79000000 		.text
  20      02005300 
  20      00000201 
  20      FB0E0D00 
  20      01010101 
  21              	.Ltext0:
  22              		.cfi_sections	.debug_frame
  23              		.global	cdat
  24              		.section	.rodata
  25              		.align	2
  26              		.type	cdat, %object
  27              		.size	cdat, 20
  28              	cdat:
  29 0000 00       		.byte	0
  30 0001 01       		.byte	1
  31 0002 02       		.byte	2
  32 0003 03       		.byte	3
  33 0004 04       		.byte	4
  34 0005 05       		.byte	5
  35 0006 06       		.byte	6
  36 0007 07       		.byte	7
  37 0008 08       		.byte	8
  38 0009 09       		.byte	9
  39 000a 0A       		.byte	10
  40 000b 0B       		.byte	11
  41 000c 0C       		.byte	12
  42 000d 0D       		.byte	13
  43 000e 0E       		.byte	14
  44 000f 0F       		.byte	15
  45 0010 10       		.byte	16
  46 0011 11       		.byte	17
  47 0012 12       		.byte	18
  48 0013 13       		.byte	19
  49              		.global	BASE_OFFSET
  50              		.align	2
  51              		.type	BASE_OFFSET, %object
  52              		.size	BASE_OFFSET, 48
  53              	BASE_OFFSET:
ARM GAS  C:\Users\SUZUKI~1\AppData\Local\Temp\ccStm1gg.s 			page 2


  54 0014 2000     		.short	32
  55 0016 2100     		.short	33
  56 0018 6000     		.short	96
  57 001a 6100     		.short	97
  58 001c A000     		.short	160
  59 001e A100     		.short	161
  60 0020 E000     		.short	224
  61 0022 E100     		.short	225
  62 0024 2001     		.short	288
  63 0026 2101     		.short	289
  64 0028 6001     		.short	352
  65 002a 6101     		.short	353
  66 002c 4001     		.short	320
  67 002e 4101     		.short	321
  68 0030 0001     		.short	256
  69 0032 0101     		.short	257
  70 0034 C000     		.short	192
  71 0036 C100     		.short	193
  72 0038 8000     		.short	128
  73 003a 8100     		.short	129
  74 003c 0000     		.short	0
  75 003e 0100     		.short	1
  76 0040 00000000 		.space	4
  77              		.section	.text.main,"ax",%progbits
  78              		.align	2
  79              		.global	main
  80              		.thumb
  81              		.thumb_func
  82              		.type	main, %function
  83              	main:
  84              	.LFB29:
  85              		.file 1 ".\\main.c"
   1:.\main.c      **** /* ========================================
   2:.\main.c      ****  *
   3:.\main.c      ****  * Copyright YOUR COMPANY, THE YEAR
   4:.\main.c      ****  * All Rights Reserved
   5:.\main.c      ****  * UNPUBLISHED, LICENSED SOFTWARE.
   6:.\main.c      ****  *
   7:.\main.c      ****  * CONFIDENTIAL AND PROPRIETARY INFORMATION
   8:.\main.c      ****  * WHICH IS THE PROPERTY OF your company.
   9:.\main.c      ****  *
  10:.\main.c      ****  * ========================================
  11:.\main.c      **** */
  12:.\main.c      **** #include <device.h>
  13:.\main.c      **** #define DMA_1_BYTES_PER_BURST 1
  14:.\main.c      **** #define DMA_1_REQUEST_PER_BURST 1
  15:.\main.c      **** #define DMA_1_SRC_BASE (buf)
  16:.\main.c      **** #define DMA_1_DST_BASE (CYDEV_PERIPH_BASE)
  17:.\main.c      **** 
  18:.\main.c      **** const uint8 CYCODE cdat[20] = {0,1,2,3,4,5,6,7,8,9,10,11,12,13,14,15,16,17,18,19};
  19:.\main.c      **** const uint16 BASE_OFFSET[24] = {32,33,96,97,160,161,224,225,288,289,352,353,320,321,256,257,192,193
  20:.\main.c      **** 
  21:.\main.c      **** void main()
  22:.\main.c      **** {
  86              		.loc 1 22 0
  87              		.cfi_startproc
  88              		@ args = 0, pretend = 0, frame = 416
ARM GAS  C:\Users\SUZUKI~1\AppData\Local\Temp\ccStm1gg.s 			page 3


  89              		@ frame_needed = 1, uses_anonymous_args = 0
  90 0000 90B5     		push	{r4, r7, lr}
  91              	.LCFI0:
  92              		.cfi_def_cfa_offset 12
  93 0002 E9B0     		sub	sp, sp, #420
  94              	.LCFI1:
  95              		.cfi_def_cfa_offset 432
  96 0004 00AF     		add	r7, sp, #0
  97              		.cfi_offset 14, -4
  98              		.cfi_offset 7, -8
  99              		.cfi_offset 4, -12
 100              	.LCFI2:
 101              		.cfi_def_cfa_register 7
  23:.\main.c      ****     uint8 DMA_1_Chan;
  24:.\main.c      **** 	uint8 DMA_1_TD[24];
  25:.\main.c      **** 	uint8 buf[384];
  26:.\main.c      **** 	int16 i;
  27:.\main.c      **** 	
  28:.\main.c      **** 	for(i = 0; i < 384; i++) {
 102              		.loc 1 28 0
 103 0006 4FF00003 		mov	r3, #0
 104 000a A7F89E31 		strh	r3, [r7, #414]	@ movhi
 105 000e 0DE0     		b	.L2
 106              	.L3:
  29:.\main.c      **** //		buf[i] = (i & 0x01) ? 0xff : 0;
  30:.\main.c      **** 		buf[i] = i;
 107              		.loc 1 30 0
 108 0010 B7F99E31 		ldrsh	r3, [r7, #414]
 109 0014 B7F89E21 		ldrh	r2, [r7, #414]	@ movhi
 110 0018 D1B2     		uxtb	r1, r2
 111 001a 07F10402 		add	r2, r7, #4
 112 001e D154     		strb	r1, [r2, r3]
 113              		.loc 1 28 0
 114 0020 B7F89E31 		ldrh	r3, [r7, #414]	@ movhi
 115 0024 03F10103 		add	r3, r3, #1
 116 0028 A7F89E31 		strh	r3, [r7, #414]	@ movhi
 117              	.L2:
 118 002c B7F99E21 		ldrsh	r2, [r7, #414]
 119 0030 40F27F13 		movw	r3, #383
 120 0034 9A42     		cmp	r2, r3
 121 0036 EBDD     		ble	.L3
  31:.\main.c      **** 	}
  32:.\main.c      **** 	
  33:.\main.c      **** 	DMA_1_Chan = DMA_1_DmaInitialize(DMA_1_BYTES_PER_BURST, DMA_1_REQUEST_PER_BURST, 
  34:.\main.c      **** 									HI16(DMA_1_SRC_BASE), HI16(DMA_1_DST_BASE));
 122              		.loc 1 34 0
 123 0038 07F10403 		add	r3, r7, #4
 124 003c 4FEA1343 		lsr	r3, r3, #16
 125              		.loc 1 33 0
 126 0040 9BB2     		uxth	r3, r3
 127 0042 4FF00100 		mov	r0, #1
 128 0046 4FF00101 		mov	r1, #1
 129 004a 1A46     		mov	r2, r3
 130 004c 4FF48043 		mov	r3, #16384
 131 0050 FFF7FEFF 		bl	DMA_1_DmaInitialize
 132 0054 0346     		mov	r3, r0
 133 0056 87F89D31 		strb	r3, [r7, #413]
ARM GAS  C:\Users\SUZUKI~1\AppData\Local\Temp\ccStm1gg.s 			page 4


  35:.\main.c      **** 	for(i = 0; i < 24; i++) {
 134              		.loc 1 35 0
 135 005a 4FF00003 		mov	r3, #0
 136 005e A7F89E31 		strh	r3, [r7, #414]	@ movhi
 137 0062 57E0     		b	.L4
 138              	.L5:
  36:.\main.c      **** 		DMA_1_TD[i] = CyDmaTdAllocate();
 139              		.loc 1 36 0
 140 0064 B7F99E41 		ldrsh	r4, [r7, #414]
 141 0068 FFF7FEFF 		bl	CyDmaTdAllocate
 142 006c 0346     		mov	r3, r0
 143 006e 1A46     		mov	r2, r3
 144 0070 07F5D071 		add	r1, r7, #416
 145 0074 01EB0403 		add	r3, r1, r4
 146 0078 03F81C2C 		strb	r2, [r3, #-28]
  37:.\main.c      **** 		CyDmaTdSetConfiguration(DMA_1_TD[i], 1, DMA_1_TD[(i+1)%24], TD_INC_SRC_ADR/* | TD_AUTO_EXEC_NEXT*
 147              		.loc 1 37 0
 148 007c B7F99E31 		ldrsh	r3, [r7, #414]
 149 0080 07F5D072 		add	r2, r7, #416
 150 0084 1344     		add	r3, r2, r3
 151 0086 13F81C0C 		ldrb	r0, [r3, #-28]	@ zero_extendqisi2
 152 008a B7F99E31 		ldrsh	r3, [r7, #414]
 153 008e 03F10101 		add	r1, r3, #1
 154 0092 4AF6AB23 		movw	r3, #:lower16:715827883
 155 0096 C2F6AA23 		movt	r3, #:upper16:715827883
 156 009a 83FB0123 		smull	r2, r3, r3, r1
 157 009e 4FEAA302 		asr	r2, r3, #2
 158 00a2 4FEAE173 		asr	r3, r1, #31
 159 00a6 C3EB0202 		rsb	r2, r3, r2
 160 00aa 1346     		mov	r3, r2
 161 00ac 4FEA4303 		lsl	r3, r3, #1
 162 00b0 1344     		add	r3, r3, r2
 163 00b2 4FEAC303 		lsl	r3, r3, #3
 164 00b6 C3EB0102 		rsb	r2, r3, r1
 165 00ba 07F5D071 		add	r1, r7, #416
 166 00be 01EB0203 		add	r3, r1, r2
 167 00c2 13F81C3C 		ldrb	r3, [r3, #-28]	@ zero_extendqisi2
 168 00c6 4FF00101 		mov	r1, #1
 169 00ca 1A46     		mov	r2, r3
 170 00cc 4FF00103 		mov	r3, #1
 171 00d0 FFF7FEFF 		bl	CyDmaTdSetConfiguration
  38:.\main.c      **** 		CyDmaTdSetAddress(DMA_1_TD[i], LO16((uint32)buf+BASE_OFFSET[i]), LO16((uint32)matdrv2_1_FIFO0_PTR
 172              		.loc 1 38 0
 173 00d4 B7F99E31 		ldrsh	r3, [r7, #414]
 174 00d8 07F5D072 		add	r2, r7, #416
 175 00dc 1344     		add	r3, r2, r3
 176 00de 13F81C2C 		ldrb	r2, [r3, #-28]	@ zero_extendqisi2
 177 00e2 07F10403 		add	r3, r7, #4
 178 00e6 99B2     		uxth	r1, r3
 179 00e8 B7F99E01 		ldrsh	r0, [r7, #414]
 180 00ec 40F20003 		movw	r3, #:lower16:BASE_OFFSET
 181 00f0 C0F20003 		movt	r3, #:upper16:BASE_OFFSET
 182 00f4 33F81030 		ldrh	r3, [r3, r0, lsl #1]
 183 00f8 0B44     		add	r3, r1, r3
 184 00fa 9BB2     		uxth	r3, r3
 185 00fc 1046     		mov	r0, r2
 186 00fe 1946     		mov	r1, r3
ARM GAS  C:\Users\SUZUKI~1\AppData\Local\Temp\ccStm1gg.s 			page 5


 187 0100 46F24952 		movw	r2, #25929
 188 0104 FFF7FEFF 		bl	CyDmaTdSetAddress
 189              		.loc 1 35 0
 190 0108 B7F89E31 		ldrh	r3, [r7, #414]	@ movhi
 191 010c 03F10103 		add	r3, r3, #1
 192 0110 A7F89E31 		strh	r3, [r7, #414]	@ movhi
 193              	.L4:
 194 0114 B7F99E31 		ldrsh	r3, [r7, #414]
 195 0118 172B     		cmp	r3, #23
 196 011a A3DD     		ble	.L5
  39:.\main.c      **** 	}
  40:.\main.c      **** 	CyDmaChSetInitialTd(DMA_1_Chan, DMA_1_TD[0]);
 197              		.loc 1 40 0
 198 011c 97F88431 		ldrb	r3, [r7, #388]	@ zero_extendqisi2
 199 0120 97F89D21 		ldrb	r2, [r7, #413]	@ zero_extendqisi2
 200 0124 1046     		mov	r0, r2
 201 0126 1946     		mov	r1, r3
 202 0128 FFF7FEFF 		bl	CyDmaChSetInitialTd
  41:.\main.c      **** 	CyDmaChEnable(DMA_1_Chan, 1);
 203              		.loc 1 41 0
 204 012c 97F89D31 		ldrb	r3, [r7, #413]	@ zero_extendqisi2
 205 0130 1846     		mov	r0, r3
 206 0132 4FF00101 		mov	r1, #1
 207 0136 FFF7FEFF 		bl	CyDmaChEnable
  42:.\main.c      **** 
  43:.\main.c      ****     CyGlobalIntEnable;
 208              		.loc 1 43 0
 209              	@ 43 ".\main.c" 1
 210 013a 62B6     		CPSIE   i
 211              	@ 0 "" 2
 212              		.thumb
 213              	.L6:
  44:.\main.c      **** 	while(1) {}
 214              		.loc 1 44 0
 215 013c FEE7     		b	.L6
 216              		.cfi_endproc
 217              	.LFE29:
 218              		.size	main, .-main
 219 013e 00BF     		.text
 220              	.Letext0:
 221              		.section	.debug_loc,"",%progbits
 222              	.Ldebug_loc0:
 223              	.LLST0:
 224 0000 00000000 		.4byte	.LFB29
 225 0004 02000000 		.4byte	.LCFI0
 226 0008 0100     		.2byte	0x1
 227 000a 5D       		.byte	0x5d
 228 000b 02000000 		.4byte	.LCFI0
 229 000f 04000000 		.4byte	.LCFI1
 230 0013 0200     		.2byte	0x2
 231 0015 7D       		.byte	0x7d
 232 0016 0C       		.sleb128 12
 233 0017 04000000 		.4byte	.LCFI1
 234 001b 06000000 		.4byte	.LCFI2
 235 001f 0300     		.2byte	0x3
 236 0021 7D       		.byte	0x7d
 237 0022 B003     		.sleb128 432
ARM GAS  C:\Users\SUZUKI~1\AppData\Local\Temp\ccStm1gg.s 			page 6


 238 0024 06000000 		.4byte	.LCFI2
 239 0028 3E010000 		.4byte	.LFE29
 240 002c 0300     		.2byte	0x3
 241 002e 77       		.byte	0x77
 242 002f B003     		.sleb128 432
 243 0031 00000000 		.4byte	0x0
 244 0035 00000000 		.4byte	0x0
 245              		.file 2 "./Generated_Source/PSoC5/cytypes.h"
 246              		.file 3 "./Generated_Source/PSoC5/core_cm3.h"
 247              		.section	.debug_info
 248 0000 69010000 		.4byte	0x169
 249 0004 0200     		.2byte	0x2
 250 0006 00000000 		.4byte	.Ldebug_abbrev0
 251 000a 04       		.byte	0x4
 252 000b 01       		.uleb128 0x1
 253 000c 8F000000 		.4byte	.LASF18
 254 0010 01       		.byte	0x1
 255 0011 FE000000 		.4byte	.LASF19
 256 0015 54000000 		.4byte	.LASF20
 257 0019 00000000 		.4byte	0x0
 258 001d 00000000 		.4byte	0x0
 259 0021 00000000 		.4byte	.Ldebug_ranges0+0x0
 260 0025 00000000 		.4byte	.Ldebug_line0
 261 0029 02       		.uleb128 0x2
 262 002a 01       		.byte	0x1
 263 002b 06       		.byte	0x6
 264 002c EC000000 		.4byte	.LASF0
 265 0030 02       		.uleb128 0x2
 266 0031 01       		.byte	0x1
 267 0032 08       		.byte	0x8
 268 0033 9B000000 		.4byte	.LASF1
 269 0037 02       		.uleb128 0x2
 270 0038 02       		.byte	0x2
 271 0039 05       		.byte	0x5
 272 003a C6000000 		.4byte	.LASF2
 273 003e 02       		.uleb128 0x2
 274 003f 02       		.byte	0x2
 275 0040 07       		.byte	0x7
 276 0041 D9000000 		.4byte	.LASF3
 277 0045 02       		.uleb128 0x2
 278 0046 04       		.byte	0x4
 279 0047 05       		.byte	0x5
 280 0048 D0000000 		.4byte	.LASF4
 281 004c 02       		.uleb128 0x2
 282 004d 04       		.byte	0x4
 283 004e 07       		.byte	0x7
 284 004f 2B000000 		.4byte	.LASF5
 285 0053 02       		.uleb128 0x2
 286 0054 08       		.byte	0x8
 287 0055 05       		.byte	0x5
 288 0056 00000000 		.4byte	.LASF6
 289 005a 02       		.uleb128 0x2
 290 005b 08       		.byte	0x8
 291 005c 07       		.byte	0x7
 292 005d 3D000000 		.4byte	.LASF7
 293 0061 03       		.uleb128 0x3
 294 0062 04       		.byte	0x4
ARM GAS  C:\Users\SUZUKI~1\AppData\Local\Temp\ccStm1gg.s 			page 7


 295 0063 05       		.byte	0x5
 296 0064 696E7400 		.ascii	"int\000"
 297 0068 02       		.uleb128 0x2
 298 0069 04       		.byte	0x4
 299 006a 07       		.byte	0x7
 300 006b 0E000000 		.4byte	.LASF8
 301 006f 02       		.uleb128 0x2
 302 0070 01       		.byte	0x1
 303 0071 08       		.byte	0x8
 304 0072 B4000000 		.4byte	.LASF9
 305 0076 04       		.uleb128 0x4
 306 0077 25000000 		.4byte	.LASF10
 307 007b 02       		.byte	0x2
 308 007c 60       		.byte	0x60
 309 007d 30000000 		.4byte	0x30
 310 0081 04       		.uleb128 0x4
 311 0082 07010000 		.4byte	.LASF11
 312 0086 02       		.byte	0x2
 313 0087 61       		.byte	0x61
 314 0088 3E000000 		.4byte	0x3e
 315 008c 04       		.uleb128 0x4
 316 008d F8000000 		.4byte	.LASF12
 317 0091 02       		.byte	0x2
 318 0092 65       		.byte	0x65
 319 0093 37000000 		.4byte	0x37
 320 0097 05       		.uleb128 0x5
 321 0098 04       		.byte	0x4
 322 0099 07       		.byte	0x7
 323 009a 06       		.uleb128 0x6
 324 009b 76000000 		.4byte	0x76
 325 009f AA000000 		.4byte	0xaa
 326 00a3 07       		.uleb128 0x7
 327 00a4 97000000 		.4byte	0x97
 328 00a8 13       		.byte	0x13
 329 00a9 00       		.byte	0x0
 330 00aa 08       		.uleb128 0x8
 331 00ab 01       		.byte	0x1
 332 00ac 1B000000 		.4byte	.LASF21
 333 00b0 01       		.byte	0x1
 334 00b1 15       		.byte	0x15
 335 00b2 00000000 		.4byte	.LFB29
 336 00b6 3E010000 		.4byte	.LFE29
 337 00ba 00000000 		.4byte	.LLST0
 338 00be FA000000 		.4byte	0xfa
 339 00c2 09       		.uleb128 0x9
 340 00c3 A9000000 		.4byte	.LASF13
 341 00c7 01       		.byte	0x1
 342 00c8 17       		.byte	0x17
 343 00c9 76000000 		.4byte	0x76
 344 00cd 02       		.byte	0x2
 345 00ce 91       		.byte	0x91
 346 00cf 6D       		.sleb128 -19
 347 00d0 09       		.uleb128 0x9
 348 00d1 86000000 		.4byte	.LASF14
 349 00d5 01       		.byte	0x1
 350 00d6 18       		.byte	0x18
 351 00d7 FA000000 		.4byte	0xfa
ARM GAS  C:\Users\SUZUKI~1\AppData\Local\Temp\ccStm1gg.s 			page 8


 352 00db 02       		.byte	0x2
 353 00dc 91       		.byte	0x91
 354 00dd 54       		.sleb128 -44
 355 00de 0A       		.uleb128 0xa
 356 00df 62756600 		.ascii	"buf\000"
 357 00e3 01       		.byte	0x1
 358 00e4 19       		.byte	0x19
 359 00e5 0A010000 		.4byte	0x10a
 360 00e9 03       		.byte	0x3
 361 00ea 91       		.byte	0x91
 362 00eb D47C     		.sleb128 -428
 363 00ed 0A       		.uleb128 0xa
 364 00ee 6900     		.ascii	"i\000"
 365 00f0 01       		.byte	0x1
 366 00f1 1A       		.byte	0x1a
 367 00f2 8C000000 		.4byte	0x8c
 368 00f6 02       		.byte	0x2
 369 00f7 91       		.byte	0x91
 370 00f8 6E       		.sleb128 -18
 371 00f9 00       		.byte	0x0
 372 00fa 06       		.uleb128 0x6
 373 00fb 76000000 		.4byte	0x76
 374 00ff 0A010000 		.4byte	0x10a
 375 0103 07       		.uleb128 0x7
 376 0104 97000000 		.4byte	0x97
 377 0108 17       		.byte	0x17
 378 0109 00       		.byte	0x0
 379 010a 06       		.uleb128 0x6
 380 010b 76000000 		.4byte	0x76
 381 010f 1B010000 		.4byte	0x11b
 382 0113 0B       		.uleb128 0xb
 383 0114 97000000 		.4byte	0x97
 384 0118 7F01     		.2byte	0x17f
 385 011a 00       		.byte	0x0
 386 011b 0C       		.uleb128 0xc
 387 011c B9000000 		.4byte	.LASF15
 388 0120 03       		.byte	0x3
 389 0121 CE06     		.2byte	0x6ce
 390 0123 29010000 		.4byte	0x129
 391 0127 01       		.byte	0x1
 392 0128 01       		.byte	0x1
 393 0129 0D       		.uleb128 0xd
 394 012a 61000000 		.4byte	0x61
 395 012e 0E       		.uleb128 0xe
 396 012f 20000000 		.4byte	.LASF16
 397 0133 01       		.byte	0x1
 398 0134 12       		.byte	0x12
 399 0135 40010000 		.4byte	0x140
 400 0139 01       		.byte	0x1
 401 013a 05       		.byte	0x5
 402 013b 03       		.byte	0x3
 403 013c 00000000 		.4byte	cdat
 404 0140 0F       		.uleb128 0xf
 405 0141 9A000000 		.4byte	0x9a
 406 0145 06       		.uleb128 0x6
 407 0146 81000000 		.4byte	0x81
 408 014a 55010000 		.4byte	0x155
ARM GAS  C:\Users\SUZUKI~1\AppData\Local\Temp\ccStm1gg.s 			page 9


 409 014e 07       		.uleb128 0x7
 410 014f 97000000 		.4byte	0x97
 411 0153 17       		.byte	0x17
 412 0154 00       		.byte	0x0
 413 0155 0E       		.uleb128 0xe
 414 0156 0E010000 		.4byte	.LASF17
 415 015a 01       		.byte	0x1
 416 015b 13       		.byte	0x13
 417 015c 67010000 		.4byte	0x167
 418 0160 01       		.byte	0x1
 419 0161 05       		.byte	0x5
 420 0162 03       		.byte	0x3
 421 0163 00000000 		.4byte	BASE_OFFSET
 422 0167 0F       		.uleb128 0xf
 423 0168 45010000 		.4byte	0x145
 424 016c 00       		.byte	0x0
 425              		.section	.debug_abbrev
 426 0000 01       		.uleb128 0x1
 427 0001 11       		.uleb128 0x11
 428 0002 01       		.byte	0x1
 429 0003 25       		.uleb128 0x25
 430 0004 0E       		.uleb128 0xe
 431 0005 13       		.uleb128 0x13
 432 0006 0B       		.uleb128 0xb
 433 0007 03       		.uleb128 0x3
 434 0008 0E       		.uleb128 0xe
 435 0009 1B       		.uleb128 0x1b
 436 000a 0E       		.uleb128 0xe
 437 000b 11       		.uleb128 0x11
 438 000c 01       		.uleb128 0x1
 439 000d 52       		.uleb128 0x52
 440 000e 01       		.uleb128 0x1
 441 000f 55       		.uleb128 0x55
 442 0010 06       		.uleb128 0x6
 443 0011 10       		.uleb128 0x10
 444 0012 06       		.uleb128 0x6
 445 0013 00       		.byte	0x0
 446 0014 00       		.byte	0x0
 447 0015 02       		.uleb128 0x2
 448 0016 24       		.uleb128 0x24
 449 0017 00       		.byte	0x0
 450 0018 0B       		.uleb128 0xb
 451 0019 0B       		.uleb128 0xb
 452 001a 3E       		.uleb128 0x3e
 453 001b 0B       		.uleb128 0xb
 454 001c 03       		.uleb128 0x3
 455 001d 0E       		.uleb128 0xe
 456 001e 00       		.byte	0x0
 457 001f 00       		.byte	0x0
 458 0020 03       		.uleb128 0x3
 459 0021 24       		.uleb128 0x24
 460 0022 00       		.byte	0x0
 461 0023 0B       		.uleb128 0xb
 462 0024 0B       		.uleb128 0xb
 463 0025 3E       		.uleb128 0x3e
 464 0026 0B       		.uleb128 0xb
 465 0027 03       		.uleb128 0x3
ARM GAS  C:\Users\SUZUKI~1\AppData\Local\Temp\ccStm1gg.s 			page 10


 466 0028 08       		.uleb128 0x8
 467 0029 00       		.byte	0x0
 468 002a 00       		.byte	0x0
 469 002b 04       		.uleb128 0x4
 470 002c 16       		.uleb128 0x16
 471 002d 00       		.byte	0x0
 472 002e 03       		.uleb128 0x3
 473 002f 0E       		.uleb128 0xe
 474 0030 3A       		.uleb128 0x3a
 475 0031 0B       		.uleb128 0xb
 476 0032 3B       		.uleb128 0x3b
 477 0033 0B       		.uleb128 0xb
 478 0034 49       		.uleb128 0x49
 479 0035 13       		.uleb128 0x13
 480 0036 00       		.byte	0x0
 481 0037 00       		.byte	0x0
 482 0038 05       		.uleb128 0x5
 483 0039 24       		.uleb128 0x24
 484 003a 00       		.byte	0x0
 485 003b 0B       		.uleb128 0xb
 486 003c 0B       		.uleb128 0xb
 487 003d 3E       		.uleb128 0x3e
 488 003e 0B       		.uleb128 0xb
 489 003f 00       		.byte	0x0
 490 0040 00       		.byte	0x0
 491 0041 06       		.uleb128 0x6
 492 0042 01       		.uleb128 0x1
 493 0043 01       		.byte	0x1
 494 0044 49       		.uleb128 0x49
 495 0045 13       		.uleb128 0x13
 496 0046 01       		.uleb128 0x1
 497 0047 13       		.uleb128 0x13
 498 0048 00       		.byte	0x0
 499 0049 00       		.byte	0x0
 500 004a 07       		.uleb128 0x7
 501 004b 21       		.uleb128 0x21
 502 004c 00       		.byte	0x0
 503 004d 49       		.uleb128 0x49
 504 004e 13       		.uleb128 0x13
 505 004f 2F       		.uleb128 0x2f
 506 0050 0B       		.uleb128 0xb
 507 0051 00       		.byte	0x0
 508 0052 00       		.byte	0x0
 509 0053 08       		.uleb128 0x8
 510 0054 2E       		.uleb128 0x2e
 511 0055 01       		.byte	0x1
 512 0056 3F       		.uleb128 0x3f
 513 0057 0C       		.uleb128 0xc
 514 0058 03       		.uleb128 0x3
 515 0059 0E       		.uleb128 0xe
 516 005a 3A       		.uleb128 0x3a
 517 005b 0B       		.uleb128 0xb
 518 005c 3B       		.uleb128 0x3b
 519 005d 0B       		.uleb128 0xb
 520 005e 11       		.uleb128 0x11
 521 005f 01       		.uleb128 0x1
 522 0060 12       		.uleb128 0x12
ARM GAS  C:\Users\SUZUKI~1\AppData\Local\Temp\ccStm1gg.s 			page 11


 523 0061 01       		.uleb128 0x1
 524 0062 40       		.uleb128 0x40
 525 0063 06       		.uleb128 0x6
 526 0064 01       		.uleb128 0x1
 527 0065 13       		.uleb128 0x13
 528 0066 00       		.byte	0x0
 529 0067 00       		.byte	0x0
 530 0068 09       		.uleb128 0x9
 531 0069 34       		.uleb128 0x34
 532 006a 00       		.byte	0x0
 533 006b 03       		.uleb128 0x3
 534 006c 0E       		.uleb128 0xe
 535 006d 3A       		.uleb128 0x3a
 536 006e 0B       		.uleb128 0xb
 537 006f 3B       		.uleb128 0x3b
 538 0070 0B       		.uleb128 0xb
 539 0071 49       		.uleb128 0x49
 540 0072 13       		.uleb128 0x13
 541 0073 02       		.uleb128 0x2
 542 0074 0A       		.uleb128 0xa
 543 0075 00       		.byte	0x0
 544 0076 00       		.byte	0x0
 545 0077 0A       		.uleb128 0xa
 546 0078 34       		.uleb128 0x34
 547 0079 00       		.byte	0x0
 548 007a 03       		.uleb128 0x3
 549 007b 08       		.uleb128 0x8
 550 007c 3A       		.uleb128 0x3a
 551 007d 0B       		.uleb128 0xb
 552 007e 3B       		.uleb128 0x3b
 553 007f 0B       		.uleb128 0xb
 554 0080 49       		.uleb128 0x49
 555 0081 13       		.uleb128 0x13
 556 0082 02       		.uleb128 0x2
 557 0083 0A       		.uleb128 0xa
 558 0084 00       		.byte	0x0
 559 0085 00       		.byte	0x0
 560 0086 0B       		.uleb128 0xb
 561 0087 21       		.uleb128 0x21
 562 0088 00       		.byte	0x0
 563 0089 49       		.uleb128 0x49
 564 008a 13       		.uleb128 0x13
 565 008b 2F       		.uleb128 0x2f
 566 008c 05       		.uleb128 0x5
 567 008d 00       		.byte	0x0
 568 008e 00       		.byte	0x0
 569 008f 0C       		.uleb128 0xc
 570 0090 34       		.uleb128 0x34
 571 0091 00       		.byte	0x0
 572 0092 03       		.uleb128 0x3
 573 0093 0E       		.uleb128 0xe
 574 0094 3A       		.uleb128 0x3a
 575 0095 0B       		.uleb128 0xb
 576 0096 3B       		.uleb128 0x3b
 577 0097 05       		.uleb128 0x5
 578 0098 49       		.uleb128 0x49
 579 0099 13       		.uleb128 0x13
ARM GAS  C:\Users\SUZUKI~1\AppData\Local\Temp\ccStm1gg.s 			page 12


 580 009a 3F       		.uleb128 0x3f
 581 009b 0C       		.uleb128 0xc
 582 009c 3C       		.uleb128 0x3c
 583 009d 0C       		.uleb128 0xc
 584 009e 00       		.byte	0x0
 585 009f 00       		.byte	0x0
 586 00a0 0D       		.uleb128 0xd
 587 00a1 35       		.uleb128 0x35
 588 00a2 00       		.byte	0x0
 589 00a3 49       		.uleb128 0x49
 590 00a4 13       		.uleb128 0x13
 591 00a5 00       		.byte	0x0
 592 00a6 00       		.byte	0x0
 593 00a7 0E       		.uleb128 0xe
 594 00a8 34       		.uleb128 0x34
 595 00a9 00       		.byte	0x0
 596 00aa 03       		.uleb128 0x3
 597 00ab 0E       		.uleb128 0xe
 598 00ac 3A       		.uleb128 0x3a
 599 00ad 0B       		.uleb128 0xb
 600 00ae 3B       		.uleb128 0x3b
 601 00af 0B       		.uleb128 0xb
 602 00b0 49       		.uleb128 0x49
 603 00b1 13       		.uleb128 0x13
 604 00b2 3F       		.uleb128 0x3f
 605 00b3 0C       		.uleb128 0xc
 606 00b4 02       		.uleb128 0x2
 607 00b5 0A       		.uleb128 0xa
 608 00b6 00       		.byte	0x0
 609 00b7 00       		.byte	0x0
 610 00b8 0F       		.uleb128 0xf
 611 00b9 26       		.uleb128 0x26
 612 00ba 00       		.byte	0x0
 613 00bb 49       		.uleb128 0x49
 614 00bc 13       		.uleb128 0x13
 615 00bd 00       		.byte	0x0
 616 00be 00       		.byte	0x0
 617 00bf 00       		.byte	0x0
 618              		.section	.debug_pubnames,"",%progbits
 619 0000 30000000 		.4byte	0x30
 620 0004 0200     		.2byte	0x2
 621 0006 00000000 		.4byte	.Ldebug_info0
 622 000a 6D010000 		.4byte	0x16d
 623 000e AA000000 		.4byte	0xaa
 624 0012 6D61696E 		.ascii	"main\000"
 624      00
 625 0017 2E010000 		.4byte	0x12e
 626 001b 63646174 		.ascii	"cdat\000"
 626      00
 627 0020 55010000 		.4byte	0x155
 628 0024 42415345 		.ascii	"BASE_OFFSET\000"
 628      5F4F4646 
 628      53455400 
 629 0030 00000000 		.4byte	0x0
 630              		.section	.debug_aranges,"",%progbits
 631 0000 1C000000 		.4byte	0x1c
 632 0004 0200     		.2byte	0x2
ARM GAS  C:\Users\SUZUKI~1\AppData\Local\Temp\ccStm1gg.s 			page 13


 633 0006 00000000 		.4byte	.Ldebug_info0
 634 000a 04       		.byte	0x4
 635 000b 00       		.byte	0x0
 636 000c 0000     		.2byte	0x0
 637 000e 0000     		.2byte	0x0
 638 0010 00000000 		.4byte	.LFB29
 639 0014 3E010000 		.4byte	.LFE29-.LFB29
 640 0018 00000000 		.4byte	0x0
 641 001c 00000000 		.4byte	0x0
 642              		.section	.debug_ranges,"",%progbits
 643              	.Ldebug_ranges0:
 644 0000 00000000 		.4byte	.Ltext0
 645 0004 00000000 		.4byte	.Letext0
 646 0008 00000000 		.4byte	.LFB29
 647 000c 3E010000 		.4byte	.LFE29
 648 0010 00000000 		.4byte	0x0
 649 0014 00000000 		.4byte	0x0
 650              		.section	.debug_str,"MS",%progbits,1
 651              	.LASF6:
 652 0000 6C6F6E67 		.ascii	"long long int\000"
 652      206C6F6E 
 652      6720696E 
 652      7400
 653              	.LASF8:
 654 000e 756E7369 		.ascii	"unsigned int\000"
 654      676E6564 
 654      20696E74 
 654      00
 655              	.LASF21:
 656 001b 6D61696E 		.ascii	"main\000"
 656      00
 657              	.LASF16:
 658 0020 63646174 		.ascii	"cdat\000"
 658      00
 659              	.LASF10:
 660 0025 75696E74 		.ascii	"uint8\000"
 660      3800
 661              	.LASF5:
 662 002b 6C6F6E67 		.ascii	"long unsigned int\000"
 662      20756E73 
 662      69676E65 
 662      6420696E 
 662      7400
 663              	.LASF7:
 664 003d 6C6F6E67 		.ascii	"long long unsigned int\000"
 664      206C6F6E 
 664      6720756E 
 664      7369676E 
 664      65642069 
 665              	.LASF20:
 666 0054 463A5C44 		.ascii	"F:\\Documents\\PSoC_Creator\\ledmatrix\\ledtest.cyd"
 666      6F63756D 
 666      656E7473 
 666      5C50536F 
 666      435F4372 
 667 0083 736E00   		.ascii	"sn\000"
 668              	.LASF14:
ARM GAS  C:\Users\SUZUKI~1\AppData\Local\Temp\ccStm1gg.s 			page 14


 669 0086 444D415F 		.ascii	"DMA_1_TD\000"
 669      315F5444 
 669      00
 670              	.LASF18:
 671 008f 474E5520 		.ascii	"GNU C 4.4.1\000"
 671      4320342E 
 671      342E3100 
 672              	.LASF1:
 673 009b 756E7369 		.ascii	"unsigned char\000"
 673      676E6564 
 673      20636861 
 673      7200
 674              	.LASF13:
 675 00a9 444D415F 		.ascii	"DMA_1_Chan\000"
 675      315F4368 
 675      616E00
 676              	.LASF9:
 677 00b4 63686172 		.ascii	"char\000"
 677      00
 678              	.LASF15:
 679 00b9 49544D5F 		.ascii	"ITM_RxBuffer\000"
 679      52784275 
 679      66666572 
 679      00
 680              	.LASF2:
 681 00c6 73686F72 		.ascii	"short int\000"
 681      7420696E 
 681      7400
 682              	.LASF4:
 683 00d0 6C6F6E67 		.ascii	"long int\000"
 683      20696E74 
 683      00
 684              	.LASF3:
 685 00d9 73686F72 		.ascii	"short unsigned int\000"
 685      7420756E 
 685      7369676E 
 685      65642069 
 685      6E7400
 686              	.LASF0:
 687 00ec 7369676E 		.ascii	"signed char\000"
 687      65642063 
 687      68617200 
 688              	.LASF12:
 689 00f8 696E7431 		.ascii	"int16\000"
 689      3600
 690              	.LASF19:
 691 00fe 2E5C6D61 		.ascii	".\\main.c\000"
 691      696E2E63 
 691      00
 692              	.LASF11:
 693 0107 75696E74 		.ascii	"uint16\000"
 693      313600
 694              	.LASF17:
 695 010e 42415345 		.ascii	"BASE_OFFSET\000"
 695      5F4F4646 
 695      53455400 
 696              		.ident	"GCC: (Sourcery G++ Lite 2010q1-188) 4.4.1"
ARM GAS  C:\Users\SUZUKI~1\AppData\Local\Temp\ccStm1gg.s 			page 15


