ARM GAS  C:\Users\SUZUKI~1\AppData\Local\Temp\ccEpigAn.s 			page 1


   1              		.syntax unified
   2              		.cpu cortex-m3
   3              		.fpu softvfp
   4              		.eabi_attribute 20, 1
   5              		.eabi_attribute 21, 1
   6              		.eabi_attribute 23, 3
   7              		.eabi_attribute 24, 1
   8              		.eabi_attribute 25, 1
   9              		.eabi_attribute 26, 1
  10              		.eabi_attribute 30, 6
  11              		.eabi_attribute 18, 4
  12              		.thumb
  13              		.file	"matdrv2_1_matdrv2.c"
  14              		.section	.debug_abbrev,"",%progbits
  15              	.Ldebug_abbrev0:
  16              		.section	.debug_info,"",%progbits
  17              	.Ldebug_info0:
  18              		.section	.debug_line,"",%progbits
  19              	.Ldebug_line0:
  20 0000 69000000 		.text
  20      02004300 
  20      00000201 
  20      FB0E0D00 
  20      01010101 
  21              	.Ltext0:
  22              		.cfi_sections	.debug_frame
  23              		.section	.text.matdrv2_1_Start,"ax",%progbits
  24              		.align	2
  25              		.global	matdrv2_1_Start
  26              		.thumb
  27              		.thumb_func
  28              		.type	matdrv2_1_Start, %function
  29              	matdrv2_1_Start:
  30              	.LFB0:
  31              		.file 1 ".\\Generated_Source\\PSoC5\\matdrv2_1_matdrv2.c"
   1:.\Generated_Source\PSoC5/matdrv2_1_matdrv2.c **** /* ========================================
   2:.\Generated_Source\PSoC5/matdrv2_1_matdrv2.c ****  *
   3:.\Generated_Source\PSoC5/matdrv2_1_matdrv2.c ****  * Copyright YOUR COMPANY, THE YEAR
   4:.\Generated_Source\PSoC5/matdrv2_1_matdrv2.c ****  * All Rights Reserved
   5:.\Generated_Source\PSoC5/matdrv2_1_matdrv2.c ****  * UNPUBLISHED, LICENSED SOFTWARE.
   6:.\Generated_Source\PSoC5/matdrv2_1_matdrv2.c ****  *
   7:.\Generated_Source\PSoC5/matdrv2_1_matdrv2.c ****  * CONFIDENTIAL AND PROPRIETARY INFORMATION
   8:.\Generated_Source\PSoC5/matdrv2_1_matdrv2.c ****  * WHICH IS THE PROPERTY OF your company.
   9:.\Generated_Source\PSoC5/matdrv2_1_matdrv2.c ****  *
  10:.\Generated_Source\PSoC5/matdrv2_1_matdrv2.c ****  * ========================================
  11:.\Generated_Source\PSoC5/matdrv2_1_matdrv2.c **** */
  12:.\Generated_Source\PSoC5/matdrv2_1_matdrv2.c **** 
  13:.\Generated_Source\PSoC5/matdrv2_1_matdrv2.c **** void matdrv2_1_Start(void)
  14:.\Generated_Source\PSoC5/matdrv2_1_matdrv2.c **** {
  32              		.loc 1 14 0
  33              		.cfi_startproc
  34              		@ args = 0, pretend = 0, frame = 0
  35              		@ frame_needed = 1, uses_anonymous_args = 0
  36              		@ link register save eliminated.
  37 0000 80B4     		push	{r7}
  38              	.LCFI0:
  39              		.cfi_def_cfa_offset 4
ARM GAS  C:\Users\SUZUKI~1\AppData\Local\Temp\ccEpigAn.s 			page 2


  40 0002 00AF     		add	r7, sp, #0
  41              		.cfi_offset 7, -4
  42              	.LCFI1:
  43              		.cfi_def_cfa_register 7
  15:.\Generated_Source\PSoC5/matdrv2_1_matdrv2.c **** 	/* nothing to do */
  16:.\Generated_Source\PSoC5/matdrv2_1_matdrv2.c **** 	return;
  17:.\Generated_Source\PSoC5/matdrv2_1_matdrv2.c **** }
  44              		.loc 1 17 0
  45 0004 BD46     		mov	sp, r7
  46 0006 80BC     		pop	{r7}
  47 0008 7047     		bx	lr
  48              		.cfi_endproc
  49              	.LFE0:
  50              		.size	matdrv2_1_Start, .-matdrv2_1_Start
  51 000a 00BF     		.section	.text.matdrv2_1_Stop,"ax",%progbits
  52              		.align	2
  53              		.global	matdrv2_1_Stop
  54              		.thumb
  55              		.thumb_func
  56              		.type	matdrv2_1_Stop, %function
  57              	matdrv2_1_Stop:
  58              	.LFB1:
  18:.\Generated_Source\PSoC5/matdrv2_1_matdrv2.c **** 
  19:.\Generated_Source\PSoC5/matdrv2_1_matdrv2.c **** void matdrv2_1_Stop(void)
  20:.\Generated_Source\PSoC5/matdrv2_1_matdrv2.c **** {
  59              		.loc 1 20 0
  60              		.cfi_startproc
  61              		@ args = 0, pretend = 0, frame = 0
  62              		@ frame_needed = 1, uses_anonymous_args = 0
  63              		@ link register save eliminated.
  64 0000 80B4     		push	{r7}
  65              	.LCFI2:
  66              		.cfi_def_cfa_offset 4
  67 0002 00AF     		add	r7, sp, #0
  68              		.cfi_offset 7, -4
  69              	.LCFI3:
  70              		.cfi_def_cfa_register 7
  21:.\Generated_Source\PSoC5/matdrv2_1_matdrv2.c **** 	/* nothing to do */
  22:.\Generated_Source\PSoC5/matdrv2_1_matdrv2.c **** 	return;
  23:.\Generated_Source\PSoC5/matdrv2_1_matdrv2.c **** }
  71              		.loc 1 23 0
  72 0004 BD46     		mov	sp, r7
  73 0006 80BC     		pop	{r7}
  74 0008 7047     		bx	lr
  75              		.cfi_endproc
  76              	.LFE1:
  77              		.size	matdrv2_1_Stop, .-matdrv2_1_Stop
  78 000a 00BF     		.text
  79              	.Letext0:
  80              		.section	.debug_loc,"",%progbits
  81              	.Ldebug_loc0:
  82              	.LLST0:
  83 0000 00000000 		.4byte	.LFB0
  84 0004 02000000 		.4byte	.LCFI0
  85 0008 0100     		.2byte	0x1
  86 000a 5D       		.byte	0x5d
  87 000b 02000000 		.4byte	.LCFI0
ARM GAS  C:\Users\SUZUKI~1\AppData\Local\Temp\ccEpigAn.s 			page 3


  88 000f 04000000 		.4byte	.LCFI1
  89 0013 0200     		.2byte	0x2
  90 0015 7D       		.byte	0x7d
  91 0016 04       		.sleb128 4
  92 0017 04000000 		.4byte	.LCFI1
  93 001b 0A000000 		.4byte	.LFE0
  94 001f 0200     		.2byte	0x2
  95 0021 77       		.byte	0x77
  96 0022 04       		.sleb128 4
  97 0023 00000000 		.4byte	0x0
  98 0027 00000000 		.4byte	0x0
  99              	.LLST1:
 100 002b 00000000 		.4byte	.LFB1
 101 002f 02000000 		.4byte	.LCFI2
 102 0033 0100     		.2byte	0x1
 103 0035 5D       		.byte	0x5d
 104 0036 02000000 		.4byte	.LCFI2
 105 003a 04000000 		.4byte	.LCFI3
 106 003e 0200     		.2byte	0x2
 107 0040 7D       		.byte	0x7d
 108 0041 04       		.sleb128 4
 109 0042 04000000 		.4byte	.LCFI3
 110 0046 0A000000 		.4byte	.LFE1
 111 004a 0200     		.2byte	0x2
 112 004c 77       		.byte	0x77
 113 004d 04       		.sleb128 4
 114 004e 00000000 		.4byte	0x0
 115 0052 00000000 		.4byte	0x0
 116              		.section	.debug_info
 117 0000 50000000 		.4byte	0x50
 118 0004 0200     		.2byte	0x2
 119 0006 00000000 		.4byte	.Ldebug_abbrev0
 120 000a 04       		.byte	0x4
 121 000b 01       		.uleb128 0x1
 122 000c 42000000 		.4byte	.LASF2
 123 0010 01       		.byte	0x1
 124 0011 4E000000 		.4byte	.LASF3
 125 0015 00000000 		.4byte	.LASF4
 126 0019 00000000 		.4byte	0x0
 127 001d 00000000 		.4byte	0x0
 128 0021 00000000 		.4byte	.Ldebug_ranges0+0x0
 129 0025 00000000 		.4byte	.Ldebug_line0
 130 0029 02       		.uleb128 0x2
 131 002a 01       		.byte	0x1
 132 002b 32000000 		.4byte	.LASF0
 133 002f 01       		.byte	0x1
 134 0030 0D       		.byte	0xd
 135 0031 01       		.byte	0x1
 136 0032 00000000 		.4byte	.LFB0
 137 0036 0A000000 		.4byte	.LFE0
 138 003a 00000000 		.4byte	.LLST0
 139 003e 02       		.uleb128 0x2
 140 003f 01       		.byte	0x1
 141 0040 7B000000 		.4byte	.LASF1
 142 0044 01       		.byte	0x1
 143 0045 13       		.byte	0x13
 144 0046 01       		.byte	0x1
ARM GAS  C:\Users\SUZUKI~1\AppData\Local\Temp\ccEpigAn.s 			page 4


 145 0047 00000000 		.4byte	.LFB1
 146 004b 0A000000 		.4byte	.LFE1
 147 004f 2B000000 		.4byte	.LLST1
 148 0053 00       		.byte	0x0
 149              		.section	.debug_abbrev
 150 0000 01       		.uleb128 0x1
 151 0001 11       		.uleb128 0x11
 152 0002 01       		.byte	0x1
 153 0003 25       		.uleb128 0x25
 154 0004 0E       		.uleb128 0xe
 155 0005 13       		.uleb128 0x13
 156 0006 0B       		.uleb128 0xb
 157 0007 03       		.uleb128 0x3
 158 0008 0E       		.uleb128 0xe
 159 0009 1B       		.uleb128 0x1b
 160 000a 0E       		.uleb128 0xe
 161 000b 11       		.uleb128 0x11
 162 000c 01       		.uleb128 0x1
 163 000d 52       		.uleb128 0x52
 164 000e 01       		.uleb128 0x1
 165 000f 55       		.uleb128 0x55
 166 0010 06       		.uleb128 0x6
 167 0011 10       		.uleb128 0x10
 168 0012 06       		.uleb128 0x6
 169 0013 00       		.byte	0x0
 170 0014 00       		.byte	0x0
 171 0015 02       		.uleb128 0x2
 172 0016 2E       		.uleb128 0x2e
 173 0017 00       		.byte	0x0
 174 0018 3F       		.uleb128 0x3f
 175 0019 0C       		.uleb128 0xc
 176 001a 03       		.uleb128 0x3
 177 001b 0E       		.uleb128 0xe
 178 001c 3A       		.uleb128 0x3a
 179 001d 0B       		.uleb128 0xb
 180 001e 3B       		.uleb128 0x3b
 181 001f 0B       		.uleb128 0xb
 182 0020 27       		.uleb128 0x27
 183 0021 0C       		.uleb128 0xc
 184 0022 11       		.uleb128 0x11
 185 0023 01       		.uleb128 0x1
 186 0024 12       		.uleb128 0x12
 187 0025 01       		.uleb128 0x1
 188 0026 40       		.uleb128 0x40
 189 0027 06       		.uleb128 0x6
 190 0028 00       		.byte	0x0
 191 0029 00       		.byte	0x0
 192 002a 00       		.byte	0x0
 193              		.section	.debug_pubnames,"",%progbits
 194 0000 35000000 		.4byte	0x35
 195 0004 0200     		.2byte	0x2
 196 0006 00000000 		.4byte	.Ldebug_info0
 197 000a 54000000 		.4byte	0x54
 198 000e 29000000 		.4byte	0x29
 199 0012 6D617464 		.ascii	"matdrv2_1_Start\000"
 199      7276325F 
 199      315F5374 
ARM GAS  C:\Users\SUZUKI~1\AppData\Local\Temp\ccEpigAn.s 			page 5


 199      61727400 
 200 0022 3E000000 		.4byte	0x3e
 201 0026 6D617464 		.ascii	"matdrv2_1_Stop\000"
 201      7276325F 
 201      315F5374 
 201      6F7000
 202 0035 00000000 		.4byte	0x0
 203              		.section	.debug_aranges,"",%progbits
 204 0000 24000000 		.4byte	0x24
 205 0004 0200     		.2byte	0x2
 206 0006 00000000 		.4byte	.Ldebug_info0
 207 000a 04       		.byte	0x4
 208 000b 00       		.byte	0x0
 209 000c 0000     		.2byte	0x0
 210 000e 0000     		.2byte	0x0
 211 0010 00000000 		.4byte	.LFB0
 212 0014 0A000000 		.4byte	.LFE0-.LFB0
 213 0018 00000000 		.4byte	.LFB1
 214 001c 0A000000 		.4byte	.LFE1-.LFB1
 215 0020 00000000 		.4byte	0x0
 216 0024 00000000 		.4byte	0x0
 217              		.section	.debug_ranges,"",%progbits
 218              	.Ldebug_ranges0:
 219 0000 00000000 		.4byte	.Ltext0
 220 0004 00000000 		.4byte	.Letext0
 221 0008 00000000 		.4byte	.LFB0
 222 000c 0A000000 		.4byte	.LFE0
 223 0010 00000000 		.4byte	.LFB1
 224 0014 0A000000 		.4byte	.LFE1
 225 0018 00000000 		.4byte	0x0
 226 001c 00000000 		.4byte	0x0
 227              		.section	.debug_str,"MS",%progbits,1
 228              	.LASF4:
 229 0000 463A5C44 		.ascii	"F:\\Documents\\PSoC_Creator\\ledmatrix\\ledtest.cyd"
 229      6F63756D 
 229      656E7473 
 229      5C50536F 
 229      435F4372 
 230 002f 736E00   		.ascii	"sn\000"
 231              	.LASF0:
 232 0032 6D617464 		.ascii	"matdrv2_1_Start\000"
 232      7276325F 
 232      315F5374 
 232      61727400 
 233              	.LASF2:
 234 0042 474E5520 		.ascii	"GNU C 4.4.1\000"
 234      4320342E 
 234      342E3100 
 235              	.LASF3:
 236 004e 2E5C4765 		.ascii	".\\Generated_Source\\PSoC5\\matdrv2_1_matdrv2.c\000"
 236      6E657261 
 236      7465645F 
 236      536F7572 
 236      63655C50 
 237              	.LASF1:
 238 007b 6D617464 		.ascii	"matdrv2_1_Stop\000"
 238      7276325F 
ARM GAS  C:\Users\SUZUKI~1\AppData\Local\Temp\ccEpigAn.s 			page 6


 238      315F5374 
 238      6F7000
 239              		.ident	"GCC: (Sourcery G++ Lite 2010q1-188) 4.4.1"
