ARM GAS  C:\Users\SUZUKI~1\AppData\Local\Temp\ccinit5q.s 			page 1


   1              		.syntax unified
   2              		.cpu cortex-m3
   3              		.fpu softvfp
   4              		.eabi_attribute 20, 1
   5              		.eabi_attribute 21, 1
   6              		.eabi_attribute 23, 3
   7              		.eabi_attribute 24, 1
   8              		.eabi_attribute 25, 1
   9              		.eabi_attribute 26, 1
  10              		.eabi_attribute 30, 6
  11              		.eabi_attribute 18, 4
  12              		.thumb
  13              		.file	"VDAC8_1.c"
  14              		.section	.debug_abbrev,"",%progbits
  15              	.Ldebug_abbrev0:
  16              		.section	.debug_info,"",%progbits
  17              	.Ldebug_info0:
  18              		.section	.debug_line,"",%progbits
  19              	.Ldebug_line0:
  20 0000 1E010000 		.text
  20      02006D00 
  20      00000201 
  20      FB0E0D00 
  20      01010101 
  21              	.Ltext0:
  22              		.cfi_sections	.debug_frame
  23              		.global	VDAC8_1_initVar
  24              		.bss
  25              		.type	VDAC8_1_initVar, %object
  26              		.size	VDAC8_1_initVar, 1
  27              	VDAC8_1_initVar:
  28 0000 00       		.space	1
  29              		.global	VDAC8_1_restoreVal
  30              		.type	VDAC8_1_restoreVal, %object
  31              		.size	VDAC8_1_restoreVal, 1
  32              	VDAC8_1_restoreVal:
  33 0001 00       		.space	1
  34              		.global	VDAC8_1_intrStatus
  35              		.type	VDAC8_1_intrStatus, %object
  36              		.size	VDAC8_1_intrStatus, 1
  37              	VDAC8_1_intrStatus:
  38 0002 00       		.space	1
  39 0003 00       		.align	2
  40              	VDAC8_1_backup:
  41 0004 0000     		.space	2
  42 0006 0000     		.section	.text.VDAC8_1_Init,"ax",%progbits
  43              		.align	2
  44              		.global	VDAC8_1_Init
  45              		.thumb
  46              		.thumb_func
  47              		.type	VDAC8_1_Init, %function
  48              	VDAC8_1_Init:
  49              	.LFB0:
  50              		.file 1 ".\\Generated_Source\\PSoC5\\VDAC8_1.c"
   1:.\Generated_Source\PSoC5/VDAC8_1.c **** /*******************************************************************************
   2:.\Generated_Source\PSoC5/VDAC8_1.c **** * File Name: VDAC8_1.c  
   3:.\Generated_Source\PSoC5/VDAC8_1.c **** * Version 1.80
ARM GAS  C:\Users\SUZUKI~1\AppData\Local\Temp\ccinit5q.s 			page 2


   4:.\Generated_Source\PSoC5/VDAC8_1.c **** *
   5:.\Generated_Source\PSoC5/VDAC8_1.c **** * Description:
   6:.\Generated_Source\PSoC5/VDAC8_1.c **** *  This file provides the source code to the API for the 8-bit Voltage DAC 
   7:.\Generated_Source\PSoC5/VDAC8_1.c **** *  (VDAC8) User Module.
   8:.\Generated_Source\PSoC5/VDAC8_1.c **** *
   9:.\Generated_Source\PSoC5/VDAC8_1.c **** * Note:
  10:.\Generated_Source\PSoC5/VDAC8_1.c **** *  Any unusual or non-standard behavior should be noted here. Other-
  11:.\Generated_Source\PSoC5/VDAC8_1.c **** *  wise, this section should remain blank.
  12:.\Generated_Source\PSoC5/VDAC8_1.c **** *
  13:.\Generated_Source\PSoC5/VDAC8_1.c **** ********************************************************************************
  14:.\Generated_Source\PSoC5/VDAC8_1.c **** * Copyright 2008-2012, Cypress Semiconductor Corporation.  All rights reserved.
  15:.\Generated_Source\PSoC5/VDAC8_1.c **** * You may use this file only in accordance with the license, terms, conditions, 
  16:.\Generated_Source\PSoC5/VDAC8_1.c **** * disclaimers, and limitations in the end user license agreement accompanying 
  17:.\Generated_Source\PSoC5/VDAC8_1.c **** * the software package with which this file was provided.
  18:.\Generated_Source\PSoC5/VDAC8_1.c **** *******************************************************************************/
  19:.\Generated_Source\PSoC5/VDAC8_1.c **** 
  20:.\Generated_Source\PSoC5/VDAC8_1.c **** #include "cytypes.h"
  21:.\Generated_Source\PSoC5/VDAC8_1.c **** #include "VDAC8_1.h"
  22:.\Generated_Source\PSoC5/VDAC8_1.c **** 
  23:.\Generated_Source\PSoC5/VDAC8_1.c **** #if (CY_PSOC5A)
  24:.\Generated_Source\PSoC5/VDAC8_1.c **** #include <CyLib.h>
  25:.\Generated_Source\PSoC5/VDAC8_1.c **** #endif /* CY_PSOC5A */
  26:.\Generated_Source\PSoC5/VDAC8_1.c **** 
  27:.\Generated_Source\PSoC5/VDAC8_1.c **** uint8 VDAC8_1_initVar = 0;
  28:.\Generated_Source\PSoC5/VDAC8_1.c **** 
  29:.\Generated_Source\PSoC5/VDAC8_1.c **** #if (CY_PSOC5A)
  30:.\Generated_Source\PSoC5/VDAC8_1.c ****     uint8 VDAC8_1_restoreVal = 0;
  31:.\Generated_Source\PSoC5/VDAC8_1.c ****     uint8 VDAC8_1_intrStatus = 0u;
  32:.\Generated_Source\PSoC5/VDAC8_1.c **** #endif /* CY_PSOC5A */
  33:.\Generated_Source\PSoC5/VDAC8_1.c **** 
  34:.\Generated_Source\PSoC5/VDAC8_1.c **** #if (CY_PSOC5A)
  35:.\Generated_Source\PSoC5/VDAC8_1.c ****     static VDAC8_1_backupStruct VDAC8_1_backup;
  36:.\Generated_Source\PSoC5/VDAC8_1.c **** #endif /* CY_PSOC5A */
  37:.\Generated_Source\PSoC5/VDAC8_1.c **** 
  38:.\Generated_Source\PSoC5/VDAC8_1.c **** 
  39:.\Generated_Source\PSoC5/VDAC8_1.c **** /*******************************************************************************
  40:.\Generated_Source\PSoC5/VDAC8_1.c **** * Function Name: VDAC8_1_Init
  41:.\Generated_Source\PSoC5/VDAC8_1.c **** ********************************************************************************
  42:.\Generated_Source\PSoC5/VDAC8_1.c **** * Summary:
  43:.\Generated_Source\PSoC5/VDAC8_1.c **** *  Initialize to the schematic state.
  44:.\Generated_Source\PSoC5/VDAC8_1.c **** * 
  45:.\Generated_Source\PSoC5/VDAC8_1.c **** * Parameters:
  46:.\Generated_Source\PSoC5/VDAC8_1.c **** *  void:
  47:.\Generated_Source\PSoC5/VDAC8_1.c **** *
  48:.\Generated_Source\PSoC5/VDAC8_1.c **** * Return:
  49:.\Generated_Source\PSoC5/VDAC8_1.c **** *  void
  50:.\Generated_Source\PSoC5/VDAC8_1.c **** *
  51:.\Generated_Source\PSoC5/VDAC8_1.c **** * Theory:
  52:.\Generated_Source\PSoC5/VDAC8_1.c **** *
  53:.\Generated_Source\PSoC5/VDAC8_1.c **** * Side Effects:
  54:.\Generated_Source\PSoC5/VDAC8_1.c **** *
  55:.\Generated_Source\PSoC5/VDAC8_1.c **** *******************************************************************************/
  56:.\Generated_Source\PSoC5/VDAC8_1.c **** void VDAC8_1_Init(void) 
  57:.\Generated_Source\PSoC5/VDAC8_1.c **** {
  51              		.loc 1 57 0
  52              		.cfi_startproc
  53              		@ args = 0, pretend = 0, frame = 0
ARM GAS  C:\Users\SUZUKI~1\AppData\Local\Temp\ccinit5q.s 			page 3


  54              		@ frame_needed = 1, uses_anonymous_args = 0
  55 0000 80B5     		push	{r7, lr}
  56              	.LCFI0:
  57              		.cfi_def_cfa_offset 8
  58 0002 00AF     		add	r7, sp, #0
  59              		.cfi_offset 14, -4
  60              		.cfi_offset 7, -8
  61              	.LCFI1:
  62              		.cfi_def_cfa_register 7
  58:.\Generated_Source\PSoC5/VDAC8_1.c ****     VDAC8_1_CR0 = (VDAC8_1_MODE_V );
  63              		.loc 1 58 0
  64 0004 45F62003 		movw	r3, #:lower16:1073764384
  65 0008 C4F20003 		movt	r3, #:upper16:1073764384
  66 000c 4FF00002 		mov	r2, #0
  67 0010 1A70     		strb	r2, [r3, #0]
  59:.\Generated_Source\PSoC5/VDAC8_1.c **** 
  60:.\Generated_Source\PSoC5/VDAC8_1.c ****     /* Set default data source */
  61:.\Generated_Source\PSoC5/VDAC8_1.c ****     if(VDAC8_1_DEFAULT_DATA_SRC != 0 )
  62:.\Generated_Source\PSoC5/VDAC8_1.c ****     {
  63:.\Generated_Source\PSoC5/VDAC8_1.c ****         VDAC8_1_CR1 = (VDAC8_1_DEFAULT_CNTL | VDAC8_1_DACBUS_ENABLE) ;
  64:.\Generated_Source\PSoC5/VDAC8_1.c ****     }
  65:.\Generated_Source\PSoC5/VDAC8_1.c ****     else
  66:.\Generated_Source\PSoC5/VDAC8_1.c ****     {
  67:.\Generated_Source\PSoC5/VDAC8_1.c ****         VDAC8_1_CR1 = (VDAC8_1_DEFAULT_CNTL | VDAC8_1_DACBUS_DISABLE) ;
  68              		.loc 1 67 0
  69 0012 45F62103 		movw	r3, #:lower16:1073764385
  70 0016 C4F20003 		movt	r3, #:upper16:1073764385
  71 001a 4FF00002 		mov	r2, #0
  72 001e 1A70     		strb	r2, [r3, #0]
  68:.\Generated_Source\PSoC5/VDAC8_1.c ****     }
  69:.\Generated_Source\PSoC5/VDAC8_1.c **** 
  70:.\Generated_Source\PSoC5/VDAC8_1.c ****     /* Set default strobe mode */
  71:.\Generated_Source\PSoC5/VDAC8_1.c ****     if(VDAC8_1_DEFAULT_STRB != 0)
  72:.\Generated_Source\PSoC5/VDAC8_1.c ****     {
  73:.\Generated_Source\PSoC5/VDAC8_1.c ****         VDAC8_1_Strobe |= VDAC8_1_STRB_EN ;
  74:.\Generated_Source\PSoC5/VDAC8_1.c ****     }
  75:.\Generated_Source\PSoC5/VDAC8_1.c **** 
  76:.\Generated_Source\PSoC5/VDAC8_1.c ****     /* Set default range */
  77:.\Generated_Source\PSoC5/VDAC8_1.c ****     VDAC8_1_SetRange(VDAC8_1_DEFAULT_RANGE); 
  73              		.loc 1 77 0
  74 0020 4FF00000 		mov	r0, #0
  75 0024 FFF7FEFF 		bl	VDAC8_1_SetRange
  78:.\Generated_Source\PSoC5/VDAC8_1.c **** 
  79:.\Generated_Source\PSoC5/VDAC8_1.c ****     /* Set default speed */
  80:.\Generated_Source\PSoC5/VDAC8_1.c ****     VDAC8_1_SetSpeed(VDAC8_1_DEFAULT_SPEED);
  76              		.loc 1 80 0
  77 0028 4FF00000 		mov	r0, #0
  78 002c FFF7FEFF 		bl	VDAC8_1_SetSpeed
  81:.\Generated_Source\PSoC5/VDAC8_1.c **** }
  79              		.loc 1 81 0
  80 0030 80BD     		pop	{r7, pc}
  81              		.cfi_endproc
  82              	.LFE0:
  83              		.size	VDAC8_1_Init, .-VDAC8_1_Init
  84 0032 00BF     		.section	.text.VDAC8_1_Enable,"ax",%progbits
  85              		.align	2
  86              		.global	VDAC8_1_Enable
ARM GAS  C:\Users\SUZUKI~1\AppData\Local\Temp\ccinit5q.s 			page 4


  87              		.thumb
  88              		.thumb_func
  89              		.type	VDAC8_1_Enable, %function
  90              	VDAC8_1_Enable:
  91              	.LFB1:
  82:.\Generated_Source\PSoC5/VDAC8_1.c **** 
  83:.\Generated_Source\PSoC5/VDAC8_1.c **** 
  84:.\Generated_Source\PSoC5/VDAC8_1.c **** /*******************************************************************************
  85:.\Generated_Source\PSoC5/VDAC8_1.c **** * Function Name: VDAC8_1_Enable
  86:.\Generated_Source\PSoC5/VDAC8_1.c **** ********************************************************************************
  87:.\Generated_Source\PSoC5/VDAC8_1.c **** * Summary:
  88:.\Generated_Source\PSoC5/VDAC8_1.c **** *  Enable the VDAC8
  89:.\Generated_Source\PSoC5/VDAC8_1.c **** * 
  90:.\Generated_Source\PSoC5/VDAC8_1.c **** * Parameters:
  91:.\Generated_Source\PSoC5/VDAC8_1.c **** *  void
  92:.\Generated_Source\PSoC5/VDAC8_1.c **** *
  93:.\Generated_Source\PSoC5/VDAC8_1.c **** * Return:
  94:.\Generated_Source\PSoC5/VDAC8_1.c **** *  void
  95:.\Generated_Source\PSoC5/VDAC8_1.c **** *
  96:.\Generated_Source\PSoC5/VDAC8_1.c **** * Theory:
  97:.\Generated_Source\PSoC5/VDAC8_1.c **** *
  98:.\Generated_Source\PSoC5/VDAC8_1.c **** * Side Effects:
  99:.\Generated_Source\PSoC5/VDAC8_1.c **** *
 100:.\Generated_Source\PSoC5/VDAC8_1.c **** *******************************************************************************/
 101:.\Generated_Source\PSoC5/VDAC8_1.c **** void VDAC8_1_Enable(void) 
 102:.\Generated_Source\PSoC5/VDAC8_1.c **** {
  92              		.loc 1 102 0
  93              		.cfi_startproc
  94              		@ args = 0, pretend = 0, frame = 0
  95              		@ frame_needed = 1, uses_anonymous_args = 0
  96              		@ link register save eliminated.
  97 0000 80B4     		push	{r7}
  98              	.LCFI2:
  99              		.cfi_def_cfa_offset 4
 100 0002 00AF     		add	r7, sp, #0
 101              		.cfi_offset 7, -4
 102              	.LCFI3:
 103              		.cfi_def_cfa_register 7
 103:.\Generated_Source\PSoC5/VDAC8_1.c ****     VDAC8_1_PWRMGR |= VDAC8_1_ACT_PWR_EN;
 104              		.loc 1 103 0
 105 0004 44F2A833 		movw	r3, #:lower16:1073759144
 106 0008 C4F20003 		movt	r3, #:upper16:1073759144
 107 000c 44F2A832 		movw	r2, #:lower16:1073759144
 108 0010 C4F20002 		movt	r2, #:upper16:1073759144
 109 0014 1278     		ldrb	r2, [r2, #0]
 110 0016 D2B2     		uxtb	r2, r2
 111 0018 42F00102 		orr	r2, r2, #1
 112 001c D2B2     		uxtb	r2, r2
 113 001e 1A70     		strb	r2, [r3, #0]
 104:.\Generated_Source\PSoC5/VDAC8_1.c ****     VDAC8_1_STBY_PWRMGR |= VDAC8_1_STBY_PWR_EN;
 114              		.loc 1 104 0
 115 0020 44F2B833 		movw	r3, #:lower16:1073759160
 116 0024 C4F20003 		movt	r3, #:upper16:1073759160
 117 0028 44F2B832 		movw	r2, #:lower16:1073759160
 118 002c C4F20002 		movt	r2, #:upper16:1073759160
 119 0030 1278     		ldrb	r2, [r2, #0]
 120 0032 D2B2     		uxtb	r2, r2
ARM GAS  C:\Users\SUZUKI~1\AppData\Local\Temp\ccinit5q.s 			page 5


 121 0034 42F00102 		orr	r2, r2, #1
 122 0038 D2B2     		uxtb	r2, r2
 123 003a 1A70     		strb	r2, [r3, #0]
 105:.\Generated_Source\PSoC5/VDAC8_1.c **** 
 106:.\Generated_Source\PSoC5/VDAC8_1.c ****     /*This is to restore the value of register CR0 ,
 107:.\Generated_Source\PSoC5/VDAC8_1.c ****     which is modified  in Stop API , this prevents misbehaviour of VDAC */
 108:.\Generated_Source\PSoC5/VDAC8_1.c ****     #if (CY_PSOC5A)
 109:.\Generated_Source\PSoC5/VDAC8_1.c ****         if(VDAC8_1_restoreVal == 1) 
 124              		.loc 1 109 0
 125 003c 40F20003 		movw	r3, #:lower16:VDAC8_1_restoreVal
 126 0040 C0F20003 		movt	r3, #:upper16:VDAC8_1_restoreVal
 127 0044 1B78     		ldrb	r3, [r3, #0]	@ zero_extendqisi2
 128 0046 012B     		cmp	r3, #1
 129 0048 10D1     		bne	.L5
 110:.\Generated_Source\PSoC5/VDAC8_1.c ****         {
 111:.\Generated_Source\PSoC5/VDAC8_1.c ****              VDAC8_1_CR0 = VDAC8_1_backup.data_value;
 130              		.loc 1 111 0
 131 004a 45F62003 		movw	r3, #:lower16:1073764384
 132 004e C4F20003 		movt	r3, #:upper16:1073764384
 133 0052 40F20002 		movw	r2, #:lower16:VDAC8_1_backup
 134 0056 C0F20002 		movt	r2, #:upper16:VDAC8_1_backup
 135 005a 5278     		ldrb	r2, [r2, #1]	@ zero_extendqisi2
 136 005c 1A70     		strb	r2, [r3, #0]
 112:.\Generated_Source\PSoC5/VDAC8_1.c ****              VDAC8_1_restoreVal = 0;
 137              		.loc 1 112 0
 138 005e 40F20003 		movw	r3, #:lower16:VDAC8_1_restoreVal
 139 0062 C0F20003 		movt	r3, #:upper16:VDAC8_1_restoreVal
 140 0066 4FF00002 		mov	r2, #0
 141 006a 1A70     		strb	r2, [r3, #0]
 142              	.L5:
 113:.\Generated_Source\PSoC5/VDAC8_1.c ****         }
 114:.\Generated_Source\PSoC5/VDAC8_1.c ****     #endif /* CY_PSOC5A */
 115:.\Generated_Source\PSoC5/VDAC8_1.c **** }
 143              		.loc 1 115 0
 144 006c BD46     		mov	sp, r7
 145 006e 80BC     		pop	{r7}
 146 0070 7047     		bx	lr
 147              		.cfi_endproc
 148              	.LFE1:
 149              		.size	VDAC8_1_Enable, .-VDAC8_1_Enable
 150 0072 00BF     		.section	.text.VDAC8_1_Start,"ax",%progbits
 151              		.align	2
 152              		.global	VDAC8_1_Start
 153              		.thumb
 154              		.thumb_func
 155              		.type	VDAC8_1_Start, %function
 156              	VDAC8_1_Start:
 157              	.LFB2:
 116:.\Generated_Source\PSoC5/VDAC8_1.c **** 
 117:.\Generated_Source\PSoC5/VDAC8_1.c **** 
 118:.\Generated_Source\PSoC5/VDAC8_1.c **** /*******************************************************************************
 119:.\Generated_Source\PSoC5/VDAC8_1.c **** * Function Name: VDAC8_1_Start
 120:.\Generated_Source\PSoC5/VDAC8_1.c **** ********************************************************************************
 121:.\Generated_Source\PSoC5/VDAC8_1.c **** *
 122:.\Generated_Source\PSoC5/VDAC8_1.c **** * Summary:
 123:.\Generated_Source\PSoC5/VDAC8_1.c **** *  The start function initializes the voltage DAC with the default values, 
 124:.\Generated_Source\PSoC5/VDAC8_1.c **** *  and sets the power to the given level.  A power level of 0, is the same as
ARM GAS  C:\Users\SUZUKI~1\AppData\Local\Temp\ccinit5q.s 			page 6


 125:.\Generated_Source\PSoC5/VDAC8_1.c **** *  executing the stop function.
 126:.\Generated_Source\PSoC5/VDAC8_1.c **** *
 127:.\Generated_Source\PSoC5/VDAC8_1.c **** * Parameters:
 128:.\Generated_Source\PSoC5/VDAC8_1.c **** *  Power: Sets power level between off (0) and (3) high power
 129:.\Generated_Source\PSoC5/VDAC8_1.c **** *
 130:.\Generated_Source\PSoC5/VDAC8_1.c **** * Return:
 131:.\Generated_Source\PSoC5/VDAC8_1.c **** *  void 
 132:.\Generated_Source\PSoC5/VDAC8_1.c **** *
 133:.\Generated_Source\PSoC5/VDAC8_1.c **** * Global variables:
 134:.\Generated_Source\PSoC5/VDAC8_1.c **** *  VDAC8_1_initVar: Is modified when this function is called for the 
 135:.\Generated_Source\PSoC5/VDAC8_1.c **** *  first time. Is used to ensure that initialization happens only once.
 136:.\Generated_Source\PSoC5/VDAC8_1.c **** *
 137:.\Generated_Source\PSoC5/VDAC8_1.c **** *******************************************************************************/
 138:.\Generated_Source\PSoC5/VDAC8_1.c **** void VDAC8_1_Start(void)  
 139:.\Generated_Source\PSoC5/VDAC8_1.c **** {
 158              		.loc 1 139 0
 159              		.cfi_startproc
 160              		@ args = 0, pretend = 0, frame = 0
 161              		@ frame_needed = 1, uses_anonymous_args = 0
 162 0000 80B5     		push	{r7, lr}
 163              	.LCFI4:
 164              		.cfi_def_cfa_offset 8
 165 0002 00AF     		add	r7, sp, #0
 166              		.cfi_offset 14, -4
 167              		.cfi_offset 7, -8
 168              	.LCFI5:
 169              		.cfi_def_cfa_register 7
 140:.\Generated_Source\PSoC5/VDAC8_1.c ****     /* Hardware initiazation only needs to occure the first time */
 141:.\Generated_Source\PSoC5/VDAC8_1.c ****     if(VDAC8_1_initVar == 0)
 170              		.loc 1 141 0
 171 0004 40F20003 		movw	r3, #:lower16:VDAC8_1_initVar
 172 0008 C0F20003 		movt	r3, #:upper16:VDAC8_1_initVar
 173 000c 1B78     		ldrb	r3, [r3, #0]	@ zero_extendqisi2
 174 000e 002B     		cmp	r3, #0
 175 0010 08D1     		bne	.L7
 142:.\Generated_Source\PSoC5/VDAC8_1.c ****     { 
 143:.\Generated_Source\PSoC5/VDAC8_1.c ****         VDAC8_1_Init();
 176              		.loc 1 143 0
 177 0012 FFF7FEFF 		bl	VDAC8_1_Init
 144:.\Generated_Source\PSoC5/VDAC8_1.c ****         VDAC8_1_initVar = 1;
 178              		.loc 1 144 0
 179 0016 40F20003 		movw	r3, #:lower16:VDAC8_1_initVar
 180 001a C0F20003 		movt	r3, #:upper16:VDAC8_1_initVar
 181 001e 4FF00102 		mov	r2, #1
 182 0022 1A70     		strb	r2, [r3, #0]
 183              	.L7:
 145:.\Generated_Source\PSoC5/VDAC8_1.c ****     }
 146:.\Generated_Source\PSoC5/VDAC8_1.c **** 
 147:.\Generated_Source\PSoC5/VDAC8_1.c ****     /* Enable power to DAC */
 148:.\Generated_Source\PSoC5/VDAC8_1.c ****     VDAC8_1_Enable();
 184              		.loc 1 148 0
 185 0024 FFF7FEFF 		bl	VDAC8_1_Enable
 149:.\Generated_Source\PSoC5/VDAC8_1.c **** 
 150:.\Generated_Source\PSoC5/VDAC8_1.c ****     /* Set default value */
 151:.\Generated_Source\PSoC5/VDAC8_1.c ****     VDAC8_1_SetValue(VDAC8_1_DEFAULT_DATA); 
 186              		.loc 1 151 0
 187 0028 4FF06400 		mov	r0, #100
ARM GAS  C:\Users\SUZUKI~1\AppData\Local\Temp\ccinit5q.s 			page 7


 188 002c FFF7FEFF 		bl	VDAC8_1_SetValue
 152:.\Generated_Source\PSoC5/VDAC8_1.c **** }
 189              		.loc 1 152 0
 190 0030 80BD     		pop	{r7, pc}
 191              		.cfi_endproc
 192              	.LFE2:
 193              		.size	VDAC8_1_Start, .-VDAC8_1_Start
 194 0032 00BF     		.section	.text.VDAC8_1_Stop,"ax",%progbits
 195              		.align	2
 196              		.global	VDAC8_1_Stop
 197              		.thumb
 198              		.thumb_func
 199              		.type	VDAC8_1_Stop, %function
 200              	VDAC8_1_Stop:
 201              	.LFB3:
 153:.\Generated_Source\PSoC5/VDAC8_1.c **** 
 154:.\Generated_Source\PSoC5/VDAC8_1.c **** 
 155:.\Generated_Source\PSoC5/VDAC8_1.c **** /*******************************************************************************
 156:.\Generated_Source\PSoC5/VDAC8_1.c **** * Function Name: VDAC8_1_Stop
 157:.\Generated_Source\PSoC5/VDAC8_1.c **** ********************************************************************************
 158:.\Generated_Source\PSoC5/VDAC8_1.c **** *
 159:.\Generated_Source\PSoC5/VDAC8_1.c **** * Summary:
 160:.\Generated_Source\PSoC5/VDAC8_1.c **** *  Powers down DAC to lowest power state.
 161:.\Generated_Source\PSoC5/VDAC8_1.c **** *
 162:.\Generated_Source\PSoC5/VDAC8_1.c **** * Parameters:
 163:.\Generated_Source\PSoC5/VDAC8_1.c **** *  void
 164:.\Generated_Source\PSoC5/VDAC8_1.c **** *
 165:.\Generated_Source\PSoC5/VDAC8_1.c **** * Return:
 166:.\Generated_Source\PSoC5/VDAC8_1.c **** *  void
 167:.\Generated_Source\PSoC5/VDAC8_1.c **** *
 168:.\Generated_Source\PSoC5/VDAC8_1.c **** * Theory:
 169:.\Generated_Source\PSoC5/VDAC8_1.c **** *
 170:.\Generated_Source\PSoC5/VDAC8_1.c **** * Side Effects:
 171:.\Generated_Source\PSoC5/VDAC8_1.c **** *
 172:.\Generated_Source\PSoC5/VDAC8_1.c **** *******************************************************************************/
 173:.\Generated_Source\PSoC5/VDAC8_1.c **** void VDAC8_1_Stop(void) 
 174:.\Generated_Source\PSoC5/VDAC8_1.c **** {
 202              		.loc 1 174 0
 203              		.cfi_startproc
 204              		@ args = 0, pretend = 0, frame = 0
 205              		@ frame_needed = 1, uses_anonymous_args = 0
 206              		@ link register save eliminated.
 207 0000 80B4     		push	{r7}
 208              	.LCFI6:
 209              		.cfi_def_cfa_offset 4
 210 0002 00AF     		add	r7, sp, #0
 211              		.cfi_offset 7, -4
 212              	.LCFI7:
 213              		.cfi_def_cfa_register 7
 175:.\Generated_Source\PSoC5/VDAC8_1.c ****     /* Disble power to DAC */
 176:.\Generated_Source\PSoC5/VDAC8_1.c ****     VDAC8_1_PWRMGR &= ~VDAC8_1_ACT_PWR_EN;
 214              		.loc 1 176 0
 215 0004 44F2A833 		movw	r3, #:lower16:1073759144
 216 0008 C4F20003 		movt	r3, #:upper16:1073759144
 217 000c 44F2A832 		movw	r2, #:lower16:1073759144
 218 0010 C4F20002 		movt	r2, #:upper16:1073759144
 219 0014 1278     		ldrb	r2, [r2, #0]
ARM GAS  C:\Users\SUZUKI~1\AppData\Local\Temp\ccinit5q.s 			page 8


 220 0016 D2B2     		uxtb	r2, r2
 221 0018 02F0FE02 		and	r2, r2, #254
 222 001c 1A70     		strb	r2, [r3, #0]
 177:.\Generated_Source\PSoC5/VDAC8_1.c ****     VDAC8_1_STBY_PWRMGR &= ~VDAC8_1_STBY_PWR_EN;
 223              		.loc 1 177 0
 224 001e 44F2B833 		movw	r3, #:lower16:1073759160
 225 0022 C4F20003 		movt	r3, #:upper16:1073759160
 226 0026 44F2B832 		movw	r2, #:lower16:1073759160
 227 002a C4F20002 		movt	r2, #:upper16:1073759160
 228 002e 1278     		ldrb	r2, [r2, #0]
 229 0030 D2B2     		uxtb	r2, r2
 230 0032 02F0FE02 		and	r2, r2, #254
 231 0036 1A70     		strb	r2, [r3, #0]
 178:.\Generated_Source\PSoC5/VDAC8_1.c **** 
 179:.\Generated_Source\PSoC5/VDAC8_1.c ****     /* This is a work around for PSoC5A  ,
 180:.\Generated_Source\PSoC5/VDAC8_1.c ****     this sets VDAC to current mode with output off */
 181:.\Generated_Source\PSoC5/VDAC8_1.c ****     #if (CY_PSOC5A)
 182:.\Generated_Source\PSoC5/VDAC8_1.c ****         VDAC8_1_backup.data_value = VDAC8_1_CR0;
 232              		.loc 1 182 0
 233 0038 45F62003 		movw	r3, #:lower16:1073764384
 234 003c C4F20003 		movt	r3, #:upper16:1073764384
 235 0040 1B78     		ldrb	r3, [r3, #0]
 236 0042 DAB2     		uxtb	r2, r3
 237 0044 40F20003 		movw	r3, #:lower16:VDAC8_1_backup
 238 0048 C0F20003 		movt	r3, #:upper16:VDAC8_1_backup
 239 004c 5A70     		strb	r2, [r3, #1]
 183:.\Generated_Source\PSoC5/VDAC8_1.c ****         VDAC8_1_CR0 = VDAC8_1_CUR_MODE_OUT_OFF;
 240              		.loc 1 183 0
 241 004e 45F62003 		movw	r3, #:lower16:1073764384
 242 0052 C4F20003 		movt	r3, #:upper16:1073764384
 243 0056 4FF01E02 		mov	r2, #30
 244 005a 1A70     		strb	r2, [r3, #0]
 184:.\Generated_Source\PSoC5/VDAC8_1.c ****         VDAC8_1_restoreVal = 1;
 245              		.loc 1 184 0
 246 005c 40F20003 		movw	r3, #:lower16:VDAC8_1_restoreVal
 247 0060 C0F20003 		movt	r3, #:upper16:VDAC8_1_restoreVal
 248 0064 4FF00102 		mov	r2, #1
 249 0068 1A70     		strb	r2, [r3, #0]
 185:.\Generated_Source\PSoC5/VDAC8_1.c ****     #endif /* CY_PSOC5A */
 186:.\Generated_Source\PSoC5/VDAC8_1.c **** }
 250              		.loc 1 186 0
 251 006a BD46     		mov	sp, r7
 252 006c 80BC     		pop	{r7}
 253 006e 7047     		bx	lr
 254              		.cfi_endproc
 255              	.LFE3:
 256              		.size	VDAC8_1_Stop, .-VDAC8_1_Stop
 257              		.section	.text.VDAC8_1_SetSpeed,"ax",%progbits
 258              		.align	2
 259              		.global	VDAC8_1_SetSpeed
 260              		.thumb
 261              		.thumb_func
 262              		.type	VDAC8_1_SetSpeed, %function
 263              	VDAC8_1_SetSpeed:
 264              	.LFB4:
 187:.\Generated_Source\PSoC5/VDAC8_1.c **** 
 188:.\Generated_Source\PSoC5/VDAC8_1.c **** 
ARM GAS  C:\Users\SUZUKI~1\AppData\Local\Temp\ccinit5q.s 			page 9


 189:.\Generated_Source\PSoC5/VDAC8_1.c **** /*******************************************************************************
 190:.\Generated_Source\PSoC5/VDAC8_1.c **** * Function Name: VDAC8_1_SetSpeed
 191:.\Generated_Source\PSoC5/VDAC8_1.c **** ********************************************************************************
 192:.\Generated_Source\PSoC5/VDAC8_1.c **** *
 193:.\Generated_Source\PSoC5/VDAC8_1.c **** * Summary:
 194:.\Generated_Source\PSoC5/VDAC8_1.c **** *  Set DAC speed
 195:.\Generated_Source\PSoC5/VDAC8_1.c **** *
 196:.\Generated_Source\PSoC5/VDAC8_1.c **** * Parameters:
 197:.\Generated_Source\PSoC5/VDAC8_1.c **** *  power: Sets speed value
 198:.\Generated_Source\PSoC5/VDAC8_1.c **** *
 199:.\Generated_Source\PSoC5/VDAC8_1.c **** * Return:
 200:.\Generated_Source\PSoC5/VDAC8_1.c **** *  void
 201:.\Generated_Source\PSoC5/VDAC8_1.c **** *
 202:.\Generated_Source\PSoC5/VDAC8_1.c **** * Theory:
 203:.\Generated_Source\PSoC5/VDAC8_1.c **** *
 204:.\Generated_Source\PSoC5/VDAC8_1.c **** * Side Effects:
 205:.\Generated_Source\PSoC5/VDAC8_1.c **** *
 206:.\Generated_Source\PSoC5/VDAC8_1.c **** *******************************************************************************/
 207:.\Generated_Source\PSoC5/VDAC8_1.c **** void VDAC8_1_SetSpeed(uint8 speed) 
 208:.\Generated_Source\PSoC5/VDAC8_1.c **** {
 265              		.loc 1 208 0
 266              		.cfi_startproc
 267              		@ args = 0, pretend = 0, frame = 8
 268              		@ frame_needed = 1, uses_anonymous_args = 0
 269              		@ link register save eliminated.
 270 0000 80B4     		push	{r7}
 271              	.LCFI8:
 272              		.cfi_def_cfa_offset 4
 273 0002 83B0     		sub	sp, sp, #12
 274              	.LCFI9:
 275              		.cfi_def_cfa_offset 16
 276 0004 00AF     		add	r7, sp, #0
 277              		.cfi_offset 7, -4
 278              	.LCFI10:
 279              		.cfi_def_cfa_register 7
 280 0006 0346     		mov	r3, r0
 281 0008 FB71     		strb	r3, [r7, #7]
 209:.\Generated_Source\PSoC5/VDAC8_1.c ****     /* Clear power mask then write in new value */
 210:.\Generated_Source\PSoC5/VDAC8_1.c ****     VDAC8_1_CR0 &= ~VDAC8_1_HS_MASK ;
 282              		.loc 1 210 0
 283 000a 45F62003 		movw	r3, #:lower16:1073764384
 284 000e C4F20003 		movt	r3, #:upper16:1073764384
 285 0012 45F62002 		movw	r2, #:lower16:1073764384
 286 0016 C4F20002 		movt	r2, #:upper16:1073764384
 287 001a 1278     		ldrb	r2, [r2, #0]
 288 001c D2B2     		uxtb	r2, r2
 289 001e 02F0FD02 		and	r2, r2, #253
 290 0022 1A70     		strb	r2, [r3, #0]
 211:.\Generated_Source\PSoC5/VDAC8_1.c ****     VDAC8_1_CR0 |=  ( speed & VDAC8_1_HS_MASK) ;
 291              		.loc 1 211 0
 292 0024 45F62003 		movw	r3, #:lower16:1073764384
 293 0028 C4F20003 		movt	r3, #:upper16:1073764384
 294 002c 45F62002 		movw	r2, #:lower16:1073764384
 295 0030 C4F20002 		movt	r2, #:upper16:1073764384
 296 0034 1278     		ldrb	r2, [r2, #0]
 297 0036 D1B2     		uxtb	r1, r2
 298 0038 FA79     		ldrb	r2, [r7, #7]	@ zero_extendqisi2
ARM GAS  C:\Users\SUZUKI~1\AppData\Local\Temp\ccinit5q.s 			page 10


 299 003a 02F00202 		and	r2, r2, #2
 300 003e 41EA0202 		orr	r2, r1, r2
 301 0042 D2B2     		uxtb	r2, r2
 302 0044 1A70     		strb	r2, [r3, #0]
 212:.\Generated_Source\PSoC5/VDAC8_1.c **** }
 303              		.loc 1 212 0
 304 0046 07F10C07 		add	r7, r7, #12
 305 004a BD46     		mov	sp, r7
 306 004c 80BC     		pop	{r7}
 307 004e 7047     		bx	lr
 308              		.cfi_endproc
 309              	.LFE4:
 310              		.size	VDAC8_1_SetSpeed, .-VDAC8_1_SetSpeed
 311              		.section	.text.VDAC8_1_SetRange,"ax",%progbits
 312              		.align	2
 313              		.global	VDAC8_1_SetRange
 314              		.thumb
 315              		.thumb_func
 316              		.type	VDAC8_1_SetRange, %function
 317              	VDAC8_1_SetRange:
 318              	.LFB5:
 213:.\Generated_Source\PSoC5/VDAC8_1.c **** 
 214:.\Generated_Source\PSoC5/VDAC8_1.c **** 
 215:.\Generated_Source\PSoC5/VDAC8_1.c **** /*******************************************************************************
 216:.\Generated_Source\PSoC5/VDAC8_1.c **** * Function Name: VDAC8_1_SetRange
 217:.\Generated_Source\PSoC5/VDAC8_1.c **** ********************************************************************************
 218:.\Generated_Source\PSoC5/VDAC8_1.c **** *
 219:.\Generated_Source\PSoC5/VDAC8_1.c **** * Summary:
 220:.\Generated_Source\PSoC5/VDAC8_1.c **** *  Set one of three current ranges.
 221:.\Generated_Source\PSoC5/VDAC8_1.c **** *
 222:.\Generated_Source\PSoC5/VDAC8_1.c **** * Parameters:
 223:.\Generated_Source\PSoC5/VDAC8_1.c **** *  Range: Sets one of Three valid ranges.
 224:.\Generated_Source\PSoC5/VDAC8_1.c **** *
 225:.\Generated_Source\PSoC5/VDAC8_1.c **** * Return:
 226:.\Generated_Source\PSoC5/VDAC8_1.c **** *  void 
 227:.\Generated_Source\PSoC5/VDAC8_1.c **** *
 228:.\Generated_Source\PSoC5/VDAC8_1.c **** * Theory:
 229:.\Generated_Source\PSoC5/VDAC8_1.c **** *
 230:.\Generated_Source\PSoC5/VDAC8_1.c **** * Side Effects:
 231:.\Generated_Source\PSoC5/VDAC8_1.c **** *
 232:.\Generated_Source\PSoC5/VDAC8_1.c **** *******************************************************************************/
 233:.\Generated_Source\PSoC5/VDAC8_1.c **** void VDAC8_1_SetRange(uint8 range) 
 234:.\Generated_Source\PSoC5/VDAC8_1.c **** {
 319              		.loc 1 234 0
 320              		.cfi_startproc
 321              		@ args = 0, pretend = 0, frame = 8
 322              		@ frame_needed = 1, uses_anonymous_args = 0
 323 0000 80B5     		push	{r7, lr}
 324              	.LCFI11:
 325              		.cfi_def_cfa_offset 8
 326 0002 82B0     		sub	sp, sp, #8
 327              	.LCFI12:
 328              		.cfi_def_cfa_offset 16
 329 0004 00AF     		add	r7, sp, #0
 330              		.cfi_offset 14, -4
 331              		.cfi_offset 7, -8
 332              	.LCFI13:
ARM GAS  C:\Users\SUZUKI~1\AppData\Local\Temp\ccinit5q.s 			page 11


 333              		.cfi_def_cfa_register 7
 334 0006 0346     		mov	r3, r0
 335 0008 FB71     		strb	r3, [r7, #7]
 235:.\Generated_Source\PSoC5/VDAC8_1.c ****     VDAC8_1_CR0 &= ~VDAC8_1_RANGE_MASK ;      /* Clear existing mode */
 336              		.loc 1 235 0
 337 000a 45F62003 		movw	r3, #:lower16:1073764384
 338 000e C4F20003 		movt	r3, #:upper16:1073764384
 339 0012 45F62002 		movw	r2, #:lower16:1073764384
 340 0016 C4F20002 		movt	r2, #:upper16:1073764384
 341 001a 1278     		ldrb	r2, [r2, #0]
 342 001c D2B2     		uxtb	r2, r2
 343 001e 02F0F302 		and	r2, r2, #243
 344 0022 1A70     		strb	r2, [r3, #0]
 236:.\Generated_Source\PSoC5/VDAC8_1.c ****     VDAC8_1_CR0 |= ( range & VDAC8_1_RANGE_MASK ) ; /*  Set Range  */
 345              		.loc 1 236 0
 346 0024 45F62003 		movw	r3, #:lower16:1073764384
 347 0028 C4F20003 		movt	r3, #:upper16:1073764384
 348 002c 45F62002 		movw	r2, #:lower16:1073764384
 349 0030 C4F20002 		movt	r2, #:upper16:1073764384
 350 0034 1278     		ldrb	r2, [r2, #0]
 351 0036 D1B2     		uxtb	r1, r2
 352 0038 FA79     		ldrb	r2, [r7, #7]	@ zero_extendqisi2
 353 003a 02F00C02 		and	r2, r2, #12
 354 003e 41EA0202 		orr	r2, r1, r2
 355 0042 D2B2     		uxtb	r2, r2
 356 0044 1A70     		strb	r2, [r3, #0]
 237:.\Generated_Source\PSoC5/VDAC8_1.c ****     VDAC8_1_DacTrim();
 357              		.loc 1 237 0
 358 0046 FFF7FEFF 		bl	VDAC8_1_DacTrim
 238:.\Generated_Source\PSoC5/VDAC8_1.c **** }
 359              		.loc 1 238 0
 360 004a 07F10807 		add	r7, r7, #8
 361 004e BD46     		mov	sp, r7
 362 0050 80BD     		pop	{r7, pc}
 363              		.cfi_endproc
 364              	.LFE5:
 365              		.size	VDAC8_1_SetRange, .-VDAC8_1_SetRange
 366 0052 00BF     		.section	.text.VDAC8_1_SetValue,"ax",%progbits
 367              		.align	2
 368              		.global	VDAC8_1_SetValue
 369              		.thumb
 370              		.thumb_func
 371              		.type	VDAC8_1_SetValue, %function
 372              	VDAC8_1_SetValue:
 373              	.LFB6:
 239:.\Generated_Source\PSoC5/VDAC8_1.c **** 
 240:.\Generated_Source\PSoC5/VDAC8_1.c **** 
 241:.\Generated_Source\PSoC5/VDAC8_1.c **** /*******************************************************************************
 242:.\Generated_Source\PSoC5/VDAC8_1.c **** * Function Name: VDAC8_1_SetValue
 243:.\Generated_Source\PSoC5/VDAC8_1.c **** ********************************************************************************
 244:.\Generated_Source\PSoC5/VDAC8_1.c **** *
 245:.\Generated_Source\PSoC5/VDAC8_1.c **** * Summary:
 246:.\Generated_Source\PSoC5/VDAC8_1.c **** *  Set 8-bit DAC value
 247:.\Generated_Source\PSoC5/VDAC8_1.c **** *
 248:.\Generated_Source\PSoC5/VDAC8_1.c **** * Parameters:  
 249:.\Generated_Source\PSoC5/VDAC8_1.c **** *  value:  Sets DAC value between 0 and 255.
 250:.\Generated_Source\PSoC5/VDAC8_1.c **** *
ARM GAS  C:\Users\SUZUKI~1\AppData\Local\Temp\ccinit5q.s 			page 12


 251:.\Generated_Source\PSoC5/VDAC8_1.c **** * Return: 
 252:.\Generated_Source\PSoC5/VDAC8_1.c **** *  void 
 253:.\Generated_Source\PSoC5/VDAC8_1.c **** *
 254:.\Generated_Source\PSoC5/VDAC8_1.c **** * Theory: 
 255:.\Generated_Source\PSoC5/VDAC8_1.c **** *
 256:.\Generated_Source\PSoC5/VDAC8_1.c **** * Side Effects:
 257:.\Generated_Source\PSoC5/VDAC8_1.c **** *
 258:.\Generated_Source\PSoC5/VDAC8_1.c **** *******************************************************************************/
 259:.\Generated_Source\PSoC5/VDAC8_1.c **** void VDAC8_1_SetValue(uint8 value) 
 260:.\Generated_Source\PSoC5/VDAC8_1.c **** {
 374              		.loc 1 260 0
 375              		.cfi_startproc
 376              		@ args = 0, pretend = 0, frame = 8
 377              		@ frame_needed = 1, uses_anonymous_args = 0
 378 0000 80B5     		push	{r7, lr}
 379              	.LCFI14:
 380              		.cfi_def_cfa_offset 8
 381 0002 82B0     		sub	sp, sp, #8
 382              	.LCFI15:
 383              		.cfi_def_cfa_offset 16
 384 0004 00AF     		add	r7, sp, #0
 385              		.cfi_offset 14, -4
 386              		.cfi_offset 7, -8
 387              	.LCFI16:
 388              		.cfi_def_cfa_register 7
 389 0006 0346     		mov	r3, r0
 390 0008 FB71     		strb	r3, [r7, #7]
 261:.\Generated_Source\PSoC5/VDAC8_1.c ****     #if (CY_PSOC5A)
 262:.\Generated_Source\PSoC5/VDAC8_1.c ****         VDAC8_1_intrStatus = CyEnterCriticalSection();
 391              		.loc 1 262 0
 392 000a FFF7FEFF 		bl	CyEnterCriticalSection
 393 000e 0346     		mov	r3, r0
 394 0010 1A46     		mov	r2, r3
 395 0012 40F20003 		movw	r3, #:lower16:VDAC8_1_intrStatus
 396 0016 C0F20003 		movt	r3, #:upper16:VDAC8_1_intrStatus
 397 001a 1A70     		strb	r2, [r3, #0]
 263:.\Generated_Source\PSoC5/VDAC8_1.c ****     #endif /* CY_PSOC5A */
 264:.\Generated_Source\PSoC5/VDAC8_1.c **** 
 265:.\Generated_Source\PSoC5/VDAC8_1.c ****     VDAC8_1_Data = value;                /*  Set Value  */
 398              		.loc 1 265 0
 399 001c 45F68033 		movw	r3, #:lower16:1073765248
 400 0020 C4F20003 		movt	r3, #:upper16:1073765248
 401 0024 FA79     		ldrb	r2, [r7, #7]
 402 0026 1A70     		strb	r2, [r3, #0]
 266:.\Generated_Source\PSoC5/VDAC8_1.c **** 
 267:.\Generated_Source\PSoC5/VDAC8_1.c ****     /* PSOC5A requires a double write */
 268:.\Generated_Source\PSoC5/VDAC8_1.c ****     /* Exit Critical Section */
 269:.\Generated_Source\PSoC5/VDAC8_1.c ****     #if (CY_PSOC5A)
 270:.\Generated_Source\PSoC5/VDAC8_1.c ****         VDAC8_1_Data = value;
 403              		.loc 1 270 0
 404 0028 45F68033 		movw	r3, #:lower16:1073765248
 405 002c C4F20003 		movt	r3, #:upper16:1073765248
 406 0030 FA79     		ldrb	r2, [r7, #7]
 407 0032 1A70     		strb	r2, [r3, #0]
 271:.\Generated_Source\PSoC5/VDAC8_1.c ****         CyExitCriticalSection(VDAC8_1_intrStatus);
 408              		.loc 1 271 0
 409 0034 40F20003 		movw	r3, #:lower16:VDAC8_1_intrStatus
ARM GAS  C:\Users\SUZUKI~1\AppData\Local\Temp\ccinit5q.s 			page 13


 410 0038 C0F20003 		movt	r3, #:upper16:VDAC8_1_intrStatus
 411 003c 1B78     		ldrb	r3, [r3, #0]	@ zero_extendqisi2
 412 003e 1846     		mov	r0, r3
 413 0040 FFF7FEFF 		bl	CyExitCriticalSection
 272:.\Generated_Source\PSoC5/VDAC8_1.c ****     #endif /* CY_PSOC5A */
 273:.\Generated_Source\PSoC5/VDAC8_1.c **** }
 414              		.loc 1 273 0
 415 0044 07F10807 		add	r7, r7, #8
 416 0048 BD46     		mov	sp, r7
 417 004a 80BD     		pop	{r7, pc}
 418              		.cfi_endproc
 419              	.LFE6:
 420              		.size	VDAC8_1_SetValue, .-VDAC8_1_SetValue
 421              		.section	.text.VDAC8_1_DacTrim,"ax",%progbits
 422              		.align	2
 423              		.global	VDAC8_1_DacTrim
 424              		.thumb
 425              		.thumb_func
 426              		.type	VDAC8_1_DacTrim, %function
 427              	VDAC8_1_DacTrim:
 428              	.LFB7:
 274:.\Generated_Source\PSoC5/VDAC8_1.c **** 
 275:.\Generated_Source\PSoC5/VDAC8_1.c **** 
 276:.\Generated_Source\PSoC5/VDAC8_1.c **** /*******************************************************************************
 277:.\Generated_Source\PSoC5/VDAC8_1.c **** * Function Name: VDAC8_1_DacTrim
 278:.\Generated_Source\PSoC5/VDAC8_1.c **** ********************************************************************************
 279:.\Generated_Source\PSoC5/VDAC8_1.c **** *
 280:.\Generated_Source\PSoC5/VDAC8_1.c **** * Summary:
 281:.\Generated_Source\PSoC5/VDAC8_1.c **** *  Set the trim value for the given range.
 282:.\Generated_Source\PSoC5/VDAC8_1.c **** *
 283:.\Generated_Source\PSoC5/VDAC8_1.c **** * Parameters:
 284:.\Generated_Source\PSoC5/VDAC8_1.c **** *  range:  1V or 4V range.  See constants.
 285:.\Generated_Source\PSoC5/VDAC8_1.c **** *
 286:.\Generated_Source\PSoC5/VDAC8_1.c **** * Return:
 287:.\Generated_Source\PSoC5/VDAC8_1.c **** *  void
 288:.\Generated_Source\PSoC5/VDAC8_1.c **** *
 289:.\Generated_Source\PSoC5/VDAC8_1.c **** * Theory: 
 290:.\Generated_Source\PSoC5/VDAC8_1.c **** *
 291:.\Generated_Source\PSoC5/VDAC8_1.c **** * Side Effects:
 292:.\Generated_Source\PSoC5/VDAC8_1.c **** *
 293:.\Generated_Source\PSoC5/VDAC8_1.c **** *******************************************************************************/
 294:.\Generated_Source\PSoC5/VDAC8_1.c **** void VDAC8_1_DacTrim(void) 
 295:.\Generated_Source\PSoC5/VDAC8_1.c **** {
 429              		.loc 1 295 0
 430              		.cfi_startproc
 431              		@ args = 0, pretend = 0, frame = 8
 432              		@ frame_needed = 1, uses_anonymous_args = 0
 433              		@ link register save eliminated.
 434 0000 80B4     		push	{r7}
 435              	.LCFI17:
 436              		.cfi_def_cfa_offset 4
 437 0002 83B0     		sub	sp, sp, #12
 438              	.LCFI18:
 439              		.cfi_def_cfa_offset 16
 440 0004 00AF     		add	r7, sp, #0
 441              		.cfi_offset 7, -4
 442              	.LCFI19:
ARM GAS  C:\Users\SUZUKI~1\AppData\Local\Temp\ccinit5q.s 			page 14


 443              		.cfi_def_cfa_register 7
 296:.\Generated_Source\PSoC5/VDAC8_1.c ****     uint8 mode;
 297:.\Generated_Source\PSoC5/VDAC8_1.c **** 
 298:.\Generated_Source\PSoC5/VDAC8_1.c ****     mode = ((VDAC8_1_CR0 & VDAC8_1_RANGE_MASK) >> 2) + VDAC8_1_TRIM_M7_1V_RNG_OFFSET;
 444              		.loc 1 298 0
 445 0006 45F62003 		movw	r3, #:lower16:1073764384
 446 000a C4F20003 		movt	r3, #:upper16:1073764384
 447 000e 1B78     		ldrb	r3, [r3, #0]
 448 0010 DBB2     		uxtb	r3, r3
 449 0012 03F00C03 		and	r3, r3, #12
 450 0016 4FEA9303 		lsr	r3, r3, #2
 451 001a DBB2     		uxtb	r3, r3
 452 001c 03F10603 		add	r3, r3, #6
 453 0020 FB71     		strb	r3, [r7, #7]
 299:.\Generated_Source\PSoC5/VDAC8_1.c ****     VDAC8_1_TR = CY_GET_XTND_REG8((uint8 *)(VDAC8_1_DAC_TRIM_BASE + mode));
 454              		.loc 1 299 0
 455 0022 44F20863 		movw	r3, #:lower16:1073759752
 456 0026 C4F20003 		movt	r3, #:upper16:1073759752
 457 002a FA79     		ldrb	r2, [r7, #7]	@ zero_extendqisi2
 458 002c 02F19242 		add	r2, r2, #1224736768
 459 0030 02F58E72 		add	r2, r2, #284
 460 0034 1278     		ldrb	r2, [r2, #0]
 461 0036 D2B2     		uxtb	r2, r2
 462 0038 1A70     		strb	r2, [r3, #0]
 300:.\Generated_Source\PSoC5/VDAC8_1.c **** }
 463              		.loc 1 300 0
 464 003a 07F10C07 		add	r7, r7, #12
 465 003e BD46     		mov	sp, r7
 466 0040 80BC     		pop	{r7}
 467 0042 7047     		bx	lr
 468              		.cfi_endproc
 469              	.LFE7:
 470              		.size	VDAC8_1_DacTrim, .-VDAC8_1_DacTrim
 471              		.text
 472              	.Letext0:
 473              		.section	.debug_loc,"",%progbits
 474              	.Ldebug_loc0:
 475              	.LLST0:
 476 0000 00000000 		.4byte	.LFB0
 477 0004 02000000 		.4byte	.LCFI0
 478 0008 0100     		.2byte	0x1
 479 000a 5D       		.byte	0x5d
 480 000b 02000000 		.4byte	.LCFI0
 481 000f 04000000 		.4byte	.LCFI1
 482 0013 0200     		.2byte	0x2
 483 0015 7D       		.byte	0x7d
 484 0016 08       		.sleb128 8
 485 0017 04000000 		.4byte	.LCFI1
 486 001b 32000000 		.4byte	.LFE0
 487 001f 0200     		.2byte	0x2
 488 0021 77       		.byte	0x77
 489 0022 08       		.sleb128 8
 490 0023 00000000 		.4byte	0x0
 491 0027 00000000 		.4byte	0x0
 492              	.LLST1:
 493 002b 00000000 		.4byte	.LFB1
 494 002f 02000000 		.4byte	.LCFI2
ARM GAS  C:\Users\SUZUKI~1\AppData\Local\Temp\ccinit5q.s 			page 15


 495 0033 0100     		.2byte	0x1
 496 0035 5D       		.byte	0x5d
 497 0036 02000000 		.4byte	.LCFI2
 498 003a 04000000 		.4byte	.LCFI3
 499 003e 0200     		.2byte	0x2
 500 0040 7D       		.byte	0x7d
 501 0041 04       		.sleb128 4
 502 0042 04000000 		.4byte	.LCFI3
 503 0046 72000000 		.4byte	.LFE1
 504 004a 0200     		.2byte	0x2
 505 004c 77       		.byte	0x77
 506 004d 04       		.sleb128 4
 507 004e 00000000 		.4byte	0x0
 508 0052 00000000 		.4byte	0x0
 509              	.LLST2:
 510 0056 00000000 		.4byte	.LFB2
 511 005a 02000000 		.4byte	.LCFI4
 512 005e 0100     		.2byte	0x1
 513 0060 5D       		.byte	0x5d
 514 0061 02000000 		.4byte	.LCFI4
 515 0065 04000000 		.4byte	.LCFI5
 516 0069 0200     		.2byte	0x2
 517 006b 7D       		.byte	0x7d
 518 006c 08       		.sleb128 8
 519 006d 04000000 		.4byte	.LCFI5
 520 0071 32000000 		.4byte	.LFE2
 521 0075 0200     		.2byte	0x2
 522 0077 77       		.byte	0x77
 523 0078 08       		.sleb128 8
 524 0079 00000000 		.4byte	0x0
 525 007d 00000000 		.4byte	0x0
 526              	.LLST3:
 527 0081 00000000 		.4byte	.LFB3
 528 0085 02000000 		.4byte	.LCFI6
 529 0089 0100     		.2byte	0x1
 530 008b 5D       		.byte	0x5d
 531 008c 02000000 		.4byte	.LCFI6
 532 0090 04000000 		.4byte	.LCFI7
 533 0094 0200     		.2byte	0x2
 534 0096 7D       		.byte	0x7d
 535 0097 04       		.sleb128 4
 536 0098 04000000 		.4byte	.LCFI7
 537 009c 70000000 		.4byte	.LFE3
 538 00a0 0200     		.2byte	0x2
 539 00a2 77       		.byte	0x77
 540 00a3 04       		.sleb128 4
 541 00a4 00000000 		.4byte	0x0
 542 00a8 00000000 		.4byte	0x0
 543              	.LLST4:
 544 00ac 00000000 		.4byte	.LFB4
 545 00b0 02000000 		.4byte	.LCFI8
 546 00b4 0100     		.2byte	0x1
 547 00b6 5D       		.byte	0x5d
 548 00b7 02000000 		.4byte	.LCFI8
 549 00bb 04000000 		.4byte	.LCFI9
 550 00bf 0200     		.2byte	0x2
 551 00c1 7D       		.byte	0x7d
ARM GAS  C:\Users\SUZUKI~1\AppData\Local\Temp\ccinit5q.s 			page 16


 552 00c2 04       		.sleb128 4
 553 00c3 04000000 		.4byte	.LCFI9
 554 00c7 06000000 		.4byte	.LCFI10
 555 00cb 0200     		.2byte	0x2
 556 00cd 7D       		.byte	0x7d
 557 00ce 10       		.sleb128 16
 558 00cf 06000000 		.4byte	.LCFI10
 559 00d3 50000000 		.4byte	.LFE4
 560 00d7 0200     		.2byte	0x2
 561 00d9 77       		.byte	0x77
 562 00da 10       		.sleb128 16
 563 00db 00000000 		.4byte	0x0
 564 00df 00000000 		.4byte	0x0
 565              	.LLST5:
 566 00e3 00000000 		.4byte	.LFB5
 567 00e7 02000000 		.4byte	.LCFI11
 568 00eb 0100     		.2byte	0x1
 569 00ed 5D       		.byte	0x5d
 570 00ee 02000000 		.4byte	.LCFI11
 571 00f2 04000000 		.4byte	.LCFI12
 572 00f6 0200     		.2byte	0x2
 573 00f8 7D       		.byte	0x7d
 574 00f9 08       		.sleb128 8
 575 00fa 04000000 		.4byte	.LCFI12
 576 00fe 06000000 		.4byte	.LCFI13
 577 0102 0200     		.2byte	0x2
 578 0104 7D       		.byte	0x7d
 579 0105 10       		.sleb128 16
 580 0106 06000000 		.4byte	.LCFI13
 581 010a 52000000 		.4byte	.LFE5
 582 010e 0200     		.2byte	0x2
 583 0110 77       		.byte	0x77
 584 0111 10       		.sleb128 16
 585 0112 00000000 		.4byte	0x0
 586 0116 00000000 		.4byte	0x0
 587              	.LLST6:
 588 011a 00000000 		.4byte	.LFB6
 589 011e 02000000 		.4byte	.LCFI14
 590 0122 0100     		.2byte	0x1
 591 0124 5D       		.byte	0x5d
 592 0125 02000000 		.4byte	.LCFI14
 593 0129 04000000 		.4byte	.LCFI15
 594 012d 0200     		.2byte	0x2
 595 012f 7D       		.byte	0x7d
 596 0130 08       		.sleb128 8
 597 0131 04000000 		.4byte	.LCFI15
 598 0135 06000000 		.4byte	.LCFI16
 599 0139 0200     		.2byte	0x2
 600 013b 7D       		.byte	0x7d
 601 013c 10       		.sleb128 16
 602 013d 06000000 		.4byte	.LCFI16
 603 0141 4C000000 		.4byte	.LFE6
 604 0145 0200     		.2byte	0x2
 605 0147 77       		.byte	0x77
 606 0148 10       		.sleb128 16
 607 0149 00000000 		.4byte	0x0
 608 014d 00000000 		.4byte	0x0
ARM GAS  C:\Users\SUZUKI~1\AppData\Local\Temp\ccinit5q.s 			page 17


 609              	.LLST7:
 610 0151 00000000 		.4byte	.LFB7
 611 0155 02000000 		.4byte	.LCFI17
 612 0159 0100     		.2byte	0x1
 613 015b 5D       		.byte	0x5d
 614 015c 02000000 		.4byte	.LCFI17
 615 0160 04000000 		.4byte	.LCFI18
 616 0164 0200     		.2byte	0x2
 617 0166 7D       		.byte	0x7d
 618 0167 04       		.sleb128 4
 619 0168 04000000 		.4byte	.LCFI18
 620 016c 06000000 		.4byte	.LCFI19
 621 0170 0200     		.2byte	0x2
 622 0172 7D       		.byte	0x7d
 623 0173 10       		.sleb128 16
 624 0174 06000000 		.4byte	.LCFI19
 625 0178 44000000 		.4byte	.LFE7
 626 017c 0200     		.2byte	0x2
 627 017e 77       		.byte	0x77
 628 017f 10       		.sleb128 16
 629 0180 00000000 		.4byte	0x0
 630 0184 00000000 		.4byte	0x0
 631              		.file 2 ".\\Generated_Source\\PSoC5\\/VDAC8_1.h"
 632              		.file 3 ".\\Generated_Source\\PSoC5\\/cytypes.h"
 633              		.section	.debug_info
 634 0000 F4010000 		.4byte	0x1f4
 635 0004 0200     		.2byte	0x2
 636 0006 00000000 		.4byte	.Ldebug_abbrev0
 637 000a 04       		.byte	0x4
 638 000b 01       		.uleb128 0x1
 639 000c 2E010000 		.4byte	.LASF30
 640 0010 01       		.byte	0x1
 641 0011 CF000000 		.4byte	.LASF31
 642 0015 5C010000 		.4byte	.LASF32
 643 0019 00000000 		.4byte	0x0
 644 001d 00000000 		.4byte	0x0
 645 0021 00000000 		.4byte	.Ldebug_ranges0+0x0
 646 0025 00000000 		.4byte	.Ldebug_line0
 647 0029 02       		.uleb128 0x2
 648 002a 01       		.byte	0x1
 649 002b 06       		.byte	0x6
 650 002c D5010000 		.4byte	.LASF0
 651 0030 02       		.uleb128 0x2
 652 0031 01       		.byte	0x1
 653 0032 08       		.byte	0x8
 654 0033 86000000 		.4byte	.LASF1
 655 0037 02       		.uleb128 0x2
 656 0038 02       		.byte	0x2
 657 0039 05       		.byte	0x5
 658 003a 8E010000 		.4byte	.LASF2
 659 003e 02       		.uleb128 0x2
 660 003f 02       		.byte	0x2
 661 0040 07       		.byte	0x7
 662 0041 4A000000 		.4byte	.LASF3
 663 0045 02       		.uleb128 0x2
 664 0046 04       		.byte	0x4
 665 0047 05       		.byte	0x5
ARM GAS  C:\Users\SUZUKI~1\AppData\Local\Temp\ccinit5q.s 			page 18


 666 0048 C0010000 		.4byte	.LASF4
 667 004c 02       		.uleb128 0x2
 668 004d 04       		.byte	0x4
 669 004e 07       		.byte	0x7
 670 004f A3000000 		.4byte	.LASF5
 671 0053 02       		.uleb128 0x2
 672 0054 08       		.byte	0x8
 673 0055 05       		.byte	0x5
 674 0056 00000000 		.4byte	.LASF6
 675 005a 02       		.uleb128 0x2
 676 005b 08       		.byte	0x8
 677 005c 07       		.byte	0x7
 678 005d F2000000 		.4byte	.LASF7
 679 0061 03       		.uleb128 0x3
 680 0062 04       		.byte	0x4
 681 0063 05       		.byte	0x5
 682 0064 696E7400 		.ascii	"int\000"
 683 0068 02       		.uleb128 0x2
 684 0069 04       		.byte	0x4
 685 006a 07       		.byte	0x7
 686 006b 5D000000 		.4byte	.LASF8
 687 006f 02       		.uleb128 0x2
 688 0070 01       		.byte	0x1
 689 0071 08       		.byte	0x8
 690 0072 47010000 		.4byte	.LASF9
 691 0076 04       		.uleb128 0x4
 692 0077 B5000000 		.4byte	.LASF12
 693 007b 03       		.byte	0x3
 694 007c 60       		.byte	0x60
 695 007d 30000000 		.4byte	0x30
 696 0081 05       		.uleb128 0x5
 697 0082 98010000 		.4byte	.LASF13
 698 0086 02       		.byte	0x2
 699 0087 02       		.byte	0x2
 700 0088 26       		.byte	0x26
 701 0089 AA000000 		.4byte	0xaa
 702 008d 06       		.uleb128 0x6
 703 008e C9010000 		.4byte	.LASF10
 704 0092 02       		.byte	0x2
 705 0093 27       		.byte	0x27
 706 0094 76000000 		.4byte	0x76
 707 0098 02       		.byte	0x2
 708 0099 23       		.byte	0x23
 709 009a 00       		.uleb128 0x0
 710 009b 06       		.uleb128 0x6
 711 009c 7B000000 		.4byte	.LASF11
 712 00a0 02       		.byte	0x2
 713 00a1 28       		.byte	0x28
 714 00a2 76000000 		.4byte	0x76
 715 00a6 02       		.byte	0x2
 716 00a7 23       		.byte	0x23
 717 00a8 01       		.uleb128 0x1
 718 00a9 00       		.byte	0x0
 719 00aa 04       		.uleb128 0x4
 720 00ab 98010000 		.4byte	.LASF13
 721 00af 02       		.byte	0x2
 722 00b0 29       		.byte	0x29
ARM GAS  C:\Users\SUZUKI~1\AppData\Local\Temp\ccinit5q.s 			page 19


 723 00b1 81000000 		.4byte	0x81
 724 00b5 07       		.uleb128 0x7
 725 00b6 04       		.byte	0x4
 726 00b7 07       		.byte	0x7
 727 00b8 08       		.uleb128 0x8
 728 00b9 01       		.byte	0x1
 729 00ba 3A010000 		.4byte	.LASF14
 730 00be 01       		.byte	0x1
 731 00bf 38       		.byte	0x38
 732 00c0 01       		.byte	0x1
 733 00c1 00000000 		.4byte	.LFB0
 734 00c5 32000000 		.4byte	.LFE0
 735 00c9 00000000 		.4byte	.LLST0
 736 00cd 08       		.uleb128 0x8
 737 00ce 01       		.byte	0x1
 738 00cf 94000000 		.4byte	.LASF15
 739 00d3 01       		.byte	0x1
 740 00d4 65       		.byte	0x65
 741 00d5 01       		.byte	0x1
 742 00d6 00000000 		.4byte	.LFB1
 743 00da 72000000 		.4byte	.LFE1
 744 00de 2B000000 		.4byte	.LLST1
 745 00e2 08       		.uleb128 0x8
 746 00e3 01       		.byte	0x1
 747 00e4 C1000000 		.4byte	.LASF16
 748 00e8 01       		.byte	0x1
 749 00e9 8A       		.byte	0x8a
 750 00ea 01       		.byte	0x1
 751 00eb 00000000 		.4byte	.LFB2
 752 00ef 32000000 		.4byte	.LFE2
 753 00f3 56000000 		.4byte	.LLST2
 754 00f7 08       		.uleb128 0x8
 755 00f8 01       		.byte	0x1
 756 00f9 37000000 		.4byte	.LASF17
 757 00fd 01       		.byte	0x1
 758 00fe AD       		.byte	0xad
 759 00ff 01       		.byte	0x1
 760 0100 00000000 		.4byte	.LFB3
 761 0104 70000000 		.4byte	.LFE3
 762 0108 81000000 		.4byte	.LLST3
 763 010c 09       		.uleb128 0x9
 764 010d 01       		.byte	0x1
 765 010e 6A000000 		.4byte	.LASF18
 766 0112 01       		.byte	0x1
 767 0113 CF       		.byte	0xcf
 768 0114 01       		.byte	0x1
 769 0115 00000000 		.4byte	.LFB4
 770 0119 50000000 		.4byte	.LFE4
 771 011d AC000000 		.4byte	.LLST4
 772 0121 34010000 		.4byte	0x134
 773 0125 0A       		.uleb128 0xa
 774 0126 31000000 		.4byte	.LASF20
 775 012a 01       		.byte	0x1
 776 012b CF       		.byte	0xcf
 777 012c 76000000 		.4byte	0x76
 778 0130 02       		.byte	0x2
 779 0131 91       		.byte	0x91
ARM GAS  C:\Users\SUZUKI~1\AppData\Local\Temp\ccinit5q.s 			page 20


 780 0132 77       		.sleb128 -9
 781 0133 00       		.byte	0x0
 782 0134 09       		.uleb128 0x9
 783 0135 01       		.byte	0x1
 784 0136 E1010000 		.4byte	.LASF19
 785 013a 01       		.byte	0x1
 786 013b E9       		.byte	0xe9
 787 013c 01       		.byte	0x1
 788 013d 00000000 		.4byte	.LFB5
 789 0141 52000000 		.4byte	.LFE5
 790 0145 E3000000 		.4byte	.LLST5
 791 0149 5C010000 		.4byte	0x15c
 792 014d 0A       		.uleb128 0xa
 793 014e BB000000 		.4byte	.LASF21
 794 0152 01       		.byte	0x1
 795 0153 E9       		.byte	0xe9
 796 0154 76000000 		.4byte	0x76
 797 0158 02       		.byte	0x2
 798 0159 91       		.byte	0x91
 799 015a 77       		.sleb128 -9
 800 015b 00       		.byte	0x0
 801 015c 0B       		.uleb128 0xb
 802 015d 01       		.byte	0x1
 803 015e 09010000 		.4byte	.LASF22
 804 0162 01       		.byte	0x1
 805 0163 0301     		.2byte	0x103
 806 0165 01       		.byte	0x1
 807 0166 00000000 		.4byte	.LFB6
 808 016a 4C000000 		.4byte	.LFE6
 809 016e 1A010000 		.4byte	.LLST6
 810 0172 86010000 		.4byte	0x186
 811 0176 0C       		.uleb128 0xc
 812 0177 44000000 		.4byte	.LASF23
 813 017b 01       		.byte	0x1
 814 017c 0301     		.2byte	0x103
 815 017e 76000000 		.4byte	0x76
 816 0182 02       		.byte	0x2
 817 0183 91       		.byte	0x91
 818 0184 77       		.sleb128 -9
 819 0185 00       		.byte	0x0
 820 0186 0B       		.uleb128 0xb
 821 0187 01       		.byte	0x1
 822 0188 0E000000 		.4byte	.LASF24
 823 018c 01       		.byte	0x1
 824 018d 2601     		.2byte	0x126
 825 018f 01       		.byte	0x1
 826 0190 00000000 		.4byte	.LFB7
 827 0194 44000000 		.4byte	.LFE7
 828 0198 51010000 		.4byte	.LLST7
 829 019c B0010000 		.4byte	0x1b0
 830 01a0 0D       		.uleb128 0xd
 831 01a1 1A010000 		.4byte	.LASF25
 832 01a5 01       		.byte	0x1
 833 01a6 2801     		.2byte	0x128
 834 01a8 76000000 		.4byte	0x76
 835 01ac 02       		.byte	0x2
 836 01ad 91       		.byte	0x91
ARM GAS  C:\Users\SUZUKI~1\AppData\Local\Temp\ccinit5q.s 			page 21


 837 01ae 77       		.sleb128 -9
 838 01af 00       		.byte	0x0
 839 01b0 0E       		.uleb128 0xe
 840 01b1 1F010000 		.4byte	.LASF26
 841 01b5 01       		.byte	0x1
 842 01b6 23       		.byte	0x23
 843 01b7 AA000000 		.4byte	0xaa
 844 01bb 05       		.byte	0x5
 845 01bc 03       		.byte	0x3
 846 01bd 04000000 		.4byte	VDAC8_1_backup
 847 01c1 0F       		.uleb128 0xf
 848 01c2 4C010000 		.4byte	.LASF27
 849 01c6 01       		.byte	0x1
 850 01c7 1B       		.byte	0x1b
 851 01c8 76000000 		.4byte	0x76
 852 01cc 01       		.byte	0x1
 853 01cd 05       		.byte	0x5
 854 01ce 03       		.byte	0x3
 855 01cf 00000000 		.4byte	VDAC8_1_initVar
 856 01d3 0F       		.uleb128 0xf
 857 01d4 AD010000 		.4byte	.LASF28
 858 01d8 01       		.byte	0x1
 859 01d9 1E       		.byte	0x1e
 860 01da 76000000 		.4byte	0x76
 861 01de 01       		.byte	0x1
 862 01df 05       		.byte	0x5
 863 01e0 03       		.byte	0x3
 864 01e1 00000000 		.4byte	VDAC8_1_restoreVal
 865 01e5 0F       		.uleb128 0xf
 866 01e6 1E000000 		.4byte	.LASF29
 867 01ea 01       		.byte	0x1
 868 01eb 1F       		.byte	0x1f
 869 01ec 76000000 		.4byte	0x76
 870 01f0 01       		.byte	0x1
 871 01f1 05       		.byte	0x5
 872 01f2 03       		.byte	0x3
 873 01f3 00000000 		.4byte	VDAC8_1_intrStatus
 874 01f7 00       		.byte	0x0
 875              		.section	.debug_abbrev
 876 0000 01       		.uleb128 0x1
 877 0001 11       		.uleb128 0x11
 878 0002 01       		.byte	0x1
 879 0003 25       		.uleb128 0x25
 880 0004 0E       		.uleb128 0xe
 881 0005 13       		.uleb128 0x13
 882 0006 0B       		.uleb128 0xb
 883 0007 03       		.uleb128 0x3
 884 0008 0E       		.uleb128 0xe
 885 0009 1B       		.uleb128 0x1b
 886 000a 0E       		.uleb128 0xe
 887 000b 11       		.uleb128 0x11
 888 000c 01       		.uleb128 0x1
 889 000d 52       		.uleb128 0x52
 890 000e 01       		.uleb128 0x1
 891 000f 55       		.uleb128 0x55
 892 0010 06       		.uleb128 0x6
 893 0011 10       		.uleb128 0x10
ARM GAS  C:\Users\SUZUKI~1\AppData\Local\Temp\ccinit5q.s 			page 22


 894 0012 06       		.uleb128 0x6
 895 0013 00       		.byte	0x0
 896 0014 00       		.byte	0x0
 897 0015 02       		.uleb128 0x2
 898 0016 24       		.uleb128 0x24
 899 0017 00       		.byte	0x0
 900 0018 0B       		.uleb128 0xb
 901 0019 0B       		.uleb128 0xb
 902 001a 3E       		.uleb128 0x3e
 903 001b 0B       		.uleb128 0xb
 904 001c 03       		.uleb128 0x3
 905 001d 0E       		.uleb128 0xe
 906 001e 00       		.byte	0x0
 907 001f 00       		.byte	0x0
 908 0020 03       		.uleb128 0x3
 909 0021 24       		.uleb128 0x24
 910 0022 00       		.byte	0x0
 911 0023 0B       		.uleb128 0xb
 912 0024 0B       		.uleb128 0xb
 913 0025 3E       		.uleb128 0x3e
 914 0026 0B       		.uleb128 0xb
 915 0027 03       		.uleb128 0x3
 916 0028 08       		.uleb128 0x8
 917 0029 00       		.byte	0x0
 918 002a 00       		.byte	0x0
 919 002b 04       		.uleb128 0x4
 920 002c 16       		.uleb128 0x16
 921 002d 00       		.byte	0x0
 922 002e 03       		.uleb128 0x3
 923 002f 0E       		.uleb128 0xe
 924 0030 3A       		.uleb128 0x3a
 925 0031 0B       		.uleb128 0xb
 926 0032 3B       		.uleb128 0x3b
 927 0033 0B       		.uleb128 0xb
 928 0034 49       		.uleb128 0x49
 929 0035 13       		.uleb128 0x13
 930 0036 00       		.byte	0x0
 931 0037 00       		.byte	0x0
 932 0038 05       		.uleb128 0x5
 933 0039 13       		.uleb128 0x13
 934 003a 01       		.byte	0x1
 935 003b 03       		.uleb128 0x3
 936 003c 0E       		.uleb128 0xe
 937 003d 0B       		.uleb128 0xb
 938 003e 0B       		.uleb128 0xb
 939 003f 3A       		.uleb128 0x3a
 940 0040 0B       		.uleb128 0xb
 941 0041 3B       		.uleb128 0x3b
 942 0042 0B       		.uleb128 0xb
 943 0043 01       		.uleb128 0x1
 944 0044 13       		.uleb128 0x13
 945 0045 00       		.byte	0x0
 946 0046 00       		.byte	0x0
 947 0047 06       		.uleb128 0x6
 948 0048 0D       		.uleb128 0xd
 949 0049 00       		.byte	0x0
 950 004a 03       		.uleb128 0x3
ARM GAS  C:\Users\SUZUKI~1\AppData\Local\Temp\ccinit5q.s 			page 23


 951 004b 0E       		.uleb128 0xe
 952 004c 3A       		.uleb128 0x3a
 953 004d 0B       		.uleb128 0xb
 954 004e 3B       		.uleb128 0x3b
 955 004f 0B       		.uleb128 0xb
 956 0050 49       		.uleb128 0x49
 957 0051 13       		.uleb128 0x13
 958 0052 38       		.uleb128 0x38
 959 0053 0A       		.uleb128 0xa
 960 0054 00       		.byte	0x0
 961 0055 00       		.byte	0x0
 962 0056 07       		.uleb128 0x7
 963 0057 24       		.uleb128 0x24
 964 0058 00       		.byte	0x0
 965 0059 0B       		.uleb128 0xb
 966 005a 0B       		.uleb128 0xb
 967 005b 3E       		.uleb128 0x3e
 968 005c 0B       		.uleb128 0xb
 969 005d 00       		.byte	0x0
 970 005e 00       		.byte	0x0
 971 005f 08       		.uleb128 0x8
 972 0060 2E       		.uleb128 0x2e
 973 0061 00       		.byte	0x0
 974 0062 3F       		.uleb128 0x3f
 975 0063 0C       		.uleb128 0xc
 976 0064 03       		.uleb128 0x3
 977 0065 0E       		.uleb128 0xe
 978 0066 3A       		.uleb128 0x3a
 979 0067 0B       		.uleb128 0xb
 980 0068 3B       		.uleb128 0x3b
 981 0069 0B       		.uleb128 0xb
 982 006a 27       		.uleb128 0x27
 983 006b 0C       		.uleb128 0xc
 984 006c 11       		.uleb128 0x11
 985 006d 01       		.uleb128 0x1
 986 006e 12       		.uleb128 0x12
 987 006f 01       		.uleb128 0x1
 988 0070 40       		.uleb128 0x40
 989 0071 06       		.uleb128 0x6
 990 0072 00       		.byte	0x0
 991 0073 00       		.byte	0x0
 992 0074 09       		.uleb128 0x9
 993 0075 2E       		.uleb128 0x2e
 994 0076 01       		.byte	0x1
 995 0077 3F       		.uleb128 0x3f
 996 0078 0C       		.uleb128 0xc
 997 0079 03       		.uleb128 0x3
 998 007a 0E       		.uleb128 0xe
 999 007b 3A       		.uleb128 0x3a
 1000 007c 0B       		.uleb128 0xb
 1001 007d 3B       		.uleb128 0x3b
 1002 007e 0B       		.uleb128 0xb
 1003 007f 27       		.uleb128 0x27
 1004 0080 0C       		.uleb128 0xc
 1005 0081 11       		.uleb128 0x11
 1006 0082 01       		.uleb128 0x1
 1007 0083 12       		.uleb128 0x12
ARM GAS  C:\Users\SUZUKI~1\AppData\Local\Temp\ccinit5q.s 			page 24


 1008 0084 01       		.uleb128 0x1
 1009 0085 40       		.uleb128 0x40
 1010 0086 06       		.uleb128 0x6
 1011 0087 01       		.uleb128 0x1
 1012 0088 13       		.uleb128 0x13
 1013 0089 00       		.byte	0x0
 1014 008a 00       		.byte	0x0
 1015 008b 0A       		.uleb128 0xa
 1016 008c 05       		.uleb128 0x5
 1017 008d 00       		.byte	0x0
 1018 008e 03       		.uleb128 0x3
 1019 008f 0E       		.uleb128 0xe
 1020 0090 3A       		.uleb128 0x3a
 1021 0091 0B       		.uleb128 0xb
 1022 0092 3B       		.uleb128 0x3b
 1023 0093 0B       		.uleb128 0xb
 1024 0094 49       		.uleb128 0x49
 1025 0095 13       		.uleb128 0x13
 1026 0096 02       		.uleb128 0x2
 1027 0097 0A       		.uleb128 0xa
 1028 0098 00       		.byte	0x0
 1029 0099 00       		.byte	0x0
 1030 009a 0B       		.uleb128 0xb
 1031 009b 2E       		.uleb128 0x2e
 1032 009c 01       		.byte	0x1
 1033 009d 3F       		.uleb128 0x3f
 1034 009e 0C       		.uleb128 0xc
 1035 009f 03       		.uleb128 0x3
 1036 00a0 0E       		.uleb128 0xe
 1037 00a1 3A       		.uleb128 0x3a
 1038 00a2 0B       		.uleb128 0xb
 1039 00a3 3B       		.uleb128 0x3b
 1040 00a4 05       		.uleb128 0x5
 1041 00a5 27       		.uleb128 0x27
 1042 00a6 0C       		.uleb128 0xc
 1043 00a7 11       		.uleb128 0x11
 1044 00a8 01       		.uleb128 0x1
 1045 00a9 12       		.uleb128 0x12
 1046 00aa 01       		.uleb128 0x1
 1047 00ab 40       		.uleb128 0x40
 1048 00ac 06       		.uleb128 0x6
 1049 00ad 01       		.uleb128 0x1
 1050 00ae 13       		.uleb128 0x13
 1051 00af 00       		.byte	0x0
 1052 00b0 00       		.byte	0x0
 1053 00b1 0C       		.uleb128 0xc
 1054 00b2 05       		.uleb128 0x5
 1055 00b3 00       		.byte	0x0
 1056 00b4 03       		.uleb128 0x3
 1057 00b5 0E       		.uleb128 0xe
 1058 00b6 3A       		.uleb128 0x3a
 1059 00b7 0B       		.uleb128 0xb
 1060 00b8 3B       		.uleb128 0x3b
 1061 00b9 05       		.uleb128 0x5
 1062 00ba 49       		.uleb128 0x49
 1063 00bb 13       		.uleb128 0x13
 1064 00bc 02       		.uleb128 0x2
ARM GAS  C:\Users\SUZUKI~1\AppData\Local\Temp\ccinit5q.s 			page 25


 1065 00bd 0A       		.uleb128 0xa
 1066 00be 00       		.byte	0x0
 1067 00bf 00       		.byte	0x0
 1068 00c0 0D       		.uleb128 0xd
 1069 00c1 34       		.uleb128 0x34
 1070 00c2 00       		.byte	0x0
 1071 00c3 03       		.uleb128 0x3
 1072 00c4 0E       		.uleb128 0xe
 1073 00c5 3A       		.uleb128 0x3a
 1074 00c6 0B       		.uleb128 0xb
 1075 00c7 3B       		.uleb128 0x3b
 1076 00c8 05       		.uleb128 0x5
 1077 00c9 49       		.uleb128 0x49
 1078 00ca 13       		.uleb128 0x13
 1079 00cb 02       		.uleb128 0x2
 1080 00cc 0A       		.uleb128 0xa
 1081 00cd 00       		.byte	0x0
 1082 00ce 00       		.byte	0x0
 1083 00cf 0E       		.uleb128 0xe
 1084 00d0 34       		.uleb128 0x34
 1085 00d1 00       		.byte	0x0
 1086 00d2 03       		.uleb128 0x3
 1087 00d3 0E       		.uleb128 0xe
 1088 00d4 3A       		.uleb128 0x3a
 1089 00d5 0B       		.uleb128 0xb
 1090 00d6 3B       		.uleb128 0x3b
 1091 00d7 0B       		.uleb128 0xb
 1092 00d8 49       		.uleb128 0x49
 1093 00d9 13       		.uleb128 0x13
 1094 00da 02       		.uleb128 0x2
 1095 00db 0A       		.uleb128 0xa
 1096 00dc 00       		.byte	0x0
 1097 00dd 00       		.byte	0x0
 1098 00de 0F       		.uleb128 0xf
 1099 00df 34       		.uleb128 0x34
 1100 00e0 00       		.byte	0x0
 1101 00e1 03       		.uleb128 0x3
 1102 00e2 0E       		.uleb128 0xe
 1103 00e3 3A       		.uleb128 0x3a
 1104 00e4 0B       		.uleb128 0xb
 1105 00e5 3B       		.uleb128 0x3b
 1106 00e6 0B       		.uleb128 0xb
 1107 00e7 49       		.uleb128 0x49
 1108 00e8 13       		.uleb128 0x13
 1109 00e9 3F       		.uleb128 0x3f
 1110 00ea 0C       		.uleb128 0xc
 1111 00eb 02       		.uleb128 0x2
 1112 00ec 0A       		.uleb128 0xa
 1113 00ed 00       		.byte	0x0
 1114 00ee 00       		.byte	0x0
 1115 00ef 00       		.byte	0x0
 1116              		.section	.debug_pubnames,"",%progbits
 1117 0000 EA000000 		.4byte	0xea
 1118 0004 0200     		.2byte	0x2
 1119 0006 00000000 		.4byte	.Ldebug_info0
 1120 000a F8010000 		.4byte	0x1f8
 1121 000e B8000000 		.4byte	0xb8
ARM GAS  C:\Users\SUZUKI~1\AppData\Local\Temp\ccinit5q.s 			page 26


 1122 0012 56444143 		.ascii	"VDAC8_1_Init\000"
 1122      385F315F 
 1122      496E6974 
 1122      00
 1123 001f CD000000 		.4byte	0xcd
 1124 0023 56444143 		.ascii	"VDAC8_1_Enable\000"
 1124      385F315F 
 1124      456E6162 
 1124      6C6500
 1125 0032 E2000000 		.4byte	0xe2
 1126 0036 56444143 		.ascii	"VDAC8_1_Start\000"
 1126      385F315F 
 1126      53746172 
 1126      7400
 1127 0044 F7000000 		.4byte	0xf7
 1128 0048 56444143 		.ascii	"VDAC8_1_Stop\000"
 1128      385F315F 
 1128      53746F70 
 1128      00
 1129 0055 0C010000 		.4byte	0x10c
 1130 0059 56444143 		.ascii	"VDAC8_1_SetSpeed\000"
 1130      385F315F 
 1130      53657453 
 1130      70656564 
 1130      00
 1131 006a 34010000 		.4byte	0x134
 1132 006e 56444143 		.ascii	"VDAC8_1_SetRange\000"
 1132      385F315F 
 1132      53657452 
 1132      616E6765 
 1132      00
 1133 007f 5C010000 		.4byte	0x15c
 1134 0083 56444143 		.ascii	"VDAC8_1_SetValue\000"
 1134      385F315F 
 1134      53657456 
 1134      616C7565 
 1134      00
 1135 0094 86010000 		.4byte	0x186
 1136 0098 56444143 		.ascii	"VDAC8_1_DacTrim\000"
 1136      385F315F 
 1136      44616354 
 1136      72696D00 
 1137 00a8 C1010000 		.4byte	0x1c1
 1138 00ac 56444143 		.ascii	"VDAC8_1_initVar\000"
 1138      385F315F 
 1138      696E6974 
 1138      56617200 
 1139 00bc D3010000 		.4byte	0x1d3
 1140 00c0 56444143 		.ascii	"VDAC8_1_restoreVal\000"
 1140      385F315F 
 1140      72657374 
 1140      6F726556 
 1140      616C00
 1141 00d3 E5010000 		.4byte	0x1e5
 1142 00d7 56444143 		.ascii	"VDAC8_1_intrStatus\000"
 1142      385F315F 
 1142      696E7472 
ARM GAS  C:\Users\SUZUKI~1\AppData\Local\Temp\ccinit5q.s 			page 27


 1142      53746174 
 1142      757300
 1143 00ea 00000000 		.4byte	0x0
 1144              		.section	.debug_aranges,"",%progbits
 1145 0000 54000000 		.4byte	0x54
 1146 0004 0200     		.2byte	0x2
 1147 0006 00000000 		.4byte	.Ldebug_info0
 1148 000a 04       		.byte	0x4
 1149 000b 00       		.byte	0x0
 1150 000c 0000     		.2byte	0x0
 1151 000e 0000     		.2byte	0x0
 1152 0010 00000000 		.4byte	.LFB0
 1153 0014 32000000 		.4byte	.LFE0-.LFB0
 1154 0018 00000000 		.4byte	.LFB1
 1155 001c 72000000 		.4byte	.LFE1-.LFB1
 1156 0020 00000000 		.4byte	.LFB2
 1157 0024 32000000 		.4byte	.LFE2-.LFB2
 1158 0028 00000000 		.4byte	.LFB3
 1159 002c 70000000 		.4byte	.LFE3-.LFB3
 1160 0030 00000000 		.4byte	.LFB4
 1161 0034 50000000 		.4byte	.LFE4-.LFB4
 1162 0038 00000000 		.4byte	.LFB5
 1163 003c 52000000 		.4byte	.LFE5-.LFB5
 1164 0040 00000000 		.4byte	.LFB6
 1165 0044 4C000000 		.4byte	.LFE6-.LFB6
 1166 0048 00000000 		.4byte	.LFB7
 1167 004c 44000000 		.4byte	.LFE7-.LFB7
 1168 0050 00000000 		.4byte	0x0
 1169 0054 00000000 		.4byte	0x0
 1170              		.section	.debug_ranges,"",%progbits
 1171              	.Ldebug_ranges0:
 1172 0000 00000000 		.4byte	.Ltext0
 1173 0004 00000000 		.4byte	.Letext0
 1174 0008 00000000 		.4byte	.LFB0
 1175 000c 32000000 		.4byte	.LFE0
 1176 0010 00000000 		.4byte	.LFB1
 1177 0014 72000000 		.4byte	.LFE1
 1178 0018 00000000 		.4byte	.LFB2
 1179 001c 32000000 		.4byte	.LFE2
 1180 0020 00000000 		.4byte	.LFB3
 1181 0024 70000000 		.4byte	.LFE3
 1182 0028 00000000 		.4byte	.LFB4
 1183 002c 50000000 		.4byte	.LFE4
 1184 0030 00000000 		.4byte	.LFB5
 1185 0034 52000000 		.4byte	.LFE5
 1186 0038 00000000 		.4byte	.LFB6
 1187 003c 4C000000 		.4byte	.LFE6
 1188 0040 00000000 		.4byte	.LFB7
 1189 0044 44000000 		.4byte	.LFE7
 1190 0048 00000000 		.4byte	0x0
 1191 004c 00000000 		.4byte	0x0
 1192              		.section	.debug_str,"MS",%progbits,1
 1193              	.LASF6:
 1194 0000 6C6F6E67 		.ascii	"long long int\000"
 1194      206C6F6E 
 1194      6720696E 
 1194      7400
ARM GAS  C:\Users\SUZUKI~1\AppData\Local\Temp\ccinit5q.s 			page 28


 1195              	.LASF24:
 1196 000e 56444143 		.ascii	"VDAC8_1_DacTrim\000"
 1196      385F315F 
 1196      44616354 
 1196      72696D00 
 1197              	.LASF29:
 1198 001e 56444143 		.ascii	"VDAC8_1_intrStatus\000"
 1198      385F315F 
 1198      696E7472 
 1198      53746174 
 1198      757300
 1199              	.LASF20:
 1200 0031 73706565 		.ascii	"speed\000"
 1200      6400
 1201              	.LASF17:
 1202 0037 56444143 		.ascii	"VDAC8_1_Stop\000"
 1202      385F315F 
 1202      53746F70 
 1202      00
 1203              	.LASF23:
 1204 0044 76616C75 		.ascii	"value\000"
 1204      6500
 1205              	.LASF3:
 1206 004a 73686F72 		.ascii	"short unsigned int\000"
 1206      7420756E 
 1206      7369676E 
 1206      65642069 
 1206      6E7400
 1207              	.LASF8:
 1208 005d 756E7369 		.ascii	"unsigned int\000"
 1208      676E6564 
 1208      20696E74 
 1208      00
 1209              	.LASF18:
 1210 006a 56444143 		.ascii	"VDAC8_1_SetSpeed\000"
 1210      385F315F 
 1210      53657453 
 1210      70656564 
 1210      00
 1211              	.LASF11:
 1212 007b 64617461 		.ascii	"data_value\000"
 1212      5F76616C 
 1212      756500
 1213              	.LASF1:
 1214 0086 756E7369 		.ascii	"unsigned char\000"
 1214      676E6564 
 1214      20636861 
 1214      7200
 1215              	.LASF15:
 1216 0094 56444143 		.ascii	"VDAC8_1_Enable\000"
 1216      385F315F 
 1216      456E6162 
 1216      6C6500
 1217              	.LASF5:
 1218 00a3 6C6F6E67 		.ascii	"long unsigned int\000"
 1218      20756E73 
 1218      69676E65 
ARM GAS  C:\Users\SUZUKI~1\AppData\Local\Temp\ccinit5q.s 			page 29


 1218      6420696E 
 1218      7400
 1219              	.LASF12:
 1220 00b5 75696E74 		.ascii	"uint8\000"
 1220      3800
 1221              	.LASF21:
 1222 00bb 72616E67 		.ascii	"range\000"
 1222      6500
 1223              	.LASF16:
 1224 00c1 56444143 		.ascii	"VDAC8_1_Start\000"
 1224      385F315F 
 1224      53746172 
 1224      7400
 1225              	.LASF31:
 1226 00cf 2E5C4765 		.ascii	".\\Generated_Source\\PSoC5\\VDAC8_1.c\000"
 1226      6E657261 
 1226      7465645F 
 1226      536F7572 
 1226      63655C50 
 1227              	.LASF7:
 1228 00f2 6C6F6E67 		.ascii	"long long unsigned int\000"
 1228      206C6F6E 
 1228      6720756E 
 1228      7369676E 
 1228      65642069 
 1229              	.LASF22:
 1230 0109 56444143 		.ascii	"VDAC8_1_SetValue\000"
 1230      385F315F 
 1230      53657456 
 1230      616C7565 
 1230      00
 1231              	.LASF25:
 1232 011a 6D6F6465 		.ascii	"mode\000"
 1232      00
 1233              	.LASF26:
 1234 011f 56444143 		.ascii	"VDAC8_1_backup\000"
 1234      385F315F 
 1234      6261636B 
 1234      757000
 1235              	.LASF30:
 1236 012e 474E5520 		.ascii	"GNU C 4.4.1\000"
 1236      4320342E 
 1236      342E3100 
 1237              	.LASF14:
 1238 013a 56444143 		.ascii	"VDAC8_1_Init\000"
 1238      385F315F 
 1238      496E6974 
 1238      00
 1239              	.LASF9:
 1240 0147 63686172 		.ascii	"char\000"
 1240      00
 1241              	.LASF27:
 1242 014c 56444143 		.ascii	"VDAC8_1_initVar\000"
 1242      385F315F 
 1242      696E6974 
 1242      56617200 
 1243              	.LASF32:
ARM GAS  C:\Users\SUZUKI~1\AppData\Local\Temp\ccinit5q.s 			page 30


 1244 015c 463A5C44 		.ascii	"F:\\Documents\\PSoC_Creator\\ledmatrix\\ledtest.cyd"
 1244      6F63756D 
 1244      656E7473 
 1244      5C50536F 
 1244      435F4372 
 1245 018b 736E00   		.ascii	"sn\000"
 1246              	.LASF2:
 1247 018e 73686F72 		.ascii	"short int\000"
 1247      7420696E 
 1247      7400
 1248              	.LASF13:
 1249 0198 56444143 		.ascii	"VDAC8_1_backupStruct\000"
 1249      385F315F 
 1249      6261636B 
 1249      75705374 
 1249      72756374 
 1250              	.LASF28:
 1251 01ad 56444143 		.ascii	"VDAC8_1_restoreVal\000"
 1251      385F315F 
 1251      72657374 
 1251      6F726556 
 1251      616C00
 1252              	.LASF4:
 1253 01c0 6C6F6E67 		.ascii	"long int\000"
 1253      20696E74 
 1253      00
 1254              	.LASF10:
 1255 01c9 656E6162 		.ascii	"enableState\000"
 1255      6C655374 
 1255      61746500 
 1256              	.LASF0:
 1257 01d5 7369676E 		.ascii	"signed char\000"
 1257      65642063 
 1257      68617200 
 1258              	.LASF19:
 1259 01e1 56444143 		.ascii	"VDAC8_1_SetRange\000"
 1259      385F315F 
 1259      53657452 
 1259      616E6765 
 1259      00
 1260              		.ident	"GCC: (Sourcery G++ Lite 2010q1-188) 4.4.1"
