ARM GAS  C:\Users\SUZUKI~1\AppData\Local\Temp\ccM22Nsb.s 			page 1


   1              		.syntax unified
   2              		.cpu cortex-m3
   3              		.fpu softvfp
   4              		.eabi_attribute 20, 1
   5              		.eabi_attribute 21, 1
   6              		.eabi_attribute 23, 3
   7              		.eabi_attribute 24, 1
   8              		.eabi_attribute 25, 1
   9              		.eabi_attribute 26, 1
  10              		.eabi_attribute 30, 4
  11              		.eabi_attribute 18, 4
  12              		.thumb
  13              		.file	"Counter_ADC_PM.c"
  14              		.section	.debug_abbrev,"",%progbits
  15              	.Ldebug_abbrev0:
  16              		.section	.debug_info,"",%progbits
  17              	.Ldebug_info0:
  18              		.section	.debug_line,"",%progbits
  19              	.Ldebug_line0:
  20 0000 DF000000 		.text
  20      02007800 
  20      00000201 
  20      FB0E0D00 
  20      01010101 
  21              	.Ltext0:
  22              		.cfi_sections	.debug_frame
  23              		.section	.text.Counter_ADC_RestoreConfig,"ax",%progbits
  24              		.align	1
  25              		.global	Counter_ADC_RestoreConfig
  26              		.thumb
  27              		.thumb_func
  28              		.type	Counter_ADC_RestoreConfig, %function
  29              	Counter_ADC_RestoreConfig:
  30              	.LFB1:
  31              		.file 1 ".\\Generated_Source\\PSoC5\\Counter_ADC_PM.c"
   1:.\Generated_Source\PSoC5/Counter_ADC_PM.c **** /*******************************************************************************
   2:.\Generated_Source\PSoC5/Counter_ADC_PM.c **** * File Name: Counter_ADC_PM.c  
   3:.\Generated_Source\PSoC5/Counter_ADC_PM.c **** * Version 2.30
   4:.\Generated_Source\PSoC5/Counter_ADC_PM.c **** *
   5:.\Generated_Source\PSoC5/Counter_ADC_PM.c **** *  Description:
   6:.\Generated_Source\PSoC5/Counter_ADC_PM.c **** *    This file provides the power management source code to API for the
   7:.\Generated_Source\PSoC5/Counter_ADC_PM.c **** *    Counter.  
   8:.\Generated_Source\PSoC5/Counter_ADC_PM.c **** *
   9:.\Generated_Source\PSoC5/Counter_ADC_PM.c **** *   Note:
  10:.\Generated_Source\PSoC5/Counter_ADC_PM.c **** *     None
  11:.\Generated_Source\PSoC5/Counter_ADC_PM.c **** *
  12:.\Generated_Source\PSoC5/Counter_ADC_PM.c **** *******************************************************************************
  13:.\Generated_Source\PSoC5/Counter_ADC_PM.c **** * Copyright 2008-2012, Cypress Semiconductor Corporation.  All rights reserved.
  14:.\Generated_Source\PSoC5/Counter_ADC_PM.c **** * You may use this file only in accordance with the license, terms, conditions, 
  15:.\Generated_Source\PSoC5/Counter_ADC_PM.c **** * disclaimers, and limitations in the end user license agreement accompanying 
  16:.\Generated_Source\PSoC5/Counter_ADC_PM.c **** * the software package with which this file was provided.
  17:.\Generated_Source\PSoC5/Counter_ADC_PM.c **** ********************************************************************************/
  18:.\Generated_Source\PSoC5/Counter_ADC_PM.c **** 
  19:.\Generated_Source\PSoC5/Counter_ADC_PM.c **** #include "Counter_ADC.h"
  20:.\Generated_Source\PSoC5/Counter_ADC_PM.c **** 
  21:.\Generated_Source\PSoC5/Counter_ADC_PM.c **** static Counter_ADC_backupStruct Counter_ADC_backup;
  22:.\Generated_Source\PSoC5/Counter_ADC_PM.c **** 
ARM GAS  C:\Users\SUZUKI~1\AppData\Local\Temp\ccM22Nsb.s 			page 2


  23:.\Generated_Source\PSoC5/Counter_ADC_PM.c **** 
  24:.\Generated_Source\PSoC5/Counter_ADC_PM.c **** /*******************************************************************************
  25:.\Generated_Source\PSoC5/Counter_ADC_PM.c **** * Function Name: Counter_ADC_SaveConfig
  26:.\Generated_Source\PSoC5/Counter_ADC_PM.c **** ********************************************************************************
  27:.\Generated_Source\PSoC5/Counter_ADC_PM.c **** * Summary:
  28:.\Generated_Source\PSoC5/Counter_ADC_PM.c **** *     Save the current user configuration
  29:.\Generated_Source\PSoC5/Counter_ADC_PM.c **** *
  30:.\Generated_Source\PSoC5/Counter_ADC_PM.c **** * Parameters:  
  31:.\Generated_Source\PSoC5/Counter_ADC_PM.c **** *  void
  32:.\Generated_Source\PSoC5/Counter_ADC_PM.c **** *
  33:.\Generated_Source\PSoC5/Counter_ADC_PM.c **** * Return: 
  34:.\Generated_Source\PSoC5/Counter_ADC_PM.c **** *  void
  35:.\Generated_Source\PSoC5/Counter_ADC_PM.c **** *
  36:.\Generated_Source\PSoC5/Counter_ADC_PM.c **** * Global variables:
  37:.\Generated_Source\PSoC5/Counter_ADC_PM.c **** *  Counter_ADC_backup:  Variables of this global structure are modified to 
  38:.\Generated_Source\PSoC5/Counter_ADC_PM.c **** *  store the values of non retention configuration registers when Sleep() API is 
  39:.\Generated_Source\PSoC5/Counter_ADC_PM.c **** *  called.
  40:.\Generated_Source\PSoC5/Counter_ADC_PM.c **** *
  41:.\Generated_Source\PSoC5/Counter_ADC_PM.c **** *******************************************************************************/
  42:.\Generated_Source\PSoC5/Counter_ADC_PM.c **** void Counter_ADC_SaveConfig(void) 
  43:.\Generated_Source\PSoC5/Counter_ADC_PM.c **** {
  44:.\Generated_Source\PSoC5/Counter_ADC_PM.c ****     #if (!Counter_ADC_UsingFixedFunction)
  45:.\Generated_Source\PSoC5/Counter_ADC_PM.c ****         /* Backup the UDB non-rentention registers for PSoC5A */
  46:.\Generated_Source\PSoC5/Counter_ADC_PM.c ****         #if (CY_PSOC5A)
  47:.\Generated_Source\PSoC5/Counter_ADC_PM.c ****             Counter_ADC_backup.CounterUdb = Counter_ADC_ReadCounter();
  48:.\Generated_Source\PSoC5/Counter_ADC_PM.c ****             Counter_ADC_backup.CounterPeriod = Counter_ADC_ReadPeriod();
  49:.\Generated_Source\PSoC5/Counter_ADC_PM.c ****             Counter_ADC_backup.CompareValue = Counter_ADC_ReadCompare();
  50:.\Generated_Source\PSoC5/Counter_ADC_PM.c ****             Counter_ADC_backup.InterruptMaskValue = Counter_ADC_STATUS_MASK;
  51:.\Generated_Source\PSoC5/Counter_ADC_PM.c ****         #endif /* (CY_PSOC5A) */
  52:.\Generated_Source\PSoC5/Counter_ADC_PM.c ****         
  53:.\Generated_Source\PSoC5/Counter_ADC_PM.c ****         #if (CY_PSOC3 || CY_PSOC5LP)
  54:.\Generated_Source\PSoC5/Counter_ADC_PM.c ****             Counter_ADC_backup.CounterUdb = Counter_ADC_ReadCounter();
  55:.\Generated_Source\PSoC5/Counter_ADC_PM.c ****             Counter_ADC_backup.InterruptMaskValue = Counter_ADC_STATUS_MASK;
  56:.\Generated_Source\PSoC5/Counter_ADC_PM.c ****         #endif /* (CY_PSOC3 || CY_PSOC5LP) */
  57:.\Generated_Source\PSoC5/Counter_ADC_PM.c ****         
  58:.\Generated_Source\PSoC5/Counter_ADC_PM.c ****         #if(!Counter_ADC_ControlRegRemoved)
  59:.\Generated_Source\PSoC5/Counter_ADC_PM.c ****             Counter_ADC_backup.CounterControlRegister = Counter_ADC_ReadControlRegister();
  60:.\Generated_Source\PSoC5/Counter_ADC_PM.c ****         #endif /* (!Counter_ADC_ControlRegRemoved) */
  61:.\Generated_Source\PSoC5/Counter_ADC_PM.c ****     #endif /* (!Counter_ADC_UsingFixedFunction) */
  62:.\Generated_Source\PSoC5/Counter_ADC_PM.c **** }
  63:.\Generated_Source\PSoC5/Counter_ADC_PM.c **** 
  64:.\Generated_Source\PSoC5/Counter_ADC_PM.c **** 
  65:.\Generated_Source\PSoC5/Counter_ADC_PM.c **** /*******************************************************************************
  66:.\Generated_Source\PSoC5/Counter_ADC_PM.c **** * Function Name: Counter_ADC_RestoreConfig
  67:.\Generated_Source\PSoC5/Counter_ADC_PM.c **** ********************************************************************************
  68:.\Generated_Source\PSoC5/Counter_ADC_PM.c **** *
  69:.\Generated_Source\PSoC5/Counter_ADC_PM.c **** * Summary:
  70:.\Generated_Source\PSoC5/Counter_ADC_PM.c **** *  Restores the current user configuration.
  71:.\Generated_Source\PSoC5/Counter_ADC_PM.c **** *
  72:.\Generated_Source\PSoC5/Counter_ADC_PM.c **** * Parameters:  
  73:.\Generated_Source\PSoC5/Counter_ADC_PM.c **** *  void
  74:.\Generated_Source\PSoC5/Counter_ADC_PM.c **** *
  75:.\Generated_Source\PSoC5/Counter_ADC_PM.c **** * Return: 
  76:.\Generated_Source\PSoC5/Counter_ADC_PM.c **** *  void
  77:.\Generated_Source\PSoC5/Counter_ADC_PM.c **** *
  78:.\Generated_Source\PSoC5/Counter_ADC_PM.c **** * Global variables:
  79:.\Generated_Source\PSoC5/Counter_ADC_PM.c **** *  Counter_ADC_backup:  Variables of this global structure are used to 
ARM GAS  C:\Users\SUZUKI~1\AppData\Local\Temp\ccM22Nsb.s 			page 3


  80:.\Generated_Source\PSoC5/Counter_ADC_PM.c **** *  restore the values of non retention registers on wakeup from sleep mode.
  81:.\Generated_Source\PSoC5/Counter_ADC_PM.c **** *
  82:.\Generated_Source\PSoC5/Counter_ADC_PM.c **** *******************************************************************************/
  83:.\Generated_Source\PSoC5/Counter_ADC_PM.c **** void Counter_ADC_RestoreConfig(void) 
  84:.\Generated_Source\PSoC5/Counter_ADC_PM.c **** {      
  32              		.loc 1 84 0
  33              		.cfi_startproc
  34              		@ args = 0, pretend = 0, frame = 0
  35              		@ frame_needed = 0, uses_anonymous_args = 0
  36 0000 10B5     		push	{r4, lr}
  37              	.LCFI0:
  38              		.cfi_def_cfa_offset 8
  85:.\Generated_Source\PSoC5/Counter_ADC_PM.c ****     #if (!Counter_ADC_UsingFixedFunction)     
  86:.\Generated_Source\PSoC5/Counter_ADC_PM.c ****         /* Restore the UDB non-rentention registers for PSoC5A */
  87:.\Generated_Source\PSoC5/Counter_ADC_PM.c ****         #if (CY_PSOC5A)
  88:.\Generated_Source\PSoC5/Counter_ADC_PM.c ****             /* Interrupt State Backup for Critical Region*/
  89:.\Generated_Source\PSoC5/Counter_ADC_PM.c ****             uint8 Counter_ADC_interruptState;
  90:.\Generated_Source\PSoC5/Counter_ADC_PM.c ****         
  91:.\Generated_Source\PSoC5/Counter_ADC_PM.c ****             Counter_ADC_WriteCounter(Counter_ADC_backup.CounterUdb);
  39              		.loc 1 91 0
  40 0002 0D4C     		ldr	r4, .L3
  41              		.cfi_offset 14, -4
  42              		.cfi_offset 4, -8
  43 0004 6088     		ldrh	r0, [r4, #2]
  44 0006 FFF7FEFF 		bl	Counter_ADC_WriteCounter
  92:.\Generated_Source\PSoC5/Counter_ADC_PM.c ****             Counter_ADC_WritePeriod(Counter_ADC_backup.CounterPeriod);
  45              		.loc 1 92 0
  46 000a A088     		ldrh	r0, [r4, #4]
  47 000c FFF7FEFF 		bl	Counter_ADC_WritePeriod
  93:.\Generated_Source\PSoC5/Counter_ADC_PM.c ****             Counter_ADC_WriteCompare(Counter_ADC_backup.CompareValue);
  48              		.loc 1 93 0
  49 0010 E088     		ldrh	r0, [r4, #6]
  50 0012 FFF7FEFF 		bl	Counter_ADC_WriteCompare
  94:.\Generated_Source\PSoC5/Counter_ADC_PM.c ****             /* Enter Critical Region*/
  95:.\Generated_Source\PSoC5/Counter_ADC_PM.c ****             Counter_ADC_interruptState = CyEnterCriticalSection();
  51              		.loc 1 95 0
  52 0016 FFF7FEFF 		bl	CyEnterCriticalSection
  96:.\Generated_Source\PSoC5/Counter_ADC_PM.c ****         
  97:.\Generated_Source\PSoC5/Counter_ADC_PM.c ****             Counter_ADC_STATUS_AUX_CTRL |= Counter_ADC_STATUS_ACTL_INT_EN_MASK;
  53              		.loc 1 97 0
  54 001a 084B     		ldr	r3, .L3+4
  55 001c 1A78     		ldrb	r2, [r3, #0]	@ zero_extendqisi2
  56 001e 42F01002 		orr	r2, r2, #16
  57 0022 1A70     		strb	r2, [r3, #0]
  98:.\Generated_Source\PSoC5/Counter_ADC_PM.c ****             /* Exit Critical Region*/
  99:.\Generated_Source\PSoC5/Counter_ADC_PM.c ****             CyExitCriticalSection(Counter_ADC_interruptState);
  58              		.loc 1 99 0
  59 0024 FFF7FEFF 		bl	CyExitCriticalSection
 100:.\Generated_Source\PSoC5/Counter_ADC_PM.c ****             Counter_ADC_STATUS_MASK = Counter_ADC_backup.InterruptMaskValue;
  60              		.loc 1 100 0
  61 0028 227A     		ldrb	r2, [r4, #8]	@ zero_extendqisi2
  62 002a 054B     		ldr	r3, .L3+8
  63 002c 1A70     		strb	r2, [r3, #0]
 101:.\Generated_Source\PSoC5/Counter_ADC_PM.c ****         #endif  /* (CY_PSOC5A) */
 102:.\Generated_Source\PSoC5/Counter_ADC_PM.c ****         
 103:.\Generated_Source\PSoC5/Counter_ADC_PM.c ****         #if (CY_PSOC3 || CY_PSOC5LP)
 104:.\Generated_Source\PSoC5/Counter_ADC_PM.c ****             Counter_ADC_WriteCounter(Counter_ADC_backup.CounterUdb);
ARM GAS  C:\Users\SUZUKI~1\AppData\Local\Temp\ccM22Nsb.s 			page 4


 105:.\Generated_Source\PSoC5/Counter_ADC_PM.c ****             Counter_ADC_STATUS_MASK = Counter_ADC_backup.InterruptMaskValue;
 106:.\Generated_Source\PSoC5/Counter_ADC_PM.c ****         #endif /* (CY_PSOC3 || CY_PSOC5LP) */
 107:.\Generated_Source\PSoC5/Counter_ADC_PM.c ****         
 108:.\Generated_Source\PSoC5/Counter_ADC_PM.c ****         #if(!Counter_ADC_ControlRegRemoved)
 109:.\Generated_Source\PSoC5/Counter_ADC_PM.c ****             Counter_ADC_WriteControlRegister(Counter_ADC_backup.CounterControlRegister);
  64              		.loc 1 109 0
  65 002e 607A     		ldrb	r0, [r4, #9]	@ zero_extendqisi2
 110:.\Generated_Source\PSoC5/Counter_ADC_PM.c ****         #endif /* (!Counter_ADC_ControlRegRemoved) */
 111:.\Generated_Source\PSoC5/Counter_ADC_PM.c ****     #endif /* (!Counter_ADC_UsingFixedFunction) */
 112:.\Generated_Source\PSoC5/Counter_ADC_PM.c **** }
  66              		.loc 1 112 0
  67 0030 BDE81040 		pop	{r4, lr}
  68              		.loc 1 109 0
  69 0034 FFF7FEBF 		b	Counter_ADC_WriteControlRegister
  70              	.L4:
  71              		.align	2
  72              	.L3:
  73 0038 00000000 		.word	.LANCHOR0
  74 003c 96650040 		.word	1073767830
  75 0040 86650040 		.word	1073767814
  76              		.cfi_endproc
  77              	.LFE1:
  78              		.size	Counter_ADC_RestoreConfig, .-Counter_ADC_RestoreConfig
  79              		.section	.text.Counter_ADC_Wakeup,"ax",%progbits
  80              		.align	1
  81              		.global	Counter_ADC_Wakeup
  82              		.thumb
  83              		.thumb_func
  84              		.type	Counter_ADC_Wakeup, %function
  85              	Counter_ADC_Wakeup:
  86              	.LFB3:
 113:.\Generated_Source\PSoC5/Counter_ADC_PM.c **** 
 114:.\Generated_Source\PSoC5/Counter_ADC_PM.c **** 
 115:.\Generated_Source\PSoC5/Counter_ADC_PM.c **** /*******************************************************************************
 116:.\Generated_Source\PSoC5/Counter_ADC_PM.c **** * Function Name: Counter_ADC_Sleep
 117:.\Generated_Source\PSoC5/Counter_ADC_PM.c **** ********************************************************************************
 118:.\Generated_Source\PSoC5/Counter_ADC_PM.c **** * Summary:
 119:.\Generated_Source\PSoC5/Counter_ADC_PM.c **** *     Stop and Save the user configuration
 120:.\Generated_Source\PSoC5/Counter_ADC_PM.c **** *
 121:.\Generated_Source\PSoC5/Counter_ADC_PM.c **** * Parameters:  
 122:.\Generated_Source\PSoC5/Counter_ADC_PM.c **** *  void
 123:.\Generated_Source\PSoC5/Counter_ADC_PM.c **** *
 124:.\Generated_Source\PSoC5/Counter_ADC_PM.c **** * Return: 
 125:.\Generated_Source\PSoC5/Counter_ADC_PM.c **** *  void
 126:.\Generated_Source\PSoC5/Counter_ADC_PM.c **** *
 127:.\Generated_Source\PSoC5/Counter_ADC_PM.c **** * Global variables:
 128:.\Generated_Source\PSoC5/Counter_ADC_PM.c **** *  Counter_ADC_backup.enableState:  Is modified depending on the enable 
 129:.\Generated_Source\PSoC5/Counter_ADC_PM.c **** *  state of the block before entering sleep mode.
 130:.\Generated_Source\PSoC5/Counter_ADC_PM.c **** *
 131:.\Generated_Source\PSoC5/Counter_ADC_PM.c **** *******************************************************************************/
 132:.\Generated_Source\PSoC5/Counter_ADC_PM.c **** void Counter_ADC_Sleep(void) 
 133:.\Generated_Source\PSoC5/Counter_ADC_PM.c **** {
 134:.\Generated_Source\PSoC5/Counter_ADC_PM.c ****     #if(!Counter_ADC_ControlRegRemoved)
 135:.\Generated_Source\PSoC5/Counter_ADC_PM.c ****         /* Save Counter's enable state */
 136:.\Generated_Source\PSoC5/Counter_ADC_PM.c ****         if(Counter_ADC_CTRL_ENABLE == (Counter_ADC_CONTROL & Counter_ADC_CTRL_ENABLE))
 137:.\Generated_Source\PSoC5/Counter_ADC_PM.c ****         {
 138:.\Generated_Source\PSoC5/Counter_ADC_PM.c ****             /* Counter is enabled */
ARM GAS  C:\Users\SUZUKI~1\AppData\Local\Temp\ccM22Nsb.s 			page 5


 139:.\Generated_Source\PSoC5/Counter_ADC_PM.c ****             Counter_ADC_backup.CounterEnableState = 1u;
 140:.\Generated_Source\PSoC5/Counter_ADC_PM.c ****         }
 141:.\Generated_Source\PSoC5/Counter_ADC_PM.c ****         else
 142:.\Generated_Source\PSoC5/Counter_ADC_PM.c ****         {
 143:.\Generated_Source\PSoC5/Counter_ADC_PM.c ****             /* Counter is disabled */
 144:.\Generated_Source\PSoC5/Counter_ADC_PM.c ****             Counter_ADC_backup.CounterEnableState = 0u;
 145:.\Generated_Source\PSoC5/Counter_ADC_PM.c ****         }
 146:.\Generated_Source\PSoC5/Counter_ADC_PM.c ****     #else
 147:.\Generated_Source\PSoC5/Counter_ADC_PM.c ****         Counter_ADC_backup.CounterEnableState = 1u;
 148:.\Generated_Source\PSoC5/Counter_ADC_PM.c ****         if(Counter_ADC_backup.CounterEnableState != 0u)
 149:.\Generated_Source\PSoC5/Counter_ADC_PM.c ****         {
 150:.\Generated_Source\PSoC5/Counter_ADC_PM.c ****             Counter_ADC_backup.CounterEnableState = 0u;
 151:.\Generated_Source\PSoC5/Counter_ADC_PM.c ****         }
 152:.\Generated_Source\PSoC5/Counter_ADC_PM.c ****     #endif /* (!Counter_ADC_ControlRegRemoved) */
 153:.\Generated_Source\PSoC5/Counter_ADC_PM.c ****     
 154:.\Generated_Source\PSoC5/Counter_ADC_PM.c ****     Counter_ADC_Stop();
 155:.\Generated_Source\PSoC5/Counter_ADC_PM.c ****     Counter_ADC_SaveConfig();
 156:.\Generated_Source\PSoC5/Counter_ADC_PM.c **** }
 157:.\Generated_Source\PSoC5/Counter_ADC_PM.c **** 
 158:.\Generated_Source\PSoC5/Counter_ADC_PM.c **** 
 159:.\Generated_Source\PSoC5/Counter_ADC_PM.c **** /*******************************************************************************
 160:.\Generated_Source\PSoC5/Counter_ADC_PM.c **** * Function Name: Counter_ADC_Wakeup
 161:.\Generated_Source\PSoC5/Counter_ADC_PM.c **** ********************************************************************************
 162:.\Generated_Source\PSoC5/Counter_ADC_PM.c **** *
 163:.\Generated_Source\PSoC5/Counter_ADC_PM.c **** * Summary:
 164:.\Generated_Source\PSoC5/Counter_ADC_PM.c **** *  Restores and enables the user configuration
 165:.\Generated_Source\PSoC5/Counter_ADC_PM.c **** *  
 166:.\Generated_Source\PSoC5/Counter_ADC_PM.c **** * Parameters:  
 167:.\Generated_Source\PSoC5/Counter_ADC_PM.c **** *  void
 168:.\Generated_Source\PSoC5/Counter_ADC_PM.c **** *
 169:.\Generated_Source\PSoC5/Counter_ADC_PM.c **** * Return: 
 170:.\Generated_Source\PSoC5/Counter_ADC_PM.c **** *  void
 171:.\Generated_Source\PSoC5/Counter_ADC_PM.c **** *
 172:.\Generated_Source\PSoC5/Counter_ADC_PM.c **** * Global variables:
 173:.\Generated_Source\PSoC5/Counter_ADC_PM.c **** *  Counter_ADC_backup.enableState:  Is used to restore the enable state of 
 174:.\Generated_Source\PSoC5/Counter_ADC_PM.c **** *  block on wakeup from sleep mode.
 175:.\Generated_Source\PSoC5/Counter_ADC_PM.c **** *
 176:.\Generated_Source\PSoC5/Counter_ADC_PM.c **** *******************************************************************************/
 177:.\Generated_Source\PSoC5/Counter_ADC_PM.c **** void Counter_ADC_Wakeup(void) 
 178:.\Generated_Source\PSoC5/Counter_ADC_PM.c **** {
  87              		.loc 1 178 0
  88              		.cfi_startproc
  89              		@ args = 0, pretend = 0, frame = 0
  90              		@ frame_needed = 0, uses_anonymous_args = 0
  91 0000 10B5     		push	{r4, lr}
  92              	.LCFI1:
  93              		.cfi_def_cfa_offset 8
 179:.\Generated_Source\PSoC5/Counter_ADC_PM.c ****     Counter_ADC_RestoreConfig();
  94              		.loc 1 179 0
  95              		.cfi_offset 14, -4
  96              		.cfi_offset 4, -8
  97 0002 FFF7FEFF 		bl	Counter_ADC_RestoreConfig
 180:.\Generated_Source\PSoC5/Counter_ADC_PM.c ****     #if(!Counter_ADC_ControlRegRemoved)
 181:.\Generated_Source\PSoC5/Counter_ADC_PM.c ****         if(Counter_ADC_backup.CounterEnableState == 1u)
  98              		.loc 1 181 0
  99 0006 044B     		ldr	r3, .L9
 100 0008 1B78     		ldrb	r3, [r3, #0]	@ zero_extendqisi2
ARM GAS  C:\Users\SUZUKI~1\AppData\Local\Temp\ccM22Nsb.s 			page 6


 101 000a 012B     		cmp	r3, #1
 102 000c 03D1     		bne	.L7
 182:.\Generated_Source\PSoC5/Counter_ADC_PM.c ****         {
 183:.\Generated_Source\PSoC5/Counter_ADC_PM.c ****             /* Enable Counter's operation */
 184:.\Generated_Source\PSoC5/Counter_ADC_PM.c ****             Counter_ADC_Enable();
 185:.\Generated_Source\PSoC5/Counter_ADC_PM.c ****         } /* Do nothing if Counter was disabled before */    
 186:.\Generated_Source\PSoC5/Counter_ADC_PM.c ****     #endif /* (!Counter_ADC_ControlRegRemoved) */
 187:.\Generated_Source\PSoC5/Counter_ADC_PM.c ****     
 188:.\Generated_Source\PSoC5/Counter_ADC_PM.c **** }
 103              		.loc 1 188 0
 104 000e BDE81040 		pop	{r4, lr}
 105              		.loc 1 184 0
 106 0012 FFF7FEBF 		b	Counter_ADC_Enable
 107              	.L7:
 108 0016 10BD     		pop	{r4, pc}
 109              	.L10:
 110              		.align	2
 111              	.L9:
 112 0018 00000000 		.word	.LANCHOR0
 113              		.cfi_endproc
 114              	.LFE3:
 115              		.size	Counter_ADC_Wakeup, .-Counter_ADC_Wakeup
 116              		.section	.text.Counter_ADC_SaveConfig,"ax",%progbits
 117              		.align	1
 118              		.global	Counter_ADC_SaveConfig
 119              		.thumb
 120              		.thumb_func
 121              		.type	Counter_ADC_SaveConfig, %function
 122              	Counter_ADC_SaveConfig:
 123              	.LFB0:
 124              		.loc 1 43 0
 125              		.cfi_startproc
 126              		@ args = 0, pretend = 0, frame = 0
 127              		@ frame_needed = 0, uses_anonymous_args = 0
 128 0000 10B5     		push	{r4, lr}
 129              	.LCFI2:
 130              		.cfi_def_cfa_offset 8
 131              		.loc 1 47 0
 132              		.cfi_offset 14, -4
 133              		.cfi_offset 4, -8
 134 0002 FFF7FEFF 		bl	Counter_ADC_ReadCounter
 135 0006 074C     		ldr	r4, .L13
 136 0008 6080     		strh	r0, [r4, #2]	@ movhi
 137              		.loc 1 48 0
 138 000a FFF7FEFF 		bl	Counter_ADC_ReadPeriod
 139 000e A080     		strh	r0, [r4, #4]	@ movhi
 140              		.loc 1 49 0
 141 0010 FFF7FEFF 		bl	Counter_ADC_ReadCompare
 142              		.loc 1 50 0
 143 0014 044B     		ldr	r3, .L13+4
 144              		.loc 1 49 0
 145 0016 E080     		strh	r0, [r4, #6]	@ movhi
 146              		.loc 1 50 0
 147 0018 1B78     		ldrb	r3, [r3, #0]	@ zero_extendqisi2
 148 001a 2372     		strb	r3, [r4, #8]
 149              		.loc 1 59 0
 150 001c FFF7FEFF 		bl	Counter_ADC_ReadControlRegister
ARM GAS  C:\Users\SUZUKI~1\AppData\Local\Temp\ccM22Nsb.s 			page 7


 151 0020 6072     		strb	r0, [r4, #9]
 152              		.loc 1 62 0
 153 0022 10BD     		pop	{r4, pc}
 154              	.L14:
 155              		.align	2
 156              	.L13:
 157 0024 00000000 		.word	.LANCHOR0
 158 0028 86650040 		.word	1073767814
 159              		.cfi_endproc
 160              	.LFE0:
 161              		.size	Counter_ADC_SaveConfig, .-Counter_ADC_SaveConfig
 162              		.section	.text.Counter_ADC_Sleep,"ax",%progbits
 163              		.align	1
 164              		.global	Counter_ADC_Sleep
 165              		.thumb
 166              		.thumb_func
 167              		.type	Counter_ADC_Sleep, %function
 168              	Counter_ADC_Sleep:
 169              	.LFB2:
 170              		.loc 1 133 0
 171              		.cfi_startproc
 172              		@ args = 0, pretend = 0, frame = 0
 173              		@ frame_needed = 0, uses_anonymous_args = 0
 174 0000 10B5     		push	{r4, lr}
 175              	.LCFI3:
 176              		.cfi_def_cfa_offset 8
 177              		.loc 1 136 0
 178 0002 084B     		ldr	r3, .L20
 179 0004 1B78     		ldrb	r3, [r3, #0]	@ zero_extendqisi2
 180 0006 13F0800F 		tst	r3, #128
 181 000a 074B     		ldr	r3, .L20+4
 182 000c 01D0     		beq	.L16
 183              		.cfi_offset 14, -4
 184              		.cfi_offset 4, -8
 185              		.loc 1 139 0
 186 000e 0122     		movs	r2, #1
 187 0010 00E0     		b	.L19
 188              	.L16:
 189              		.loc 1 144 0
 190 0012 0022     		movs	r2, #0
 191              	.L19:
 192 0014 1A70     		strb	r2, [r3, #0]
 193              		.loc 1 154 0
 194 0016 FFF7FEFF 		bl	Counter_ADC_Stop
 195              		.loc 1 156 0
 196 001a BDE81040 		pop	{r4, lr}
 197              		.loc 1 155 0
 198 001e FFF7FEBF 		b	Counter_ADC_SaveConfig
 199              	.L21:
 200 0022 00BF     		.align	2
 201              	.L20:
 202 0024 76650040 		.word	1073767798
 203 0028 00000000 		.word	.LANCHOR0
 204              		.cfi_endproc
 205              	.LFE2:
 206              		.size	Counter_ADC_Sleep, .-Counter_ADC_Sleep
 207              		.bss
ARM GAS  C:\Users\SUZUKI~1\AppData\Local\Temp\ccM22Nsb.s 			page 8


 208              		.align	2
 209              		.set	.LANCHOR0,. + 0
 210              		.type	Counter_ADC_backup, %object
 211              		.size	Counter_ADC_backup, 10
 212              	Counter_ADC_backup:
 213 0000 00000000 		.space	10
 213      00000000 
 213      0000
 214 000a 0000     		.text
 215              	.Letext0:
 216              		.section	.debug_loc,"",%progbits
 217              	.Ldebug_loc0:
 218              	.LLST0:
 219 0000 00000000 		.4byte	.LFB1
 220 0004 02000000 		.4byte	.LCFI0
 221 0008 0100     		.2byte	0x1
 222 000a 5D       		.byte	0x5d
 223 000b 02000000 		.4byte	.LCFI0
 224 000f 44000000 		.4byte	.LFE1
 225 0013 0200     		.2byte	0x2
 226 0015 7D       		.byte	0x7d
 227 0016 08       		.sleb128 8
 228 0017 00000000 		.4byte	0x0
 229 001b 00000000 		.4byte	0x0
 230              	.LLST1:
 231 001f 00000000 		.4byte	.LFB3
 232 0023 02000000 		.4byte	.LCFI1
 233 0027 0100     		.2byte	0x1
 234 0029 5D       		.byte	0x5d
 235 002a 02000000 		.4byte	.LCFI1
 236 002e 1C000000 		.4byte	.LFE3
 237 0032 0200     		.2byte	0x2
 238 0034 7D       		.byte	0x7d
 239 0035 08       		.sleb128 8
 240 0036 00000000 		.4byte	0x0
 241 003a 00000000 		.4byte	0x0
 242              	.LLST2:
 243 003e 00000000 		.4byte	.LFB0
 244 0042 02000000 		.4byte	.LCFI2
 245 0046 0100     		.2byte	0x1
 246 0048 5D       		.byte	0x5d
 247 0049 02000000 		.4byte	.LCFI2
 248 004d 2C000000 		.4byte	.LFE0
 249 0051 0200     		.2byte	0x2
 250 0053 7D       		.byte	0x7d
 251 0054 08       		.sleb128 8
 252 0055 00000000 		.4byte	0x0
 253 0059 00000000 		.4byte	0x0
 254              	.LLST3:
 255 005d 00000000 		.4byte	.LFB2
 256 0061 02000000 		.4byte	.LCFI3
 257 0065 0100     		.2byte	0x1
 258 0067 5D       		.byte	0x5d
 259 0068 02000000 		.4byte	.LCFI3
 260 006c 2C000000 		.4byte	.LFE2
 261 0070 0200     		.2byte	0x2
 262 0072 7D       		.byte	0x7d
ARM GAS  C:\Users\SUZUKI~1\AppData\Local\Temp\ccM22Nsb.s 			page 9


 263 0073 08       		.sleb128 8
 264 0074 00000000 		.4byte	0x0
 265 0078 00000000 		.4byte	0x0
 266              		.file 2 ".\\Generated_Source\\PSoC5\\/cytypes.h"
 267              		.file 3 ".\\Generated_Source\\PSoC5\\/Counter_ADC.h"
 268              		.section	.debug_info
 269 0000 77010000 		.4byte	0x177
 270 0004 0200     		.2byte	0x2
 271 0006 00000000 		.4byte	.Ldebug_abbrev0
 272 000a 04       		.byte	0x4
 273 000b 01       		.uleb128 0x1
 274 000c B6010000 		.4byte	.LASF24
 275 0010 01       		.byte	0x1
 276 0011 0E000000 		.4byte	.LASF25
 277 0015 AC000000 		.4byte	.LASF26
 278 0019 00000000 		.4byte	0x0
 279 001d 00000000 		.4byte	0x0
 280 0021 00000000 		.4byte	.Ldebug_ranges0+0x0
 281 0025 00000000 		.4byte	.Ldebug_line0
 282 0029 02       		.uleb128 0x2
 283 002a 01       		.byte	0x1
 284 002b 06       		.byte	0x6
 285 002c EC010000 		.4byte	.LASF0
 286 0030 02       		.uleb128 0x2
 287 0031 01       		.byte	0x1
 288 0032 08       		.byte	0x8
 289 0033 F7000000 		.4byte	.LASF1
 290 0037 02       		.uleb128 0x2
 291 0038 02       		.byte	0x2
 292 0039 05       		.byte	0x5
 293 003a C7010000 		.4byte	.LASF2
 294 003e 02       		.uleb128 0x2
 295 003f 02       		.byte	0x2
 296 0040 07       		.byte	0x7
 297 0041 60000000 		.4byte	.LASF3
 298 0045 02       		.uleb128 0x2
 299 0046 04       		.byte	0x4
 300 0047 05       		.byte	0x5
 301 0048 E3010000 		.4byte	.LASF4
 302 004c 02       		.uleb128 0x2
 303 004d 04       		.byte	0x4
 304 004e 07       		.byte	0x7
 305 004f 05010000 		.4byte	.LASF5
 306 0053 02       		.uleb128 0x2
 307 0054 08       		.byte	0x8
 308 0055 05       		.byte	0x5
 309 0056 00000000 		.4byte	.LASF6
 310 005a 02       		.uleb128 0x2
 311 005b 08       		.byte	0x8
 312 005c 07       		.byte	0x7
 313 005d 65010000 		.4byte	.LASF7
 314 0061 03       		.uleb128 0x3
 315 0062 04       		.byte	0x4
 316 0063 05       		.byte	0x5
 317 0064 696E7400 		.ascii	"int\000"
 318 0068 02       		.uleb128 0x2
 319 0069 04       		.byte	0x4
ARM GAS  C:\Users\SUZUKI~1\AppData\Local\Temp\ccM22Nsb.s 			page 10


 320 006a 07       		.byte	0x7
 321 006b 58010000 		.4byte	.LASF8
 322 006f 04       		.uleb128 0x4
 323 0070 17010000 		.4byte	.LASF9
 324 0074 02       		.byte	0x2
 325 0075 4C       		.byte	0x4c
 326 0076 30000000 		.4byte	0x30
 327 007a 04       		.uleb128 0x4
 328 007b 51010000 		.4byte	.LASF10
 329 007f 02       		.byte	0x2
 330 0080 4D       		.byte	0x4d
 331 0081 3E000000 		.4byte	0x3e
 332 0085 02       		.uleb128 0x2
 333 0086 04       		.byte	0x4
 334 0087 04       		.byte	0x4
 335 0088 DE000000 		.4byte	.LASF11
 336 008c 02       		.uleb128 0x2
 337 008d 08       		.byte	0x8
 338 008e 04       		.byte	0x4
 339 008f 37010000 		.4byte	.LASF12
 340 0093 02       		.uleb128 0x2
 341 0094 01       		.byte	0x1
 342 0095 08       		.byte	0x8
 343 0096 C2010000 		.4byte	.LASF13
 344 009a 05       		.uleb128 0x5
 345 009b 04       		.byte	0x4
 346 009c 07       		.byte	0x7
 347 009d 06       		.uleb128 0x6
 348 009e 0A       		.byte	0xa
 349 009f 03       		.byte	0x3
 350 00a0 39       		.byte	0x39
 351 00a1 FA000000 		.4byte	0xfa
 352 00a5 07       		.uleb128 0x7
 353 00a6 A3010000 		.4byte	.LASF14
 354 00aa 03       		.byte	0x3
 355 00ab 3B       		.byte	0x3b
 356 00ac 6F000000 		.4byte	0x6f
 357 00b0 02       		.byte	0x2
 358 00b1 23       		.byte	0x23
 359 00b2 00       		.uleb128 0x0
 360 00b3 07       		.uleb128 0x7
 361 00b4 73000000 		.4byte	.LASF15
 362 00b8 03       		.byte	0x3
 363 00b9 3D       		.byte	0x3d
 364 00ba 7A000000 		.4byte	0x7a
 365 00be 02       		.byte	0x2
 366 00bf 23       		.byte	0x23
 367 00c0 02       		.uleb128 0x2
 368 00c1 07       		.uleb128 0x7
 369 00c2 7C010000 		.4byte	.LASF16
 370 00c6 03       		.byte	0x3
 371 00c7 3E       		.byte	0x3e
 372 00c8 7A000000 		.4byte	0x7a
 373 00cc 02       		.byte	0x2
 374 00cd 23       		.byte	0x23
 375 00ce 04       		.uleb128 0x4
 376 00cf 07       		.uleb128 0x7
ARM GAS  C:\Users\SUZUKI~1\AppData\Local\Temp\ccM22Nsb.s 			page 11


 377 00d0 38000000 		.4byte	.LASF17
 378 00d4 03       		.byte	0x3
 379 00d5 3F       		.byte	0x3f
 380 00d6 7A000000 		.4byte	0x7a
 381 00da 02       		.byte	0x2
 382 00db 23       		.byte	0x23
 383 00dc 06       		.uleb128 0x6
 384 00dd 07       		.uleb128 0x7
 385 00de F8010000 		.4byte	.LASF18
 386 00e2 03       		.byte	0x3
 387 00e3 40       		.byte	0x40
 388 00e4 6F000000 		.4byte	0x6f
 389 00e8 02       		.byte	0x2
 390 00e9 23       		.byte	0x23
 391 00ea 08       		.uleb128 0x8
 392 00eb 07       		.uleb128 0x7
 393 00ec 95000000 		.4byte	.LASF19
 394 00f0 03       		.byte	0x3
 395 00f1 49       		.byte	0x49
 396 00f2 6F000000 		.4byte	0x6f
 397 00f6 02       		.byte	0x2
 398 00f7 23       		.byte	0x23
 399 00f8 09       		.uleb128 0x9
 400 00f9 00       		.byte	0x0
 401 00fa 04       		.uleb128 0x4
 402 00fb 8A010000 		.4byte	.LASF20
 403 00ff 03       		.byte	0x3
 404 0100 4B       		.byte	0x4b
 405 0101 9D000000 		.4byte	0x9d
 406 0105 08       		.uleb128 0x8
 407 0106 01       		.byte	0x1
 408 0107 1D010000 		.4byte	.LASF27
 409 010b 01       		.byte	0x1
 410 010c 53       		.byte	0x53
 411 010d 01       		.byte	0x1
 412 010e 00000000 		.4byte	.LFB1
 413 0112 44000000 		.4byte	.LFE1
 414 0116 00000000 		.4byte	.LLST0
 415 011a 2A010000 		.4byte	0x12a
 416 011e 09       		.uleb128 0x9
 417 011f 45000000 		.4byte	.LASF28
 418 0123 01       		.byte	0x1
 419 0124 59       		.byte	0x59
 420 0125 6F000000 		.4byte	0x6f
 421 0129 00       		.byte	0x0
 422 012a 0A       		.uleb128 0xa
 423 012b 01       		.byte	0x1
 424 012c 3E010000 		.4byte	.LASF21
 425 0130 01       		.byte	0x1
 426 0131 B1       		.byte	0xb1
 427 0132 01       		.byte	0x1
 428 0133 00000000 		.4byte	.LFB3
 429 0137 1C000000 		.4byte	.LFE3
 430 013b 1F000000 		.4byte	.LLST1
 431 013f 0A       		.uleb128 0xa
 432 0140 01       		.byte	0x1
 433 0141 7E000000 		.4byte	.LASF22
ARM GAS  C:\Users\SUZUKI~1\AppData\Local\Temp\ccM22Nsb.s 			page 12


 434 0145 01       		.byte	0x1
 435 0146 2A       		.byte	0x2a
 436 0147 01       		.byte	0x1
 437 0148 00000000 		.4byte	.LFB0
 438 014c 2C000000 		.4byte	.LFE0
 439 0150 3E000000 		.4byte	.LLST2
 440 0154 0A       		.uleb128 0xa
 441 0155 01       		.byte	0x1
 442 0156 D1010000 		.4byte	.LASF23
 443 015a 01       		.byte	0x1
 444 015b 84       		.byte	0x84
 445 015c 01       		.byte	0x1
 446 015d 00000000 		.4byte	.LFB2
 447 0161 2C000000 		.4byte	.LFE2
 448 0165 5D000000 		.4byte	.LLST3
 449 0169 0B       		.uleb128 0xb
 450 016a E4000000 		.4byte	.LASF29
 451 016e 01       		.byte	0x1
 452 016f 15       		.byte	0x15
 453 0170 FA000000 		.4byte	0xfa
 454 0174 05       		.byte	0x5
 455 0175 03       		.byte	0x3
 456 0176 00000000 		.4byte	Counter_ADC_backup
 457 017a 00       		.byte	0x0
 458              		.section	.debug_abbrev
 459 0000 01       		.uleb128 0x1
 460 0001 11       		.uleb128 0x11
 461 0002 01       		.byte	0x1
 462 0003 25       		.uleb128 0x25
 463 0004 0E       		.uleb128 0xe
 464 0005 13       		.uleb128 0x13
 465 0006 0B       		.uleb128 0xb
 466 0007 03       		.uleb128 0x3
 467 0008 0E       		.uleb128 0xe
 468 0009 1B       		.uleb128 0x1b
 469 000a 0E       		.uleb128 0xe
 470 000b 11       		.uleb128 0x11
 471 000c 01       		.uleb128 0x1
 472 000d 52       		.uleb128 0x52
 473 000e 01       		.uleb128 0x1
 474 000f 55       		.uleb128 0x55
 475 0010 06       		.uleb128 0x6
 476 0011 10       		.uleb128 0x10
 477 0012 06       		.uleb128 0x6
 478 0013 00       		.byte	0x0
 479 0014 00       		.byte	0x0
 480 0015 02       		.uleb128 0x2
 481 0016 24       		.uleb128 0x24
 482 0017 00       		.byte	0x0
 483 0018 0B       		.uleb128 0xb
 484 0019 0B       		.uleb128 0xb
 485 001a 3E       		.uleb128 0x3e
 486 001b 0B       		.uleb128 0xb
 487 001c 03       		.uleb128 0x3
 488 001d 0E       		.uleb128 0xe
 489 001e 00       		.byte	0x0
 490 001f 00       		.byte	0x0
ARM GAS  C:\Users\SUZUKI~1\AppData\Local\Temp\ccM22Nsb.s 			page 13


 491 0020 03       		.uleb128 0x3
 492 0021 24       		.uleb128 0x24
 493 0022 00       		.byte	0x0
 494 0023 0B       		.uleb128 0xb
 495 0024 0B       		.uleb128 0xb
 496 0025 3E       		.uleb128 0x3e
 497 0026 0B       		.uleb128 0xb
 498 0027 03       		.uleb128 0x3
 499 0028 08       		.uleb128 0x8
 500 0029 00       		.byte	0x0
 501 002a 00       		.byte	0x0
 502 002b 04       		.uleb128 0x4
 503 002c 16       		.uleb128 0x16
 504 002d 00       		.byte	0x0
 505 002e 03       		.uleb128 0x3
 506 002f 0E       		.uleb128 0xe
 507 0030 3A       		.uleb128 0x3a
 508 0031 0B       		.uleb128 0xb
 509 0032 3B       		.uleb128 0x3b
 510 0033 0B       		.uleb128 0xb
 511 0034 49       		.uleb128 0x49
 512 0035 13       		.uleb128 0x13
 513 0036 00       		.byte	0x0
 514 0037 00       		.byte	0x0
 515 0038 05       		.uleb128 0x5
 516 0039 24       		.uleb128 0x24
 517 003a 00       		.byte	0x0
 518 003b 0B       		.uleb128 0xb
 519 003c 0B       		.uleb128 0xb
 520 003d 3E       		.uleb128 0x3e
 521 003e 0B       		.uleb128 0xb
 522 003f 00       		.byte	0x0
 523 0040 00       		.byte	0x0
 524 0041 06       		.uleb128 0x6
 525 0042 13       		.uleb128 0x13
 526 0043 01       		.byte	0x1
 527 0044 0B       		.uleb128 0xb
 528 0045 0B       		.uleb128 0xb
 529 0046 3A       		.uleb128 0x3a
 530 0047 0B       		.uleb128 0xb
 531 0048 3B       		.uleb128 0x3b
 532 0049 0B       		.uleb128 0xb
 533 004a 01       		.uleb128 0x1
 534 004b 13       		.uleb128 0x13
 535 004c 00       		.byte	0x0
 536 004d 00       		.byte	0x0
 537 004e 07       		.uleb128 0x7
 538 004f 0D       		.uleb128 0xd
 539 0050 00       		.byte	0x0
 540 0051 03       		.uleb128 0x3
 541 0052 0E       		.uleb128 0xe
 542 0053 3A       		.uleb128 0x3a
 543 0054 0B       		.uleb128 0xb
 544 0055 3B       		.uleb128 0x3b
 545 0056 0B       		.uleb128 0xb
 546 0057 49       		.uleb128 0x49
 547 0058 13       		.uleb128 0x13
ARM GAS  C:\Users\SUZUKI~1\AppData\Local\Temp\ccM22Nsb.s 			page 14


 548 0059 38       		.uleb128 0x38
 549 005a 0A       		.uleb128 0xa
 550 005b 00       		.byte	0x0
 551 005c 00       		.byte	0x0
 552 005d 08       		.uleb128 0x8
 553 005e 2E       		.uleb128 0x2e
 554 005f 01       		.byte	0x1
 555 0060 3F       		.uleb128 0x3f
 556 0061 0C       		.uleb128 0xc
 557 0062 03       		.uleb128 0x3
 558 0063 0E       		.uleb128 0xe
 559 0064 3A       		.uleb128 0x3a
 560 0065 0B       		.uleb128 0xb
 561 0066 3B       		.uleb128 0x3b
 562 0067 0B       		.uleb128 0xb
 563 0068 27       		.uleb128 0x27
 564 0069 0C       		.uleb128 0xc
 565 006a 11       		.uleb128 0x11
 566 006b 01       		.uleb128 0x1
 567 006c 12       		.uleb128 0x12
 568 006d 01       		.uleb128 0x1
 569 006e 40       		.uleb128 0x40
 570 006f 06       		.uleb128 0x6
 571 0070 01       		.uleb128 0x1
 572 0071 13       		.uleb128 0x13
 573 0072 00       		.byte	0x0
 574 0073 00       		.byte	0x0
 575 0074 09       		.uleb128 0x9
 576 0075 34       		.uleb128 0x34
 577 0076 00       		.byte	0x0
 578 0077 03       		.uleb128 0x3
 579 0078 0E       		.uleb128 0xe
 580 0079 3A       		.uleb128 0x3a
 581 007a 0B       		.uleb128 0xb
 582 007b 3B       		.uleb128 0x3b
 583 007c 0B       		.uleb128 0xb
 584 007d 49       		.uleb128 0x49
 585 007e 13       		.uleb128 0x13
 586 007f 00       		.byte	0x0
 587 0080 00       		.byte	0x0
 588 0081 0A       		.uleb128 0xa
 589 0082 2E       		.uleb128 0x2e
 590 0083 00       		.byte	0x0
 591 0084 3F       		.uleb128 0x3f
 592 0085 0C       		.uleb128 0xc
 593 0086 03       		.uleb128 0x3
 594 0087 0E       		.uleb128 0xe
 595 0088 3A       		.uleb128 0x3a
 596 0089 0B       		.uleb128 0xb
 597 008a 3B       		.uleb128 0x3b
 598 008b 0B       		.uleb128 0xb
 599 008c 27       		.uleb128 0x27
 600 008d 0C       		.uleb128 0xc
 601 008e 11       		.uleb128 0x11
 602 008f 01       		.uleb128 0x1
 603 0090 12       		.uleb128 0x12
 604 0091 01       		.uleb128 0x1
ARM GAS  C:\Users\SUZUKI~1\AppData\Local\Temp\ccM22Nsb.s 			page 15


 605 0092 40       		.uleb128 0x40
 606 0093 06       		.uleb128 0x6
 607 0094 00       		.byte	0x0
 608 0095 00       		.byte	0x0
 609 0096 0B       		.uleb128 0xb
 610 0097 34       		.uleb128 0x34
 611 0098 00       		.byte	0x0
 612 0099 03       		.uleb128 0x3
 613 009a 0E       		.uleb128 0xe
 614 009b 3A       		.uleb128 0x3a
 615 009c 0B       		.uleb128 0xb
 616 009d 3B       		.uleb128 0x3b
 617 009e 0B       		.uleb128 0xb
 618 009f 49       		.uleb128 0x49
 619 00a0 13       		.uleb128 0x13
 620 00a1 02       		.uleb128 0x2
 621 00a2 0A       		.uleb128 0xa
 622 00a3 00       		.byte	0x0
 623 00a4 00       		.byte	0x0
 624 00a5 00       		.byte	0x0
 625              		.section	.debug_pubnames,"",%progbits
 626 0000 74000000 		.4byte	0x74
 627 0004 0200     		.2byte	0x2
 628 0006 00000000 		.4byte	.Ldebug_info0
 629 000a 7B010000 		.4byte	0x17b
 630 000e 05010000 		.4byte	0x105
 631 0012 436F756E 		.ascii	"Counter_ADC_RestoreConfig\000"
 631      7465725F 
 631      4144435F 
 631      52657374 
 631      6F726543 
 632 002c 2A010000 		.4byte	0x12a
 633 0030 436F756E 		.ascii	"Counter_ADC_Wakeup\000"
 633      7465725F 
 633      4144435F 
 633      57616B65 
 633      757000
 634 0043 3F010000 		.4byte	0x13f
 635 0047 436F756E 		.ascii	"Counter_ADC_SaveConfig\000"
 635      7465725F 
 635      4144435F 
 635      53617665 
 635      436F6E66 
 636 005e 54010000 		.4byte	0x154
 637 0062 436F756E 		.ascii	"Counter_ADC_Sleep\000"
 637      7465725F 
 637      4144435F 
 637      536C6565 
 637      7000
 638 0074 00000000 		.4byte	0x0
 639              		.section	.debug_aranges,"",%progbits
 640 0000 34000000 		.4byte	0x34
 641 0004 0200     		.2byte	0x2
 642 0006 00000000 		.4byte	.Ldebug_info0
 643 000a 04       		.byte	0x4
 644 000b 00       		.byte	0x0
 645 000c 0000     		.2byte	0x0
ARM GAS  C:\Users\SUZUKI~1\AppData\Local\Temp\ccM22Nsb.s 			page 16


 646 000e 0000     		.2byte	0x0
 647 0010 00000000 		.4byte	.LFB1
 648 0014 44000000 		.4byte	.LFE1-.LFB1
 649 0018 00000000 		.4byte	.LFB3
 650 001c 1C000000 		.4byte	.LFE3-.LFB3
 651 0020 00000000 		.4byte	.LFB0
 652 0024 2C000000 		.4byte	.LFE0-.LFB0
 653 0028 00000000 		.4byte	.LFB2
 654 002c 2C000000 		.4byte	.LFE2-.LFB2
 655 0030 00000000 		.4byte	0x0
 656 0034 00000000 		.4byte	0x0
 657              		.section	.debug_ranges,"",%progbits
 658              	.Ldebug_ranges0:
 659 0000 00000000 		.4byte	.Ltext0
 660 0004 00000000 		.4byte	.Letext0
 661 0008 00000000 		.4byte	.LFB1
 662 000c 44000000 		.4byte	.LFE1
 663 0010 00000000 		.4byte	.LFB3
 664 0014 1C000000 		.4byte	.LFE3
 665 0018 00000000 		.4byte	.LFB0
 666 001c 2C000000 		.4byte	.LFE0
 667 0020 00000000 		.4byte	.LFB2
 668 0024 2C000000 		.4byte	.LFE2
 669 0028 00000000 		.4byte	0x0
 670 002c 00000000 		.4byte	0x0
 671              		.section	.debug_str,"MS",%progbits,1
 672              	.LASF6:
 673 0000 6C6F6E67 		.ascii	"long long int\000"
 673      206C6F6E 
 673      6720696E 
 673      7400
 674              	.LASF25:
 675 000e 2E5C4765 		.ascii	".\\Generated_Source\\PSoC5\\Counter_ADC_PM.c\000"
 675      6E657261 
 675      7465645F 
 675      536F7572 
 675      63655C50 
 676              	.LASF17:
 677 0038 436F6D70 		.ascii	"CompareValue\000"
 677      61726556 
 677      616C7565 
 677      00
 678              	.LASF28:
 679 0045 436F756E 		.ascii	"Counter_ADC_interruptState\000"
 679      7465725F 
 679      4144435F 
 679      696E7465 
 679      72727570 
 680              	.LASF3:
 681 0060 73686F72 		.ascii	"short unsigned int\000"
 681      7420756E 
 681      7369676E 
 681      65642069 
 681      6E7400
 682              	.LASF15:
 683 0073 436F756E 		.ascii	"CounterUdb\000"
 683      74657255 
ARM GAS  C:\Users\SUZUKI~1\AppData\Local\Temp\ccM22Nsb.s 			page 17


 683      646200
 684              	.LASF22:
 685 007e 436F756E 		.ascii	"Counter_ADC_SaveConfig\000"
 685      7465725F 
 685      4144435F 
 685      53617665 
 685      436F6E66 
 686              	.LASF19:
 687 0095 436F756E 		.ascii	"CounterControlRegister\000"
 687      74657243 
 687      6F6E7472 
 687      6F6C5265 
 687      67697374 
 688              	.LASF26:
 689 00ac 5A3A5C64 		.ascii	"Z:\\docs\\psoc\\creator\\ledmatrix\\ledmatrixfft.cy"
 689      6F63735C 
 689      70736F63 
 689      5C637265 
 689      61746F72 
 690 00da 64736E00 		.ascii	"dsn\000"
 691              	.LASF11:
 692 00de 666C6F61 		.ascii	"float\000"
 692      7400
 693              	.LASF29:
 694 00e4 436F756E 		.ascii	"Counter_ADC_backup\000"
 694      7465725F 
 694      4144435F 
 694      6261636B 
 694      757000
 695              	.LASF1:
 696 00f7 756E7369 		.ascii	"unsigned char\000"
 696      676E6564 
 696      20636861 
 696      7200
 697              	.LASF5:
 698 0105 6C6F6E67 		.ascii	"long unsigned int\000"
 698      20756E73 
 698      69676E65 
 698      6420696E 
 698      7400
 699              	.LASF9:
 700 0117 75696E74 		.ascii	"uint8\000"
 700      3800
 701              	.LASF27:
 702 011d 436F756E 		.ascii	"Counter_ADC_RestoreConfig\000"
 702      7465725F 
 702      4144435F 
 702      52657374 
 702      6F726543 
 703              	.LASF12:
 704 0137 646F7562 		.ascii	"double\000"
 704      6C6500
 705              	.LASF21:
 706 013e 436F756E 		.ascii	"Counter_ADC_Wakeup\000"
 706      7465725F 
 706      4144435F 
 706      57616B65 
ARM GAS  C:\Users\SUZUKI~1\AppData\Local\Temp\ccM22Nsb.s 			page 18


 706      757000
 707              	.LASF10:
 708 0151 75696E74 		.ascii	"uint16\000"
 708      313600
 709              	.LASF8:
 710 0158 756E7369 		.ascii	"unsigned int\000"
 710      676E6564 
 710      20696E74 
 710      00
 711              	.LASF7:
 712 0165 6C6F6E67 		.ascii	"long long unsigned int\000"
 712      206C6F6E 
 712      6720756E 
 712      7369676E 
 712      65642069 
 713              	.LASF16:
 714 017c 436F756E 		.ascii	"CounterPeriod\000"
 714      74657250 
 714      6572696F 
 714      6400
 715              	.LASF20:
 716 018a 436F756E 		.ascii	"Counter_ADC_backupStruct\000"
 716      7465725F 
 716      4144435F 
 716      6261636B 
 716      75705374 
 717              	.LASF14:
 718 01a3 436F756E 		.ascii	"CounterEnableState\000"
 718      74657245 
 718      6E61626C 
 718      65537461 
 718      746500
 719              	.LASF24:
 720 01b6 474E5520 		.ascii	"GNU C 4.4.1\000"
 720      4320342E 
 720      342E3100 
 721              	.LASF13:
 722 01c2 63686172 		.ascii	"char\000"
 722      00
 723              	.LASF2:
 724 01c7 73686F72 		.ascii	"short int\000"
 724      7420696E 
 724      7400
 725              	.LASF23:
 726 01d1 436F756E 		.ascii	"Counter_ADC_Sleep\000"
 726      7465725F 
 726      4144435F 
 726      536C6565 
 726      7000
 727              	.LASF4:
 728 01e3 6C6F6E67 		.ascii	"long int\000"
 728      20696E74 
 728      00
 729              	.LASF0:
 730 01ec 7369676E 		.ascii	"signed char\000"
 730      65642063 
 730      68617200 
ARM GAS  C:\Users\SUZUKI~1\AppData\Local\Temp\ccM22Nsb.s 			page 19


 731              	.LASF18:
 732 01f8 496E7465 		.ascii	"InterruptMaskValue\000"
 732      72727570 
 732      744D6173 
 732      6B56616C 
 732      756500
 733              		.ident	"GCC: (Sourcery G++ Lite 2010q1-188) 4.4.1"
