ARM GAS  C:\Users\SUZUKI~1\AppData\Local\Temp\cc8hPzbE.s 			page 1


   1              		.syntax unified
   2              		.cpu cortex-m3
   3              		.fpu softvfp
   4              		.eabi_attribute 20, 1
   5              		.eabi_attribute 21, 1
   6              		.eabi_attribute 23, 3
   7              		.eabi_attribute 24, 1
   8              		.eabi_attribute 25, 1
   9              		.eabi_attribute 26, 1
  10              		.eabi_attribute 30, 4
  11              		.eabi_attribute 18, 4
  12              		.thumb
  13              		.file	"DMA_SOUND_dma.c"
  14              		.section	.debug_abbrev,"",%progbits
  15              	.Ldebug_abbrev0:
  16              		.section	.debug_info,"",%progbits
  17              	.Ldebug_info0:
  18              		.section	.debug_line,"",%progbits
  19              	.Ldebug_line0:
  20 0000 9C000000 		.text
  20      02006500 
  20      00000201 
  20      FB0E0D00 
  20      01010101 
  21              	.Ltext0:
  22              		.cfi_sections	.debug_frame
  23              		.section	.text.DMA_SOUND_DmaRelease,"ax",%progbits
  24              		.align	1
  25              		.global	DMA_SOUND_DmaRelease
  26              		.thumb
  27              		.thumb_func
  28              		.type	DMA_SOUND_DmaRelease, %function
  29              	DMA_SOUND_DmaRelease:
  30              	.LFB1:
  31              		.file 1 ".\\Generated_Source\\PSoC5\\DMA_SOUND_dma.c"
   1:.\Generated_Source\PSoC5/DMA_SOUND_dma.c **** /***************************************************************************
   2:.\Generated_Source\PSoC5/DMA_SOUND_dma.c **** * File Name: DMA_SOUND_dma.c  
   3:.\Generated_Source\PSoC5/DMA_SOUND_dma.c **** * Version 1.60
   4:.\Generated_Source\PSoC5/DMA_SOUND_dma.c **** *
   5:.\Generated_Source\PSoC5/DMA_SOUND_dma.c **** *  Description:
   6:.\Generated_Source\PSoC5/DMA_SOUND_dma.c **** *   Provides an API for the DMAC component. The API includes functions
   7:.\Generated_Source\PSoC5/DMA_SOUND_dma.c **** *   for the DMA controller, DMA channels and Transfer Descriptors.
   8:.\Generated_Source\PSoC5/DMA_SOUND_dma.c **** *
   9:.\Generated_Source\PSoC5/DMA_SOUND_dma.c **** *
  10:.\Generated_Source\PSoC5/DMA_SOUND_dma.c **** *   Note:
  11:.\Generated_Source\PSoC5/DMA_SOUND_dma.c **** *     This module requires the developer to finish or fill in the auto
  12:.\Generated_Source\PSoC5/DMA_SOUND_dma.c **** *     generated funcions and setup the dma channel and TD's.
  13:.\Generated_Source\PSoC5/DMA_SOUND_dma.c **** *
  14:.\Generated_Source\PSoC5/DMA_SOUND_dma.c **** ********************************************************************************
  15:.\Generated_Source\PSoC5/DMA_SOUND_dma.c **** * Copyright 2008-2010, Cypress Semiconductor Corporation.  All rights reserved.
  16:.\Generated_Source\PSoC5/DMA_SOUND_dma.c **** * You may use this file only in accordance with the license, terms, conditions, 
  17:.\Generated_Source\PSoC5/DMA_SOUND_dma.c **** * disclaimers, and limitations in the end user license agreement accompanying 
  18:.\Generated_Source\PSoC5/DMA_SOUND_dma.c **** * the software package with which this file was provided.
  19:.\Generated_Source\PSoC5/DMA_SOUND_dma.c **** ********************************************************************************/
  20:.\Generated_Source\PSoC5/DMA_SOUND_dma.c **** #include <CYLIB.H>
  21:.\Generated_Source\PSoC5/DMA_SOUND_dma.c **** #include <CYDMAC.H>
  22:.\Generated_Source\PSoC5/DMA_SOUND_dma.c **** #include <DMA_SOUND_dma.H>
ARM GAS  C:\Users\SUZUKI~1\AppData\Local\Temp\cc8hPzbE.s 			page 2


  23:.\Generated_Source\PSoC5/DMA_SOUND_dma.c **** 
  24:.\Generated_Source\PSoC5/DMA_SOUND_dma.c **** 
  25:.\Generated_Source\PSoC5/DMA_SOUND_dma.c **** 
  26:.\Generated_Source\PSoC5/DMA_SOUND_dma.c **** /****************************************************************************
  27:.\Generated_Source\PSoC5/DMA_SOUND_dma.c **** * 
  28:.\Generated_Source\PSoC5/DMA_SOUND_dma.c **** * The following defines are available in Cyfitter.h
  29:.\Generated_Source\PSoC5/DMA_SOUND_dma.c **** * 
  30:.\Generated_Source\PSoC5/DMA_SOUND_dma.c **** * 
  31:.\Generated_Source\PSoC5/DMA_SOUND_dma.c **** * 
  32:.\Generated_Source\PSoC5/DMA_SOUND_dma.c **** * DMA_SOUND__DRQ_CTL_REG
  33:.\Generated_Source\PSoC5/DMA_SOUND_dma.c **** * 
  34:.\Generated_Source\PSoC5/DMA_SOUND_dma.c **** * 
  35:.\Generated_Source\PSoC5/DMA_SOUND_dma.c **** * DMA_SOUND__DRQ_NUMBER
  36:.\Generated_Source\PSoC5/DMA_SOUND_dma.c **** * 
  37:.\Generated_Source\PSoC5/DMA_SOUND_dma.c **** * Number of TD's used by this channel.
  38:.\Generated_Source\PSoC5/DMA_SOUND_dma.c **** * DMA_SOUND__NUMBEROF_TDS
  39:.\Generated_Source\PSoC5/DMA_SOUND_dma.c **** * 
  40:.\Generated_Source\PSoC5/DMA_SOUND_dma.c **** * Priority of this channel.
  41:.\Generated_Source\PSoC5/DMA_SOUND_dma.c **** * DMA_SOUND__PRIORITY
  42:.\Generated_Source\PSoC5/DMA_SOUND_dma.c **** * 
  43:.\Generated_Source\PSoC5/DMA_SOUND_dma.c **** * True if DMA_SOUND_TERMIN_SEL is used.
  44:.\Generated_Source\PSoC5/DMA_SOUND_dma.c **** * DMA_SOUND__TERMIN_EN
  45:.\Generated_Source\PSoC5/DMA_SOUND_dma.c **** * 
  46:.\Generated_Source\PSoC5/DMA_SOUND_dma.c **** * TERMIN interrupt line to signal terminate.
  47:.\Generated_Source\PSoC5/DMA_SOUND_dma.c **** * DMA_SOUND__TERMIN_SEL
  48:.\Generated_Source\PSoC5/DMA_SOUND_dma.c **** * 
  49:.\Generated_Source\PSoC5/DMA_SOUND_dma.c **** * 
  50:.\Generated_Source\PSoC5/DMA_SOUND_dma.c **** * True if DMA_SOUND_TERMOUT0_SEL is used.
  51:.\Generated_Source\PSoC5/DMA_SOUND_dma.c **** * DMA_SOUND__TERMOUT0_EN
  52:.\Generated_Source\PSoC5/DMA_SOUND_dma.c **** * 
  53:.\Generated_Source\PSoC5/DMA_SOUND_dma.c **** * 
  54:.\Generated_Source\PSoC5/DMA_SOUND_dma.c **** * TERMOUT0 interrupt line to signal completion.
  55:.\Generated_Source\PSoC5/DMA_SOUND_dma.c **** * DMA_SOUND__TERMOUT0_SEL
  56:.\Generated_Source\PSoC5/DMA_SOUND_dma.c **** * 
  57:.\Generated_Source\PSoC5/DMA_SOUND_dma.c **** * 
  58:.\Generated_Source\PSoC5/DMA_SOUND_dma.c **** * True if DMA_SOUND_TERMOUT1_SEL is used.
  59:.\Generated_Source\PSoC5/DMA_SOUND_dma.c **** * DMA_SOUND__TERMOUT1_EN
  60:.\Generated_Source\PSoC5/DMA_SOUND_dma.c **** * 
  61:.\Generated_Source\PSoC5/DMA_SOUND_dma.c **** * 
  62:.\Generated_Source\PSoC5/DMA_SOUND_dma.c **** * TERMOUT1 interrupt line to signal completion.
  63:.\Generated_Source\PSoC5/DMA_SOUND_dma.c **** * DMA_SOUND__TERMOUT1_SEL
  64:.\Generated_Source\PSoC5/DMA_SOUND_dma.c **** * 
  65:.\Generated_Source\PSoC5/DMA_SOUND_dma.c **** ****************************************************************************/
  66:.\Generated_Source\PSoC5/DMA_SOUND_dma.c **** 
  67:.\Generated_Source\PSoC5/DMA_SOUND_dma.c **** 
  68:.\Generated_Source\PSoC5/DMA_SOUND_dma.c **** /* Zero based index of DMA_SOUND dma channel */
  69:.\Generated_Source\PSoC5/DMA_SOUND_dma.c **** uint8 DMA_SOUND_DmaHandle = DMA_INVALID_CHANNEL;
  70:.\Generated_Source\PSoC5/DMA_SOUND_dma.c **** 
  71:.\Generated_Source\PSoC5/DMA_SOUND_dma.c **** /*********************************************************************
  72:.\Generated_Source\PSoC5/DMA_SOUND_dma.c **** * Function Name: uint8 DMA_SOUND_DmaInitalize
  73:.\Generated_Source\PSoC5/DMA_SOUND_dma.c **** **********************************************************************
  74:.\Generated_Source\PSoC5/DMA_SOUND_dma.c **** * Summary:
  75:.\Generated_Source\PSoC5/DMA_SOUND_dma.c **** *   Allocates and initialises a channel of the DMAC to be used by the
  76:.\Generated_Source\PSoC5/DMA_SOUND_dma.c **** *   caller.
  77:.\Generated_Source\PSoC5/DMA_SOUND_dma.c **** *
  78:.\Generated_Source\PSoC5/DMA_SOUND_dma.c **** * Parameters:
  79:.\Generated_Source\PSoC5/DMA_SOUND_dma.c **** *   BurstCount.
ARM GAS  C:\Users\SUZUKI~1\AppData\Local\Temp\cc8hPzbE.s 			page 3


  80:.\Generated_Source\PSoC5/DMA_SOUND_dma.c **** *       
  81:.\Generated_Source\PSoC5/DMA_SOUND_dma.c **** *       
  82:.\Generated_Source\PSoC5/DMA_SOUND_dma.c **** *   ReqestPerBurst.
  83:.\Generated_Source\PSoC5/DMA_SOUND_dma.c **** *       
  84:.\Generated_Source\PSoC5/DMA_SOUND_dma.c **** *       
  85:.\Generated_Source\PSoC5/DMA_SOUND_dma.c **** *   UpperSrcAddress.
  86:.\Generated_Source\PSoC5/DMA_SOUND_dma.c **** *       
  87:.\Generated_Source\PSoC5/DMA_SOUND_dma.c **** *       
  88:.\Generated_Source\PSoC5/DMA_SOUND_dma.c **** *   UpperDestAddress.
  89:.\Generated_Source\PSoC5/DMA_SOUND_dma.c **** *       
  90:.\Generated_Source\PSoC5/DMA_SOUND_dma.c **** *
  91:.\Generated_Source\PSoC5/DMA_SOUND_dma.c **** * Return:
  92:.\Generated_Source\PSoC5/DMA_SOUND_dma.c **** *   The channel that can be used by the caller for DMA activity.
  93:.\Generated_Source\PSoC5/DMA_SOUND_dma.c **** *   DMA_INVALID_CHANNEL (0xFF) if there are no channels left. 
  94:.\Generated_Source\PSoC5/DMA_SOUND_dma.c **** *
  95:.\Generated_Source\PSoC5/DMA_SOUND_dma.c **** *
  96:.\Generated_Source\PSoC5/DMA_SOUND_dma.c **** *******************************************************************/
  97:.\Generated_Source\PSoC5/DMA_SOUND_dma.c **** uint8 DMA_SOUND_DmaInitialize(uint8 BurstCount, uint8 ReqestPerBurst, uint16 UpperSrcAddress, uint1
  98:.\Generated_Source\PSoC5/DMA_SOUND_dma.c **** {
  99:.\Generated_Source\PSoC5/DMA_SOUND_dma.c **** 
 100:.\Generated_Source\PSoC5/DMA_SOUND_dma.c ****     /* Allocate a DMA channel. */
 101:.\Generated_Source\PSoC5/DMA_SOUND_dma.c ****     DMA_SOUND_DmaHandle = DMA_SOUND__DRQ_NUMBER;
 102:.\Generated_Source\PSoC5/DMA_SOUND_dma.c **** 
 103:.\Generated_Source\PSoC5/DMA_SOUND_dma.c ****     if(DMA_SOUND_DmaHandle != DMA_INVALID_CHANNEL)
 104:.\Generated_Source\PSoC5/DMA_SOUND_dma.c ****     {
 105:.\Generated_Source\PSoC5/DMA_SOUND_dma.c ****         /* Configure the channel. */
 106:.\Generated_Source\PSoC5/DMA_SOUND_dma.c ****         CyDmaChSetConfiguration(DMA_SOUND_DmaHandle,
 107:.\Generated_Source\PSoC5/DMA_SOUND_dma.c ****                                 BurstCount,
 108:.\Generated_Source\PSoC5/DMA_SOUND_dma.c ****                                 ReqestPerBurst,
 109:.\Generated_Source\PSoC5/DMA_SOUND_dma.c ****                                 DMA_SOUND__TERMOUT0_SEL,
 110:.\Generated_Source\PSoC5/DMA_SOUND_dma.c ****                                 DMA_SOUND__TERMOUT1_SEL,
 111:.\Generated_Source\PSoC5/DMA_SOUND_dma.c ****                                 DMA_SOUND__TERMIN_SEL);
 112:.\Generated_Source\PSoC5/DMA_SOUND_dma.c **** 
 113:.\Generated_Source\PSoC5/DMA_SOUND_dma.c ****         /* Set the extended address for the transfers */
 114:.\Generated_Source\PSoC5/DMA_SOUND_dma.c ****         CyDmaChSetExtendedAddress(DMA_SOUND_DmaHandle, UpperSrcAddress, UpperDestAddress);
 115:.\Generated_Source\PSoC5/DMA_SOUND_dma.c **** 
 116:.\Generated_Source\PSoC5/DMA_SOUND_dma.c ****         /* Set the priority for this channel */
 117:.\Generated_Source\PSoC5/DMA_SOUND_dma.c ****         CyDmaChPriority(DMA_SOUND_DmaHandle, DMA_SOUND__PRIORITY);
 118:.\Generated_Source\PSoC5/DMA_SOUND_dma.c ****     }
 119:.\Generated_Source\PSoC5/DMA_SOUND_dma.c **** 
 120:.\Generated_Source\PSoC5/DMA_SOUND_dma.c ****     return DMA_SOUND_DmaHandle;
 121:.\Generated_Source\PSoC5/DMA_SOUND_dma.c **** }
 122:.\Generated_Source\PSoC5/DMA_SOUND_dma.c **** 
 123:.\Generated_Source\PSoC5/DMA_SOUND_dma.c **** /*********************************************************************
 124:.\Generated_Source\PSoC5/DMA_SOUND_dma.c **** * Function Name: void DMA_SOUND_DmaRelease
 125:.\Generated_Source\PSoC5/DMA_SOUND_dma.c **** **********************************************************************
 126:.\Generated_Source\PSoC5/DMA_SOUND_dma.c **** * Summary:
 127:.\Generated_Source\PSoC5/DMA_SOUND_dma.c **** *   Frees the channel associated with DMA_SOUND.
 128:.\Generated_Source\PSoC5/DMA_SOUND_dma.c **** *
 129:.\Generated_Source\PSoC5/DMA_SOUND_dma.c **** *
 130:.\Generated_Source\PSoC5/DMA_SOUND_dma.c **** * Parameters:
 131:.\Generated_Source\PSoC5/DMA_SOUND_dma.c **** *   void.
 132:.\Generated_Source\PSoC5/DMA_SOUND_dma.c **** *
 133:.\Generated_Source\PSoC5/DMA_SOUND_dma.c **** *
 134:.\Generated_Source\PSoC5/DMA_SOUND_dma.c **** *
 135:.\Generated_Source\PSoC5/DMA_SOUND_dma.c **** * Return:
 136:.\Generated_Source\PSoC5/DMA_SOUND_dma.c **** *   void.
ARM GAS  C:\Users\SUZUKI~1\AppData\Local\Temp\cc8hPzbE.s 			page 4


 137:.\Generated_Source\PSoC5/DMA_SOUND_dma.c **** *
 138:.\Generated_Source\PSoC5/DMA_SOUND_dma.c **** *******************************************************************/
 139:.\Generated_Source\PSoC5/DMA_SOUND_dma.c **** void DMA_SOUND_DmaRelease(void) 
 140:.\Generated_Source\PSoC5/DMA_SOUND_dma.c **** {
  32              		.loc 1 140 0
  33              		.cfi_startproc
  34              		@ args = 0, pretend = 0, frame = 0
  35              		@ frame_needed = 0, uses_anonymous_args = 0
  36              		@ link register save eliminated.
 141:.\Generated_Source\PSoC5/DMA_SOUND_dma.c ****     /* Disable the channel, even if someone just did! */
 142:.\Generated_Source\PSoC5/DMA_SOUND_dma.c ****     CyDmaChDisable(DMA_SOUND_DmaHandle);
  37              		.loc 1 142 0
  38 0000 014B     		ldr	r3, .L3
  39 0002 1878     		ldrb	r0, [r3, #0]	@ zero_extendqisi2
 143:.\Generated_Source\PSoC5/DMA_SOUND_dma.c **** 
 144:.\Generated_Source\PSoC5/DMA_SOUND_dma.c **** 
 145:.\Generated_Source\PSoC5/DMA_SOUND_dma.c ****     /* Free Transfer Descriptors. */
 146:.\Generated_Source\PSoC5/DMA_SOUND_dma.c **** 
 147:.\Generated_Source\PSoC5/DMA_SOUND_dma.c **** 
 148:.\Generated_Source\PSoC5/DMA_SOUND_dma.c **** }
  40              		.loc 1 148 0
  41              		.loc 1 142 0
  42 0004 FFF7FEBF 		b	CyDmaChDisable
  43              	.L4:
  44              		.align	2
  45              	.L3:
  46 0008 00000000 		.word	.LANCHOR0
  47              		.cfi_endproc
  48              	.LFE1:
  49              		.size	DMA_SOUND_DmaRelease, .-DMA_SOUND_DmaRelease
  50              		.section	.text.DMA_SOUND_DmaInitialize,"ax",%progbits
  51              		.align	1
  52              		.global	DMA_SOUND_DmaInitialize
  53              		.thumb
  54              		.thumb_func
  55              		.type	DMA_SOUND_DmaInitialize, %function
  56              	DMA_SOUND_DmaInitialize:
  57              	.LFB0:
  58              		.loc 1 98 0
  59              		.cfi_startproc
  60              		@ args = 0, pretend = 0, frame = 0
  61              		@ frame_needed = 0, uses_anonymous_args = 0
  62              	.LVL0:
  63 0000 F7B5     		push	{r0, r1, r2, r4, r5, r6, r7, lr}
  64              	.LCFI0:
  65              		.cfi_def_cfa_offset 32
  66              	.LVL1:
  67              		.loc 1 98 0
  68 0002 8C46     		mov	ip, r1
  69              	.LVL2:
  70 0004 8646     		mov	lr, r0
  71              		.cfi_offset 14, -4
  72              		.cfi_offset 7, -8
  73              		.cfi_offset 6, -12
  74              		.cfi_offset 5, -16
  75              		.cfi_offset 4, -20
  76              		.cfi_offset 2, -24
ARM GAS  C:\Users\SUZUKI~1\AppData\Local\Temp\cc8hPzbE.s 			page 5


  77              		.cfi_offset 1, -28
  78              		.cfi_offset 0, -32
  79              	.LVL3:
  80              		.loc 1 101 0
  81 0006 0C4C     		ldr	r4, .L7
  82 0008 0225     		movs	r5, #2
  83              		.loc 1 106 0
  84 000a 7146     		mov	r1, lr
  85              	.LVL4:
  86              		.loc 1 98 0
  87 000c 1746     		mov	r7, r2
  88              	.LVL5:
  89 000e 1E46     		mov	r6, r3
  90              		.loc 1 106 0
  91 0010 6246     		mov	r2, ip
  92              	.LVL6:
  93 0012 0023     		movs	r3, #0
  94              	.LVL7:
  95 0014 2846     		mov	r0, r5
  96              	.LVL8:
  97 0016 0093     		str	r3, [sp, #0]
  98 0018 0193     		str	r3, [sp, #4]
  99              		.loc 1 101 0
 100 001a 2570     		strb	r5, [r4, #0]
 101              		.loc 1 106 0
 102 001c FFF7FEFF 		bl	CyDmaChSetConfiguration
 103              	.LVL9:
 104              		.loc 1 114 0
 105 0020 3946     		mov	r1, r7
 106 0022 3246     		mov	r2, r6
 107 0024 2078     		ldrb	r0, [r4, #0]	@ zero_extendqisi2
 108 0026 FFF7FEFF 		bl	CyDmaChSetExtendedAddress
 109              		.loc 1 117 0
 110 002a 2078     		ldrb	r0, [r4, #0]	@ zero_extendqisi2
 111 002c 2946     		mov	r1, r5
 112 002e FFF7FEFF 		bl	CyDmaChPriority
 113              		.loc 1 121 0
 114 0032 2078     		ldrb	r0, [r4, #0]	@ zero_extendqisi2
 115 0034 FEBD     		pop	{r1, r2, r3, r4, r5, r6, r7, pc}
 116              	.L8:
 117 0036 00BF     		.align	2
 118              	.L7:
 119 0038 00000000 		.word	.LANCHOR0
 120              		.cfi_endproc
 121              	.LFE0:
 122              		.size	DMA_SOUND_DmaInitialize, .-DMA_SOUND_DmaInitialize
 123              		.global	DMA_SOUND_DmaHandle
 124              		.data
 125              		.set	.LANCHOR0,. + 0
 126              		.type	DMA_SOUND_DmaHandle, %object
 127              		.size	DMA_SOUND_DmaHandle, 1
 128              	DMA_SOUND_DmaHandle:
 129 0000 FF       		.byte	-1
 130              		.text
 131              	.Letext0:
 132              		.section	.debug_loc,"",%progbits
 133              	.Ldebug_loc0:
ARM GAS  C:\Users\SUZUKI~1\AppData\Local\Temp\cc8hPzbE.s 			page 6


 134              	.LLST1:
 135 0000 00000000 		.4byte	.LFB0
 136 0004 02000000 		.4byte	.LCFI0
 137 0008 0100     		.2byte	0x1
 138 000a 5D       		.byte	0x5d
 139 000b 02000000 		.4byte	.LCFI0
 140 000f 3C000000 		.4byte	.LFE0
 141 0013 0200     		.2byte	0x2
 142 0015 7D       		.byte	0x7d
 143 0016 20       		.sleb128 32
 144 0017 00000000 		.4byte	0x0
 145 001b 00000000 		.4byte	0x0
 146              	.LLST2:
 147 001f 00000000 		.4byte	.LVL0
 148 0023 02000000 		.4byte	.LVL1
 149 0027 0100     		.2byte	0x1
 150 0029 50       		.byte	0x50
 151 002a 06000000 		.4byte	.LVL3
 152 002e 16000000 		.4byte	.LVL8
 153 0032 0100     		.2byte	0x1
 154 0034 50       		.byte	0x50
 155 0035 16000000 		.4byte	.LVL8
 156 0039 20000000 		.4byte	.LVL9
 157 003d 0100     		.2byte	0x1
 158 003f 5E       		.byte	0x5e
 159 0040 00000000 		.4byte	0x0
 160 0044 00000000 		.4byte	0x0
 161              	.LLST3:
 162 0048 00000000 		.4byte	.LVL0
 163 004c 02000000 		.4byte	.LVL1
 164 0050 0100     		.2byte	0x1
 165 0052 51       		.byte	0x51
 166 0053 04000000 		.4byte	.LVL2
 167 0057 0C000000 		.4byte	.LVL4
 168 005b 0100     		.2byte	0x1
 169 005d 51       		.byte	0x51
 170 005e 0C000000 		.4byte	.LVL4
 171 0062 20000000 		.4byte	.LVL9
 172 0066 0100     		.2byte	0x1
 173 0068 5C       		.byte	0x5c
 174 0069 00000000 		.4byte	0x0
 175 006d 00000000 		.4byte	0x0
 176              	.LLST4:
 177 0071 00000000 		.4byte	.LVL0
 178 0075 02000000 		.4byte	.LVL1
 179 0079 0100     		.2byte	0x1
 180 007b 52       		.byte	0x52
 181 007c 0E000000 		.4byte	.LVL5
 182 0080 12000000 		.4byte	.LVL6
 183 0084 0100     		.2byte	0x1
 184 0086 52       		.byte	0x52
 185 0087 12000000 		.4byte	.LVL6
 186 008b 3C000000 		.4byte	.LFE0
 187 008f 0100     		.2byte	0x1
 188 0091 57       		.byte	0x57
 189 0092 00000000 		.4byte	0x0
 190 0096 00000000 		.4byte	0x0
ARM GAS  C:\Users\SUZUKI~1\AppData\Local\Temp\cc8hPzbE.s 			page 7


 191              	.LLST5:
 192 009a 00000000 		.4byte	.LVL0
 193 009e 14000000 		.4byte	.LVL7
 194 00a2 0100     		.2byte	0x1
 195 00a4 53       		.byte	0x53
 196 00a5 14000000 		.4byte	.LVL7
 197 00a9 3C000000 		.4byte	.LFE0
 198 00ad 0100     		.2byte	0x1
 199 00af 56       		.byte	0x56
 200 00b0 00000000 		.4byte	0x0
 201 00b4 00000000 		.4byte	0x0
 202              		.file 2 "./Generated_Source/PSoC5/cytypes.h"
 203              		.section	.debug_info
 204 0000 0B010000 		.4byte	0x10b
 205 0004 0200     		.2byte	0x2
 206 0006 00000000 		.4byte	.Ldebug_abbrev0
 207 000a 04       		.byte	0x4
 208 000b 01       		.uleb128 0x1
 209 000c BA000000 		.4byte	.LASF16
 210 0010 01       		.byte	0x1
 211 0011 4E000000 		.4byte	.LASF17
 212 0015 D4000000 		.4byte	.LASF18
 213 0019 00000000 		.4byte	0x0
 214 001d 00000000 		.4byte	0x0
 215 0021 00000000 		.4byte	.Ldebug_ranges0+0x0
 216 0025 00000000 		.4byte	.Ldebug_line0
 217 0029 02       		.uleb128 0x2
 218 002a 01       		.byte	0x1
 219 002b 06       		.byte	0x6
 220 002c 41010000 		.4byte	.LASF0
 221 0030 02       		.uleb128 0x2
 222 0031 01       		.byte	0x1
 223 0032 08       		.byte	0x8
 224 0033 C6000000 		.4byte	.LASF1
 225 0037 02       		.uleb128 0x2
 226 0038 02       		.byte	0x2
 227 0039 05       		.byte	0x5
 228 003a 6D010000 		.4byte	.LASF2
 229 003e 02       		.uleb128 0x2
 230 003f 02       		.byte	0x2
 231 0040 07       		.byte	0x7
 232 0041 2E010000 		.4byte	.LASF3
 233 0045 03       		.uleb128 0x3
 234 0046 04       		.byte	0x4
 235 0047 05       		.byte	0x5
 236 0048 696E7400 		.ascii	"int\000"
 237 004c 02       		.uleb128 0x2
 238 004d 04       		.byte	0x4
 239 004e 07       		.byte	0x7
 240 004f 1E000000 		.4byte	.LASF4
 241 0053 02       		.uleb128 0x2
 242 0054 08       		.byte	0x8
 243 0055 05       		.byte	0x5
 244 0056 00000000 		.4byte	.LASF5
 245 005a 02       		.uleb128 0x2
 246 005b 08       		.byte	0x8
 247 005c 07       		.byte	0x7
ARM GAS  C:\Users\SUZUKI~1\AppData\Local\Temp\cc8hPzbE.s 			page 8


 248 005d 8F000000 		.4byte	.LASF6
 249 0061 02       		.uleb128 0x2
 250 0062 04       		.byte	0x4
 251 0063 05       		.byte	0x5
 252 0064 10010000 		.4byte	.LASF7
 253 0068 04       		.uleb128 0x4
 254 0069 04       		.byte	0x4
 255 006a 07       		.byte	0x7
 256 006b 02       		.uleb128 0x2
 257 006c 04       		.byte	0x4
 258 006d 07       		.byte	0x7
 259 006e 7D000000 		.4byte	.LASF8
 260 0072 02       		.uleb128 0x2
 261 0073 01       		.byte	0x1
 262 0074 08       		.byte	0x8
 263 0075 0B010000 		.4byte	.LASF9
 264 0079 05       		.uleb128 0x5
 265 007a 77000000 		.4byte	.LASF10
 266 007e 02       		.byte	0x2
 267 007f 60       		.byte	0x60
 268 0080 30000000 		.4byte	0x30
 269 0084 05       		.uleb128 0x5
 270 0085 77010000 		.4byte	.LASF11
 271 0089 02       		.byte	0x2
 272 008a 61       		.byte	0x61
 273 008b 3E000000 		.4byte	0x3e
 274 008f 06       		.uleb128 0x6
 275 0090 01       		.byte	0x1
 276 0091 19010000 		.4byte	.LASF19
 277 0095 01       		.byte	0x1
 278 0096 8B       		.byte	0x8b
 279 0097 01       		.byte	0x1
 280 0098 00000000 		.4byte	.LFB1
 281 009c 0C000000 		.4byte	.LFE1
 282 00a0 01       		.byte	0x1
 283 00a1 5D       		.byte	0x5d
 284 00a2 07       		.uleb128 0x7
 285 00a3 01       		.byte	0x1
 286 00a4 2B000000 		.4byte	.LASF20
 287 00a8 01       		.byte	0x1
 288 00a9 61       		.byte	0x61
 289 00aa 01       		.byte	0x1
 290 00ab 79000000 		.4byte	0x79
 291 00af 00000000 		.4byte	.LFB0
 292 00b3 3C000000 		.4byte	.LFE0
 293 00b7 00000000 		.4byte	.LLST1
 294 00bb FC000000 		.4byte	0xfc
 295 00bf 08       		.uleb128 0x8
 296 00c0 43000000 		.4byte	.LASF12
 297 00c4 01       		.byte	0x1
 298 00c5 61       		.byte	0x61
 299 00c6 79000000 		.4byte	0x79
 300 00ca 1F000000 		.4byte	.LLST2
 301 00ce 08       		.uleb128 0x8
 302 00cf 4D010000 		.4byte	.LASF13
 303 00d3 01       		.byte	0x1
 304 00d4 61       		.byte	0x61
ARM GAS  C:\Users\SUZUKI~1\AppData\Local\Temp\cc8hPzbE.s 			page 9


 305 00d5 79000000 		.4byte	0x79
 306 00d9 48000000 		.4byte	.LLST3
 307 00dd 08       		.uleb128 0x8
 308 00de 0E000000 		.4byte	.LASF14
 309 00e2 01       		.byte	0x1
 310 00e3 61       		.byte	0x61
 311 00e4 84000000 		.4byte	0x84
 312 00e8 71000000 		.4byte	.LLST4
 313 00ec 08       		.uleb128 0x8
 314 00ed 5C010000 		.4byte	.LASF15
 315 00f1 01       		.byte	0x1
 316 00f2 61       		.byte	0x61
 317 00f3 84000000 		.4byte	0x84
 318 00f7 9A000000 		.4byte	.LLST5
 319 00fb 00       		.byte	0x0
 320 00fc 09       		.uleb128 0x9
 321 00fd A6000000 		.4byte	.LASF21
 322 0101 01       		.byte	0x1
 323 0102 45       		.byte	0x45
 324 0103 79000000 		.4byte	0x79
 325 0107 01       		.byte	0x1
 326 0108 05       		.byte	0x5
 327 0109 03       		.byte	0x3
 328 010a 00000000 		.4byte	DMA_SOUND_DmaHandle
 329 010e 00       		.byte	0x0
 330              		.section	.debug_abbrev
 331 0000 01       		.uleb128 0x1
 332 0001 11       		.uleb128 0x11
 333 0002 01       		.byte	0x1
 334 0003 25       		.uleb128 0x25
 335 0004 0E       		.uleb128 0xe
 336 0005 13       		.uleb128 0x13
 337 0006 0B       		.uleb128 0xb
 338 0007 03       		.uleb128 0x3
 339 0008 0E       		.uleb128 0xe
 340 0009 1B       		.uleb128 0x1b
 341 000a 0E       		.uleb128 0xe
 342 000b 11       		.uleb128 0x11
 343 000c 01       		.uleb128 0x1
 344 000d 52       		.uleb128 0x52
 345 000e 01       		.uleb128 0x1
 346 000f 55       		.uleb128 0x55
 347 0010 06       		.uleb128 0x6
 348 0011 10       		.uleb128 0x10
 349 0012 06       		.uleb128 0x6
 350 0013 00       		.byte	0x0
 351 0014 00       		.byte	0x0
 352 0015 02       		.uleb128 0x2
 353 0016 24       		.uleb128 0x24
 354 0017 00       		.byte	0x0
 355 0018 0B       		.uleb128 0xb
 356 0019 0B       		.uleb128 0xb
 357 001a 3E       		.uleb128 0x3e
 358 001b 0B       		.uleb128 0xb
 359 001c 03       		.uleb128 0x3
 360 001d 0E       		.uleb128 0xe
 361 001e 00       		.byte	0x0
ARM GAS  C:\Users\SUZUKI~1\AppData\Local\Temp\cc8hPzbE.s 			page 10


 362 001f 00       		.byte	0x0
 363 0020 03       		.uleb128 0x3
 364 0021 24       		.uleb128 0x24
 365 0022 00       		.byte	0x0
 366 0023 0B       		.uleb128 0xb
 367 0024 0B       		.uleb128 0xb
 368 0025 3E       		.uleb128 0x3e
 369 0026 0B       		.uleb128 0xb
 370 0027 03       		.uleb128 0x3
 371 0028 08       		.uleb128 0x8
 372 0029 00       		.byte	0x0
 373 002a 00       		.byte	0x0
 374 002b 04       		.uleb128 0x4
 375 002c 24       		.uleb128 0x24
 376 002d 00       		.byte	0x0
 377 002e 0B       		.uleb128 0xb
 378 002f 0B       		.uleb128 0xb
 379 0030 3E       		.uleb128 0x3e
 380 0031 0B       		.uleb128 0xb
 381 0032 00       		.byte	0x0
 382 0033 00       		.byte	0x0
 383 0034 05       		.uleb128 0x5
 384 0035 16       		.uleb128 0x16
 385 0036 00       		.byte	0x0
 386 0037 03       		.uleb128 0x3
 387 0038 0E       		.uleb128 0xe
 388 0039 3A       		.uleb128 0x3a
 389 003a 0B       		.uleb128 0xb
 390 003b 3B       		.uleb128 0x3b
 391 003c 0B       		.uleb128 0xb
 392 003d 49       		.uleb128 0x49
 393 003e 13       		.uleb128 0x13
 394 003f 00       		.byte	0x0
 395 0040 00       		.byte	0x0
 396 0041 06       		.uleb128 0x6
 397 0042 2E       		.uleb128 0x2e
 398 0043 00       		.byte	0x0
 399 0044 3F       		.uleb128 0x3f
 400 0045 0C       		.uleb128 0xc
 401 0046 03       		.uleb128 0x3
 402 0047 0E       		.uleb128 0xe
 403 0048 3A       		.uleb128 0x3a
 404 0049 0B       		.uleb128 0xb
 405 004a 3B       		.uleb128 0x3b
 406 004b 0B       		.uleb128 0xb
 407 004c 27       		.uleb128 0x27
 408 004d 0C       		.uleb128 0xc
 409 004e 11       		.uleb128 0x11
 410 004f 01       		.uleb128 0x1
 411 0050 12       		.uleb128 0x12
 412 0051 01       		.uleb128 0x1
 413 0052 40       		.uleb128 0x40
 414 0053 0A       		.uleb128 0xa
 415 0054 00       		.byte	0x0
 416 0055 00       		.byte	0x0
 417 0056 07       		.uleb128 0x7
 418 0057 2E       		.uleb128 0x2e
ARM GAS  C:\Users\SUZUKI~1\AppData\Local\Temp\cc8hPzbE.s 			page 11


 419 0058 01       		.byte	0x1
 420 0059 3F       		.uleb128 0x3f
 421 005a 0C       		.uleb128 0xc
 422 005b 03       		.uleb128 0x3
 423 005c 0E       		.uleb128 0xe
 424 005d 3A       		.uleb128 0x3a
 425 005e 0B       		.uleb128 0xb
 426 005f 3B       		.uleb128 0x3b
 427 0060 0B       		.uleb128 0xb
 428 0061 27       		.uleb128 0x27
 429 0062 0C       		.uleb128 0xc
 430 0063 49       		.uleb128 0x49
 431 0064 13       		.uleb128 0x13
 432 0065 11       		.uleb128 0x11
 433 0066 01       		.uleb128 0x1
 434 0067 12       		.uleb128 0x12
 435 0068 01       		.uleb128 0x1
 436 0069 40       		.uleb128 0x40
 437 006a 06       		.uleb128 0x6
 438 006b 01       		.uleb128 0x1
 439 006c 13       		.uleb128 0x13
 440 006d 00       		.byte	0x0
 441 006e 00       		.byte	0x0
 442 006f 08       		.uleb128 0x8
 443 0070 05       		.uleb128 0x5
 444 0071 00       		.byte	0x0
 445 0072 03       		.uleb128 0x3
 446 0073 0E       		.uleb128 0xe
 447 0074 3A       		.uleb128 0x3a
 448 0075 0B       		.uleb128 0xb
 449 0076 3B       		.uleb128 0x3b
 450 0077 0B       		.uleb128 0xb
 451 0078 49       		.uleb128 0x49
 452 0079 13       		.uleb128 0x13
 453 007a 02       		.uleb128 0x2
 454 007b 06       		.uleb128 0x6
 455 007c 00       		.byte	0x0
 456 007d 00       		.byte	0x0
 457 007e 09       		.uleb128 0x9
 458 007f 34       		.uleb128 0x34
 459 0080 00       		.byte	0x0
 460 0081 03       		.uleb128 0x3
 461 0082 0E       		.uleb128 0xe
 462 0083 3A       		.uleb128 0x3a
 463 0084 0B       		.uleb128 0xb
 464 0085 3B       		.uleb128 0x3b
 465 0086 0B       		.uleb128 0xb
 466 0087 49       		.uleb128 0x49
 467 0088 13       		.uleb128 0x13
 468 0089 3F       		.uleb128 0x3f
 469 008a 0C       		.uleb128 0xc
 470 008b 02       		.uleb128 0x2
 471 008c 0A       		.uleb128 0xa
 472 008d 00       		.byte	0x0
 473 008e 00       		.byte	0x0
 474 008f 00       		.byte	0x0
 475              		.section	.debug_pubnames,"",%progbits
ARM GAS  C:\Users\SUZUKI~1\AppData\Local\Temp\cc8hPzbE.s 			page 12


 476 0000 5B000000 		.4byte	0x5b
 477 0004 0200     		.2byte	0x2
 478 0006 00000000 		.4byte	.Ldebug_info0
 479 000a 0F010000 		.4byte	0x10f
 480 000e 8F000000 		.4byte	0x8f
 481 0012 444D415F 		.ascii	"DMA_SOUND_DmaRelease\000"
 481      534F554E 
 481      445F446D 
 481      6152656C 
 481      65617365 
 482 0027 A2000000 		.4byte	0xa2
 483 002b 444D415F 		.ascii	"DMA_SOUND_DmaInitialize\000"
 483      534F554E 
 483      445F446D 
 483      61496E69 
 483      7469616C 
 484 0043 FC000000 		.4byte	0xfc
 485 0047 444D415F 		.ascii	"DMA_SOUND_DmaHandle\000"
 485      534F554E 
 485      445F446D 
 485      6148616E 
 485      646C6500 
 486 005b 00000000 		.4byte	0x0
 487              		.section	.debug_aranges,"",%progbits
 488 0000 24000000 		.4byte	0x24
 489 0004 0200     		.2byte	0x2
 490 0006 00000000 		.4byte	.Ldebug_info0
 491 000a 04       		.byte	0x4
 492 000b 00       		.byte	0x0
 493 000c 0000     		.2byte	0x0
 494 000e 0000     		.2byte	0x0
 495 0010 00000000 		.4byte	.LFB1
 496 0014 0C000000 		.4byte	.LFE1-.LFB1
 497 0018 00000000 		.4byte	.LFB0
 498 001c 3C000000 		.4byte	.LFE0-.LFB0
 499 0020 00000000 		.4byte	0x0
 500 0024 00000000 		.4byte	0x0
 501              		.section	.debug_ranges,"",%progbits
 502              	.Ldebug_ranges0:
 503 0000 00000000 		.4byte	.Ltext0
 504 0004 00000000 		.4byte	.Letext0
 505 0008 00000000 		.4byte	.LFB1
 506 000c 0C000000 		.4byte	.LFE1
 507 0010 00000000 		.4byte	.LFB0
 508 0014 3C000000 		.4byte	.LFE0
 509 0018 00000000 		.4byte	0x0
 510 001c 00000000 		.4byte	0x0
 511              		.section	.debug_str,"MS",%progbits,1
 512              	.LASF5:
 513 0000 6C6F6E67 		.ascii	"long long int\000"
 513      206C6F6E 
 513      6720696E 
 513      7400
 514              	.LASF14:
 515 000e 55707065 		.ascii	"UpperSrcAddress\000"
 515      72537263 
 515      41646472 
ARM GAS  C:\Users\SUZUKI~1\AppData\Local\Temp\cc8hPzbE.s 			page 13


 515      65737300 
 516              	.LASF4:
 517 001e 756E7369 		.ascii	"unsigned int\000"
 517      676E6564 
 517      20696E74 
 517      00
 518              	.LASF20:
 519 002b 444D415F 		.ascii	"DMA_SOUND_DmaInitialize\000"
 519      534F554E 
 519      445F446D 
 519      61496E69 
 519      7469616C 
 520              	.LASF12:
 521 0043 42757273 		.ascii	"BurstCount\000"
 521      74436F75 
 521      6E7400
 522              	.LASF17:
 523 004e 2E5C4765 		.ascii	".\\Generated_Source\\PSoC5\\DMA_SOUND_dma.c\000"
 523      6E657261 
 523      7465645F 
 523      536F7572 
 523      63655C50 
 524              	.LASF10:
 525 0077 75696E74 		.ascii	"uint8\000"
 525      3800
 526              	.LASF8:
 527 007d 6C6F6E67 		.ascii	"long unsigned int\000"
 527      20756E73 
 527      69676E65 
 527      6420696E 
 527      7400
 528              	.LASF6:
 529 008f 6C6F6E67 		.ascii	"long long unsigned int\000"
 529      206C6F6E 
 529      6720756E 
 529      7369676E 
 529      65642069 
 530              	.LASF21:
 531 00a6 444D415F 		.ascii	"DMA_SOUND_DmaHandle\000"
 531      534F554E 
 531      445F446D 
 531      6148616E 
 531      646C6500 
 532              	.LASF16:
 533 00ba 474E5520 		.ascii	"GNU C 4.4.1\000"
 533      4320342E 
 533      342E3100 
 534              	.LASF1:
 535 00c6 756E7369 		.ascii	"unsigned char\000"
 535      676E6564 
 535      20636861 
 535      7200
 536              	.LASF18:
 537 00d4 463A5C44 		.ascii	"F:\\Documents\\PSoC_Creator\\ledmatrix\\ledmatrixff"
 537      6F63756D 
 537      656E7473 
 537      5C50536F 
ARM GAS  C:\Users\SUZUKI~1\AppData\Local\Temp\cc8hPzbE.s 			page 14


 537      435F4372 
 538 0103 742E6379 		.ascii	"t.cydsn\000"
 538      64736E00 
 539              	.LASF9:
 540 010b 63686172 		.ascii	"char\000"
 540      00
 541              	.LASF7:
 542 0110 6C6F6E67 		.ascii	"long int\000"
 542      20696E74 
 542      00
 543              	.LASF19:
 544 0119 444D415F 		.ascii	"DMA_SOUND_DmaRelease\000"
 544      534F554E 
 544      445F446D 
 544      6152656C 
 544      65617365 
 545              	.LASF3:
 546 012e 73686F72 		.ascii	"short unsigned int\000"
 546      7420756E 
 546      7369676E 
 546      65642069 
 546      6E7400
 547              	.LASF0:
 548 0141 7369676E 		.ascii	"signed char\000"
 548      65642063 
 548      68617200 
 549              	.LASF13:
 550 014d 52657165 		.ascii	"ReqestPerBurst\000"
 550      73745065 
 550      72427572 
 550      737400
 551              	.LASF15:
 552 015c 55707065 		.ascii	"UpperDestAddress\000"
 552      72446573 
 552      74416464 
 552      72657373 
 552      00
 553              	.LASF2:
 554 016d 73686F72 		.ascii	"short int\000"
 554      7420696E 
 554      7400
 555              	.LASF11:
 556 0177 75696E74 		.ascii	"uint16\000"
 556      313600
 557              		.ident	"GCC: (Sourcery G++ Lite 2010q1-188) 4.4.1"
