ARM GAS  C:\Users\SUZUKI~1\AppData\Local\Temp\ccHJtlf1.s 			page 1


   1              		.syntax unified
   2              		.cpu cortex-m3
   3              		.fpu softvfp
   4              		.eabi_attribute 20, 1
   5              		.eabi_attribute 21, 1
   6              		.eabi_attribute 23, 3
   7              		.eabi_attribute 24, 1
   8              		.eabi_attribute 25, 1
   9              		.eabi_attribute 26, 1
  10              		.eabi_attribute 30, 4
  11              		.eabi_attribute 18, 4
  12              		.thumb
  13              		.file	"DMA_FFT_dma.c"
  14              		.section	.debug_abbrev,"",%progbits
  15              	.Ldebug_abbrev0:
  16              		.section	.debug_info,"",%progbits
  17              	.Ldebug_info0:
  18              		.section	.debug_line,"",%progbits
  19              	.Ldebug_line0:
  20 0000 9A000000 		.text
  20      02006300 
  20      00000201 
  20      FB0E0D00 
  20      01010101 
  21              	.Ltext0:
  22              		.cfi_sections	.debug_frame
  23              		.section	.text.DMA_FFT_DmaRelease,"ax",%progbits
  24              		.align	1
  25              		.global	DMA_FFT_DmaRelease
  26              		.thumb
  27              		.thumb_func
  28              		.type	DMA_FFT_DmaRelease, %function
  29              	DMA_FFT_DmaRelease:
  30              	.LFB1:
  31              		.file 1 ".\\Generated_Source\\PSoC5\\DMA_FFT_dma.c"
   1:.\Generated_Source\PSoC5/DMA_FFT_dma.c **** /***************************************************************************
   2:.\Generated_Source\PSoC5/DMA_FFT_dma.c **** * File Name: DMA_FFT_dma.c  
   3:.\Generated_Source\PSoC5/DMA_FFT_dma.c **** * Version 1.70
   4:.\Generated_Source\PSoC5/DMA_FFT_dma.c **** *
   5:.\Generated_Source\PSoC5/DMA_FFT_dma.c **** *  Description:
   6:.\Generated_Source\PSoC5/DMA_FFT_dma.c **** *   Provides an API for the DMAC component. The API includes functions
   7:.\Generated_Source\PSoC5/DMA_FFT_dma.c **** *   for the DMA controller, DMA channels and Transfer Descriptors.
   8:.\Generated_Source\PSoC5/DMA_FFT_dma.c **** *
   9:.\Generated_Source\PSoC5/DMA_FFT_dma.c **** *
  10:.\Generated_Source\PSoC5/DMA_FFT_dma.c **** *   Note:
  11:.\Generated_Source\PSoC5/DMA_FFT_dma.c **** *     This module requires the developer to finish or fill in the auto
  12:.\Generated_Source\PSoC5/DMA_FFT_dma.c **** *     generated funcions and setup the dma channel and TD's.
  13:.\Generated_Source\PSoC5/DMA_FFT_dma.c **** *
  14:.\Generated_Source\PSoC5/DMA_FFT_dma.c **** ********************************************************************************
  15:.\Generated_Source\PSoC5/DMA_FFT_dma.c **** * Copyright 2008-2010, Cypress Semiconductor Corporation.  All rights reserved.
  16:.\Generated_Source\PSoC5/DMA_FFT_dma.c **** * You may use this file only in accordance with the license, terms, conditions, 
  17:.\Generated_Source\PSoC5/DMA_FFT_dma.c **** * disclaimers, and limitations in the end user license agreement accompanying 
  18:.\Generated_Source\PSoC5/DMA_FFT_dma.c **** * the software package with which this file was provided.
  19:.\Generated_Source\PSoC5/DMA_FFT_dma.c **** ********************************************************************************/
  20:.\Generated_Source\PSoC5/DMA_FFT_dma.c **** #include <CYLIB.H>
  21:.\Generated_Source\PSoC5/DMA_FFT_dma.c **** #include <CYDMAC.H>
  22:.\Generated_Source\PSoC5/DMA_FFT_dma.c **** #include <DMA_FFT_dma.H>
ARM GAS  C:\Users\SUZUKI~1\AppData\Local\Temp\ccHJtlf1.s 			page 2


  23:.\Generated_Source\PSoC5/DMA_FFT_dma.c **** 
  24:.\Generated_Source\PSoC5/DMA_FFT_dma.c **** 
  25:.\Generated_Source\PSoC5/DMA_FFT_dma.c **** 
  26:.\Generated_Source\PSoC5/DMA_FFT_dma.c **** /****************************************************************************
  27:.\Generated_Source\PSoC5/DMA_FFT_dma.c **** * 
  28:.\Generated_Source\PSoC5/DMA_FFT_dma.c **** * The following defines are available in Cyfitter.h
  29:.\Generated_Source\PSoC5/DMA_FFT_dma.c **** * 
  30:.\Generated_Source\PSoC5/DMA_FFT_dma.c **** * 
  31:.\Generated_Source\PSoC5/DMA_FFT_dma.c **** * 
  32:.\Generated_Source\PSoC5/DMA_FFT_dma.c **** * DMA_FFT__DRQ_CTL_REG
  33:.\Generated_Source\PSoC5/DMA_FFT_dma.c **** * 
  34:.\Generated_Source\PSoC5/DMA_FFT_dma.c **** * 
  35:.\Generated_Source\PSoC5/DMA_FFT_dma.c **** * DMA_FFT__DRQ_NUMBER
  36:.\Generated_Source\PSoC5/DMA_FFT_dma.c **** * 
  37:.\Generated_Source\PSoC5/DMA_FFT_dma.c **** * Number of TD's used by this channel.
  38:.\Generated_Source\PSoC5/DMA_FFT_dma.c **** * DMA_FFT__NUMBEROF_TDS
  39:.\Generated_Source\PSoC5/DMA_FFT_dma.c **** * 
  40:.\Generated_Source\PSoC5/DMA_FFT_dma.c **** * Priority of this channel.
  41:.\Generated_Source\PSoC5/DMA_FFT_dma.c **** * DMA_FFT__PRIORITY
  42:.\Generated_Source\PSoC5/DMA_FFT_dma.c **** * 
  43:.\Generated_Source\PSoC5/DMA_FFT_dma.c **** * True if DMA_FFT_TERMIN_SEL is used.
  44:.\Generated_Source\PSoC5/DMA_FFT_dma.c **** * DMA_FFT__TERMIN_EN
  45:.\Generated_Source\PSoC5/DMA_FFT_dma.c **** * 
  46:.\Generated_Source\PSoC5/DMA_FFT_dma.c **** * TERMIN interrupt line to signal terminate.
  47:.\Generated_Source\PSoC5/DMA_FFT_dma.c **** * DMA_FFT__TERMIN_SEL
  48:.\Generated_Source\PSoC5/DMA_FFT_dma.c **** * 
  49:.\Generated_Source\PSoC5/DMA_FFT_dma.c **** * 
  50:.\Generated_Source\PSoC5/DMA_FFT_dma.c **** * True if DMA_FFT_TERMOUT0_SEL is used.
  51:.\Generated_Source\PSoC5/DMA_FFT_dma.c **** * DMA_FFT__TERMOUT0_EN
  52:.\Generated_Source\PSoC5/DMA_FFT_dma.c **** * 
  53:.\Generated_Source\PSoC5/DMA_FFT_dma.c **** * 
  54:.\Generated_Source\PSoC5/DMA_FFT_dma.c **** * TERMOUT0 interrupt line to signal completion.
  55:.\Generated_Source\PSoC5/DMA_FFT_dma.c **** * DMA_FFT__TERMOUT0_SEL
  56:.\Generated_Source\PSoC5/DMA_FFT_dma.c **** * 
  57:.\Generated_Source\PSoC5/DMA_FFT_dma.c **** * 
  58:.\Generated_Source\PSoC5/DMA_FFT_dma.c **** * True if DMA_FFT_TERMOUT1_SEL is used.
  59:.\Generated_Source\PSoC5/DMA_FFT_dma.c **** * DMA_FFT__TERMOUT1_EN
  60:.\Generated_Source\PSoC5/DMA_FFT_dma.c **** * 
  61:.\Generated_Source\PSoC5/DMA_FFT_dma.c **** * 
  62:.\Generated_Source\PSoC5/DMA_FFT_dma.c **** * TERMOUT1 interrupt line to signal completion.
  63:.\Generated_Source\PSoC5/DMA_FFT_dma.c **** * DMA_FFT__TERMOUT1_SEL
  64:.\Generated_Source\PSoC5/DMA_FFT_dma.c **** * 
  65:.\Generated_Source\PSoC5/DMA_FFT_dma.c **** ****************************************************************************/
  66:.\Generated_Source\PSoC5/DMA_FFT_dma.c **** 
  67:.\Generated_Source\PSoC5/DMA_FFT_dma.c **** 
  68:.\Generated_Source\PSoC5/DMA_FFT_dma.c **** /* Zero based index of DMA_FFT dma channel */
  69:.\Generated_Source\PSoC5/DMA_FFT_dma.c **** uint8 DMA_FFT_DmaHandle = DMA_INVALID_CHANNEL;
  70:.\Generated_Source\PSoC5/DMA_FFT_dma.c **** 
  71:.\Generated_Source\PSoC5/DMA_FFT_dma.c **** /*********************************************************************
  72:.\Generated_Source\PSoC5/DMA_FFT_dma.c **** * Function Name: uint8 DMA_FFT_DmaInitalize
  73:.\Generated_Source\PSoC5/DMA_FFT_dma.c **** **********************************************************************
  74:.\Generated_Source\PSoC5/DMA_FFT_dma.c **** * Summary:
  75:.\Generated_Source\PSoC5/DMA_FFT_dma.c **** *   Allocates and initialises a channel of the DMAC to be used by the
  76:.\Generated_Source\PSoC5/DMA_FFT_dma.c **** *   caller.
  77:.\Generated_Source\PSoC5/DMA_FFT_dma.c **** *
  78:.\Generated_Source\PSoC5/DMA_FFT_dma.c **** * Parameters:
  79:.\Generated_Source\PSoC5/DMA_FFT_dma.c **** *   BurstCount.
ARM GAS  C:\Users\SUZUKI~1\AppData\Local\Temp\ccHJtlf1.s 			page 3


  80:.\Generated_Source\PSoC5/DMA_FFT_dma.c **** *       
  81:.\Generated_Source\PSoC5/DMA_FFT_dma.c **** *       
  82:.\Generated_Source\PSoC5/DMA_FFT_dma.c **** *   ReqestPerBurst.
  83:.\Generated_Source\PSoC5/DMA_FFT_dma.c **** *       
  84:.\Generated_Source\PSoC5/DMA_FFT_dma.c **** *       
  85:.\Generated_Source\PSoC5/DMA_FFT_dma.c **** *   UpperSrcAddress.
  86:.\Generated_Source\PSoC5/DMA_FFT_dma.c **** *       
  87:.\Generated_Source\PSoC5/DMA_FFT_dma.c **** *       
  88:.\Generated_Source\PSoC5/DMA_FFT_dma.c **** *   UpperDestAddress.
  89:.\Generated_Source\PSoC5/DMA_FFT_dma.c **** *       
  90:.\Generated_Source\PSoC5/DMA_FFT_dma.c **** *
  91:.\Generated_Source\PSoC5/DMA_FFT_dma.c **** * Return:
  92:.\Generated_Source\PSoC5/DMA_FFT_dma.c **** *   The channel that can be used by the caller for DMA activity.
  93:.\Generated_Source\PSoC5/DMA_FFT_dma.c **** *   DMA_INVALID_CHANNEL (0xFF) if there are no channels left. 
  94:.\Generated_Source\PSoC5/DMA_FFT_dma.c **** *
  95:.\Generated_Source\PSoC5/DMA_FFT_dma.c **** *
  96:.\Generated_Source\PSoC5/DMA_FFT_dma.c **** *******************************************************************/
  97:.\Generated_Source\PSoC5/DMA_FFT_dma.c **** uint8 DMA_FFT_DmaInitialize(uint8 BurstCount, uint8 ReqestPerBurst, uint16 UpperSrcAddress, uint16 
  98:.\Generated_Source\PSoC5/DMA_FFT_dma.c **** {
  99:.\Generated_Source\PSoC5/DMA_FFT_dma.c **** 
 100:.\Generated_Source\PSoC5/DMA_FFT_dma.c ****     /* Allocate a DMA channel. */
 101:.\Generated_Source\PSoC5/DMA_FFT_dma.c ****     DMA_FFT_DmaHandle = (uint8)DMA_FFT__DRQ_NUMBER;
 102:.\Generated_Source\PSoC5/DMA_FFT_dma.c **** 
 103:.\Generated_Source\PSoC5/DMA_FFT_dma.c ****     /* Configure the channel. */
 104:.\Generated_Source\PSoC5/DMA_FFT_dma.c ****     (void)CyDmaChSetConfiguration(DMA_FFT_DmaHandle,
 105:.\Generated_Source\PSoC5/DMA_FFT_dma.c ****                                   BurstCount,
 106:.\Generated_Source\PSoC5/DMA_FFT_dma.c ****                                   ReqestPerBurst,
 107:.\Generated_Source\PSoC5/DMA_FFT_dma.c ****                                   (uint8)DMA_FFT__TERMOUT0_SEL,
 108:.\Generated_Source\PSoC5/DMA_FFT_dma.c ****                                   (uint8)DMA_FFT__TERMOUT1_SEL,
 109:.\Generated_Source\PSoC5/DMA_FFT_dma.c ****                                   (uint8)DMA_FFT__TERMIN_SEL);
 110:.\Generated_Source\PSoC5/DMA_FFT_dma.c **** 
 111:.\Generated_Source\PSoC5/DMA_FFT_dma.c ****     /* Set the extended address for the transfers */
 112:.\Generated_Source\PSoC5/DMA_FFT_dma.c ****     (void)CyDmaChSetExtendedAddress(DMA_FFT_DmaHandle, UpperSrcAddress, UpperDestAddress);
 113:.\Generated_Source\PSoC5/DMA_FFT_dma.c **** 
 114:.\Generated_Source\PSoC5/DMA_FFT_dma.c ****     /* Set the priority for this channel */
 115:.\Generated_Source\PSoC5/DMA_FFT_dma.c ****     (void)CyDmaChPriority(DMA_FFT_DmaHandle, (uint8)DMA_FFT__PRIORITY);
 116:.\Generated_Source\PSoC5/DMA_FFT_dma.c ****     
 117:.\Generated_Source\PSoC5/DMA_FFT_dma.c ****     return DMA_FFT_DmaHandle;
 118:.\Generated_Source\PSoC5/DMA_FFT_dma.c **** }
 119:.\Generated_Source\PSoC5/DMA_FFT_dma.c **** 
 120:.\Generated_Source\PSoC5/DMA_FFT_dma.c **** /*********************************************************************
 121:.\Generated_Source\PSoC5/DMA_FFT_dma.c **** * Function Name: void DMA_FFT_DmaRelease
 122:.\Generated_Source\PSoC5/DMA_FFT_dma.c **** **********************************************************************
 123:.\Generated_Source\PSoC5/DMA_FFT_dma.c **** * Summary:
 124:.\Generated_Source\PSoC5/DMA_FFT_dma.c **** *   Frees the channel associated with DMA_FFT.
 125:.\Generated_Source\PSoC5/DMA_FFT_dma.c **** *
 126:.\Generated_Source\PSoC5/DMA_FFT_dma.c **** *
 127:.\Generated_Source\PSoC5/DMA_FFT_dma.c **** * Parameters:
 128:.\Generated_Source\PSoC5/DMA_FFT_dma.c **** *   void.
 129:.\Generated_Source\PSoC5/DMA_FFT_dma.c **** *
 130:.\Generated_Source\PSoC5/DMA_FFT_dma.c **** *
 131:.\Generated_Source\PSoC5/DMA_FFT_dma.c **** *
 132:.\Generated_Source\PSoC5/DMA_FFT_dma.c **** * Return:
 133:.\Generated_Source\PSoC5/DMA_FFT_dma.c **** *   void.
 134:.\Generated_Source\PSoC5/DMA_FFT_dma.c **** *
 135:.\Generated_Source\PSoC5/DMA_FFT_dma.c **** *******************************************************************/
 136:.\Generated_Source\PSoC5/DMA_FFT_dma.c **** void DMA_FFT_DmaRelease(void) 
ARM GAS  C:\Users\SUZUKI~1\AppData\Local\Temp\ccHJtlf1.s 			page 4


 137:.\Generated_Source\PSoC5/DMA_FFT_dma.c **** {
  32              		.loc 1 137 0
  33              		.cfi_startproc
  34              		@ args = 0, pretend = 0, frame = 0
  35              		@ frame_needed = 0, uses_anonymous_args = 0
  36              		@ link register save eliminated.
 138:.\Generated_Source\PSoC5/DMA_FFT_dma.c ****     /* Disable the channel */
 139:.\Generated_Source\PSoC5/DMA_FFT_dma.c ****     (void)CyDmaChDisable(DMA_FFT_DmaHandle);
  37              		.loc 1 139 0
  38 0000 014B     		ldr	r3, .L3
  39 0002 1878     		ldrb	r0, [r3, #0]	@ zero_extendqisi2
 140:.\Generated_Source\PSoC5/DMA_FFT_dma.c **** }
  40              		.loc 1 140 0
  41              		.loc 1 139 0
  42 0004 FFF7FEBF 		b	CyDmaChDisable
  43              	.L4:
  44              		.align	2
  45              	.L3:
  46 0008 00000000 		.word	.LANCHOR0
  47              		.cfi_endproc
  48              	.LFE1:
  49              		.size	DMA_FFT_DmaRelease, .-DMA_FFT_DmaRelease
  50              		.section	.text.DMA_FFT_DmaInitialize,"ax",%progbits
  51              		.align	1
  52              		.global	DMA_FFT_DmaInitialize
  53              		.thumb
  54              		.thumb_func
  55              		.type	DMA_FFT_DmaInitialize, %function
  56              	DMA_FFT_DmaInitialize:
  57              	.LFB0:
  58              		.loc 1 98 0
  59              		.cfi_startproc
  60              		@ args = 0, pretend = 0, frame = 0
  61              		@ frame_needed = 0, uses_anonymous_args = 0
  62              	.LVL0:
  63 0000 73B5     		push	{r0, r1, r4, r5, r6, lr}
  64              	.LCFI0:
  65              		.cfi_def_cfa_offset 24
  66              	.LVL1:
  67              		.loc 1 98 0
  68 0002 8C46     		mov	ip, r1
  69              	.LVL2:
  70 0004 8646     		mov	lr, r0
  71              		.cfi_offset 14, -4
  72              		.cfi_offset 6, -8
  73              		.cfi_offset 5, -12
  74              		.cfi_offset 4, -16
  75              		.cfi_offset 1, -20
  76              		.cfi_offset 0, -24
  77              	.LVL3:
  78              		.loc 1 101 0
  79 0006 0B4C     		ldr	r4, .L7
  80              		.loc 1 104 0
  81 0008 7146     		mov	r1, lr
  82              	.LVL4:
  83              		.loc 1 98 0
  84 000a 1646     		mov	r6, r2
ARM GAS  C:\Users\SUZUKI~1\AppData\Local\Temp\ccHJtlf1.s 			page 5


  85 000c 1D46     		mov	r5, r3
  86              		.loc 1 104 0
  87 000e 6246     		mov	r2, ip
  88              	.LVL5:
  89 0010 0023     		movs	r3, #0
  90              	.LVL6:
  91              		.loc 1 101 0
  92 0012 0320     		movs	r0, #3
  93              	.LVL7:
  94              		.loc 1 104 0
  95 0014 0093     		str	r3, [sp, #0]
  96 0016 0193     		str	r3, [sp, #4]
  97              		.loc 1 101 0
  98 0018 2070     		strb	r0, [r4, #0]
  99              		.loc 1 104 0
 100 001a FFF7FEFF 		bl	CyDmaChSetConfiguration
 101              	.LVL8:
 102              		.loc 1 112 0
 103 001e 3146     		mov	r1, r6
 104 0020 2A46     		mov	r2, r5
 105 0022 2078     		ldrb	r0, [r4, #0]	@ zero_extendqisi2
 106 0024 FFF7FEFF 		bl	CyDmaChSetExtendedAddress
 107              		.loc 1 115 0
 108 0028 2078     		ldrb	r0, [r4, #0]	@ zero_extendqisi2
 109 002a 0221     		movs	r1, #2
 110 002c FFF7FEFF 		bl	CyDmaChPriority
 111              		.loc 1 118 0
 112 0030 2078     		ldrb	r0, [r4, #0]	@ zero_extendqisi2
 113 0032 7CBD     		pop	{r2, r3, r4, r5, r6, pc}
 114              	.L8:
 115              		.align	2
 116              	.L7:
 117 0034 00000000 		.word	.LANCHOR0
 118              		.cfi_endproc
 119              	.LFE0:
 120              		.size	DMA_FFT_DmaInitialize, .-DMA_FFT_DmaInitialize
 121              		.global	DMA_FFT_DmaHandle
 122              		.data
 123              		.set	.LANCHOR0,. + 0
 124              		.type	DMA_FFT_DmaHandle, %object
 125              		.size	DMA_FFT_DmaHandle, 1
 126              	DMA_FFT_DmaHandle:
 127 0000 FF       		.byte	-1
 128              		.text
 129              	.Letext0:
 130              		.section	.debug_loc,"",%progbits
 131              	.Ldebug_loc0:
 132              	.LLST1:
 133 0000 00000000 		.4byte	.LFB0
 134 0004 02000000 		.4byte	.LCFI0
 135 0008 0100     		.2byte	0x1
 136 000a 5D       		.byte	0x5d
 137 000b 02000000 		.4byte	.LCFI0
 138 000f 38000000 		.4byte	.LFE0
 139 0013 0200     		.2byte	0x2
 140 0015 7D       		.byte	0x7d
 141 0016 18       		.sleb128 24
ARM GAS  C:\Users\SUZUKI~1\AppData\Local\Temp\ccHJtlf1.s 			page 6


 142 0017 00000000 		.4byte	0x0
 143 001b 00000000 		.4byte	0x0
 144              	.LLST2:
 145 001f 00000000 		.4byte	.LVL0
 146 0023 02000000 		.4byte	.LVL1
 147 0027 0100     		.2byte	0x1
 148 0029 50       		.byte	0x50
 149 002a 06000000 		.4byte	.LVL3
 150 002e 14000000 		.4byte	.LVL7
 151 0032 0100     		.2byte	0x1
 152 0034 50       		.byte	0x50
 153 0035 14000000 		.4byte	.LVL7
 154 0039 1E000000 		.4byte	.LVL8
 155 003d 0100     		.2byte	0x1
 156 003f 5E       		.byte	0x5e
 157 0040 00000000 		.4byte	0x0
 158 0044 00000000 		.4byte	0x0
 159              	.LLST3:
 160 0048 00000000 		.4byte	.LVL0
 161 004c 02000000 		.4byte	.LVL1
 162 0050 0100     		.2byte	0x1
 163 0052 51       		.byte	0x51
 164 0053 04000000 		.4byte	.LVL2
 165 0057 0A000000 		.4byte	.LVL4
 166 005b 0100     		.2byte	0x1
 167 005d 51       		.byte	0x51
 168 005e 0A000000 		.4byte	.LVL4
 169 0062 1E000000 		.4byte	.LVL8
 170 0066 0100     		.2byte	0x1
 171 0068 5C       		.byte	0x5c
 172 0069 00000000 		.4byte	0x0
 173 006d 00000000 		.4byte	0x0
 174              	.LLST4:
 175 0071 00000000 		.4byte	.LVL0
 176 0075 10000000 		.4byte	.LVL5
 177 0079 0100     		.2byte	0x1
 178 007b 52       		.byte	0x52
 179 007c 10000000 		.4byte	.LVL5
 180 0080 38000000 		.4byte	.LFE0
 181 0084 0100     		.2byte	0x1
 182 0086 56       		.byte	0x56
 183 0087 00000000 		.4byte	0x0
 184 008b 00000000 		.4byte	0x0
 185              	.LLST5:
 186 008f 00000000 		.4byte	.LVL0
 187 0093 12000000 		.4byte	.LVL6
 188 0097 0100     		.2byte	0x1
 189 0099 53       		.byte	0x53
 190 009a 12000000 		.4byte	.LVL6
 191 009e 38000000 		.4byte	.LFE0
 192 00a2 0100     		.2byte	0x1
 193 00a4 55       		.byte	0x55
 194 00a5 00000000 		.4byte	0x0
 195 00a9 00000000 		.4byte	0x0
 196              		.file 2 "./Generated_Source/PSoC5/cytypes.h"
 197              		.section	.debug_info
 198 0000 19010000 		.4byte	0x119
ARM GAS  C:\Users\SUZUKI~1\AppData\Local\Temp\ccHJtlf1.s 			page 7


 199 0004 0200     		.2byte	0x2
 200 0006 00000000 		.4byte	.Ldebug_abbrev0
 201 000a 04       		.byte	0x4
 202 000b 01       		.uleb128 0x1
 203 000c 99000000 		.4byte	.LASF18
 204 0010 01       		.byte	0x1
 205 0011 57010000 		.4byte	.LASF19
 206 0015 B8000000 		.4byte	.LASF20
 207 0019 00000000 		.4byte	0x0
 208 001d 00000000 		.4byte	0x0
 209 0021 00000000 		.4byte	.Ldebug_ranges0+0x0
 210 0025 00000000 		.4byte	.Ldebug_line0
 211 0029 02       		.uleb128 0x2
 212 002a 01       		.byte	0x1
 213 002b 06       		.byte	0x6
 214 002c 23010000 		.4byte	.LASF0
 215 0030 02       		.uleb128 0x2
 216 0031 01       		.byte	0x1
 217 0032 08       		.byte	0x8
 218 0033 A5000000 		.4byte	.LASF1
 219 0037 02       		.uleb128 0x2
 220 0038 02       		.byte	0x2
 221 0039 05       		.byte	0x5
 222 003a 46010000 		.4byte	.LASF2
 223 003e 02       		.uleb128 0x2
 224 003f 02       		.byte	0x2
 225 0040 07       		.byte	0x7
 226 0041 10010000 		.4byte	.LASF3
 227 0045 03       		.uleb128 0x3
 228 0046 04       		.byte	0x4
 229 0047 05       		.byte	0x5
 230 0048 696E7400 		.ascii	"int\000"
 231 004c 02       		.uleb128 0x2
 232 004d 04       		.byte	0x4
 233 004e 07       		.byte	0x7
 234 004f 31000000 		.4byte	.LASF4
 235 0053 02       		.uleb128 0x2
 236 0054 08       		.byte	0x8
 237 0055 05       		.byte	0x5
 238 0056 00000000 		.4byte	.LASF5
 239 005a 02       		.uleb128 0x2
 240 005b 08       		.byte	0x8
 241 005c 07       		.byte	0x7
 242 005d 70000000 		.4byte	.LASF6
 243 0061 02       		.uleb128 0x2
 244 0062 04       		.byte	0x4
 245 0063 05       		.byte	0x5
 246 0064 EA000000 		.4byte	.LASF7
 247 0068 04       		.uleb128 0x4
 248 0069 04       		.byte	0x4
 249 006a 07       		.byte	0x7
 250 006b 02       		.uleb128 0x2
 251 006c 04       		.byte	0x4
 252 006d 07       		.byte	0x7
 253 006e 4F000000 		.4byte	.LASF8
 254 0072 02       		.uleb128 0x2
 255 0073 01       		.byte	0x1
ARM GAS  C:\Users\SUZUKI~1\AppData\Local\Temp\ccHJtlf1.s 			page 8


 256 0074 08       		.byte	0x8
 257 0075 B3000000 		.4byte	.LASF9
 258 0079 05       		.uleb128 0x5
 259 007a 49000000 		.4byte	.LASF10
 260 007e 02       		.byte	0x2
 261 007f 4C       		.byte	0x4c
 262 0080 30000000 		.4byte	0x30
 263 0084 05       		.uleb128 0x5
 264 0085 50010000 		.4byte	.LASF11
 265 0089 02       		.byte	0x2
 266 008a 4D       		.byte	0x4d
 267 008b 3E000000 		.4byte	0x3e
 268 008f 02       		.uleb128 0x2
 269 0090 04       		.byte	0x4
 270 0091 04       		.byte	0x4
 271 0092 2F010000 		.4byte	.LASF12
 272 0096 02       		.uleb128 0x2
 273 0097 08       		.byte	0x8
 274 0098 04       		.byte	0x4
 275 0099 F3000000 		.4byte	.LASF13
 276 009d 06       		.uleb128 0x6
 277 009e 01       		.byte	0x1
 278 009f 0E000000 		.4byte	.LASF21
 279 00a3 01       		.byte	0x1
 280 00a4 88       		.byte	0x88
 281 00a5 01       		.byte	0x1
 282 00a6 00000000 		.4byte	.LFB1
 283 00aa 0C000000 		.4byte	.LFE1
 284 00ae 01       		.byte	0x1
 285 00af 5D       		.byte	0x5d
 286 00b0 07       		.uleb128 0x7
 287 00b1 01       		.byte	0x1
 288 00b2 FA000000 		.4byte	.LASF22
 289 00b6 01       		.byte	0x1
 290 00b7 61       		.byte	0x61
 291 00b8 01       		.byte	0x1
 292 00b9 79000000 		.4byte	0x79
 293 00bd 00000000 		.4byte	.LFB0
 294 00c1 38000000 		.4byte	.LFE0
 295 00c5 00000000 		.4byte	.LLST1
 296 00c9 0A010000 		.4byte	0x10a
 297 00cd 08       		.uleb128 0x8
 298 00ce 3E000000 		.4byte	.LASF14
 299 00d2 01       		.byte	0x1
 300 00d3 61       		.byte	0x61
 301 00d4 79000000 		.4byte	0x79
 302 00d8 1F000000 		.4byte	.LLST2
 303 00dc 08       		.uleb128 0x8
 304 00dd 61000000 		.4byte	.LASF15
 305 00e1 01       		.byte	0x1
 306 00e2 61       		.byte	0x61
 307 00e3 79000000 		.4byte	0x79
 308 00e7 48000000 		.4byte	.LLST3
 309 00eb 08       		.uleb128 0x8
 310 00ec 21000000 		.4byte	.LASF16
 311 00f0 01       		.byte	0x1
 312 00f1 61       		.byte	0x61
ARM GAS  C:\Users\SUZUKI~1\AppData\Local\Temp\ccHJtlf1.s 			page 9


 313 00f2 84000000 		.4byte	0x84
 314 00f6 71000000 		.4byte	.LLST4
 315 00fa 08       		.uleb128 0x8
 316 00fb 35010000 		.4byte	.LASF17
 317 00ff 01       		.byte	0x1
 318 0100 61       		.byte	0x61
 319 0101 84000000 		.4byte	0x84
 320 0105 8F000000 		.4byte	.LLST5
 321 0109 00       		.byte	0x0
 322 010a 09       		.uleb128 0x9
 323 010b 87000000 		.4byte	.LASF23
 324 010f 01       		.byte	0x1
 325 0110 45       		.byte	0x45
 326 0111 79000000 		.4byte	0x79
 327 0115 01       		.byte	0x1
 328 0116 05       		.byte	0x5
 329 0117 03       		.byte	0x3
 330 0118 00000000 		.4byte	DMA_FFT_DmaHandle
 331 011c 00       		.byte	0x0
 332              		.section	.debug_abbrev
 333 0000 01       		.uleb128 0x1
 334 0001 11       		.uleb128 0x11
 335 0002 01       		.byte	0x1
 336 0003 25       		.uleb128 0x25
 337 0004 0E       		.uleb128 0xe
 338 0005 13       		.uleb128 0x13
 339 0006 0B       		.uleb128 0xb
 340 0007 03       		.uleb128 0x3
 341 0008 0E       		.uleb128 0xe
 342 0009 1B       		.uleb128 0x1b
 343 000a 0E       		.uleb128 0xe
 344 000b 11       		.uleb128 0x11
 345 000c 01       		.uleb128 0x1
 346 000d 52       		.uleb128 0x52
 347 000e 01       		.uleb128 0x1
 348 000f 55       		.uleb128 0x55
 349 0010 06       		.uleb128 0x6
 350 0011 10       		.uleb128 0x10
 351 0012 06       		.uleb128 0x6
 352 0013 00       		.byte	0x0
 353 0014 00       		.byte	0x0
 354 0015 02       		.uleb128 0x2
 355 0016 24       		.uleb128 0x24
 356 0017 00       		.byte	0x0
 357 0018 0B       		.uleb128 0xb
 358 0019 0B       		.uleb128 0xb
 359 001a 3E       		.uleb128 0x3e
 360 001b 0B       		.uleb128 0xb
 361 001c 03       		.uleb128 0x3
 362 001d 0E       		.uleb128 0xe
 363 001e 00       		.byte	0x0
 364 001f 00       		.byte	0x0
 365 0020 03       		.uleb128 0x3
 366 0021 24       		.uleb128 0x24
 367 0022 00       		.byte	0x0
 368 0023 0B       		.uleb128 0xb
 369 0024 0B       		.uleb128 0xb
ARM GAS  C:\Users\SUZUKI~1\AppData\Local\Temp\ccHJtlf1.s 			page 10


 370 0025 3E       		.uleb128 0x3e
 371 0026 0B       		.uleb128 0xb
 372 0027 03       		.uleb128 0x3
 373 0028 08       		.uleb128 0x8
 374 0029 00       		.byte	0x0
 375 002a 00       		.byte	0x0
 376 002b 04       		.uleb128 0x4
 377 002c 24       		.uleb128 0x24
 378 002d 00       		.byte	0x0
 379 002e 0B       		.uleb128 0xb
 380 002f 0B       		.uleb128 0xb
 381 0030 3E       		.uleb128 0x3e
 382 0031 0B       		.uleb128 0xb
 383 0032 00       		.byte	0x0
 384 0033 00       		.byte	0x0
 385 0034 05       		.uleb128 0x5
 386 0035 16       		.uleb128 0x16
 387 0036 00       		.byte	0x0
 388 0037 03       		.uleb128 0x3
 389 0038 0E       		.uleb128 0xe
 390 0039 3A       		.uleb128 0x3a
 391 003a 0B       		.uleb128 0xb
 392 003b 3B       		.uleb128 0x3b
 393 003c 0B       		.uleb128 0xb
 394 003d 49       		.uleb128 0x49
 395 003e 13       		.uleb128 0x13
 396 003f 00       		.byte	0x0
 397 0040 00       		.byte	0x0
 398 0041 06       		.uleb128 0x6
 399 0042 2E       		.uleb128 0x2e
 400 0043 00       		.byte	0x0
 401 0044 3F       		.uleb128 0x3f
 402 0045 0C       		.uleb128 0xc
 403 0046 03       		.uleb128 0x3
 404 0047 0E       		.uleb128 0xe
 405 0048 3A       		.uleb128 0x3a
 406 0049 0B       		.uleb128 0xb
 407 004a 3B       		.uleb128 0x3b
 408 004b 0B       		.uleb128 0xb
 409 004c 27       		.uleb128 0x27
 410 004d 0C       		.uleb128 0xc
 411 004e 11       		.uleb128 0x11
 412 004f 01       		.uleb128 0x1
 413 0050 12       		.uleb128 0x12
 414 0051 01       		.uleb128 0x1
 415 0052 40       		.uleb128 0x40
 416 0053 0A       		.uleb128 0xa
 417 0054 00       		.byte	0x0
 418 0055 00       		.byte	0x0
 419 0056 07       		.uleb128 0x7
 420 0057 2E       		.uleb128 0x2e
 421 0058 01       		.byte	0x1
 422 0059 3F       		.uleb128 0x3f
 423 005a 0C       		.uleb128 0xc
 424 005b 03       		.uleb128 0x3
 425 005c 0E       		.uleb128 0xe
 426 005d 3A       		.uleb128 0x3a
ARM GAS  C:\Users\SUZUKI~1\AppData\Local\Temp\ccHJtlf1.s 			page 11


 427 005e 0B       		.uleb128 0xb
 428 005f 3B       		.uleb128 0x3b
 429 0060 0B       		.uleb128 0xb
 430 0061 27       		.uleb128 0x27
 431 0062 0C       		.uleb128 0xc
 432 0063 49       		.uleb128 0x49
 433 0064 13       		.uleb128 0x13
 434 0065 11       		.uleb128 0x11
 435 0066 01       		.uleb128 0x1
 436 0067 12       		.uleb128 0x12
 437 0068 01       		.uleb128 0x1
 438 0069 40       		.uleb128 0x40
 439 006a 06       		.uleb128 0x6
 440 006b 01       		.uleb128 0x1
 441 006c 13       		.uleb128 0x13
 442 006d 00       		.byte	0x0
 443 006e 00       		.byte	0x0
 444 006f 08       		.uleb128 0x8
 445 0070 05       		.uleb128 0x5
 446 0071 00       		.byte	0x0
 447 0072 03       		.uleb128 0x3
 448 0073 0E       		.uleb128 0xe
 449 0074 3A       		.uleb128 0x3a
 450 0075 0B       		.uleb128 0xb
 451 0076 3B       		.uleb128 0x3b
 452 0077 0B       		.uleb128 0xb
 453 0078 49       		.uleb128 0x49
 454 0079 13       		.uleb128 0x13
 455 007a 02       		.uleb128 0x2
 456 007b 06       		.uleb128 0x6
 457 007c 00       		.byte	0x0
 458 007d 00       		.byte	0x0
 459 007e 09       		.uleb128 0x9
 460 007f 34       		.uleb128 0x34
 461 0080 00       		.byte	0x0
 462 0081 03       		.uleb128 0x3
 463 0082 0E       		.uleb128 0xe
 464 0083 3A       		.uleb128 0x3a
 465 0084 0B       		.uleb128 0xb
 466 0085 3B       		.uleb128 0x3b
 467 0086 0B       		.uleb128 0xb
 468 0087 49       		.uleb128 0x49
 469 0088 13       		.uleb128 0x13
 470 0089 3F       		.uleb128 0x3f
 471 008a 0C       		.uleb128 0xc
 472 008b 02       		.uleb128 0x2
 473 008c 0A       		.uleb128 0xa
 474 008d 00       		.byte	0x0
 475 008e 00       		.byte	0x0
 476 008f 00       		.byte	0x0
 477              		.section	.debug_pubnames,"",%progbits
 478 0000 55000000 		.4byte	0x55
 479 0004 0200     		.2byte	0x2
 480 0006 00000000 		.4byte	.Ldebug_info0
 481 000a 1D010000 		.4byte	0x11d
 482 000e 9D000000 		.4byte	0x9d
 483 0012 444D415F 		.ascii	"DMA_FFT_DmaRelease\000"
ARM GAS  C:\Users\SUZUKI~1\AppData\Local\Temp\ccHJtlf1.s 			page 12


 483      4646545F 
 483      446D6152 
 483      656C6561 
 483      736500
 484 0025 B0000000 		.4byte	0xb0
 485 0029 444D415F 		.ascii	"DMA_FFT_DmaInitialize\000"
 485      4646545F 
 485      446D6149 
 485      6E697469 
 485      616C697A 
 486 003f 0A010000 		.4byte	0x10a
 487 0043 444D415F 		.ascii	"DMA_FFT_DmaHandle\000"
 487      4646545F 
 487      446D6148 
 487      616E646C 
 487      6500
 488 0055 00000000 		.4byte	0x0
 489              		.section	.debug_aranges,"",%progbits
 490 0000 24000000 		.4byte	0x24
 491 0004 0200     		.2byte	0x2
 492 0006 00000000 		.4byte	.Ldebug_info0
 493 000a 04       		.byte	0x4
 494 000b 00       		.byte	0x0
 495 000c 0000     		.2byte	0x0
 496 000e 0000     		.2byte	0x0
 497 0010 00000000 		.4byte	.LFB1
 498 0014 0C000000 		.4byte	.LFE1-.LFB1
 499 0018 00000000 		.4byte	.LFB0
 500 001c 38000000 		.4byte	.LFE0-.LFB0
 501 0020 00000000 		.4byte	0x0
 502 0024 00000000 		.4byte	0x0
 503              		.section	.debug_ranges,"",%progbits
 504              	.Ldebug_ranges0:
 505 0000 00000000 		.4byte	.Ltext0
 506 0004 00000000 		.4byte	.Letext0
 507 0008 00000000 		.4byte	.LFB1
 508 000c 0C000000 		.4byte	.LFE1
 509 0010 00000000 		.4byte	.LFB0
 510 0014 38000000 		.4byte	.LFE0
 511 0018 00000000 		.4byte	0x0
 512 001c 00000000 		.4byte	0x0
 513              		.section	.debug_str,"MS",%progbits,1
 514              	.LASF5:
 515 0000 6C6F6E67 		.ascii	"long long int\000"
 515      206C6F6E 
 515      6720696E 
 515      7400
 516              	.LASF21:
 517 000e 444D415F 		.ascii	"DMA_FFT_DmaRelease\000"
 517      4646545F 
 517      446D6152 
 517      656C6561 
 517      736500
 518              	.LASF16:
 519 0021 55707065 		.ascii	"UpperSrcAddress\000"
 519      72537263 
 519      41646472 
ARM GAS  C:\Users\SUZUKI~1\AppData\Local\Temp\ccHJtlf1.s 			page 13


 519      65737300 
 520              	.LASF4:
 521 0031 756E7369 		.ascii	"unsigned int\000"
 521      676E6564 
 521      20696E74 
 521      00
 522              	.LASF14:
 523 003e 42757273 		.ascii	"BurstCount\000"
 523      74436F75 
 523      6E7400
 524              	.LASF10:
 525 0049 75696E74 		.ascii	"uint8\000"
 525      3800
 526              	.LASF8:
 527 004f 6C6F6E67 		.ascii	"long unsigned int\000"
 527      20756E73 
 527      69676E65 
 527      6420696E 
 527      7400
 528              	.LASF15:
 529 0061 52657165 		.ascii	"ReqestPerBurst\000"
 529      73745065 
 529      72427572 
 529      737400
 530              	.LASF6:
 531 0070 6C6F6E67 		.ascii	"long long unsigned int\000"
 531      206C6F6E 
 531      6720756E 
 531      7369676E 
 531      65642069 
 532              	.LASF23:
 533 0087 444D415F 		.ascii	"DMA_FFT_DmaHandle\000"
 533      4646545F 
 533      446D6148 
 533      616E646C 
 533      6500
 534              	.LASF18:
 535 0099 474E5520 		.ascii	"GNU C 4.4.1\000"
 535      4320342E 
 535      342E3100 
 536              	.LASF1:
 537 00a5 756E7369 		.ascii	"unsigned char\000"
 537      676E6564 
 537      20636861 
 537      7200
 538              	.LASF9:
 539 00b3 63686172 		.ascii	"char\000"
 539      00
 540              	.LASF20:
 541 00b8 5A3A5C64 		.ascii	"Z:\\docs\\psoc\\creator\\ledmatrix\\ledmatrixfft.cy"
 541      6F63735C 
 541      70736F63 
 541      5C637265 
 541      61746F72 
 542 00e6 64736E00 		.ascii	"dsn\000"
 543              	.LASF7:
 544 00ea 6C6F6E67 		.ascii	"long int\000"
ARM GAS  C:\Users\SUZUKI~1\AppData\Local\Temp\ccHJtlf1.s 			page 14


 544      20696E74 
 544      00
 545              	.LASF13:
 546 00f3 646F7562 		.ascii	"double\000"
 546      6C6500
 547              	.LASF22:
 548 00fa 444D415F 		.ascii	"DMA_FFT_DmaInitialize\000"
 548      4646545F 
 548      446D6149 
 548      6E697469 
 548      616C697A 
 549              	.LASF3:
 550 0110 73686F72 		.ascii	"short unsigned int\000"
 550      7420756E 
 550      7369676E 
 550      65642069 
 550      6E7400
 551              	.LASF0:
 552 0123 7369676E 		.ascii	"signed char\000"
 552      65642063 
 552      68617200 
 553              	.LASF12:
 554 012f 666C6F61 		.ascii	"float\000"
 554      7400
 555              	.LASF17:
 556 0135 55707065 		.ascii	"UpperDestAddress\000"
 556      72446573 
 556      74416464 
 556      72657373 
 556      00
 557              	.LASF2:
 558 0146 73686F72 		.ascii	"short int\000"
 558      7420696E 
 558      7400
 559              	.LASF11:
 560 0150 75696E74 		.ascii	"uint16\000"
 560      313600
 561              	.LASF19:
 562 0157 2E5C4765 		.ascii	".\\Generated_Source\\PSoC5\\DMA_FFT_dma.c\000"
 562      6E657261 
 562      7465645F 
 562      536F7572 
 562      63655C50 
 563              		.ident	"GCC: (Sourcery G++ Lite 2010q1-188) 4.4.1"
