ARM GAS  C:\Users\SUZUKI~1\AppData\Local\Temp\ccpZpcrj.s 			page 1


   1              		.syntax unified
   2              		.cpu cortex-m3
   3              		.fpu softvfp
   4              		.eabi_attribute 20, 1
   5              		.eabi_attribute 21, 1
   6              		.eabi_attribute 23, 3
   7              		.eabi_attribute 24, 1
   8              		.eabi_attribute 25, 1
   9              		.eabi_attribute 26, 1
  10              		.eabi_attribute 30, 4
  11              		.eabi_attribute 18, 4
  12              		.thumb
  13              		.file	"fout.c"
  14              		.section	.debug_abbrev,"",%progbits
  15              	.Ldebug_abbrev0:
  16              		.section	.debug_info,"",%progbits
  17              	.Ldebug_info0:
  18              		.section	.debug_line,"",%progbits
  19              	.Ldebug_line0:
  20 0000 AC000000 		.text
  20      02005D00 
  20      00000201 
  20      FB0E0D00 
  20      01010101 
  21              	.Ltext0:
  22              		.cfi_sections	.debug_frame
  23              		.section	.text.fout_Write,"ax",%progbits
  24              		.align	1
  25              		.global	fout_Write
  26              		.thumb
  27              		.thumb_func
  28              		.type	fout_Write, %function
  29              	fout_Write:
  30              	.LFB0:
  31              		.file 1 ".\\Generated_Source\\PSoC5\\fout.c"
   1:.\Generated_Source\PSoC5/fout.c **** /*******************************************************************************
   2:.\Generated_Source\PSoC5/fout.c **** * File Name: fout.c  
   3:.\Generated_Source\PSoC5/fout.c **** * Version 1.70
   4:.\Generated_Source\PSoC5/fout.c **** *
   5:.\Generated_Source\PSoC5/fout.c **** * Description:
   6:.\Generated_Source\PSoC5/fout.c **** *  This file contains API to enable firmware control of a Pins component.
   7:.\Generated_Source\PSoC5/fout.c **** *
   8:.\Generated_Source\PSoC5/fout.c **** * Note:
   9:.\Generated_Source\PSoC5/fout.c **** *
  10:.\Generated_Source\PSoC5/fout.c **** ********************************************************************************
  11:.\Generated_Source\PSoC5/fout.c **** * Copyright 2008-2010, Cypress Semiconductor Corporation.  All rights reserved.
  12:.\Generated_Source\PSoC5/fout.c **** * You may use this file only in accordance with the license, terms, conditions, 
  13:.\Generated_Source\PSoC5/fout.c **** * disclaimers, and limitations in the end user license agreement accompanying 
  14:.\Generated_Source\PSoC5/fout.c **** * the software package with which this file was provided.
  15:.\Generated_Source\PSoC5/fout.c **** ********************************************************************************/
  16:.\Generated_Source\PSoC5/fout.c **** 
  17:.\Generated_Source\PSoC5/fout.c **** #include "cytypes.h"
  18:.\Generated_Source\PSoC5/fout.c **** #include "fout.h"
  19:.\Generated_Source\PSoC5/fout.c **** 
  20:.\Generated_Source\PSoC5/fout.c **** /* APIs are not generated for P15[7:6] */
  21:.\Generated_Source\PSoC5/fout.c **** #if !(CY_PSOC5A &&\
  22:.\Generated_Source\PSoC5/fout.c **** 	 fout__PORT == 15 && (fout__MASK & 0xC0))
ARM GAS  C:\Users\SUZUKI~1\AppData\Local\Temp\ccpZpcrj.s 			page 2


  23:.\Generated_Source\PSoC5/fout.c **** 
  24:.\Generated_Source\PSoC5/fout.c **** /*******************************************************************************
  25:.\Generated_Source\PSoC5/fout.c **** * Function Name: fout_Write
  26:.\Generated_Source\PSoC5/fout.c **** ********************************************************************************
  27:.\Generated_Source\PSoC5/fout.c **** * Summary:
  28:.\Generated_Source\PSoC5/fout.c **** *  Assign a new value to the digital port's data output register.  
  29:.\Generated_Source\PSoC5/fout.c **** *
  30:.\Generated_Source\PSoC5/fout.c **** * Parameters:  
  31:.\Generated_Source\PSoC5/fout.c **** *  prtValue:  The value to be assigned to the Digital Port. 
  32:.\Generated_Source\PSoC5/fout.c **** *
  33:.\Generated_Source\PSoC5/fout.c **** * Return: 
  34:.\Generated_Source\PSoC5/fout.c **** *  void 
  35:.\Generated_Source\PSoC5/fout.c **** *  
  36:.\Generated_Source\PSoC5/fout.c **** *******************************************************************************/
  37:.\Generated_Source\PSoC5/fout.c **** void fout_Write(uint8 value) 
  38:.\Generated_Source\PSoC5/fout.c **** {
  32              		.loc 1 38 0
  33              		.cfi_startproc
  34              		@ args = 0, pretend = 0, frame = 0
  35              		@ frame_needed = 0, uses_anonymous_args = 0
  36              		@ link register save eliminated.
  37              	.LVL0:
  39:.\Generated_Source\PSoC5/fout.c ****     uint8 staticBits = fout_DR & ~fout_MASK;
  38              		.loc 1 39 0
  39 0000 044B     		ldr	r3, .L3
  40:.\Generated_Source\PSoC5/fout.c ****     fout_DR = staticBits | ((value << fout_SHIFT) & fout_MASK);
  40              		.loc 1 40 0
  41 0002 00F00100 		and	r0, r0, #1
  42              	.LVL1:
  43              		.loc 1 39 0
  44 0006 1A78     		ldrb	r2, [r3, #0]	@ zero_extendqisi2
  45              		.loc 1 40 0
  46 0008 02F0FE02 		and	r2, r2, #254
  47 000c 40EA0202 		orr	r2, r0, r2
  48 0010 1A70     		strb	r2, [r3, #0]
  41:.\Generated_Source\PSoC5/fout.c **** }
  49              		.loc 1 41 0
  50 0012 7047     		bx	lr
  51              	.L4:
  52              		.align	2
  53              	.L3:
  54 0014 00510040 		.word	1073762560
  55              		.cfi_endproc
  56              	.LFE0:
  57              		.size	fout_Write, .-fout_Write
  58              		.section	.text.fout_SetDriveMode,"ax",%progbits
  59              		.align	1
  60              		.global	fout_SetDriveMode
  61              		.thumb
  62              		.thumb_func
  63              		.type	fout_SetDriveMode, %function
  64              	fout_SetDriveMode:
  65              	.LFB1:
  42:.\Generated_Source\PSoC5/fout.c **** 
  43:.\Generated_Source\PSoC5/fout.c **** 
  44:.\Generated_Source\PSoC5/fout.c **** /*******************************************************************************
  45:.\Generated_Source\PSoC5/fout.c **** * Function Name: fout_SetDriveMode
ARM GAS  C:\Users\SUZUKI~1\AppData\Local\Temp\ccpZpcrj.s 			page 3


  46:.\Generated_Source\PSoC5/fout.c **** ********************************************************************************
  47:.\Generated_Source\PSoC5/fout.c **** * Summary:
  48:.\Generated_Source\PSoC5/fout.c **** *  Change the drive mode on the pins of the port.
  49:.\Generated_Source\PSoC5/fout.c **** * 
  50:.\Generated_Source\PSoC5/fout.c **** * Parameters:  
  51:.\Generated_Source\PSoC5/fout.c **** *  mode:  Change the pins to this drive mode.
  52:.\Generated_Source\PSoC5/fout.c **** *
  53:.\Generated_Source\PSoC5/fout.c **** * Return: 
  54:.\Generated_Source\PSoC5/fout.c **** *  void
  55:.\Generated_Source\PSoC5/fout.c **** *
  56:.\Generated_Source\PSoC5/fout.c **** *******************************************************************************/
  57:.\Generated_Source\PSoC5/fout.c **** void fout_SetDriveMode(uint8 mode) 
  58:.\Generated_Source\PSoC5/fout.c **** {
  66              		.loc 1 58 0
  67              		.cfi_startproc
  68              		@ args = 0, pretend = 0, frame = 0
  69              		@ frame_needed = 0, uses_anonymous_args = 0
  70              		@ link register save eliminated.
  71              	.LVL2:
  59:.\Generated_Source\PSoC5/fout.c **** 	CyPins_SetPinDriveMode(fout_0, mode);
  72              		.loc 1 59 0
  73 0000 044B     		ldr	r3, .L7
  74 0002 00F00E00 		and	r0, r0, #14
  75              	.LVL3:
  76 0006 1A78     		ldrb	r2, [r3, #0]	@ zero_extendqisi2
  77 0008 02F0F102 		and	r2, r2, #241
  78 000c 40EA0202 		orr	r2, r0, r2
  79 0010 1A70     		strb	r2, [r3, #0]
  60:.\Generated_Source\PSoC5/fout.c **** }
  80              		.loc 1 60 0
  81 0012 7047     		bx	lr
  82              	.L8:
  83              		.align	2
  84              	.L7:
  85 0014 00500040 		.word	1073762304
  86              		.cfi_endproc
  87              	.LFE1:
  88              		.size	fout_SetDriveMode, .-fout_SetDriveMode
  89              		.section	.text.fout_Read,"ax",%progbits
  90              		.align	1
  91              		.global	fout_Read
  92              		.thumb
  93              		.thumb_func
  94              		.type	fout_Read, %function
  95              	fout_Read:
  96              	.LFB2:
  61:.\Generated_Source\PSoC5/fout.c **** 
  62:.\Generated_Source\PSoC5/fout.c **** 
  63:.\Generated_Source\PSoC5/fout.c **** /*******************************************************************************
  64:.\Generated_Source\PSoC5/fout.c **** * Function Name: fout_Read
  65:.\Generated_Source\PSoC5/fout.c **** ********************************************************************************
  66:.\Generated_Source\PSoC5/fout.c **** * Summary:
  67:.\Generated_Source\PSoC5/fout.c **** *  Read the current value on the pins of the Digital Port in right justified 
  68:.\Generated_Source\PSoC5/fout.c **** *  form.
  69:.\Generated_Source\PSoC5/fout.c **** *
  70:.\Generated_Source\PSoC5/fout.c **** * Parameters:  
  71:.\Generated_Source\PSoC5/fout.c **** *  void 
ARM GAS  C:\Users\SUZUKI~1\AppData\Local\Temp\ccpZpcrj.s 			page 4


  72:.\Generated_Source\PSoC5/fout.c **** *
  73:.\Generated_Source\PSoC5/fout.c **** * Return: 
  74:.\Generated_Source\PSoC5/fout.c **** *  Returns the current value of the Digital Port as a right justified number
  75:.\Generated_Source\PSoC5/fout.c **** *  
  76:.\Generated_Source\PSoC5/fout.c **** * Note:
  77:.\Generated_Source\PSoC5/fout.c **** *  Macro fout_ReadPS calls this function. 
  78:.\Generated_Source\PSoC5/fout.c **** *  
  79:.\Generated_Source\PSoC5/fout.c **** *******************************************************************************/
  80:.\Generated_Source\PSoC5/fout.c **** uint8 fout_Read(void) 
  81:.\Generated_Source\PSoC5/fout.c **** {
  97              		.loc 1 81 0
  98              		.cfi_startproc
  99              		@ args = 0, pretend = 0, frame = 0
 100              		@ frame_needed = 0, uses_anonymous_args = 0
 101              		@ link register save eliminated.
  82:.\Generated_Source\PSoC5/fout.c ****     return (fout_PS & fout_MASK) >> fout_SHIFT;
 102              		.loc 1 82 0
 103 0000 024B     		ldr	r3, .L11
 104 0002 1878     		ldrb	r0, [r3, #0]	@ zero_extendqisi2
  83:.\Generated_Source\PSoC5/fout.c **** }
 105              		.loc 1 83 0
 106 0004 00F00100 		and	r0, r0, #1
 107 0008 7047     		bx	lr
 108              	.L12:
 109 000a 00BF     		.align	2
 110              	.L11:
 111 000c 01510040 		.word	1073762561
 112              		.cfi_endproc
 113              	.LFE2:
 114              		.size	fout_Read, .-fout_Read
 115              		.section	.text.fout_ReadDataReg,"ax",%progbits
 116              		.align	1
 117              		.global	fout_ReadDataReg
 118              		.thumb
 119              		.thumb_func
 120              		.type	fout_ReadDataReg, %function
 121              	fout_ReadDataReg:
 122              	.LFB3:
  84:.\Generated_Source\PSoC5/fout.c **** 
  85:.\Generated_Source\PSoC5/fout.c **** 
  86:.\Generated_Source\PSoC5/fout.c **** /*******************************************************************************
  87:.\Generated_Source\PSoC5/fout.c **** * Function Name: fout_ReadDataReg
  88:.\Generated_Source\PSoC5/fout.c **** ********************************************************************************
  89:.\Generated_Source\PSoC5/fout.c **** * Summary:
  90:.\Generated_Source\PSoC5/fout.c **** *  Read the current value assigned to a Digital Port's data output register
  91:.\Generated_Source\PSoC5/fout.c **** *
  92:.\Generated_Source\PSoC5/fout.c **** * Parameters:  
  93:.\Generated_Source\PSoC5/fout.c **** *  void 
  94:.\Generated_Source\PSoC5/fout.c **** *
  95:.\Generated_Source\PSoC5/fout.c **** * Return: 
  96:.\Generated_Source\PSoC5/fout.c **** *  Returns the current value assigned to the Digital Port's data output register
  97:.\Generated_Source\PSoC5/fout.c **** *  
  98:.\Generated_Source\PSoC5/fout.c **** *******************************************************************************/
  99:.\Generated_Source\PSoC5/fout.c **** uint8 fout_ReadDataReg(void) 
 100:.\Generated_Source\PSoC5/fout.c **** {
 123              		.loc 1 100 0
 124              		.cfi_startproc
ARM GAS  C:\Users\SUZUKI~1\AppData\Local\Temp\ccpZpcrj.s 			page 5


 125              		@ args = 0, pretend = 0, frame = 0
 126              		@ frame_needed = 0, uses_anonymous_args = 0
 127              		@ link register save eliminated.
 101:.\Generated_Source\PSoC5/fout.c ****     return (fout_DR & fout_MASK) >> fout_SHIFT;
 128              		.loc 1 101 0
 129 0000 024B     		ldr	r3, .L15
 130 0002 1878     		ldrb	r0, [r3, #0]	@ zero_extendqisi2
 102:.\Generated_Source\PSoC5/fout.c **** }
 131              		.loc 1 102 0
 132 0004 00F00100 		and	r0, r0, #1
 133 0008 7047     		bx	lr
 134              	.L16:
 135 000a 00BF     		.align	2
 136              	.L15:
 137 000c 00510040 		.word	1073762560
 138              		.cfi_endproc
 139              	.LFE3:
 140              		.size	fout_ReadDataReg, .-fout_ReadDataReg
 141              		.text
 142              	.Letext0:
 143              		.section	.debug_loc,"",%progbits
 144              	.Ldebug_loc0:
 145              	.LLST1:
 146 0000 00000000 		.4byte	.LVL0
 147 0004 06000000 		.4byte	.LVL1
 148 0008 0100     		.2byte	0x1
 149 000a 50       		.byte	0x50
 150 000b 00000000 		.4byte	0x0
 151 000f 00000000 		.4byte	0x0
 152              	.LLST3:
 153 0013 00000000 		.4byte	.LVL2
 154 0017 06000000 		.4byte	.LVL3
 155 001b 0100     		.2byte	0x1
 156 001d 50       		.byte	0x50
 157 001e 00000000 		.4byte	0x0
 158 0022 00000000 		.4byte	0x0
 159              		.file 2 ".\\Generated_Source\\PSoC5\\/cytypes.h"
 160              		.section	.debug_info
 161 0000 05010000 		.4byte	0x105
 162 0004 0200     		.2byte	0x2
 163 0006 00000000 		.4byte	.Ldebug_abbrev0
 164 000a 04       		.byte	0x4
 165 000b 01       		.uleb128 0x1
 166 000c EE000000 		.4byte	.LASF16
 167 0010 01       		.byte	0x1
 168 0011 A5000000 		.4byte	.LASF17
 169 0015 1F000000 		.4byte	.LASF18
 170 0019 00000000 		.4byte	0x0
 171 001d 00000000 		.4byte	0x0
 172 0021 00000000 		.4byte	.Ldebug_ranges0+0x0
 173 0025 00000000 		.4byte	.Ldebug_line0
 174 0029 02       		.uleb128 0x2
 175 002a 01       		.byte	0x1
 176 002b 06       		.byte	0x6
 177 002c 34010000 		.4byte	.LASF0
 178 0030 02       		.uleb128 0x2
 179 0031 01       		.byte	0x1
ARM GAS  C:\Users\SUZUKI~1\AppData\Local\Temp\ccpZpcrj.s 			page 6


 180 0032 08       		.byte	0x8
 181 0033 61000000 		.4byte	.LASF1
 182 0037 02       		.uleb128 0x2
 183 0038 02       		.byte	0x2
 184 0039 05       		.byte	0x5
 185 003a 11010000 		.4byte	.LASF2
 186 003e 02       		.uleb128 0x2
 187 003f 02       		.byte	0x2
 188 0040 07       		.byte	0x7
 189 0041 92000000 		.4byte	.LASF3
 190 0045 02       		.uleb128 0x2
 191 0046 04       		.byte	0x4
 192 0047 05       		.byte	0x5
 193 0048 2B010000 		.4byte	.LASF4
 194 004c 02       		.uleb128 0x2
 195 004d 04       		.byte	0x4
 196 004e 07       		.byte	0x7
 197 004f 80000000 		.4byte	.LASF5
 198 0053 02       		.uleb128 0x2
 199 0054 08       		.byte	0x8
 200 0055 05       		.byte	0x5
 201 0056 00000000 		.4byte	.LASF6
 202 005a 02       		.uleb128 0x2
 203 005b 08       		.byte	0x8
 204 005c 07       		.byte	0x7
 205 005d D2000000 		.4byte	.LASF7
 206 0061 03       		.uleb128 0x3
 207 0062 04       		.byte	0x4
 208 0063 05       		.byte	0x5
 209 0064 696E7400 		.ascii	"int\000"
 210 0068 02       		.uleb128 0x2
 211 0069 04       		.byte	0x4
 212 006a 07       		.byte	0x7
 213 006b C5000000 		.4byte	.LASF8
 214 006f 02       		.uleb128 0x2
 215 0070 01       		.byte	0x1
 216 0071 08       		.byte	0x8
 217 0072 FA000000 		.4byte	.LASF9
 218 0076 04       		.uleb128 0x4
 219 0077 1B010000 		.4byte	.LASF19
 220 007b 02       		.byte	0x2
 221 007c 60       		.byte	0x60
 222 007d 30000000 		.4byte	0x30
 223 0081 05       		.uleb128 0x5
 224 0082 01       		.byte	0x1
 225 0083 56000000 		.4byte	.LASF10
 226 0087 01       		.byte	0x1
 227 0088 25       		.byte	0x25
 228 0089 01       		.byte	0x1
 229 008a 00000000 		.4byte	.LFB0
 230 008e 18000000 		.4byte	.LFE0
 231 0092 01       		.byte	0x1
 232 0093 5D       		.byte	0x5d
 233 0094 B3000000 		.4byte	0xb3
 234 0098 06       		.uleb128 0x6
 235 0099 0E000000 		.4byte	.LASF12
 236 009d 01       		.byte	0x1
ARM GAS  C:\Users\SUZUKI~1\AppData\Local\Temp\ccpZpcrj.s 			page 7


 237 009e 25       		.byte	0x25
 238 009f 76000000 		.4byte	0x76
 239 00a3 00000000 		.4byte	.LLST1
 240 00a7 07       		.uleb128 0x7
 241 00a8 14000000 		.4byte	.LASF20
 242 00ac 01       		.byte	0x1
 243 00ad 27       		.byte	0x27
 244 00ae 76000000 		.4byte	0x76
 245 00b2 00       		.byte	0x0
 246 00b3 05       		.uleb128 0x5
 247 00b4 01       		.byte	0x1
 248 00b5 FF000000 		.4byte	.LASF11
 249 00b9 01       		.byte	0x1
 250 00ba 39       		.byte	0x39
 251 00bb 01       		.byte	0x1
 252 00bc 00000000 		.4byte	.LFB1
 253 00c0 18000000 		.4byte	.LFE1
 254 00c4 01       		.byte	0x1
 255 00c5 5D       		.byte	0x5d
 256 00c6 DA000000 		.4byte	0xda
 257 00ca 06       		.uleb128 0x6
 258 00cb E9000000 		.4byte	.LASF13
 259 00cf 01       		.byte	0x1
 260 00d0 39       		.byte	0x39
 261 00d1 76000000 		.4byte	0x76
 262 00d5 13000000 		.4byte	.LLST3
 263 00d9 00       		.byte	0x0
 264 00da 08       		.uleb128 0x8
 265 00db 01       		.byte	0x1
 266 00dc 21010000 		.4byte	.LASF14
 267 00e0 01       		.byte	0x1
 268 00e1 50       		.byte	0x50
 269 00e2 01       		.byte	0x1
 270 00e3 76000000 		.4byte	0x76
 271 00e7 00000000 		.4byte	.LFB2
 272 00eb 10000000 		.4byte	.LFE2
 273 00ef 01       		.byte	0x1
 274 00f0 5D       		.byte	0x5d
 275 00f1 08       		.uleb128 0x8
 276 00f2 01       		.byte	0x1
 277 00f3 6F000000 		.4byte	.LASF15
 278 00f7 01       		.byte	0x1
 279 00f8 63       		.byte	0x63
 280 00f9 01       		.byte	0x1
 281 00fa 76000000 		.4byte	0x76
 282 00fe 00000000 		.4byte	.LFB3
 283 0102 10000000 		.4byte	.LFE3
 284 0106 01       		.byte	0x1
 285 0107 5D       		.byte	0x5d
 286 0108 00       		.byte	0x0
 287              		.section	.debug_abbrev
 288 0000 01       		.uleb128 0x1
 289 0001 11       		.uleb128 0x11
 290 0002 01       		.byte	0x1
 291 0003 25       		.uleb128 0x25
 292 0004 0E       		.uleb128 0xe
 293 0005 13       		.uleb128 0x13
ARM GAS  C:\Users\SUZUKI~1\AppData\Local\Temp\ccpZpcrj.s 			page 8


 294 0006 0B       		.uleb128 0xb
 295 0007 03       		.uleb128 0x3
 296 0008 0E       		.uleb128 0xe
 297 0009 1B       		.uleb128 0x1b
 298 000a 0E       		.uleb128 0xe
 299 000b 11       		.uleb128 0x11
 300 000c 01       		.uleb128 0x1
 301 000d 52       		.uleb128 0x52
 302 000e 01       		.uleb128 0x1
 303 000f 55       		.uleb128 0x55
 304 0010 06       		.uleb128 0x6
 305 0011 10       		.uleb128 0x10
 306 0012 06       		.uleb128 0x6
 307 0013 00       		.byte	0x0
 308 0014 00       		.byte	0x0
 309 0015 02       		.uleb128 0x2
 310 0016 24       		.uleb128 0x24
 311 0017 00       		.byte	0x0
 312 0018 0B       		.uleb128 0xb
 313 0019 0B       		.uleb128 0xb
 314 001a 3E       		.uleb128 0x3e
 315 001b 0B       		.uleb128 0xb
 316 001c 03       		.uleb128 0x3
 317 001d 0E       		.uleb128 0xe
 318 001e 00       		.byte	0x0
 319 001f 00       		.byte	0x0
 320 0020 03       		.uleb128 0x3
 321 0021 24       		.uleb128 0x24
 322 0022 00       		.byte	0x0
 323 0023 0B       		.uleb128 0xb
 324 0024 0B       		.uleb128 0xb
 325 0025 3E       		.uleb128 0x3e
 326 0026 0B       		.uleb128 0xb
 327 0027 03       		.uleb128 0x3
 328 0028 08       		.uleb128 0x8
 329 0029 00       		.byte	0x0
 330 002a 00       		.byte	0x0
 331 002b 04       		.uleb128 0x4
 332 002c 16       		.uleb128 0x16
 333 002d 00       		.byte	0x0
 334 002e 03       		.uleb128 0x3
 335 002f 0E       		.uleb128 0xe
 336 0030 3A       		.uleb128 0x3a
 337 0031 0B       		.uleb128 0xb
 338 0032 3B       		.uleb128 0x3b
 339 0033 0B       		.uleb128 0xb
 340 0034 49       		.uleb128 0x49
 341 0035 13       		.uleb128 0x13
 342 0036 00       		.byte	0x0
 343 0037 00       		.byte	0x0
 344 0038 05       		.uleb128 0x5
 345 0039 2E       		.uleb128 0x2e
 346 003a 01       		.byte	0x1
 347 003b 3F       		.uleb128 0x3f
 348 003c 0C       		.uleb128 0xc
 349 003d 03       		.uleb128 0x3
 350 003e 0E       		.uleb128 0xe
ARM GAS  C:\Users\SUZUKI~1\AppData\Local\Temp\ccpZpcrj.s 			page 9


 351 003f 3A       		.uleb128 0x3a
 352 0040 0B       		.uleb128 0xb
 353 0041 3B       		.uleb128 0x3b
 354 0042 0B       		.uleb128 0xb
 355 0043 27       		.uleb128 0x27
 356 0044 0C       		.uleb128 0xc
 357 0045 11       		.uleb128 0x11
 358 0046 01       		.uleb128 0x1
 359 0047 12       		.uleb128 0x12
 360 0048 01       		.uleb128 0x1
 361 0049 40       		.uleb128 0x40
 362 004a 0A       		.uleb128 0xa
 363 004b 01       		.uleb128 0x1
 364 004c 13       		.uleb128 0x13
 365 004d 00       		.byte	0x0
 366 004e 00       		.byte	0x0
 367 004f 06       		.uleb128 0x6
 368 0050 05       		.uleb128 0x5
 369 0051 00       		.byte	0x0
 370 0052 03       		.uleb128 0x3
 371 0053 0E       		.uleb128 0xe
 372 0054 3A       		.uleb128 0x3a
 373 0055 0B       		.uleb128 0xb
 374 0056 3B       		.uleb128 0x3b
 375 0057 0B       		.uleb128 0xb
 376 0058 49       		.uleb128 0x49
 377 0059 13       		.uleb128 0x13
 378 005a 02       		.uleb128 0x2
 379 005b 06       		.uleb128 0x6
 380 005c 00       		.byte	0x0
 381 005d 00       		.byte	0x0
 382 005e 07       		.uleb128 0x7
 383 005f 34       		.uleb128 0x34
 384 0060 00       		.byte	0x0
 385 0061 03       		.uleb128 0x3
 386 0062 0E       		.uleb128 0xe
 387 0063 3A       		.uleb128 0x3a
 388 0064 0B       		.uleb128 0xb
 389 0065 3B       		.uleb128 0x3b
 390 0066 0B       		.uleb128 0xb
 391 0067 49       		.uleb128 0x49
 392 0068 13       		.uleb128 0x13
 393 0069 00       		.byte	0x0
 394 006a 00       		.byte	0x0
 395 006b 08       		.uleb128 0x8
 396 006c 2E       		.uleb128 0x2e
 397 006d 00       		.byte	0x0
 398 006e 3F       		.uleb128 0x3f
 399 006f 0C       		.uleb128 0xc
 400 0070 03       		.uleb128 0x3
 401 0071 0E       		.uleb128 0xe
 402 0072 3A       		.uleb128 0x3a
 403 0073 0B       		.uleb128 0xb
 404 0074 3B       		.uleb128 0x3b
 405 0075 0B       		.uleb128 0xb
 406 0076 27       		.uleb128 0x27
 407 0077 0C       		.uleb128 0xc
ARM GAS  C:\Users\SUZUKI~1\AppData\Local\Temp\ccpZpcrj.s 			page 10


 408 0078 49       		.uleb128 0x49
 409 0079 13       		.uleb128 0x13
 410 007a 11       		.uleb128 0x11
 411 007b 01       		.uleb128 0x1
 412 007c 12       		.uleb128 0x12
 413 007d 01       		.uleb128 0x1
 414 007e 40       		.uleb128 0x40
 415 007f 0A       		.uleb128 0xa
 416 0080 00       		.byte	0x0
 417 0081 00       		.byte	0x0
 418 0082 00       		.byte	0x0
 419              		.section	.debug_pubnames,"",%progbits
 420 0000 56000000 		.4byte	0x56
 421 0004 0200     		.2byte	0x2
 422 0006 00000000 		.4byte	.Ldebug_info0
 423 000a 09010000 		.4byte	0x109
 424 000e 81000000 		.4byte	0x81
 425 0012 666F7574 		.ascii	"fout_Write\000"
 425      5F577269 
 425      746500
 426 001d B3000000 		.4byte	0xb3
 427 0021 666F7574 		.ascii	"fout_SetDriveMode\000"
 427      5F536574 
 427      44726976 
 427      654D6F64 
 427      6500
 428 0033 DA000000 		.4byte	0xda
 429 0037 666F7574 		.ascii	"fout_Read\000"
 429      5F526561 
 429      6400
 430 0041 F1000000 		.4byte	0xf1
 431 0045 666F7574 		.ascii	"fout_ReadDataReg\000"
 431      5F526561 
 431      64446174 
 431      61526567 
 431      00
 432 0056 00000000 		.4byte	0x0
 433              		.section	.debug_aranges,"",%progbits
 434 0000 34000000 		.4byte	0x34
 435 0004 0200     		.2byte	0x2
 436 0006 00000000 		.4byte	.Ldebug_info0
 437 000a 04       		.byte	0x4
 438 000b 00       		.byte	0x0
 439 000c 0000     		.2byte	0x0
 440 000e 0000     		.2byte	0x0
 441 0010 00000000 		.4byte	.LFB0
 442 0014 18000000 		.4byte	.LFE0-.LFB0
 443 0018 00000000 		.4byte	.LFB1
 444 001c 18000000 		.4byte	.LFE1-.LFB1
 445 0020 00000000 		.4byte	.LFB2
 446 0024 10000000 		.4byte	.LFE2-.LFB2
 447 0028 00000000 		.4byte	.LFB3
 448 002c 10000000 		.4byte	.LFE3-.LFB3
 449 0030 00000000 		.4byte	0x0
 450 0034 00000000 		.4byte	0x0
 451              		.section	.debug_ranges,"",%progbits
 452              	.Ldebug_ranges0:
ARM GAS  C:\Users\SUZUKI~1\AppData\Local\Temp\ccpZpcrj.s 			page 11


 453 0000 00000000 		.4byte	.Ltext0
 454 0004 00000000 		.4byte	.Letext0
 455 0008 00000000 		.4byte	.LFB0
 456 000c 18000000 		.4byte	.LFE0
 457 0010 00000000 		.4byte	.LFB1
 458 0014 18000000 		.4byte	.LFE1
 459 0018 00000000 		.4byte	.LFB2
 460 001c 10000000 		.4byte	.LFE2
 461 0020 00000000 		.4byte	.LFB3
 462 0024 10000000 		.4byte	.LFE3
 463 0028 00000000 		.4byte	0x0
 464 002c 00000000 		.4byte	0x0
 465              		.section	.debug_str,"MS",%progbits,1
 466              	.LASF6:
 467 0000 6C6F6E67 		.ascii	"long long int\000"
 467      206C6F6E 
 467      6720696E 
 467      7400
 468              	.LASF12:
 469 000e 76616C75 		.ascii	"value\000"
 469      6500
 470              	.LASF20:
 471 0014 73746174 		.ascii	"staticBits\000"
 471      69634269 
 471      747300
 472              	.LASF18:
 473 001f 463A5C44 		.ascii	"F:\\Documents\\PSoC_Creator\\ledmatrix\\ledmatrixff"
 473      6F63756D 
 473      656E7473 
 473      5C50536F 
 473      435F4372 
 474 004e 742E6379 		.ascii	"t.cydsn\000"
 474      64736E00 
 475              	.LASF10:
 476 0056 666F7574 		.ascii	"fout_Write\000"
 476      5F577269 
 476      746500
 477              	.LASF1:
 478 0061 756E7369 		.ascii	"unsigned char\000"
 478      676E6564 
 478      20636861 
 478      7200
 479              	.LASF15:
 480 006f 666F7574 		.ascii	"fout_ReadDataReg\000"
 480      5F526561 
 480      64446174 
 480      61526567 
 480      00
 481              	.LASF5:
 482 0080 6C6F6E67 		.ascii	"long unsigned int\000"
 482      20756E73 
 482      69676E65 
 482      6420696E 
 482      7400
 483              	.LASF3:
 484 0092 73686F72 		.ascii	"short unsigned int\000"
 484      7420756E 
ARM GAS  C:\Users\SUZUKI~1\AppData\Local\Temp\ccpZpcrj.s 			page 12


 484      7369676E 
 484      65642069 
 484      6E7400
 485              	.LASF17:
 486 00a5 2E5C4765 		.ascii	".\\Generated_Source\\PSoC5\\fout.c\000"
 486      6E657261 
 486      7465645F 
 486      536F7572 
 486      63655C50 
 487              	.LASF8:
 488 00c5 756E7369 		.ascii	"unsigned int\000"
 488      676E6564 
 488      20696E74 
 488      00
 489              	.LASF7:
 490 00d2 6C6F6E67 		.ascii	"long long unsigned int\000"
 490      206C6F6E 
 490      6720756E 
 490      7369676E 
 490      65642069 
 491              	.LASF13:
 492 00e9 6D6F6465 		.ascii	"mode\000"
 492      00
 493              	.LASF16:
 494 00ee 474E5520 		.ascii	"GNU C 4.4.1\000"
 494      4320342E 
 494      342E3100 
 495              	.LASF9:
 496 00fa 63686172 		.ascii	"char\000"
 496      00
 497              	.LASF11:
 498 00ff 666F7574 		.ascii	"fout_SetDriveMode\000"
 498      5F536574 
 498      44726976 
 498      654D6F64 
 498      6500
 499              	.LASF2:
 500 0111 73686F72 		.ascii	"short int\000"
 500      7420696E 
 500      7400
 501              	.LASF19:
 502 011b 75696E74 		.ascii	"uint8\000"
 502      3800
 503              	.LASF14:
 504 0121 666F7574 		.ascii	"fout_Read\000"
 504      5F526561 
 504      6400
 505              	.LASF4:
 506 012b 6C6F6E67 		.ascii	"long int\000"
 506      20696E74 
 506      00
 507              	.LASF0:
 508 0134 7369676E 		.ascii	"signed char\000"
 508      65642063 
 508      68617200 
 509              		.ident	"GCC: (Sourcery G++ Lite 2010q1-188) 4.4.1"
