ARM GAS  C:\Users\SUZUKI~1\AppData\Local\Temp\ccpGn95j.s 			page 1


   1              		.syntax unified
   2              		.cpu cortex-m3
   3              		.fpu softvfp
   4              		.eabi_attribute 20, 1
   5              		.eabi_attribute 21, 1
   6              		.eabi_attribute 23, 3
   7              		.eabi_attribute 24, 1
   8              		.eabi_attribute 25, 1
   9              		.eabi_attribute 26, 1
  10              		.eabi_attribute 30, 4
  11              		.eabi_attribute 18, 4
  12              		.thumb
  13              		.file	"PGA.c"
  14              		.section	.debug_abbrev,"",%progbits
  15              	.Ldebug_abbrev0:
  16              		.section	.debug_info,"",%progbits
  17              	.Ldebug_info0:
  18              		.section	.debug_line,"",%progbits
  19              	.Ldebug_line0:
  20 0000 02010000 		.text
  20      02006500 
  20      00000201 
  20      FB0E0D00 
  20      01010101 
  21              	.Ltext0:
  22              		.cfi_sections	.debug_frame
  23              		.section	.text.PGA_Enable,"ax",%progbits
  24              		.align	1
  25              		.global	PGA_Enable
  26              		.thumb
  27              		.thumb_func
  28              		.type	PGA_Enable, %function
  29              	PGA_Enable:
  30              	.LFB1:
  31              		.file 1 ".\\Generated_Source\\PSoC5\\PGA.c"
   1:.\Generated_Source\PSoC5/PGA.c **** /*******************************************************************************
   2:.\Generated_Source\PSoC5/PGA.c **** * File Name: PGA.c  
   3:.\Generated_Source\PSoC5/PGA.c **** * Version 1.90
   4:.\Generated_Source\PSoC5/PGA.c **** *
   5:.\Generated_Source\PSoC5/PGA.c **** * Description:
   6:.\Generated_Source\PSoC5/PGA.c **** *  This file provides the source code to the API for the PGA 
   7:.\Generated_Source\PSoC5/PGA.c **** *  User Module.
   8:.\Generated_Source\PSoC5/PGA.c **** *
   9:.\Generated_Source\PSoC5/PGA.c **** * Note:
  10:.\Generated_Source\PSoC5/PGA.c **** *
  11:.\Generated_Source\PSoC5/PGA.c **** ********************************************************************************
  12:.\Generated_Source\PSoC5/PGA.c **** * Copyright 2008-2012, Cypress Semiconductor Corporation.  All rights reserved.
  13:.\Generated_Source\PSoC5/PGA.c **** * You may use this file only in accordance with the license, terms, conditions, 
  14:.\Generated_Source\PSoC5/PGA.c **** * disclaimers, and limitations in the end user license agreement accompanying 
  15:.\Generated_Source\PSoC5/PGA.c **** * the software package with which this file was provided.
  16:.\Generated_Source\PSoC5/PGA.c **** *******************************************************************************/
  17:.\Generated_Source\PSoC5/PGA.c **** 
  18:.\Generated_Source\PSoC5/PGA.c **** #include "cytypes.h"
  19:.\Generated_Source\PSoC5/PGA.c **** #include "PGA.h"
  20:.\Generated_Source\PSoC5/PGA.c **** 
  21:.\Generated_Source\PSoC5/PGA.c **** #if (CY_PSOC5A)
  22:.\Generated_Source\PSoC5/PGA.c ****     static PGA_BACKUP_STRUCT  PGA_backup;
ARM GAS  C:\Users\SUZUKI~1\AppData\Local\Temp\ccpGn95j.s 			page 2


  23:.\Generated_Source\PSoC5/PGA.c **** #endif /* (CY_ PSOC5A) */
  24:.\Generated_Source\PSoC5/PGA.c **** 
  25:.\Generated_Source\PSoC5/PGA.c **** /* Constant array for gain settings */
  26:.\Generated_Source\PSoC5/PGA.c **** const uint8 PGA_GainArray[9] = { 
  27:.\Generated_Source\PSoC5/PGA.c ****     (PGA_RVAL_0K   | PGA_R20_40B_40K | PGA_BIAS_LOW), /* G=1  */
  28:.\Generated_Source\PSoC5/PGA.c ****     (PGA_RVAL_40K  | PGA_R20_40B_40K | PGA_BIAS_LOW), /* G=2  */
  29:.\Generated_Source\PSoC5/PGA.c ****     (PGA_RVAL_120K | PGA_R20_40B_40K | PGA_BIAS_LOW), /* G=4  */
  30:.\Generated_Source\PSoC5/PGA.c ****     (PGA_RVAL_280K | PGA_R20_40B_40K | PGA_BIAS_LOW), /* G=8  */
  31:.\Generated_Source\PSoC5/PGA.c ****     (PGA_RVAL_600K | PGA_R20_40B_40K | PGA_BIAS_LOW), /* G=16 */
  32:.\Generated_Source\PSoC5/PGA.c ****     (PGA_RVAL_460K | PGA_R20_40B_40K | PGA_BIAS_LOW), /* G=24, Sets Rin as 20k */
  33:.\Generated_Source\PSoC5/PGA.c ****     (PGA_RVAL_620K | PGA_R20_40B_20K | PGA_BIAS_LOW), /* G=32 */
  34:.\Generated_Source\PSoC5/PGA.c ****     (PGA_RVAL_470K | PGA_R20_40B_20K | PGA_BIAS_LOW), /* G=48, Sets Rin as 10k */
  35:.\Generated_Source\PSoC5/PGA.c ****     (PGA_RVAL_490K | PGA_R20_40B_20K | PGA_BIAS_LOW)  /* G=50, Sets Rin as 10k */
  36:.\Generated_Source\PSoC5/PGA.c **** };
  37:.\Generated_Source\PSoC5/PGA.c **** 
  38:.\Generated_Source\PSoC5/PGA.c **** /* Constant array for gain compenstion settings */
  39:.\Generated_Source\PSoC5/PGA.c **** const uint8 PGA_GainComp[9] = { 
  40:.\Generated_Source\PSoC5/PGA.c ****     ( PGA_COMP_4P35PF  | ( PGA_REDC_00 >> 2 )), /* G=1  */
  41:.\Generated_Source\PSoC5/PGA.c ****     ( PGA_COMP_4P35PF  | ( PGA_REDC_01 >> 2 )), /* G=2  */
  42:.\Generated_Source\PSoC5/PGA.c ****     ( PGA_COMP_3P0PF   | ( PGA_REDC_01 >> 2 )), /* G=4  */
  43:.\Generated_Source\PSoC5/PGA.c ****     ( PGA_COMP_3P0PF   | ( PGA_REDC_01 >> 2 )), /* G=8  */
  44:.\Generated_Source\PSoC5/PGA.c ****     ( PGA_COMP_3P6PF   | ( PGA_REDC_01 >> 2 )), /* G=16 */
  45:.\Generated_Source\PSoC5/PGA.c ****     ( PGA_COMP_3P6PF   | ( PGA_REDC_11 >> 2 )), /* G=24 */
  46:.\Generated_Source\PSoC5/PGA.c ****     ( PGA_COMP_3P6PF   | ( PGA_REDC_11 >> 2 )), /* G=32 */
  47:.\Generated_Source\PSoC5/PGA.c ****     ( PGA_COMP_3P6PF   | ( PGA_REDC_00 >> 2 )), /* G=48 */
  48:.\Generated_Source\PSoC5/PGA.c ****     ( PGA_COMP_3P6PF   | ( PGA_REDC_00 >> 2 ))  /* G=50 */
  49:.\Generated_Source\PSoC5/PGA.c **** };
  50:.\Generated_Source\PSoC5/PGA.c **** 
  51:.\Generated_Source\PSoC5/PGA.c **** uint8 PGA_initVar = 0u;
  52:.\Generated_Source\PSoC5/PGA.c **** 
  53:.\Generated_Source\PSoC5/PGA.c **** #if (CY_PSOC5A)
  54:.\Generated_Source\PSoC5/PGA.c ****     uint8 PGA_restoreVal = 0u;
  55:.\Generated_Source\PSoC5/PGA.c **** #endif /* CY_PSOC5A */
  56:.\Generated_Source\PSoC5/PGA.c **** 
  57:.\Generated_Source\PSoC5/PGA.c **** 
  58:.\Generated_Source\PSoC5/PGA.c **** /*******************************************************************************   
  59:.\Generated_Source\PSoC5/PGA.c **** * Function Name: PGA_Init
  60:.\Generated_Source\PSoC5/PGA.c **** ********************************************************************************
  61:.\Generated_Source\PSoC5/PGA.c **** *
  62:.\Generated_Source\PSoC5/PGA.c **** * Summary:
  63:.\Generated_Source\PSoC5/PGA.c **** *  Initialize component's parameters to the parameters set by user in the 
  64:.\Generated_Source\PSoC5/PGA.c **** *  customizer of the component placed onto schematic. Usually called in 
  65:.\Generated_Source\PSoC5/PGA.c **** *  PGA_Start().
  66:.\Generated_Source\PSoC5/PGA.c **** *
  67:.\Generated_Source\PSoC5/PGA.c **** * Parameters:
  68:.\Generated_Source\PSoC5/PGA.c **** *  void
  69:.\Generated_Source\PSoC5/PGA.c **** *
  70:.\Generated_Source\PSoC5/PGA.c **** * Return:
  71:.\Generated_Source\PSoC5/PGA.c **** *  void
  72:.\Generated_Source\PSoC5/PGA.c **** *
  73:.\Generated_Source\PSoC5/PGA.c **** *******************************************************************************/
  74:.\Generated_Source\PSoC5/PGA.c **** void PGA_Init(void) 
  75:.\Generated_Source\PSoC5/PGA.c **** {
  76:.\Generated_Source\PSoC5/PGA.c ****     /* Set PGA mode */
  77:.\Generated_Source\PSoC5/PGA.c ****     PGA_CR0_REG = PGA_MODE_PGA;  
  78:.\Generated_Source\PSoC5/PGA.c ****     
  79:.\Generated_Source\PSoC5/PGA.c ****     /* Set non-inverting PGA mode and reference mode */
ARM GAS  C:\Users\SUZUKI~1\AppData\Local\Temp\ccpGn95j.s 			page 3


  80:.\Generated_Source\PSoC5/PGA.c ****     PGA_CR1_REG |= PGA_PGA_NINV;  
  81:.\Generated_Source\PSoC5/PGA.c **** 
  82:.\Generated_Source\PSoC5/PGA.c ****     /* Set default gain and ref mode */
  83:.\Generated_Source\PSoC5/PGA.c ****     PGA_CR2_REG = PGA_VREF_MODE;
  84:.\Generated_Source\PSoC5/PGA.c **** 
  85:.\Generated_Source\PSoC5/PGA.c ****     /* Set gain and compensation */
  86:.\Generated_Source\PSoC5/PGA.c ****     PGA_SetGain(PGA_DEFAULT_GAIN);
  87:.\Generated_Source\PSoC5/PGA.c **** 
  88:.\Generated_Source\PSoC5/PGA.c ****     /* Set power */
  89:.\Generated_Source\PSoC5/PGA.c ****     PGA_SetPower(PGA_DEFAULT_POWER);
  90:.\Generated_Source\PSoC5/PGA.c **** }
  91:.\Generated_Source\PSoC5/PGA.c **** 
  92:.\Generated_Source\PSoC5/PGA.c **** 
  93:.\Generated_Source\PSoC5/PGA.c **** /*******************************************************************************   
  94:.\Generated_Source\PSoC5/PGA.c **** * Function Name: PGA_Enable
  95:.\Generated_Source\PSoC5/PGA.c **** ********************************************************************************
  96:.\Generated_Source\PSoC5/PGA.c **** *
  97:.\Generated_Source\PSoC5/PGA.c **** * Summary:
  98:.\Generated_Source\PSoC5/PGA.c **** *  Enables the PGA block operation.
  99:.\Generated_Source\PSoC5/PGA.c **** *
 100:.\Generated_Source\PSoC5/PGA.c **** * Parameters:
 101:.\Generated_Source\PSoC5/PGA.c **** *  void
 102:.\Generated_Source\PSoC5/PGA.c **** *
 103:.\Generated_Source\PSoC5/PGA.c **** * Return:
 104:.\Generated_Source\PSoC5/PGA.c **** *  void
 105:.\Generated_Source\PSoC5/PGA.c **** *
 106:.\Generated_Source\PSoC5/PGA.c **** *******************************************************************************/
 107:.\Generated_Source\PSoC5/PGA.c **** void PGA_Enable(void) 
 108:.\Generated_Source\PSoC5/PGA.c **** {
  32              		.loc 1 108 0
  33              		.cfi_startproc
  34              		@ args = 0, pretend = 0, frame = 0
  35              		@ frame_needed = 0, uses_anonymous_args = 0
  36              		@ link register save eliminated.
 109:.\Generated_Source\PSoC5/PGA.c ****     /* If a boost clock is required */
 110:.\Generated_Source\PSoC5/PGA.c ****     #if(PGA_CYDEV_VDDA_MV < PGA_MINIMUM_VDDA_THRESHOLD_MV)
 111:.\Generated_Source\PSoC5/PGA.c ****         PGA_BST_REG |= PGA_BST_REG_EN | CyScBoostClk__INDEX;
 112:.\Generated_Source\PSoC5/PGA.c ****     #endif /* PGA_CYDEV_VDDA_MV < PGA_MINIMUM_VDDA_THRESHOLD_MV */
 113:.\Generated_Source\PSoC5/PGA.c ****    
 114:.\Generated_Source\PSoC5/PGA.c ****     /* PSoC5A */
 115:.\Generated_Source\PSoC5/PGA.c ****     #if (CY_PSOC5A)
 116:.\Generated_Source\PSoC5/PGA.c ****         /* Enable Pump only if voltage is below threshold */
 117:.\Generated_Source\PSoC5/PGA.c ****         if (PGA_CYDEV_VDDA_MV < PGA_MINIMUM_VDDA_THRESHOLD_MV)
 118:.\Generated_Source\PSoC5/PGA.c ****         {
 119:.\Generated_Source\PSoC5/PGA.c ****             PGA_SC_MISC_REG |= PGA_PUMP_FORCE;
 120:.\Generated_Source\PSoC5/PGA.c ****         }
 121:.\Generated_Source\PSoC5/PGA.c ****         
 122:.\Generated_Source\PSoC5/PGA.c ****     /* PSoC3, PSoC5LP*/
 123:.\Generated_Source\PSoC5/PGA.c ****     #elif (CY_PSOC3 || CY_PSOC5LP)
 124:.\Generated_Source\PSoC5/PGA.c ****         /* Enable charge Pump clock for SC block */
 125:.\Generated_Source\PSoC5/PGA.c ****         PGA_PUMP_CR1_REG |= PGA_PUMP_CR1_SC_CLKSEL;
 126:.\Generated_Source\PSoC5/PGA.c ****         /* Enable Pump only if voltage is below threshold */
 127:.\Generated_Source\PSoC5/PGA.c ****         if (PGA_CYDEV_VDDA_MV < PGA_MINIMUM_VDDA_THRESHOLD_MV)
 128:.\Generated_Source\PSoC5/PGA.c ****         {
 129:.\Generated_Source\PSoC5/PGA.c ****             PGA_SC_MISC_REG |= PGA_PUMP_FORCE;
 130:.\Generated_Source\PSoC5/PGA.c ****         }
 131:.\Generated_Source\PSoC5/PGA.c ****     #endif /* (CY_PSOC3 || CY_PSOC5LP) */
ARM GAS  C:\Users\SUZUKI~1\AppData\Local\Temp\ccpGn95j.s 			page 4


 132:.\Generated_Source\PSoC5/PGA.c **** 
 133:.\Generated_Source\PSoC5/PGA.c ****     #if (CY_PSOC5A)
 134:.\Generated_Source\PSoC5/PGA.c ****     if(PGA_restoreVal == 1u)
  37              		.loc 1 134 0
  38 0000 0B4B     		ldr	r3, .L5
  39 0002 1A78     		ldrb	r2, [r3, #0]	@ zero_extendqisi2
  40 0004 012A     		cmp	r2, #1
  41 0006 07D1     		bne	.L2
 135:.\Generated_Source\PSoC5/PGA.c ****     {
 136:.\Generated_Source\PSoC5/PGA.c ****         PGA_CR1_REG = PGA_backup.scCr1Reg;
  42              		.loc 1 136 0
  43 0008 5979     		ldrb	r1, [r3, #5]	@ zero_extendqisi2
  44 000a 0A4A     		ldr	r2, .L5+4
  45 000c 1170     		strb	r1, [r2, #0]
 137:.\Generated_Source\PSoC5/PGA.c ****         PGA_CR2_REG =PGA_backup.scCr2Reg;
  46              		.loc 1 137 0
  47 000e 9979     		ldrb	r1, [r3, #6]	@ zero_extendqisi2
  48 0010 0132     		adds	r2, r2, #1
  49 0012 1170     		strb	r1, [r2, #0]
 138:.\Generated_Source\PSoC5/PGA.c ****         PGA_restoreVal = 0u;
  50              		.loc 1 138 0
  51 0014 0022     		movs	r2, #0
  52 0016 1A70     		strb	r2, [r3, #0]
  53              	.L2:
 139:.\Generated_Source\PSoC5/PGA.c ****     }
 140:.\Generated_Source\PSoC5/PGA.c ****     #endif /* CY_PSOC5A */
 141:.\Generated_Source\PSoC5/PGA.c ****      
 142:.\Generated_Source\PSoC5/PGA.c ****     /* Enable power to the Amp in Active mode*/
 143:.\Generated_Source\PSoC5/PGA.c ****     PGA_PM_ACT_CFG_REG |= PGA_ACT_PWR_EN;
  54              		.loc 1 143 0
  55 0018 074B     		ldr	r3, .L5+8
  56 001a 1A78     		ldrb	r2, [r3, #0]	@ zero_extendqisi2
  57 001c 42F00402 		orr	r2, r2, #4
  58 0020 1A70     		strb	r2, [r3, #0]
 144:.\Generated_Source\PSoC5/PGA.c **** 
 145:.\Generated_Source\PSoC5/PGA.c ****     /* Enable power to the Amp in Alternative Active mode*/
 146:.\Generated_Source\PSoC5/PGA.c ****     PGA_PM_STBY_CFG_REG |= PGA_STBY_PWR_EN;
  59              		.loc 1 146 0
  60 0022 1033     		adds	r3, r3, #16
  61 0024 1A78     		ldrb	r2, [r3, #0]	@ zero_extendqisi2
  62 0026 42F00402 		orr	r2, r2, #4
  63 002a 1A70     		strb	r2, [r3, #0]
 147:.\Generated_Source\PSoC5/PGA.c **** }
  64              		.loc 1 147 0
  65 002c 7047     		bx	lr
  66              	.L6:
  67 002e 00BF     		.align	2
  68              	.L5:
  69 0030 00000000 		.word	.LANCHOR0
  70 0034 05580040 		.word	1073764357
  71 0038 A9430040 		.word	1073759145
  72              		.cfi_endproc
  73              	.LFE1:
  74              		.size	PGA_Enable, .-PGA_Enable
  75              		.section	.text.PGA_Stop,"ax",%progbits
  76              		.align	1
  77              		.global	PGA_Stop
ARM GAS  C:\Users\SUZUKI~1\AppData\Local\Temp\ccpGn95j.s 			page 5


  78              		.thumb
  79              		.thumb_func
  80              		.type	PGA_Stop, %function
  81              	PGA_Stop:
  82              	.LFB3:
 148:.\Generated_Source\PSoC5/PGA.c **** 
 149:.\Generated_Source\PSoC5/PGA.c **** 
 150:.\Generated_Source\PSoC5/PGA.c **** /*******************************************************************************
 151:.\Generated_Source\PSoC5/PGA.c **** * Function Name: PGA_Start
 152:.\Generated_Source\PSoC5/PGA.c **** ********************************************************************************
 153:.\Generated_Source\PSoC5/PGA.c **** *
 154:.\Generated_Source\PSoC5/PGA.c **** * Summary:
 155:.\Generated_Source\PSoC5/PGA.c **** *  The start function initializes the PGA with the default values and sets
 156:.\Generated_Source\PSoC5/PGA.c **** *  the power to the given level. A power level of 0, is same as executing
 157:.\Generated_Source\PSoC5/PGA.c **** *  the stop function.
 158:.\Generated_Source\PSoC5/PGA.c **** *
 159:.\Generated_Source\PSoC5/PGA.c **** * Parameters:
 160:.\Generated_Source\PSoC5/PGA.c **** *  void
 161:.\Generated_Source\PSoC5/PGA.c **** *
 162:.\Generated_Source\PSoC5/PGA.c **** * Return:
 163:.\Generated_Source\PSoC5/PGA.c **** *  void
 164:.\Generated_Source\PSoC5/PGA.c **** *
 165:.\Generated_Source\PSoC5/PGA.c **** *******************************************************************************/
 166:.\Generated_Source\PSoC5/PGA.c **** void PGA_Start(void) 
 167:.\Generated_Source\PSoC5/PGA.c **** {
 168:.\Generated_Source\PSoC5/PGA.c **** 
 169:.\Generated_Source\PSoC5/PGA.c ****     /* This is to restore the value of register CR1 and CR2 which is saved 
 170:.\Generated_Source\PSoC5/PGA.c ****       in prior to the modification in stop() API */
 171:.\Generated_Source\PSoC5/PGA.c **** 
 172:.\Generated_Source\PSoC5/PGA.c ****     if(PGA_initVar == 0u)
 173:.\Generated_Source\PSoC5/PGA.c ****     {
 174:.\Generated_Source\PSoC5/PGA.c ****         PGA_Init();
 175:.\Generated_Source\PSoC5/PGA.c ****         PGA_initVar = 1u;
 176:.\Generated_Source\PSoC5/PGA.c ****     }
 177:.\Generated_Source\PSoC5/PGA.c **** 
 178:.\Generated_Source\PSoC5/PGA.c ****     PGA_Enable();
 179:.\Generated_Source\PSoC5/PGA.c **** }
 180:.\Generated_Source\PSoC5/PGA.c **** 
 181:.\Generated_Source\PSoC5/PGA.c **** 
 182:.\Generated_Source\PSoC5/PGA.c **** /*******************************************************************************
 183:.\Generated_Source\PSoC5/PGA.c **** * Function Name: PGA_Stop
 184:.\Generated_Source\PSoC5/PGA.c **** ********************************************************************************
 185:.\Generated_Source\PSoC5/PGA.c **** *
 186:.\Generated_Source\PSoC5/PGA.c **** * Summary:
 187:.\Generated_Source\PSoC5/PGA.c **** *  Powers down amplifier to lowest power state.
 188:.\Generated_Source\PSoC5/PGA.c **** *
 189:.\Generated_Source\PSoC5/PGA.c **** * Parameters:
 190:.\Generated_Source\PSoC5/PGA.c **** *  void
 191:.\Generated_Source\PSoC5/PGA.c **** *
 192:.\Generated_Source\PSoC5/PGA.c **** * Return:
 193:.\Generated_Source\PSoC5/PGA.c **** *  void
 194:.\Generated_Source\PSoC5/PGA.c **** *
 195:.\Generated_Source\PSoC5/PGA.c **** *******************************************************************************/
 196:.\Generated_Source\PSoC5/PGA.c **** void PGA_Stop(void) 
 197:.\Generated_Source\PSoC5/PGA.c **** {
  83              		.loc 1 197 0
  84              		.cfi_startproc
ARM GAS  C:\Users\SUZUKI~1\AppData\Local\Temp\ccpGn95j.s 			page 6


  85              		@ args = 0, pretend = 0, frame = 0
  86              		@ frame_needed = 0, uses_anonymous_args = 0
  87              		@ link register save eliminated.
 198:.\Generated_Source\PSoC5/PGA.c ****     /* Disable pumps only if only one SC block is in use */
 199:.\Generated_Source\PSoC5/PGA.c ****     if (PGA_PM_ACT_CFG_REG == PGA_ACT_PWR_EN)
  88              		.loc 1 199 0
  89 0000 0F4B     		ldr	r3, .L10
  90 0002 1B78     		ldrb	r3, [r3, #0]	@ zero_extendqisi2
  91 0004 042B     		cmp	r3, #4
  92 0006 04D1     		bne	.L8
 200:.\Generated_Source\PSoC5/PGA.c ****     {
 201:.\Generated_Source\PSoC5/PGA.c ****        PGA_SC_MISC_REG &= ~PGA_PUMP_FORCE;
  93              		.loc 1 201 0
  94 0008 0E4B     		ldr	r3, .L10+4
  95 000a 1A78     		ldrb	r2, [r3, #0]	@ zero_extendqisi2
  96 000c 02F0DF02 		and	r2, r2, #223
  97 0010 1A70     		strb	r2, [r3, #0]
  98              	.L8:
 202:.\Generated_Source\PSoC5/PGA.c ****     }   
 203:.\Generated_Source\PSoC5/PGA.c ****     /* Disble power to the Amp in Active mode template */
 204:.\Generated_Source\PSoC5/PGA.c ****     PGA_PM_ACT_CFG_REG &= ~PGA_ACT_PWR_EN;
  99              		.loc 1 204 0
 100 0012 0B4B     		ldr	r3, .L10
 205:.\Generated_Source\PSoC5/PGA.c **** 
 206:.\Generated_Source\PSoC5/PGA.c ****     /* Disble power to the Amp in Alternative Active mode template */
 207:.\Generated_Source\PSoC5/PGA.c ****     PGA_PM_STBY_CFG_REG &= ~PGA_STBY_PWR_EN;
 208:.\Generated_Source\PSoC5/PGA.c **** 
 209:.\Generated_Source\PSoC5/PGA.c ****     /* If a boost clock is required */
 210:.\Generated_Source\PSoC5/PGA.c ****     /* Disable SC Block boost clk control, if used (MinVdda < 2.7V) */
 211:.\Generated_Source\PSoC5/PGA.c ****     #if(PGA_CYDEV_VDDA_MV < PGA_MINIMUM_VDDA_THRESHOLD_MV)
 212:.\Generated_Source\PSoC5/PGA.c ****         PGA_BST_REG &= ~PGA_BST_REG_EN;
 213:.\Generated_Source\PSoC5/PGA.c ****     #endif /* PGA_CYDEV_VDDA_MV < PGA_MINIMUM_VDDA_THRESHOLD_MV */
 214:.\Generated_Source\PSoC5/PGA.c **** 
 215:.\Generated_Source\PSoC5/PGA.c ****     /* This sets PGA in zero current mode and output routes are valid */
 216:.\Generated_Source\PSoC5/PGA.c ****     #if (CY_PSOC5A)
 217:.\Generated_Source\PSoC5/PGA.c ****         PGA_backup.scCr1Reg = PGA_CR1_REG;
 101              		.loc 1 217 0
 102 0014 0C48     		ldr	r0, .L10+8
 103              		.loc 1 204 0
 104 0016 1A78     		ldrb	r2, [r3, #0]	@ zero_extendqisi2
 105 0018 02F0FB02 		and	r2, r2, #251
 106 001c 1A70     		strb	r2, [r3, #0]
 107              		.loc 1 207 0
 108 001e 1033     		adds	r3, r3, #16
 109 0020 1A78     		ldrb	r2, [r3, #0]	@ zero_extendqisi2
 110 0022 02F0FB02 		and	r2, r2, #251
 111 0026 1A70     		strb	r2, [r3, #0]
 112              		.loc 1 217 0
 113 0028 0278     		ldrb	r2, [r0, #0]	@ zero_extendqisi2
 114 002a 084B     		ldr	r3, .L10+12
 115 002c 5A71     		strb	r2, [r3, #5]
 218:.\Generated_Source\PSoC5/PGA.c ****         PGA_backup.scCr2Reg = PGA_CR2_REG;
 116              		.loc 1 218 0
 117 002e 084A     		ldr	r2, .L10+16
 118 0030 1178     		ldrb	r1, [r2, #0]	@ zero_extendqisi2
 119 0032 9971     		strb	r1, [r3, #6]
 219:.\Generated_Source\PSoC5/PGA.c ****         PGA_CR1_REG = PGA_SC_REG_CLR;
ARM GAS  C:\Users\SUZUKI~1\AppData\Local\Temp\ccpGn95j.s 			page 7


 120              		.loc 1 219 0
 121 0034 0021     		movs	r1, #0
 122 0036 0170     		strb	r1, [r0, #0]
 220:.\Generated_Source\PSoC5/PGA.c ****         PGA_CR2_REG = PGA_SC_REG_CLR;
 123              		.loc 1 220 0
 124 0038 1170     		strb	r1, [r2, #0]
 221:.\Generated_Source\PSoC5/PGA.c ****         PGA_restoreVal = 1u;
 125              		.loc 1 221 0
 126 003a 0122     		movs	r2, #1
 127 003c 1A70     		strb	r2, [r3, #0]
 222:.\Generated_Source\PSoC5/PGA.c ****     #endif /* CY_PSOC5A */
 223:.\Generated_Source\PSoC5/PGA.c **** }
 128              		.loc 1 223 0
 129 003e 7047     		bx	lr
 130              	.L11:
 131              		.align	2
 132              	.L10:
 133 0040 A9430040 		.word	1073759145
 134 0044 565B0040 		.word	1073765206
 135 0048 05580040 		.word	1073764357
 136 004c 00000000 		.word	.LANCHOR0
 137 0050 06580040 		.word	1073764358
 138              		.cfi_endproc
 139              	.LFE3:
 140              		.size	PGA_Stop, .-PGA_Stop
 141              		.section	.text.PGA_SetPower,"ax",%progbits
 142              		.align	1
 143              		.global	PGA_SetPower
 144              		.thumb
 145              		.thumb_func
 146              		.type	PGA_SetPower, %function
 147              	PGA_SetPower:
 148              	.LFB4:
 224:.\Generated_Source\PSoC5/PGA.c **** 
 225:.\Generated_Source\PSoC5/PGA.c **** 
 226:.\Generated_Source\PSoC5/PGA.c **** /*******************************************************************************
 227:.\Generated_Source\PSoC5/PGA.c **** * Function Name: PGA_SetPower
 228:.\Generated_Source\PSoC5/PGA.c **** ********************************************************************************
 229:.\Generated_Source\PSoC5/PGA.c **** *
 230:.\Generated_Source\PSoC5/PGA.c **** * Summary:
 231:.\Generated_Source\PSoC5/PGA.c **** *  Set the power of the PGA.
 232:.\Generated_Source\PSoC5/PGA.c **** *
 233:.\Generated_Source\PSoC5/PGA.c **** * Parameters:
 234:.\Generated_Source\PSoC5/PGA.c **** *  power: Sets power level between (0) and (3) high power
 235:.\Generated_Source\PSoC5/PGA.c **** *
 236:.\Generated_Source\PSoC5/PGA.c **** * Return:
 237:.\Generated_Source\PSoC5/PGA.c **** *  void
 238:.\Generated_Source\PSoC5/PGA.c **** *
 239:.\Generated_Source\PSoC5/PGA.c **** *******************************************************************************/
 240:.\Generated_Source\PSoC5/PGA.c **** void PGA_SetPower(uint8 power) 
 241:.\Generated_Source\PSoC5/PGA.c **** {
 149              		.loc 1 241 0
 150              		.cfi_startproc
 151              		@ args = 0, pretend = 0, frame = 0
 152              		@ frame_needed = 0, uses_anonymous_args = 0
 153              		@ link register save eliminated.
 154              	.LVL0:
ARM GAS  C:\Users\SUZUKI~1\AppData\Local\Temp\ccpGn95j.s 			page 8


 242:.\Generated_Source\PSoC5/PGA.c ****     uint8 tmpCR;
 243:.\Generated_Source\PSoC5/PGA.c **** 
 244:.\Generated_Source\PSoC5/PGA.c ****     tmpCR = PGA_CR1_REG & ~PGA_DRIVE_MASK;
 155              		.loc 1 244 0
 156 0000 044B     		ldr	r3, .L14
 245:.\Generated_Source\PSoC5/PGA.c ****     tmpCR |= (power & PGA_DRIVE_MASK);
 157              		.loc 1 245 0
 158 0002 00F00300 		and	r0, r0, #3
 159              	.LVL1:
 160              		.loc 1 244 0
 161 0006 1A78     		ldrb	r2, [r3, #0]	@ zero_extendqisi2
 162 0008 02F0FC02 		and	r2, r2, #252
 163              	.LVL2:
 164              		.loc 1 245 0
 165 000c 0243     		orrs	r2, r2, r0
 166              	.LVL3:
 246:.\Generated_Source\PSoC5/PGA.c ****     PGA_CR1_REG = tmpCR;  
 167              		.loc 1 246 0
 168 000e 1A70     		strb	r2, [r3, #0]
 247:.\Generated_Source\PSoC5/PGA.c **** }
 169              		.loc 1 247 0
 170 0010 7047     		bx	lr
 171              	.L15:
 172 0012 00BF     		.align	2
 173              	.L14:
 174 0014 05580040 		.word	1073764357
 175              		.cfi_endproc
 176              	.LFE4:
 177              		.size	PGA_SetPower, .-PGA_SetPower
 178              		.section	.text.PGA_SetGain,"ax",%progbits
 179              		.align	1
 180              		.global	PGA_SetGain
 181              		.thumb
 182              		.thumb_func
 183              		.type	PGA_SetGain, %function
 184              	PGA_SetGain:
 185              	.LFB5:
 248:.\Generated_Source\PSoC5/PGA.c **** 
 249:.\Generated_Source\PSoC5/PGA.c **** 
 250:.\Generated_Source\PSoC5/PGA.c **** /*******************************************************************************
 251:.\Generated_Source\PSoC5/PGA.c **** * Function Name: PGA_SetGain
 252:.\Generated_Source\PSoC5/PGA.c **** ********************************************************************************
 253:.\Generated_Source\PSoC5/PGA.c **** *
 254:.\Generated_Source\PSoC5/PGA.c **** * Summary:
 255:.\Generated_Source\PSoC5/PGA.c **** *  This function sets values of the input and feedback resistors to set a 
 256:.\Generated_Source\PSoC5/PGA.c **** *  specific gain of the amplifier.
 257:.\Generated_Source\PSoC5/PGA.c **** *
 258:.\Generated_Source\PSoC5/PGA.c **** * Parameters:
 259:.\Generated_Source\PSoC5/PGA.c **** *  gain: Gain value of PGA (See header file for gain values.)
 260:.\Generated_Source\PSoC5/PGA.c **** *
 261:.\Generated_Source\PSoC5/PGA.c **** * Return:
 262:.\Generated_Source\PSoC5/PGA.c **** *  void 
 263:.\Generated_Source\PSoC5/PGA.c **** *
 264:.\Generated_Source\PSoC5/PGA.c **** *******************************************************************************/
 265:.\Generated_Source\PSoC5/PGA.c **** void PGA_SetGain(uint8 gain) 
 266:.\Generated_Source\PSoC5/PGA.c **** {
 186              		.loc 1 266 0
ARM GAS  C:\Users\SUZUKI~1\AppData\Local\Temp\ccpGn95j.s 			page 9


 187              		.cfi_startproc
 188              		@ args = 0, pretend = 0, frame = 0
 189              		@ frame_needed = 0, uses_anonymous_args = 0
 190              		@ link register save eliminated.
 191              	.LVL4:
 267:.\Generated_Source\PSoC5/PGA.c ****     /* Only set new gain if it is a valid gain */
 268:.\Generated_Source\PSoC5/PGA.c ****     if( gain <= PGA_GAIN_MAX)
 192              		.loc 1 268 0
 193 0000 0828     		cmp	r0, #8
 194 0002 1BD8     		bhi	.L18
 269:.\Generated_Source\PSoC5/PGA.c ****     {
 270:.\Generated_Source\PSoC5/PGA.c ****         /* Clear resistors, redc, and bias */
 271:.\Generated_Source\PSoC5/PGA.c ****         PGA_CR2_REG &= ~(PGA_RVAL_MASK | PGA_R20_40B_MASK | 
 195              		.loc 1 271 0
 196 0004 0E4B     		ldr	r3, .L19
 272:.\Generated_Source\PSoC5/PGA.c ****                                 PGA_REDC_MASK | PGA_BIAS_MASK );
 273:.\Generated_Source\PSoC5/PGA.c **** 
 274:.\Generated_Source\PSoC5/PGA.c ****         /* Set gain value resistors, redc comp, and bias */
 275:.\Generated_Source\PSoC5/PGA.c ****         PGA_CR2_REG |= (PGA_GainArray[gain] |
 276:.\Generated_Source\PSoC5/PGA.c ****                                 ( (PGA_GainComp[gain] << 2 ) & PGA_REDC_MASK));
 197              		.loc 1 276 0
 198 0006 0F49     		ldr	r1, .L19+4
 199              		.loc 1 271 0
 200 0008 1A78     		ldrb	r2, [r3, #0]	@ zero_extendqisi2
 201 000a 02F08002 		and	r2, r2, #128
 202 000e 1A70     		strb	r2, [r3, #0]
 203              		.loc 1 276 0
 204 0010 0A5C     		ldrb	r2, [r1, r0]	@ zero_extendqisi2
 205              		.loc 1 275 0
 206 0012 4018     		adds	r0, r0, r1
 207              	.LVL5:
 208 0014 93F800C0 		ldrb	ip, [r3, #0]	@ zero_extendqisi2
 209 0018 017B     		ldrb	r1, [r0, #12]	@ zero_extendqisi2
 210 001a 9000     		lsls	r0, r2, #2
 211 001c 4CEA0101 		orr	r1, ip, r1
 212 0020 00F00C00 		and	r0, r0, #12
 213 0024 0143     		orrs	r1, r1, r0
 214 0026 1970     		strb	r1, [r3, #0]
 277:.\Generated_Source\PSoC5/PGA.c **** 
 278:.\Generated_Source\PSoC5/PGA.c ****         /* Clear sc_comp  */
 279:.\Generated_Source\PSoC5/PGA.c ****         PGA_CR1_REG &= ~PGA_COMP_MASK;
 215              		.loc 1 279 0
 216 0028 013B     		subs	r3, r3, #1
 217 002a 1978     		ldrb	r1, [r3, #0]	@ zero_extendqisi2
 218 002c 01F0F301 		and	r1, r1, #243
 219 0030 1970     		strb	r1, [r3, #0]
 280:.\Generated_Source\PSoC5/PGA.c ****         /* Set sc_comp  */
 281:.\Generated_Source\PSoC5/PGA.c ****         PGA_CR1_REG |= ( PGA_GainComp[gain] | PGA_COMP_MASK );
 220              		.loc 1 281 0
 221 0032 1978     		ldrb	r1, [r3, #0]	@ zero_extendqisi2
 222 0034 41F00C01 		orr	r1, r1, #12
 223 0038 0A43     		orrs	r2, r2, r1
 224 003a 1A70     		strb	r2, [r3, #0]
 225              	.LVL6:
 226              	.L18:
 227 003c 7047     		bx	lr
 228              	.L20:
ARM GAS  C:\Users\SUZUKI~1\AppData\Local\Temp\ccpGn95j.s 			page 10


 229 003e 00BF     		.align	2
 230              	.L19:
 231 0040 06580040 		.word	1073764358
 232 0044 00000000 		.word	.LANCHOR1
 233              		.cfi_endproc
 234              	.LFE5:
 235              		.size	PGA_SetGain, .-PGA_SetGain
 236              		.section	.text.PGA_Init,"ax",%progbits
 237              		.align	1
 238              		.global	PGA_Init
 239              		.thumb
 240              		.thumb_func
 241              		.type	PGA_Init, %function
 242              	PGA_Init:
 243              	.LFB0:
 244              		.loc 1 75 0
 245              		.cfi_startproc
 246              		@ args = 0, pretend = 0, frame = 0
 247              		@ frame_needed = 0, uses_anonymous_args = 0
 248 0000 10B5     		push	{r4, lr}
 249              	.LCFI0:
 250              		.cfi_def_cfa_offset 8
 251              		.loc 1 77 0
 252 0002 094B     		ldr	r3, .L23
 253 0004 0C22     		movs	r2, #12
 254 0006 1A70     		strb	r2, [r3, #0]
 255              		.loc 1 80 0
 256 0008 0133     		adds	r3, r3, #1
 257 000a 1A78     		ldrb	r2, [r3, #0]	@ zero_extendqisi2
 258              		.loc 1 83 0
 259 000c 0020     		movs	r0, #0
 260              		.loc 1 80 0
 261 000e 42F02002 		orr	r2, r2, #32
 262 0012 1A70     		strb	r2, [r3, #0]
 263              		.loc 1 83 0
 264 0014 0133     		adds	r3, r3, #1
 265 0016 1870     		strb	r0, [r3, #0]
 266              		.loc 1 86 0
 267              		.cfi_offset 14, -4
 268              		.cfi_offset 4, -8
 269 0018 FFF7FEFF 		bl	PGA_SetGain
 270              		.loc 1 89 0
 271 001c 0320     		movs	r0, #3
 272              		.loc 1 90 0
 273 001e BDE81040 		pop	{r4, lr}
 274              		.loc 1 89 0
 275 0022 FFF7FEBF 		b	PGA_SetPower
 276              	.L24:
 277 0026 00BF     		.align	2
 278              	.L23:
 279 0028 04580040 		.word	1073764356
 280              		.cfi_endproc
 281              	.LFE0:
 282              		.size	PGA_Init, .-PGA_Init
 283              		.section	.text.PGA_Start,"ax",%progbits
 284              		.align	1
 285              		.global	PGA_Start
ARM GAS  C:\Users\SUZUKI~1\AppData\Local\Temp\ccpGn95j.s 			page 11


 286              		.thumb
 287              		.thumb_func
 288              		.type	PGA_Start, %function
 289              	PGA_Start:
 290              	.LFB2:
 291              		.loc 1 167 0
 292              		.cfi_startproc
 293              		@ args = 0, pretend = 0, frame = 0
 294              		@ frame_needed = 0, uses_anonymous_args = 0
 295 0000 10B5     		push	{r4, lr}
 296              	.LCFI1:
 297              		.cfi_def_cfa_offset 8
 298              		.loc 1 172 0
 299 0002 054C     		ldr	r4, .L28
 300              		.cfi_offset 14, -4
 301              		.cfi_offset 4, -8
 302 0004 E379     		ldrb	r3, [r4, #7]	@ zero_extendqisi2
 303 0006 1BB9     		cbnz	r3, .L26
 304              		.loc 1 174 0
 305 0008 FFF7FEFF 		bl	PGA_Init
 306              		.loc 1 175 0
 307 000c 0123     		movs	r3, #1
 308 000e E371     		strb	r3, [r4, #7]
 309              	.L26:
 310              		.loc 1 179 0
 311 0010 BDE81040 		pop	{r4, lr}
 312              		.loc 1 178 0
 313 0014 FFF7FEBF 		b	PGA_Enable
 314              	.L29:
 315              		.align	2
 316              	.L28:
 317 0018 00000000 		.word	.LANCHOR0
 318              		.cfi_endproc
 319              	.LFE2:
 320              		.size	PGA_Start, .-PGA_Start
 321              		.global	PGA_GainArray
 322              		.global	PGA_GainComp
 323              		.global	PGA_initVar
 324              		.global	PGA_restoreVal
 325              		.section	.rodata
 326              		.align	2
 327              		.set	.LANCHOR1,. + 0
 328              		.type	PGA_GainComp, %object
 329              		.size	PGA_GainComp, 9
 330              	PGA_GainComp:
 331 0000 08       		.byte	8
 332 0001 09       		.byte	9
 333 0002 01       		.byte	1
 334 0003 01       		.byte	1
 335 0004 05       		.byte	5
 336 0005 07       		.byte	7
 337 0006 07       		.byte	7
 338 0007 04       		.byte	4
 339 0008 04       		.byte	4
 340 0009 000000   		.space	3
 341              		.type	PGA_GainArray, %object
 342              		.size	PGA_GainArray, 9
ARM GAS  C:\Users\SUZUKI~1\AppData\Local\Temp\ccpGn95j.s 			page 12


 343              	PGA_GainArray:
 344 000c 01       		.byte	1
 345 000d 11       		.byte	17
 346 000e 21       		.byte	33
 347 000f 31       		.byte	49
 348 0010 41       		.byte	65
 349 0011 61       		.byte	97
 350 0012 53       		.byte	83
 351 0013 63       		.byte	99
 352 0014 73       		.byte	115
 353 0015 000000   		.bss
 354              		.align	2
 355              		.set	.LANCHOR0,. + 0
 356              		.type	PGA_restoreVal, %object
 357              		.size	PGA_restoreVal, 1
 358              	PGA_restoreVal:
 359 0000 00       		.space	1
 360 0001 000000   		.space	3
 361              		.type	PGA_backup, %object
 362              		.size	PGA_backup, 3
 363              	PGA_backup:
 364 0004 000000   		.space	3
 365              		.type	PGA_initVar, %object
 366              		.size	PGA_initVar, 1
 367              	PGA_initVar:
 368 0007 00       		.space	1
 369              		.text
 370              	.Letext0:
 371              		.section	.debug_loc,"",%progbits
 372              	.Ldebug_loc0:
 373              	.LLST3:
 374 0000 00000000 		.4byte	.LVL0
 375 0004 06000000 		.4byte	.LVL1
 376 0008 0100     		.2byte	0x1
 377 000a 50       		.byte	0x50
 378 000b 00000000 		.4byte	0x0
 379 000f 00000000 		.4byte	0x0
 380              	.LLST5:
 381 0013 00000000 		.4byte	.LVL4
 382 0017 14000000 		.4byte	.LVL5
 383 001b 0100     		.2byte	0x1
 384 001d 50       		.byte	0x50
 385 001e 3C000000 		.4byte	.LVL6
 386 0022 48000000 		.4byte	.LFE5
 387 0026 0100     		.2byte	0x1
 388 0028 50       		.byte	0x50
 389 0029 00000000 		.4byte	0x0
 390 002d 00000000 		.4byte	0x0
 391              	.LLST6:
 392 0031 00000000 		.4byte	.LFB0
 393 0035 02000000 		.4byte	.LCFI0
 394 0039 0100     		.2byte	0x1
 395 003b 5D       		.byte	0x5d
 396 003c 02000000 		.4byte	.LCFI0
 397 0040 2C000000 		.4byte	.LFE0
 398 0044 0200     		.2byte	0x2
 399 0046 7D       		.byte	0x7d
ARM GAS  C:\Users\SUZUKI~1\AppData\Local\Temp\ccpGn95j.s 			page 13


 400 0047 08       		.sleb128 8
 401 0048 00000000 		.4byte	0x0
 402 004c 00000000 		.4byte	0x0
 403              	.LLST7:
 404 0050 00000000 		.4byte	.LFB2
 405 0054 02000000 		.4byte	.LCFI1
 406 0058 0100     		.2byte	0x1
 407 005a 5D       		.byte	0x5d
 408 005b 02000000 		.4byte	.LCFI1
 409 005f 1C000000 		.4byte	.LFE2
 410 0063 0200     		.2byte	0x2
 411 0065 7D       		.byte	0x7d
 412 0066 08       		.sleb128 8
 413 0067 00000000 		.4byte	0x0
 414 006b 00000000 		.4byte	0x0
 415              		.file 2 ".\\Generated_Source\\PSoC5\\/PGA.h"
 416              		.file 3 ".\\Generated_Source\\PSoC5\\/cytypes.h"
 417              		.section	.debug_info
 418 0000 E3010000 		.4byte	0x1e3
 419 0004 0200     		.2byte	0x2
 420 0006 00000000 		.4byte	.Ldebug_abbrev0
 421 000a 04       		.byte	0x4
 422 000b 01       		.uleb128 0x1
 423 000c 2B010000 		.4byte	.LASF29
 424 0010 01       		.byte	0x1
 425 0011 45010000 		.4byte	.LASF30
 426 0015 1D000000 		.4byte	.LASF31
 427 0019 00000000 		.4byte	0x0
 428 001d 00000000 		.4byte	0x0
 429 0021 00000000 		.4byte	.Ldebug_ranges0+0x0
 430 0025 00000000 		.4byte	.Ldebug_line0
 431 0029 02       		.uleb128 0x2
 432 002a 01       		.byte	0x1
 433 002b 06       		.byte	0x6
 434 002c A0010000 		.4byte	.LASF0
 435 0030 02       		.uleb128 0x2
 436 0031 01       		.byte	0x1
 437 0032 08       		.byte	0x8
 438 0033 66000000 		.4byte	.LASF1
 439 0037 02       		.uleb128 0x2
 440 0038 02       		.byte	0x2
 441 0039 05       		.byte	0x5
 442 003a 64010000 		.4byte	.LASF2
 443 003e 02       		.uleb128 0x2
 444 003f 02       		.byte	0x2
 445 0040 07       		.byte	0x7
 446 0041 A4000000 		.4byte	.LASF3
 447 0045 02       		.uleb128 0x2
 448 0046 04       		.byte	0x4
 449 0047 05       		.byte	0x5
 450 0048 81010000 		.4byte	.LASF4
 451 004c 02       		.uleb128 0x2
 452 004d 04       		.byte	0x4
 453 004e 07       		.byte	0x7
 454 004f 92000000 		.4byte	.LASF5
 455 0053 02       		.uleb128 0x2
 456 0054 08       		.byte	0x8
ARM GAS  C:\Users\SUZUKI~1\AppData\Local\Temp\ccpGn95j.s 			page 14


 457 0055 05       		.byte	0x5
 458 0056 00000000 		.4byte	.LASF6
 459 005a 02       		.uleb128 0x2
 460 005b 08       		.byte	0x8
 461 005c 07       		.byte	0x7
 462 005d F0000000 		.4byte	.LASF7
 463 0061 03       		.uleb128 0x3
 464 0062 04       		.byte	0x4
 465 0063 05       		.byte	0x5
 466 0064 696E7400 		.ascii	"int\000"
 467 0068 02       		.uleb128 0x2
 468 0069 04       		.byte	0x4
 469 006a 07       		.byte	0x7
 470 006b E3000000 		.4byte	.LASF8
 471 006f 02       		.uleb128 0x2
 472 0070 01       		.byte	0x1
 473 0071 08       		.byte	0x8
 474 0072 37010000 		.4byte	.LASF9
 475 0076 04       		.uleb128 0x4
 476 0077 6E010000 		.4byte	.LASF13
 477 007b 03       		.byte	0x3
 478 007c 60       		.byte	0x60
 479 007d 30000000 		.4byte	0x30
 480 0081 05       		.uleb128 0x5
 481 0082 07010000 		.4byte	.LASF32
 482 0086 03       		.byte	0x3
 483 0087 02       		.byte	0x2
 484 0088 25       		.byte	0x25
 485 0089 B8000000 		.4byte	0xb8
 486 008d 06       		.uleb128 0x6
 487 008e 8A010000 		.4byte	.LASF10
 488 0092 02       		.byte	0x2
 489 0093 26       		.byte	0x26
 490 0094 76000000 		.4byte	0x76
 491 0098 02       		.byte	0x2
 492 0099 23       		.byte	0x23
 493 009a 00       		.uleb128 0x0
 494 009b 06       		.uleb128 0x6
 495 009c DA000000 		.4byte	.LASF11
 496 00a0 02       		.byte	0x2
 497 00a1 27       		.byte	0x27
 498 00a2 76000000 		.4byte	0x76
 499 00a6 02       		.byte	0x2
 500 00a7 23       		.byte	0x23
 501 00a8 01       		.uleb128 0x1
 502 00a9 06       		.uleb128 0x6
 503 00aa 3C010000 		.4byte	.LASF12
 504 00ae 02       		.byte	0x2
 505 00af 28       		.byte	0x28
 506 00b0 76000000 		.4byte	0x76
 507 00b4 02       		.byte	0x2
 508 00b5 23       		.byte	0x23
 509 00b6 02       		.uleb128 0x2
 510 00b7 00       		.byte	0x0
 511 00b8 04       		.uleb128 0x4
 512 00b9 74000000 		.4byte	.LASF14
 513 00bd 02       		.byte	0x2
ARM GAS  C:\Users\SUZUKI~1\AppData\Local\Temp\ccpGn95j.s 			page 15


 514 00be 29       		.byte	0x29
 515 00bf 81000000 		.4byte	0x81
 516 00c3 07       		.uleb128 0x7
 517 00c4 01       		.byte	0x1
 518 00c5 AC010000 		.4byte	.LASF15
 519 00c9 01       		.byte	0x1
 520 00ca 6B       		.byte	0x6b
 521 00cb 01       		.byte	0x1
 522 00cc 00000000 		.4byte	.LFB1
 523 00d0 3C000000 		.4byte	.LFE1
 524 00d4 01       		.byte	0x1
 525 00d5 5D       		.byte	0x5d
 526 00d6 07       		.uleb128 0x7
 527 00d7 01       		.byte	0x1
 528 00d8 14000000 		.4byte	.LASF16
 529 00dc 01       		.byte	0x1
 530 00dd C4       		.byte	0xc4
 531 00de 01       		.byte	0x1
 532 00df 00000000 		.4byte	.LFB3
 533 00e3 54000000 		.4byte	.LFE3
 534 00e7 01       		.byte	0x1
 535 00e8 5D       		.byte	0x5d
 536 00e9 08       		.uleb128 0x8
 537 00ea 01       		.byte	0x1
 538 00eb 74010000 		.4byte	.LASF17
 539 00ef 01       		.byte	0x1
 540 00f0 F0       		.byte	0xf0
 541 00f1 01       		.byte	0x1
 542 00f2 00000000 		.4byte	.LFB4
 543 00f6 18000000 		.4byte	.LFE4
 544 00fa 01       		.byte	0x1
 545 00fb 5D       		.byte	0x5d
 546 00fc 1D010000 		.4byte	0x11d
 547 0100 09       		.uleb128 0x9
 548 0101 54000000 		.4byte	.LASF19
 549 0105 01       		.byte	0x1
 550 0106 F0       		.byte	0xf0
 551 0107 76000000 		.4byte	0x76
 552 010b 00000000 		.4byte	.LLST3
 553 010f 0A       		.uleb128 0xa
 554 0110 0E000000 		.4byte	.LASF23
 555 0114 01       		.byte	0x1
 556 0115 F2       		.byte	0xf2
 557 0116 76000000 		.4byte	0x76
 558 011a 01       		.byte	0x1
 559 011b 52       		.byte	0x52
 560 011c 00       		.byte	0x0
 561 011d 0B       		.uleb128 0xb
 562 011e 01       		.byte	0x1
 563 011f 86000000 		.4byte	.LASF18
 564 0123 01       		.byte	0x1
 565 0124 0901     		.2byte	0x109
 566 0126 01       		.byte	0x1
 567 0127 00000000 		.4byte	.LFB5
 568 012b 48000000 		.4byte	.LFE5
 569 012f 01       		.byte	0x1
 570 0130 5D       		.byte	0x5d
ARM GAS  C:\Users\SUZUKI~1\AppData\Local\Temp\ccpGn95j.s 			page 16


 571 0131 46010000 		.4byte	0x146
 572 0135 0C       		.uleb128 0xc
 573 0136 19010000 		.4byte	.LASF20
 574 013a 01       		.byte	0x1
 575 013b 0901     		.2byte	0x109
 576 013d 76000000 		.4byte	0x76
 577 0141 13000000 		.4byte	.LLST5
 578 0145 00       		.byte	0x0
 579 0146 0D       		.uleb128 0xd
 580 0147 01       		.byte	0x1
 581 0148 B7000000 		.4byte	.LASF21
 582 014c 01       		.byte	0x1
 583 014d 4A       		.byte	0x4a
 584 014e 01       		.byte	0x1
 585 014f 00000000 		.4byte	.LFB0
 586 0153 2C000000 		.4byte	.LFE0
 587 0157 31000000 		.4byte	.LLST6
 588 015b 0D       		.uleb128 0xd
 589 015c 01       		.byte	0x1
 590 015d 96010000 		.4byte	.LASF22
 591 0161 01       		.byte	0x1
 592 0162 A6       		.byte	0xa6
 593 0163 01       		.byte	0x1
 594 0164 00000000 		.4byte	.LFB2
 595 0168 1C000000 		.4byte	.LFE2
 596 016c 50000000 		.4byte	.LLST7
 597 0170 0A       		.uleb128 0xa
 598 0171 CF000000 		.4byte	.LASF24
 599 0175 01       		.byte	0x1
 600 0176 16       		.byte	0x16
 601 0177 B8000000 		.4byte	0xb8
 602 017b 05       		.byte	0x5
 603 017c 03       		.byte	0x3
 604 017d 04000000 		.4byte	PGA_backup
 605 0181 0E       		.uleb128 0xe
 606 0182 76000000 		.4byte	0x76
 607 0186 91010000 		.4byte	0x191
 608 018a 0F       		.uleb128 0xf
 609 018b 91010000 		.4byte	0x191
 610 018f 08       		.byte	0x8
 611 0190 00       		.byte	0x0
 612 0191 10       		.uleb128 0x10
 613 0192 04       		.byte	0x4
 614 0193 07       		.byte	0x7
 615 0194 11       		.uleb128 0x11
 616 0195 B7010000 		.4byte	.LASF25
 617 0199 01       		.byte	0x1
 618 019a 1A       		.byte	0x1a
 619 019b A6010000 		.4byte	0x1a6
 620 019f 01       		.byte	0x1
 621 01a0 05       		.byte	0x5
 622 01a1 03       		.byte	0x3
 623 01a2 00000000 		.4byte	PGA_GainArray
 624 01a6 12       		.uleb128 0x12
 625 01a7 81010000 		.4byte	0x181
 626 01ab 11       		.uleb128 0x11
 627 01ac 1E010000 		.4byte	.LASF26
ARM GAS  C:\Users\SUZUKI~1\AppData\Local\Temp\ccpGn95j.s 			page 17


 628 01b0 01       		.byte	0x1
 629 01b1 27       		.byte	0x27
 630 01b2 BD010000 		.4byte	0x1bd
 631 01b6 01       		.byte	0x1
 632 01b7 05       		.byte	0x5
 633 01b8 03       		.byte	0x3
 634 01b9 00000000 		.4byte	PGA_GainComp
 635 01bd 12       		.uleb128 0x12
 636 01be 81010000 		.4byte	0x181
 637 01c2 11       		.uleb128 0x11
 638 01c3 5A000000 		.4byte	.LASF27
 639 01c7 01       		.byte	0x1
 640 01c8 33       		.byte	0x33
 641 01c9 76000000 		.4byte	0x76
 642 01cd 01       		.byte	0x1
 643 01ce 05       		.byte	0x5
 644 01cf 03       		.byte	0x3
 645 01d0 00000000 		.4byte	PGA_initVar
 646 01d4 11       		.uleb128 0x11
 647 01d5 C0000000 		.4byte	.LASF28
 648 01d9 01       		.byte	0x1
 649 01da 36       		.byte	0x36
 650 01db 76000000 		.4byte	0x76
 651 01df 01       		.byte	0x1
 652 01e0 05       		.byte	0x5
 653 01e1 03       		.byte	0x3
 654 01e2 00000000 		.4byte	PGA_restoreVal
 655 01e6 00       		.byte	0x0
 656              		.section	.debug_abbrev
 657 0000 01       		.uleb128 0x1
 658 0001 11       		.uleb128 0x11
 659 0002 01       		.byte	0x1
 660 0003 25       		.uleb128 0x25
 661 0004 0E       		.uleb128 0xe
 662 0005 13       		.uleb128 0x13
 663 0006 0B       		.uleb128 0xb
 664 0007 03       		.uleb128 0x3
 665 0008 0E       		.uleb128 0xe
 666 0009 1B       		.uleb128 0x1b
 667 000a 0E       		.uleb128 0xe
 668 000b 11       		.uleb128 0x11
 669 000c 01       		.uleb128 0x1
 670 000d 52       		.uleb128 0x52
 671 000e 01       		.uleb128 0x1
 672 000f 55       		.uleb128 0x55
 673 0010 06       		.uleb128 0x6
 674 0011 10       		.uleb128 0x10
 675 0012 06       		.uleb128 0x6
 676 0013 00       		.byte	0x0
 677 0014 00       		.byte	0x0
 678 0015 02       		.uleb128 0x2
 679 0016 24       		.uleb128 0x24
 680 0017 00       		.byte	0x0
 681 0018 0B       		.uleb128 0xb
 682 0019 0B       		.uleb128 0xb
 683 001a 3E       		.uleb128 0x3e
 684 001b 0B       		.uleb128 0xb
ARM GAS  C:\Users\SUZUKI~1\AppData\Local\Temp\ccpGn95j.s 			page 18


 685 001c 03       		.uleb128 0x3
 686 001d 0E       		.uleb128 0xe
 687 001e 00       		.byte	0x0
 688 001f 00       		.byte	0x0
 689 0020 03       		.uleb128 0x3
 690 0021 24       		.uleb128 0x24
 691 0022 00       		.byte	0x0
 692 0023 0B       		.uleb128 0xb
 693 0024 0B       		.uleb128 0xb
 694 0025 3E       		.uleb128 0x3e
 695 0026 0B       		.uleb128 0xb
 696 0027 03       		.uleb128 0x3
 697 0028 08       		.uleb128 0x8
 698 0029 00       		.byte	0x0
 699 002a 00       		.byte	0x0
 700 002b 04       		.uleb128 0x4
 701 002c 16       		.uleb128 0x16
 702 002d 00       		.byte	0x0
 703 002e 03       		.uleb128 0x3
 704 002f 0E       		.uleb128 0xe
 705 0030 3A       		.uleb128 0x3a
 706 0031 0B       		.uleb128 0xb
 707 0032 3B       		.uleb128 0x3b
 708 0033 0B       		.uleb128 0xb
 709 0034 49       		.uleb128 0x49
 710 0035 13       		.uleb128 0x13
 711 0036 00       		.byte	0x0
 712 0037 00       		.byte	0x0
 713 0038 05       		.uleb128 0x5
 714 0039 13       		.uleb128 0x13
 715 003a 01       		.byte	0x1
 716 003b 03       		.uleb128 0x3
 717 003c 0E       		.uleb128 0xe
 718 003d 0B       		.uleb128 0xb
 719 003e 0B       		.uleb128 0xb
 720 003f 3A       		.uleb128 0x3a
 721 0040 0B       		.uleb128 0xb
 722 0041 3B       		.uleb128 0x3b
 723 0042 0B       		.uleb128 0xb
 724 0043 01       		.uleb128 0x1
 725 0044 13       		.uleb128 0x13
 726 0045 00       		.byte	0x0
 727 0046 00       		.byte	0x0
 728 0047 06       		.uleb128 0x6
 729 0048 0D       		.uleb128 0xd
 730 0049 00       		.byte	0x0
 731 004a 03       		.uleb128 0x3
 732 004b 0E       		.uleb128 0xe
 733 004c 3A       		.uleb128 0x3a
 734 004d 0B       		.uleb128 0xb
 735 004e 3B       		.uleb128 0x3b
 736 004f 0B       		.uleb128 0xb
 737 0050 49       		.uleb128 0x49
 738 0051 13       		.uleb128 0x13
 739 0052 38       		.uleb128 0x38
 740 0053 0A       		.uleb128 0xa
 741 0054 00       		.byte	0x0
ARM GAS  C:\Users\SUZUKI~1\AppData\Local\Temp\ccpGn95j.s 			page 19


 742 0055 00       		.byte	0x0
 743 0056 07       		.uleb128 0x7
 744 0057 2E       		.uleb128 0x2e
 745 0058 00       		.byte	0x0
 746 0059 3F       		.uleb128 0x3f
 747 005a 0C       		.uleb128 0xc
 748 005b 03       		.uleb128 0x3
 749 005c 0E       		.uleb128 0xe
 750 005d 3A       		.uleb128 0x3a
 751 005e 0B       		.uleb128 0xb
 752 005f 3B       		.uleb128 0x3b
 753 0060 0B       		.uleb128 0xb
 754 0061 27       		.uleb128 0x27
 755 0062 0C       		.uleb128 0xc
 756 0063 11       		.uleb128 0x11
 757 0064 01       		.uleb128 0x1
 758 0065 12       		.uleb128 0x12
 759 0066 01       		.uleb128 0x1
 760 0067 40       		.uleb128 0x40
 761 0068 0A       		.uleb128 0xa
 762 0069 00       		.byte	0x0
 763 006a 00       		.byte	0x0
 764 006b 08       		.uleb128 0x8
 765 006c 2E       		.uleb128 0x2e
 766 006d 01       		.byte	0x1
 767 006e 3F       		.uleb128 0x3f
 768 006f 0C       		.uleb128 0xc
 769 0070 03       		.uleb128 0x3
 770 0071 0E       		.uleb128 0xe
 771 0072 3A       		.uleb128 0x3a
 772 0073 0B       		.uleb128 0xb
 773 0074 3B       		.uleb128 0x3b
 774 0075 0B       		.uleb128 0xb
 775 0076 27       		.uleb128 0x27
 776 0077 0C       		.uleb128 0xc
 777 0078 11       		.uleb128 0x11
 778 0079 01       		.uleb128 0x1
 779 007a 12       		.uleb128 0x12
 780 007b 01       		.uleb128 0x1
 781 007c 40       		.uleb128 0x40
 782 007d 0A       		.uleb128 0xa
 783 007e 01       		.uleb128 0x1
 784 007f 13       		.uleb128 0x13
 785 0080 00       		.byte	0x0
 786 0081 00       		.byte	0x0
 787 0082 09       		.uleb128 0x9
 788 0083 05       		.uleb128 0x5
 789 0084 00       		.byte	0x0
 790 0085 03       		.uleb128 0x3
 791 0086 0E       		.uleb128 0xe
 792 0087 3A       		.uleb128 0x3a
 793 0088 0B       		.uleb128 0xb
 794 0089 3B       		.uleb128 0x3b
 795 008a 0B       		.uleb128 0xb
 796 008b 49       		.uleb128 0x49
 797 008c 13       		.uleb128 0x13
 798 008d 02       		.uleb128 0x2
ARM GAS  C:\Users\SUZUKI~1\AppData\Local\Temp\ccpGn95j.s 			page 20


 799 008e 06       		.uleb128 0x6
 800 008f 00       		.byte	0x0
 801 0090 00       		.byte	0x0
 802 0091 0A       		.uleb128 0xa
 803 0092 34       		.uleb128 0x34
 804 0093 00       		.byte	0x0
 805 0094 03       		.uleb128 0x3
 806 0095 0E       		.uleb128 0xe
 807 0096 3A       		.uleb128 0x3a
 808 0097 0B       		.uleb128 0xb
 809 0098 3B       		.uleb128 0x3b
 810 0099 0B       		.uleb128 0xb
 811 009a 49       		.uleb128 0x49
 812 009b 13       		.uleb128 0x13
 813 009c 02       		.uleb128 0x2
 814 009d 0A       		.uleb128 0xa
 815 009e 00       		.byte	0x0
 816 009f 00       		.byte	0x0
 817 00a0 0B       		.uleb128 0xb
 818 00a1 2E       		.uleb128 0x2e
 819 00a2 01       		.byte	0x1
 820 00a3 3F       		.uleb128 0x3f
 821 00a4 0C       		.uleb128 0xc
 822 00a5 03       		.uleb128 0x3
 823 00a6 0E       		.uleb128 0xe
 824 00a7 3A       		.uleb128 0x3a
 825 00a8 0B       		.uleb128 0xb
 826 00a9 3B       		.uleb128 0x3b
 827 00aa 05       		.uleb128 0x5
 828 00ab 27       		.uleb128 0x27
 829 00ac 0C       		.uleb128 0xc
 830 00ad 11       		.uleb128 0x11
 831 00ae 01       		.uleb128 0x1
 832 00af 12       		.uleb128 0x12
 833 00b0 01       		.uleb128 0x1
 834 00b1 40       		.uleb128 0x40
 835 00b2 0A       		.uleb128 0xa
 836 00b3 01       		.uleb128 0x1
 837 00b4 13       		.uleb128 0x13
 838 00b5 00       		.byte	0x0
 839 00b6 00       		.byte	0x0
 840 00b7 0C       		.uleb128 0xc
 841 00b8 05       		.uleb128 0x5
 842 00b9 00       		.byte	0x0
 843 00ba 03       		.uleb128 0x3
 844 00bb 0E       		.uleb128 0xe
 845 00bc 3A       		.uleb128 0x3a
 846 00bd 0B       		.uleb128 0xb
 847 00be 3B       		.uleb128 0x3b
 848 00bf 05       		.uleb128 0x5
 849 00c0 49       		.uleb128 0x49
 850 00c1 13       		.uleb128 0x13
 851 00c2 02       		.uleb128 0x2
 852 00c3 06       		.uleb128 0x6
 853 00c4 00       		.byte	0x0
 854 00c5 00       		.byte	0x0
 855 00c6 0D       		.uleb128 0xd
ARM GAS  C:\Users\SUZUKI~1\AppData\Local\Temp\ccpGn95j.s 			page 21


 856 00c7 2E       		.uleb128 0x2e
 857 00c8 00       		.byte	0x0
 858 00c9 3F       		.uleb128 0x3f
 859 00ca 0C       		.uleb128 0xc
 860 00cb 03       		.uleb128 0x3
 861 00cc 0E       		.uleb128 0xe
 862 00cd 3A       		.uleb128 0x3a
 863 00ce 0B       		.uleb128 0xb
 864 00cf 3B       		.uleb128 0x3b
 865 00d0 0B       		.uleb128 0xb
 866 00d1 27       		.uleb128 0x27
 867 00d2 0C       		.uleb128 0xc
 868 00d3 11       		.uleb128 0x11
 869 00d4 01       		.uleb128 0x1
 870 00d5 12       		.uleb128 0x12
 871 00d6 01       		.uleb128 0x1
 872 00d7 40       		.uleb128 0x40
 873 00d8 06       		.uleb128 0x6
 874 00d9 00       		.byte	0x0
 875 00da 00       		.byte	0x0
 876 00db 0E       		.uleb128 0xe
 877 00dc 01       		.uleb128 0x1
 878 00dd 01       		.byte	0x1
 879 00de 49       		.uleb128 0x49
 880 00df 13       		.uleb128 0x13
 881 00e0 01       		.uleb128 0x1
 882 00e1 13       		.uleb128 0x13
 883 00e2 00       		.byte	0x0
 884 00e3 00       		.byte	0x0
 885 00e4 0F       		.uleb128 0xf
 886 00e5 21       		.uleb128 0x21
 887 00e6 00       		.byte	0x0
 888 00e7 49       		.uleb128 0x49
 889 00e8 13       		.uleb128 0x13
 890 00e9 2F       		.uleb128 0x2f
 891 00ea 0B       		.uleb128 0xb
 892 00eb 00       		.byte	0x0
 893 00ec 00       		.byte	0x0
 894 00ed 10       		.uleb128 0x10
 895 00ee 24       		.uleb128 0x24
 896 00ef 00       		.byte	0x0
 897 00f0 0B       		.uleb128 0xb
 898 00f1 0B       		.uleb128 0xb
 899 00f2 3E       		.uleb128 0x3e
 900 00f3 0B       		.uleb128 0xb
 901 00f4 00       		.byte	0x0
 902 00f5 00       		.byte	0x0
 903 00f6 11       		.uleb128 0x11
 904 00f7 34       		.uleb128 0x34
 905 00f8 00       		.byte	0x0
 906 00f9 03       		.uleb128 0x3
 907 00fa 0E       		.uleb128 0xe
 908 00fb 3A       		.uleb128 0x3a
 909 00fc 0B       		.uleb128 0xb
 910 00fd 3B       		.uleb128 0x3b
 911 00fe 0B       		.uleb128 0xb
 912 00ff 49       		.uleb128 0x49
ARM GAS  C:\Users\SUZUKI~1\AppData\Local\Temp\ccpGn95j.s 			page 22


 913 0100 13       		.uleb128 0x13
 914 0101 3F       		.uleb128 0x3f
 915 0102 0C       		.uleb128 0xc
 916 0103 02       		.uleb128 0x2
 917 0104 0A       		.uleb128 0xa
 918 0105 00       		.byte	0x0
 919 0106 00       		.byte	0x0
 920 0107 12       		.uleb128 0x12
 921 0108 26       		.uleb128 0x26
 922 0109 00       		.byte	0x0
 923 010a 49       		.uleb128 0x49
 924 010b 13       		.uleb128 0x13
 925 010c 00       		.byte	0x0
 926 010d 00       		.byte	0x0
 927 010e 00       		.byte	0x0
 928              		.section	.debug_pubnames,"",%progbits
 929 0000 AC000000 		.4byte	0xac
 930 0004 0200     		.2byte	0x2
 931 0006 00000000 		.4byte	.Ldebug_info0
 932 000a E7010000 		.4byte	0x1e7
 933 000e C3000000 		.4byte	0xc3
 934 0012 5047415F 		.ascii	"PGA_Enable\000"
 934      456E6162 
 934      6C6500
 935 001d D6000000 		.4byte	0xd6
 936 0021 5047415F 		.ascii	"PGA_Stop\000"
 936      53746F70 
 936      00
 937 002a E9000000 		.4byte	0xe9
 938 002e 5047415F 		.ascii	"PGA_SetPower\000"
 938      53657450 
 938      6F776572 
 938      00
 939 003b 1D010000 		.4byte	0x11d
 940 003f 5047415F 		.ascii	"PGA_SetGain\000"
 940      53657447 
 940      61696E00 
 941 004b 46010000 		.4byte	0x146
 942 004f 5047415F 		.ascii	"PGA_Init\000"
 942      496E6974 
 942      00
 943 0058 5B010000 		.4byte	0x15b
 944 005c 5047415F 		.ascii	"PGA_Start\000"
 944      53746172 
 944      7400
 945 0066 94010000 		.4byte	0x194
 946 006a 5047415F 		.ascii	"PGA_GainArray\000"
 946      4761696E 
 946      41727261 
 946      7900
 947 0078 AB010000 		.4byte	0x1ab
 948 007c 5047415F 		.ascii	"PGA_GainComp\000"
 948      4761696E 
 948      436F6D70 
 948      00
 949 0089 C2010000 		.4byte	0x1c2
 950 008d 5047415F 		.ascii	"PGA_initVar\000"
ARM GAS  C:\Users\SUZUKI~1\AppData\Local\Temp\ccpGn95j.s 			page 23


 950      696E6974 
 950      56617200 
 951 0099 D4010000 		.4byte	0x1d4
 952 009d 5047415F 		.ascii	"PGA_restoreVal\000"
 952      72657374 
 952      6F726556 
 952      616C00
 953 00ac 00000000 		.4byte	0x0
 954              		.section	.debug_aranges,"",%progbits
 955 0000 44000000 		.4byte	0x44
 956 0004 0200     		.2byte	0x2
 957 0006 00000000 		.4byte	.Ldebug_info0
 958 000a 04       		.byte	0x4
 959 000b 00       		.byte	0x0
 960 000c 0000     		.2byte	0x0
 961 000e 0000     		.2byte	0x0
 962 0010 00000000 		.4byte	.LFB1
 963 0014 3C000000 		.4byte	.LFE1-.LFB1
 964 0018 00000000 		.4byte	.LFB3
 965 001c 54000000 		.4byte	.LFE3-.LFB3
 966 0020 00000000 		.4byte	.LFB4
 967 0024 18000000 		.4byte	.LFE4-.LFB4
 968 0028 00000000 		.4byte	.LFB5
 969 002c 48000000 		.4byte	.LFE5-.LFB5
 970 0030 00000000 		.4byte	.LFB0
 971 0034 2C000000 		.4byte	.LFE0-.LFB0
 972 0038 00000000 		.4byte	.LFB2
 973 003c 1C000000 		.4byte	.LFE2-.LFB2
 974 0040 00000000 		.4byte	0x0
 975 0044 00000000 		.4byte	0x0
 976              		.section	.debug_ranges,"",%progbits
 977              	.Ldebug_ranges0:
 978 0000 00000000 		.4byte	.Ltext0
 979 0004 00000000 		.4byte	.Letext0
 980 0008 00000000 		.4byte	.LFB1
 981 000c 3C000000 		.4byte	.LFE1
 982 0010 00000000 		.4byte	.LFB3
 983 0014 54000000 		.4byte	.LFE3
 984 0018 00000000 		.4byte	.LFB4
 985 001c 18000000 		.4byte	.LFE4
 986 0020 00000000 		.4byte	.LFB5
 987 0024 48000000 		.4byte	.LFE5
 988 0028 00000000 		.4byte	.LFB0
 989 002c 2C000000 		.4byte	.LFE0
 990 0030 00000000 		.4byte	.LFB2
 991 0034 1C000000 		.4byte	.LFE2
 992 0038 00000000 		.4byte	0x0
 993 003c 00000000 		.4byte	0x0
 994              		.section	.debug_str,"MS",%progbits,1
 995              	.LASF6:
 996 0000 6C6F6E67 		.ascii	"long long int\000"
 996      206C6F6E 
 996      6720696E 
 996      7400
 997              	.LASF23:
 998 000e 746D7043 		.ascii	"tmpCR\000"
 998      5200
ARM GAS  C:\Users\SUZUKI~1\AppData\Local\Temp\ccpGn95j.s 			page 24


 999              	.LASF16:
 1000 0014 5047415F 		.ascii	"PGA_Stop\000"
 1000      53746F70 
 1000      00
 1001              	.LASF31:
 1002 001d 463A5C44 		.ascii	"F:\\Documents\\PSoC_Creator\\ledmatrix\\ledmatrixff"
 1002      6F63756D 
 1002      656E7473 
 1002      5C50536F 
 1002      435F4372 
 1003 004c 742E6379 		.ascii	"t.cydsn\000"
 1003      64736E00 
 1004              	.LASF19:
 1005 0054 706F7765 		.ascii	"power\000"
 1005      7200
 1006              	.LASF27:
 1007 005a 5047415F 		.ascii	"PGA_initVar\000"
 1007      696E6974 
 1007      56617200 
 1008              	.LASF1:
 1009 0066 756E7369 		.ascii	"unsigned char\000"
 1009      676E6564 
 1009      20636861 
 1009      7200
 1010              	.LASF14:
 1011 0074 5047415F 		.ascii	"PGA_BACKUP_STRUCT\000"
 1011      4241434B 
 1011      55505F53 
 1011      54525543 
 1011      5400
 1012              	.LASF18:
 1013 0086 5047415F 		.ascii	"PGA_SetGain\000"
 1013      53657447 
 1013      61696E00 
 1014              	.LASF5:
 1015 0092 6C6F6E67 		.ascii	"long unsigned int\000"
 1015      20756E73 
 1015      69676E65 
 1015      6420696E 
 1015      7400
 1016              	.LASF3:
 1017 00a4 73686F72 		.ascii	"short unsigned int\000"
 1017      7420756E 
 1017      7369676E 
 1017      65642069 
 1017      6E7400
 1018              	.LASF21:
 1019 00b7 5047415F 		.ascii	"PGA_Init\000"
 1019      496E6974 
 1019      00
 1020              	.LASF28:
 1021 00c0 5047415F 		.ascii	"PGA_restoreVal\000"
 1021      72657374 
 1021      6F726556 
 1021      616C00
 1022              	.LASF24:
 1023 00cf 5047415F 		.ascii	"PGA_backup\000"
ARM GAS  C:\Users\SUZUKI~1\AppData\Local\Temp\ccpGn95j.s 			page 25


 1023      6261636B 
 1023      757000
 1024              	.LASF11:
 1025 00da 73634372 		.ascii	"scCr1Reg\000"
 1025      31526567 
 1025      00
 1026              	.LASF8:
 1027 00e3 756E7369 		.ascii	"unsigned int\000"
 1027      676E6564 
 1027      20696E74 
 1027      00
 1028              	.LASF7:
 1029 00f0 6C6F6E67 		.ascii	"long long unsigned int\000"
 1029      206C6F6E 
 1029      6720756E 
 1029      7369676E 
 1029      65642069 
 1030              	.LASF32:
 1031 0107 5F504741 		.ascii	"_PGA_backupStruct\000"
 1031      5F626163 
 1031      6B757053 
 1031      74727563 
 1031      7400
 1032              	.LASF20:
 1033 0119 6761696E 		.ascii	"gain\000"
 1033      00
 1034              	.LASF26:
 1035 011e 5047415F 		.ascii	"PGA_GainComp\000"
 1035      4761696E 
 1035      436F6D70 
 1035      00
 1036              	.LASF29:
 1037 012b 474E5520 		.ascii	"GNU C 4.4.1\000"
 1037      4320342E 
 1037      342E3100 
 1038              	.LASF9:
 1039 0137 63686172 		.ascii	"char\000"
 1039      00
 1040              	.LASF12:
 1041 013c 73634372 		.ascii	"scCr2Reg\000"
 1041      32526567 
 1041      00
 1042              	.LASF30:
 1043 0145 2E5C4765 		.ascii	".\\Generated_Source\\PSoC5\\PGA.c\000"
 1043      6E657261 
 1043      7465645F 
 1043      536F7572 
 1043      63655C50 
 1044              	.LASF2:
 1045 0164 73686F72 		.ascii	"short int\000"
 1045      7420696E 
 1045      7400
 1046              	.LASF13:
 1047 016e 75696E74 		.ascii	"uint8\000"
 1047      3800
 1048              	.LASF17:
 1049 0174 5047415F 		.ascii	"PGA_SetPower\000"
ARM GAS  C:\Users\SUZUKI~1\AppData\Local\Temp\ccpGn95j.s 			page 26


 1049      53657450 
 1049      6F776572 
 1049      00
 1050              	.LASF4:
 1051 0181 6C6F6E67 		.ascii	"long int\000"
 1051      20696E74 
 1051      00
 1052              	.LASF10:
 1053 018a 656E6162 		.ascii	"enableState\000"
 1053      6C655374 
 1053      61746500 
 1054              	.LASF22:
 1055 0196 5047415F 		.ascii	"PGA_Start\000"
 1055      53746172 
 1055      7400
 1056              	.LASF0:
 1057 01a0 7369676E 		.ascii	"signed char\000"
 1057      65642063 
 1057      68617200 
 1058              	.LASF15:
 1059 01ac 5047415F 		.ascii	"PGA_Enable\000"
 1059      456E6162 
 1059      6C6500
 1060              	.LASF25:
 1061 01b7 5047415F 		.ascii	"PGA_GainArray\000"
 1061      4761696E 
 1061      41727261 
 1061      7900
 1062              		.ident	"GCC: (Sourcery G++ Lite 2010q1-188) 4.4.1"
