ARM GAS  C:\Users\SUZUKI~1\AppData\Local\Temp\ccBzXPmz.s 			page 1


   1              		.syntax unified
   2              		.cpu cortex-m3
   3              		.fpu softvfp
   4              		.eabi_attribute 20, 1
   5              		.eabi_attribute 21, 1
   6              		.eabi_attribute 23, 3
   7              		.eabi_attribute 24, 1
   8              		.eabi_attribute 25, 1
   9              		.eabi_attribute 26, 1
  10              		.eabi_attribute 30, 4
  11              		.eabi_attribute 18, 4
  12              		.thumb
  13              		.file	"sd_irq.c"
  14              		.section	.debug_abbrev,"",%progbits
  15              	.Ldebug_abbrev0:
  16              		.section	.debug_info,"",%progbits
  17              	.Ldebug_info0:
  18              		.section	.debug_line,"",%progbits
  19              	.Ldebug_line0:
  20 0000 56010000 		.text
  20      02005E00 
  20      00000201 
  20      FB0E0D00 
  20      01010101 
  21              	.Ltext0:
  22              		.cfi_sections	.debug_frame
  23              		.section	.text.sd_irq_Interrupt,"ax",%progbits
  24              		.align	1
  25              		.global	sd_irq_Interrupt
  26              		.thumb
  27              		.thumb_func
  28              		.type	sd_irq_Interrupt, %function
  29              	sd_irq_Interrupt:
  30              	.LFB3:
  31              		.file 1 ".\\Generated_Source\\PSoC5\\sd_irq.c"
   1:.\Generated_Source\PSoC5/sd_irq.c **** /*******************************************************************************
   2:.\Generated_Source\PSoC5/sd_irq.c **** * File Name: sd_irq.c  
   3:.\Generated_Source\PSoC5/sd_irq.c **** * Version 1.70
   4:.\Generated_Source\PSoC5/sd_irq.c **** *
   5:.\Generated_Source\PSoC5/sd_irq.c **** *  Description:
   6:.\Generated_Source\PSoC5/sd_irq.c **** *   API for controlling the state of an interrupt.
   7:.\Generated_Source\PSoC5/sd_irq.c **** *
   8:.\Generated_Source\PSoC5/sd_irq.c **** *
   9:.\Generated_Source\PSoC5/sd_irq.c **** *  Note:
  10:.\Generated_Source\PSoC5/sd_irq.c **** *
  11:.\Generated_Source\PSoC5/sd_irq.c **** ********************************************************************************
  12:.\Generated_Source\PSoC5/sd_irq.c **** * Copyright 2008-2012, Cypress Semiconductor Corporation.  All rights reserved.
  13:.\Generated_Source\PSoC5/sd_irq.c **** * You may use this file only in accordance with the license, terms, conditions, 
  14:.\Generated_Source\PSoC5/sd_irq.c **** * disclaimers, and limitations in the end user license agreement accompanying 
  15:.\Generated_Source\PSoC5/sd_irq.c **** * the software package with which this file was provided.
  16:.\Generated_Source\PSoC5/sd_irq.c **** *******************************************************************************/
  17:.\Generated_Source\PSoC5/sd_irq.c **** 
  18:.\Generated_Source\PSoC5/sd_irq.c **** 
  19:.\Generated_Source\PSoC5/sd_irq.c **** #include <CYDEVICE_TRM.H>
  20:.\Generated_Source\PSoC5/sd_irq.c **** #include <CYLIB.H>
  21:.\Generated_Source\PSoC5/sd_irq.c **** #include <sd_irq.H>
  22:.\Generated_Source\PSoC5/sd_irq.c **** 
ARM GAS  C:\Users\SUZUKI~1\AppData\Local\Temp\ccBzXPmz.s 			page 2


  23:.\Generated_Source\PSoC5/sd_irq.c **** #if !defined(sd_irq__REMOVED) /* Check for removal by optimization */
  24:.\Generated_Source\PSoC5/sd_irq.c **** 
  25:.\Generated_Source\PSoC5/sd_irq.c **** /*******************************************************************************
  26:.\Generated_Source\PSoC5/sd_irq.c **** *  Place your includes, defines and code here 
  27:.\Generated_Source\PSoC5/sd_irq.c **** ********************************************************************************/
  28:.\Generated_Source\PSoC5/sd_irq.c **** /* `#START sd_irq_intc` */
  29:.\Generated_Source\PSoC5/sd_irq.c **** 
  30:.\Generated_Source\PSoC5/sd_irq.c **** /* `#END` */
  31:.\Generated_Source\PSoC5/sd_irq.c **** 
  32:.\Generated_Source\PSoC5/sd_irq.c **** #ifndef CYINT_IRQ_BASE
  33:.\Generated_Source\PSoC5/sd_irq.c **** #define CYINT_IRQ_BASE      16
  34:.\Generated_Source\PSoC5/sd_irq.c **** #endif /* CYINT_IRQ_BASE */
  35:.\Generated_Source\PSoC5/sd_irq.c **** #ifndef CYINT_VECT_TABLE
  36:.\Generated_Source\PSoC5/sd_irq.c **** #define CYINT_VECT_TABLE    ((cyisraddress **) CYREG_NVIC_VECT_OFFSET)
  37:.\Generated_Source\PSoC5/sd_irq.c **** #endif /* CYINT_VECT_TABLE */
  38:.\Generated_Source\PSoC5/sd_irq.c **** 
  39:.\Generated_Source\PSoC5/sd_irq.c **** /* Declared in startup, used to set unused interrupts to. */
  40:.\Generated_Source\PSoC5/sd_irq.c **** CY_ISR_PROTO(IntDefaultHandler);
  41:.\Generated_Source\PSoC5/sd_irq.c **** 
  42:.\Generated_Source\PSoC5/sd_irq.c **** 
  43:.\Generated_Source\PSoC5/sd_irq.c **** /*******************************************************************************
  44:.\Generated_Source\PSoC5/sd_irq.c **** * Function Name: sd_irq_Start
  45:.\Generated_Source\PSoC5/sd_irq.c **** ********************************************************************************
  46:.\Generated_Source\PSoC5/sd_irq.c **** *
  47:.\Generated_Source\PSoC5/sd_irq.c **** * Summary:
  48:.\Generated_Source\PSoC5/sd_irq.c **** *  Set up the interrupt and enable it.
  49:.\Generated_Source\PSoC5/sd_irq.c **** *
  50:.\Generated_Source\PSoC5/sd_irq.c **** * Parameters:  
  51:.\Generated_Source\PSoC5/sd_irq.c **** *   None
  52:.\Generated_Source\PSoC5/sd_irq.c **** *
  53:.\Generated_Source\PSoC5/sd_irq.c **** * Return:
  54:.\Generated_Source\PSoC5/sd_irq.c **** *   None
  55:.\Generated_Source\PSoC5/sd_irq.c **** *
  56:.\Generated_Source\PSoC5/sd_irq.c **** *******************************************************************************/
  57:.\Generated_Source\PSoC5/sd_irq.c **** void sd_irq_Start(void)
  58:.\Generated_Source\PSoC5/sd_irq.c **** {
  59:.\Generated_Source\PSoC5/sd_irq.c ****     /* For all we know the interrupt is active. */
  60:.\Generated_Source\PSoC5/sd_irq.c ****     sd_irq_Disable();
  61:.\Generated_Source\PSoC5/sd_irq.c **** 
  62:.\Generated_Source\PSoC5/sd_irq.c ****     /* Set the ISR to point to the sd_irq Interrupt. */
  63:.\Generated_Source\PSoC5/sd_irq.c ****     sd_irq_SetVector(&sd_irq_Interrupt);
  64:.\Generated_Source\PSoC5/sd_irq.c **** 
  65:.\Generated_Source\PSoC5/sd_irq.c ****     /* Set the priority. */
  66:.\Generated_Source\PSoC5/sd_irq.c ****     sd_irq_SetPriority((uint8)sd_irq_INTC_PRIOR_NUMBER);
  67:.\Generated_Source\PSoC5/sd_irq.c **** 
  68:.\Generated_Source\PSoC5/sd_irq.c ****     /* Enable it. */
  69:.\Generated_Source\PSoC5/sd_irq.c ****     sd_irq_Enable();
  70:.\Generated_Source\PSoC5/sd_irq.c **** }
  71:.\Generated_Source\PSoC5/sd_irq.c **** 
  72:.\Generated_Source\PSoC5/sd_irq.c **** 
  73:.\Generated_Source\PSoC5/sd_irq.c **** /*******************************************************************************
  74:.\Generated_Source\PSoC5/sd_irq.c **** * Function Name: sd_irq_StartEx
  75:.\Generated_Source\PSoC5/sd_irq.c **** ********************************************************************************
  76:.\Generated_Source\PSoC5/sd_irq.c **** *
  77:.\Generated_Source\PSoC5/sd_irq.c **** * Summary:
  78:.\Generated_Source\PSoC5/sd_irq.c **** *  Set up the interrupt and enable it.
  79:.\Generated_Source\PSoC5/sd_irq.c **** *
ARM GAS  C:\Users\SUZUKI~1\AppData\Local\Temp\ccBzXPmz.s 			page 3


  80:.\Generated_Source\PSoC5/sd_irq.c **** * Parameters:  
  81:.\Generated_Source\PSoC5/sd_irq.c **** *   address: Address of the ISR to set in the interrupt vector table.
  82:.\Generated_Source\PSoC5/sd_irq.c **** *
  83:.\Generated_Source\PSoC5/sd_irq.c **** * Return:
  84:.\Generated_Source\PSoC5/sd_irq.c **** *   None
  85:.\Generated_Source\PSoC5/sd_irq.c **** *
  86:.\Generated_Source\PSoC5/sd_irq.c **** *******************************************************************************/
  87:.\Generated_Source\PSoC5/sd_irq.c **** void sd_irq_StartEx(cyisraddress address)
  88:.\Generated_Source\PSoC5/sd_irq.c **** {
  89:.\Generated_Source\PSoC5/sd_irq.c ****     /* For all we know the interrupt is active. */
  90:.\Generated_Source\PSoC5/sd_irq.c ****     sd_irq_Disable();
  91:.\Generated_Source\PSoC5/sd_irq.c **** 
  92:.\Generated_Source\PSoC5/sd_irq.c ****     /* Set the ISR to point to the sd_irq Interrupt. */
  93:.\Generated_Source\PSoC5/sd_irq.c ****     sd_irq_SetVector(address);
  94:.\Generated_Source\PSoC5/sd_irq.c **** 
  95:.\Generated_Source\PSoC5/sd_irq.c ****     /* Set the priority. */
  96:.\Generated_Source\PSoC5/sd_irq.c ****     sd_irq_SetPriority((uint8)sd_irq_INTC_PRIOR_NUMBER);
  97:.\Generated_Source\PSoC5/sd_irq.c **** 
  98:.\Generated_Source\PSoC5/sd_irq.c ****     /* Enable it. */
  99:.\Generated_Source\PSoC5/sd_irq.c ****     sd_irq_Enable();
 100:.\Generated_Source\PSoC5/sd_irq.c **** }
 101:.\Generated_Source\PSoC5/sd_irq.c **** 
 102:.\Generated_Source\PSoC5/sd_irq.c **** 
 103:.\Generated_Source\PSoC5/sd_irq.c **** /*******************************************************************************
 104:.\Generated_Source\PSoC5/sd_irq.c **** * Function Name: sd_irq_Stop
 105:.\Generated_Source\PSoC5/sd_irq.c **** ********************************************************************************
 106:.\Generated_Source\PSoC5/sd_irq.c **** *
 107:.\Generated_Source\PSoC5/sd_irq.c **** * Summary:
 108:.\Generated_Source\PSoC5/sd_irq.c **** *   Disables and removes the interrupt.
 109:.\Generated_Source\PSoC5/sd_irq.c **** *
 110:.\Generated_Source\PSoC5/sd_irq.c **** * Parameters:  
 111:.\Generated_Source\PSoC5/sd_irq.c **** *
 112:.\Generated_Source\PSoC5/sd_irq.c **** * Return:
 113:.\Generated_Source\PSoC5/sd_irq.c **** *   None
 114:.\Generated_Source\PSoC5/sd_irq.c **** *
 115:.\Generated_Source\PSoC5/sd_irq.c **** *******************************************************************************/
 116:.\Generated_Source\PSoC5/sd_irq.c **** void sd_irq_Stop(void)
 117:.\Generated_Source\PSoC5/sd_irq.c **** {
 118:.\Generated_Source\PSoC5/sd_irq.c ****     /* Disable this interrupt. */
 119:.\Generated_Source\PSoC5/sd_irq.c ****     sd_irq_Disable();
 120:.\Generated_Source\PSoC5/sd_irq.c **** 
 121:.\Generated_Source\PSoC5/sd_irq.c ****     /* Set the ISR to point to the passive one. */
 122:.\Generated_Source\PSoC5/sd_irq.c ****     sd_irq_SetVector(&IntDefaultHandler);
 123:.\Generated_Source\PSoC5/sd_irq.c **** }
 124:.\Generated_Source\PSoC5/sd_irq.c **** 
 125:.\Generated_Source\PSoC5/sd_irq.c **** 
 126:.\Generated_Source\PSoC5/sd_irq.c **** /*******************************************************************************
 127:.\Generated_Source\PSoC5/sd_irq.c **** * Function Name: sd_irq_Interrupt
 128:.\Generated_Source\PSoC5/sd_irq.c **** ********************************************************************************
 129:.\Generated_Source\PSoC5/sd_irq.c **** *
 130:.\Generated_Source\PSoC5/sd_irq.c **** * Summary:
 131:.\Generated_Source\PSoC5/sd_irq.c **** *   The default Interrupt Service Routine for sd_irq.
 132:.\Generated_Source\PSoC5/sd_irq.c **** *
 133:.\Generated_Source\PSoC5/sd_irq.c **** *   Add custom code between the coments to keep the next version of this file
 134:.\Generated_Source\PSoC5/sd_irq.c **** *   from over writting your code.
 135:.\Generated_Source\PSoC5/sd_irq.c **** *
 136:.\Generated_Source\PSoC5/sd_irq.c **** * Parameters:  
ARM GAS  C:\Users\SUZUKI~1\AppData\Local\Temp\ccBzXPmz.s 			page 4


 137:.\Generated_Source\PSoC5/sd_irq.c **** *
 138:.\Generated_Source\PSoC5/sd_irq.c **** * Return:
 139:.\Generated_Source\PSoC5/sd_irq.c **** *   None
 140:.\Generated_Source\PSoC5/sd_irq.c **** *
 141:.\Generated_Source\PSoC5/sd_irq.c **** *******************************************************************************/
 142:.\Generated_Source\PSoC5/sd_irq.c **** CY_ISR(sd_irq_Interrupt)
 143:.\Generated_Source\PSoC5/sd_irq.c **** {
  32              		.loc 1 143 0
  33              		.cfi_startproc
  34              		@ args = 0, pretend = 0, frame = 0
  35              		@ frame_needed = 0, uses_anonymous_args = 0
  36              		@ link register save eliminated.
 144:.\Generated_Source\PSoC5/sd_irq.c ****     /*  Place your Interrupt code here. */
 145:.\Generated_Source\PSoC5/sd_irq.c ****     /* `#START sd_irq_Interrupt` */
 146:.\Generated_Source\PSoC5/sd_irq.c **** 
 147:.\Generated_Source\PSoC5/sd_irq.c ****     /* `#END` */
 148:.\Generated_Source\PSoC5/sd_irq.c **** }
  37              		.loc 1 148 0
  38 0000 7047     		bx	lr
  39              		.cfi_endproc
  40              	.LFE3:
  41              		.size	sd_irq_Interrupt, .-sd_irq_Interrupt
  42              		.section	.text.sd_irq_SetVector,"ax",%progbits
  43              		.align	1
  44              		.global	sd_irq_SetVector
  45              		.thumb
  46              		.thumb_func
  47              		.type	sd_irq_SetVector, %function
  48              	sd_irq_SetVector:
  49              	.LFB4:
 149:.\Generated_Source\PSoC5/sd_irq.c **** 
 150:.\Generated_Source\PSoC5/sd_irq.c **** 
 151:.\Generated_Source\PSoC5/sd_irq.c **** /*******************************************************************************
 152:.\Generated_Source\PSoC5/sd_irq.c **** * Function Name: sd_irq_SetVector
 153:.\Generated_Source\PSoC5/sd_irq.c **** ********************************************************************************
 154:.\Generated_Source\PSoC5/sd_irq.c **** *
 155:.\Generated_Source\PSoC5/sd_irq.c **** * Summary:
 156:.\Generated_Source\PSoC5/sd_irq.c **** *   Change the ISR vector for the Interrupt. Note calling sd_irq_Start
 157:.\Generated_Source\PSoC5/sd_irq.c **** *   will override any effect this method would have had. To set the vector 
 158:.\Generated_Source\PSoC5/sd_irq.c **** *   before the component has been started use sd_irq_StartEx instead.
 159:.\Generated_Source\PSoC5/sd_irq.c **** *
 160:.\Generated_Source\PSoC5/sd_irq.c **** * Parameters:
 161:.\Generated_Source\PSoC5/sd_irq.c **** *   address: Address of the ISR to set in the interrupt vector table.
 162:.\Generated_Source\PSoC5/sd_irq.c **** *
 163:.\Generated_Source\PSoC5/sd_irq.c **** * Return:
 164:.\Generated_Source\PSoC5/sd_irq.c **** *   None
 165:.\Generated_Source\PSoC5/sd_irq.c **** *
 166:.\Generated_Source\PSoC5/sd_irq.c **** *******************************************************************************/
 167:.\Generated_Source\PSoC5/sd_irq.c **** void sd_irq_SetVector(cyisraddress address)
 168:.\Generated_Source\PSoC5/sd_irq.c **** {
  50              		.loc 1 168 0
  51              		.cfi_startproc
  52              		@ args = 0, pretend = 0, frame = 0
  53              		@ frame_needed = 0, uses_anonymous_args = 0
  54              		@ link register save eliminated.
  55              	.LVL0:
 169:.\Generated_Source\PSoC5/sd_irq.c ****     cyisraddress * ramVectorTable;
ARM GAS  C:\Users\SUZUKI~1\AppData\Local\Temp\ccBzXPmz.s 			page 5


 170:.\Generated_Source\PSoC5/sd_irq.c **** 
 171:.\Generated_Source\PSoC5/sd_irq.c ****     ramVectorTable = (cyisraddress *) *CYINT_VECT_TABLE;
  56              		.loc 1 171 0
  57 0000 014B     		ldr	r3, .L5
  58 0002 1B68     		ldr	r3, [r3, #0]
  59              	.LVL1:
 172:.\Generated_Source\PSoC5/sd_irq.c **** 
 173:.\Generated_Source\PSoC5/sd_irq.c ****     ramVectorTable[CYINT_IRQ_BASE + (uint32)sd_irq__INTC_NUMBER] = address;
  60              		.loc 1 173 0
  61 0004 1865     		str	r0, [r3, #80]
 174:.\Generated_Source\PSoC5/sd_irq.c **** }
  62              		.loc 1 174 0
  63 0006 7047     		bx	lr
  64              	.L6:
  65              		.align	2
  66              	.L5:
  67 0008 08ED00E0 		.word	-536810232
  68              		.cfi_endproc
  69              	.LFE4:
  70              		.size	sd_irq_SetVector, .-sd_irq_SetVector
  71              		.section	.text.sd_irq_GetVector,"ax",%progbits
  72              		.align	1
  73              		.global	sd_irq_GetVector
  74              		.thumb
  75              		.thumb_func
  76              		.type	sd_irq_GetVector, %function
  77              	sd_irq_GetVector:
  78              	.LFB5:
 175:.\Generated_Source\PSoC5/sd_irq.c **** 
 176:.\Generated_Source\PSoC5/sd_irq.c **** 
 177:.\Generated_Source\PSoC5/sd_irq.c **** /*******************************************************************************
 178:.\Generated_Source\PSoC5/sd_irq.c **** * Function Name: sd_irq_GetVector
 179:.\Generated_Source\PSoC5/sd_irq.c **** ********************************************************************************
 180:.\Generated_Source\PSoC5/sd_irq.c **** *
 181:.\Generated_Source\PSoC5/sd_irq.c **** * Summary:
 182:.\Generated_Source\PSoC5/sd_irq.c **** *   Gets the "address" of the current ISR vector for the Interrupt.
 183:.\Generated_Source\PSoC5/sd_irq.c **** *
 184:.\Generated_Source\PSoC5/sd_irq.c **** * Parameters:
 185:.\Generated_Source\PSoC5/sd_irq.c **** *   None
 186:.\Generated_Source\PSoC5/sd_irq.c **** *
 187:.\Generated_Source\PSoC5/sd_irq.c **** * Return:
 188:.\Generated_Source\PSoC5/sd_irq.c **** *   Address of the ISR in the interrupt vector table.
 189:.\Generated_Source\PSoC5/sd_irq.c **** *
 190:.\Generated_Source\PSoC5/sd_irq.c **** *******************************************************************************/
 191:.\Generated_Source\PSoC5/sd_irq.c **** cyisraddress sd_irq_GetVector(void)
 192:.\Generated_Source\PSoC5/sd_irq.c **** {
  79              		.loc 1 192 0
  80              		.cfi_startproc
  81              		@ args = 0, pretend = 0, frame = 0
  82              		@ frame_needed = 0, uses_anonymous_args = 0
  83              		@ link register save eliminated.
 193:.\Generated_Source\PSoC5/sd_irq.c ****     cyisraddress * ramVectorTable;
 194:.\Generated_Source\PSoC5/sd_irq.c **** 
 195:.\Generated_Source\PSoC5/sd_irq.c ****     ramVectorTable = (cyisraddress *) *CYINT_VECT_TABLE;
  84              		.loc 1 195 0
  85 0000 014B     		ldr	r3, .L9
  86 0002 1B68     		ldr	r3, [r3, #0]
ARM GAS  C:\Users\SUZUKI~1\AppData\Local\Temp\ccBzXPmz.s 			page 6


  87              	.LVL2:
 196:.\Generated_Source\PSoC5/sd_irq.c **** 
 197:.\Generated_Source\PSoC5/sd_irq.c ****     return ramVectorTable[CYINT_IRQ_BASE + (uint32)sd_irq__INTC_NUMBER];
 198:.\Generated_Source\PSoC5/sd_irq.c **** }
  88              		.loc 1 198 0
  89 0004 186D     		ldr	r0, [r3, #80]
  90 0006 7047     		bx	lr
  91              	.L10:
  92              		.align	2
  93              	.L9:
  94 0008 08ED00E0 		.word	-536810232
  95              		.cfi_endproc
  96              	.LFE5:
  97              		.size	sd_irq_GetVector, .-sd_irq_GetVector
  98              		.section	.text.sd_irq_SetPriority,"ax",%progbits
  99              		.align	1
 100              		.global	sd_irq_SetPriority
 101              		.thumb
 102              		.thumb_func
 103              		.type	sd_irq_SetPriority, %function
 104              	sd_irq_SetPriority:
 105              	.LFB6:
 199:.\Generated_Source\PSoC5/sd_irq.c **** 
 200:.\Generated_Source\PSoC5/sd_irq.c **** 
 201:.\Generated_Source\PSoC5/sd_irq.c **** /*******************************************************************************
 202:.\Generated_Source\PSoC5/sd_irq.c **** * Function Name: sd_irq_SetPriority
 203:.\Generated_Source\PSoC5/sd_irq.c **** ********************************************************************************
 204:.\Generated_Source\PSoC5/sd_irq.c **** *
 205:.\Generated_Source\PSoC5/sd_irq.c **** * Summary:
 206:.\Generated_Source\PSoC5/sd_irq.c **** *   Sets the Priority of the Interrupt. Note calling sd_irq_Start
 207:.\Generated_Source\PSoC5/sd_irq.c **** *   or sd_irq_StartEx will override any effect this method 
 208:.\Generated_Source\PSoC5/sd_irq.c **** *   would have had. This method should only be called after 
 209:.\Generated_Source\PSoC5/sd_irq.c **** *   sd_irq_Start or sd_irq_StartEx has been called. To set 
 210:.\Generated_Source\PSoC5/sd_irq.c **** *   the initial priority for the component use the cydwr file in the tool.
 211:.\Generated_Source\PSoC5/sd_irq.c **** *
 212:.\Generated_Source\PSoC5/sd_irq.c **** * Parameters:
 213:.\Generated_Source\PSoC5/sd_irq.c **** *   priority: Priority of the interrupt. 0 - 7, 0 being the highest.
 214:.\Generated_Source\PSoC5/sd_irq.c **** *
 215:.\Generated_Source\PSoC5/sd_irq.c **** * Return:
 216:.\Generated_Source\PSoC5/sd_irq.c **** *   None
 217:.\Generated_Source\PSoC5/sd_irq.c **** *
 218:.\Generated_Source\PSoC5/sd_irq.c **** *******************************************************************************/
 219:.\Generated_Source\PSoC5/sd_irq.c **** void sd_irq_SetPriority(uint8 priority)
 220:.\Generated_Source\PSoC5/sd_irq.c **** {
 106              		.loc 1 220 0
 107              		.cfi_startproc
 108              		@ args = 0, pretend = 0, frame = 0
 109              		@ frame_needed = 0, uses_anonymous_args = 0
 110              		@ link register save eliminated.
 111              	.LVL3:
 221:.\Generated_Source\PSoC5/sd_irq.c ****     *sd_irq_INTC_PRIOR = priority << 5;
 112              		.loc 1 221 0
 113 0000 4001     		lsls	r0, r0, #5
 114              	.LVL4:
 115 0002 024B     		ldr	r3, .L13
 116 0004 C0B2     		uxtb	r0, r0
 117 0006 1870     		strb	r0, [r3, #0]
ARM GAS  C:\Users\SUZUKI~1\AppData\Local\Temp\ccBzXPmz.s 			page 7


 222:.\Generated_Source\PSoC5/sd_irq.c **** }
 118              		.loc 1 222 0
 119 0008 7047     		bx	lr
 120              	.L14:
 121 000a 00BF     		.align	2
 122              	.L13:
 123 000c 04E400E0 		.word	-536812540
 124              		.cfi_endproc
 125              	.LFE6:
 126              		.size	sd_irq_SetPriority, .-sd_irq_SetPriority
 127              		.section	.text.sd_irq_GetPriority,"ax",%progbits
 128              		.align	1
 129              		.global	sd_irq_GetPriority
 130              		.thumb
 131              		.thumb_func
 132              		.type	sd_irq_GetPriority, %function
 133              	sd_irq_GetPriority:
 134              	.LFB7:
 223:.\Generated_Source\PSoC5/sd_irq.c **** 
 224:.\Generated_Source\PSoC5/sd_irq.c **** 
 225:.\Generated_Source\PSoC5/sd_irq.c **** /*******************************************************************************
 226:.\Generated_Source\PSoC5/sd_irq.c **** * Function Name: sd_irq_GetPriority
 227:.\Generated_Source\PSoC5/sd_irq.c **** ********************************************************************************
 228:.\Generated_Source\PSoC5/sd_irq.c **** *
 229:.\Generated_Source\PSoC5/sd_irq.c **** * Summary:
 230:.\Generated_Source\PSoC5/sd_irq.c **** *   Gets the Priority of the Interrupt.
 231:.\Generated_Source\PSoC5/sd_irq.c **** *
 232:.\Generated_Source\PSoC5/sd_irq.c **** * Parameters:
 233:.\Generated_Source\PSoC5/sd_irq.c **** *   None
 234:.\Generated_Source\PSoC5/sd_irq.c **** *
 235:.\Generated_Source\PSoC5/sd_irq.c **** * Return:
 236:.\Generated_Source\PSoC5/sd_irq.c **** *   Priority of the interrupt. 0 - 7, 0 being the highest.
 237:.\Generated_Source\PSoC5/sd_irq.c **** *
 238:.\Generated_Source\PSoC5/sd_irq.c **** *******************************************************************************/
 239:.\Generated_Source\PSoC5/sd_irq.c **** uint8 sd_irq_GetPriority(void)
 240:.\Generated_Source\PSoC5/sd_irq.c **** {
 135              		.loc 1 240 0
 136              		.cfi_startproc
 137              		@ args = 0, pretend = 0, frame = 0
 138              		@ frame_needed = 0, uses_anonymous_args = 0
 139              		@ link register save eliminated.
 241:.\Generated_Source\PSoC5/sd_irq.c ****     uint8 priority;
 242:.\Generated_Source\PSoC5/sd_irq.c **** 
 243:.\Generated_Source\PSoC5/sd_irq.c **** 
 244:.\Generated_Source\PSoC5/sd_irq.c ****     priority = *sd_irq_INTC_PRIOR >> 5;
 140              		.loc 1 244 0
 141 0000 014B     		ldr	r3, .L17
 142 0002 1878     		ldrb	r0, [r3, #0]	@ zero_extendqisi2
 245:.\Generated_Source\PSoC5/sd_irq.c **** 
 246:.\Generated_Source\PSoC5/sd_irq.c ****     return priority;
 247:.\Generated_Source\PSoC5/sd_irq.c **** }
 143              		.loc 1 247 0
 144 0004 4009     		lsrs	r0, r0, #5
 145 0006 7047     		bx	lr
 146              	.L18:
 147              		.align	2
 148              	.L17:
ARM GAS  C:\Users\SUZUKI~1\AppData\Local\Temp\ccBzXPmz.s 			page 8


 149 0008 04E400E0 		.word	-536812540
 150              		.cfi_endproc
 151              	.LFE7:
 152              		.size	sd_irq_GetPriority, .-sd_irq_GetPriority
 153              		.section	.text.sd_irq_Enable,"ax",%progbits
 154              		.align	1
 155              		.global	sd_irq_Enable
 156              		.thumb
 157              		.thumb_func
 158              		.type	sd_irq_Enable, %function
 159              	sd_irq_Enable:
 160              	.LFB8:
 248:.\Generated_Source\PSoC5/sd_irq.c **** 
 249:.\Generated_Source\PSoC5/sd_irq.c **** 
 250:.\Generated_Source\PSoC5/sd_irq.c **** /*******************************************************************************
 251:.\Generated_Source\PSoC5/sd_irq.c **** * Function Name: sd_irq_Enable
 252:.\Generated_Source\PSoC5/sd_irq.c **** ********************************************************************************
 253:.\Generated_Source\PSoC5/sd_irq.c **** *
 254:.\Generated_Source\PSoC5/sd_irq.c **** * Summary:
 255:.\Generated_Source\PSoC5/sd_irq.c **** *   Enables the interrupt.
 256:.\Generated_Source\PSoC5/sd_irq.c **** *
 257:.\Generated_Source\PSoC5/sd_irq.c **** * Parameters:
 258:.\Generated_Source\PSoC5/sd_irq.c **** *   None
 259:.\Generated_Source\PSoC5/sd_irq.c **** *
 260:.\Generated_Source\PSoC5/sd_irq.c **** * Return:
 261:.\Generated_Source\PSoC5/sd_irq.c **** *   None
 262:.\Generated_Source\PSoC5/sd_irq.c **** *
 263:.\Generated_Source\PSoC5/sd_irq.c **** *******************************************************************************/
 264:.\Generated_Source\PSoC5/sd_irq.c **** void sd_irq_Enable(void)
 265:.\Generated_Source\PSoC5/sd_irq.c **** {
 161              		.loc 1 265 0
 162              		.cfi_startproc
 163              		@ args = 0, pretend = 0, frame = 0
 164              		@ frame_needed = 0, uses_anonymous_args = 0
 165              		@ link register save eliminated.
 266:.\Generated_Source\PSoC5/sd_irq.c ****     /* Enable the general interrupt. */
 267:.\Generated_Source\PSoC5/sd_irq.c ****     *sd_irq_INTC_SET_EN = sd_irq__INTC_MASK;
 166              		.loc 1 267 0
 167 0000 014B     		ldr	r3, .L21
 168 0002 1022     		movs	r2, #16
 169 0004 1A60     		str	r2, [r3, #0]
 268:.\Generated_Source\PSoC5/sd_irq.c **** }
 170              		.loc 1 268 0
 171 0006 7047     		bx	lr
 172              	.L22:
 173              		.align	2
 174              	.L21:
 175 0008 00E100E0 		.word	-536813312
 176              		.cfi_endproc
 177              	.LFE8:
 178              		.size	sd_irq_Enable, .-sd_irq_Enable
 179              		.section	.text.sd_irq_GetState,"ax",%progbits
 180              		.align	1
 181              		.global	sd_irq_GetState
 182              		.thumb
 183              		.thumb_func
 184              		.type	sd_irq_GetState, %function
ARM GAS  C:\Users\SUZUKI~1\AppData\Local\Temp\ccBzXPmz.s 			page 9


 185              	sd_irq_GetState:
 186              	.LFB9:
 269:.\Generated_Source\PSoC5/sd_irq.c **** 
 270:.\Generated_Source\PSoC5/sd_irq.c **** 
 271:.\Generated_Source\PSoC5/sd_irq.c **** /*******************************************************************************
 272:.\Generated_Source\PSoC5/sd_irq.c **** * Function Name: sd_irq_GetState
 273:.\Generated_Source\PSoC5/sd_irq.c **** ********************************************************************************
 274:.\Generated_Source\PSoC5/sd_irq.c **** *
 275:.\Generated_Source\PSoC5/sd_irq.c **** * Summary:
 276:.\Generated_Source\PSoC5/sd_irq.c **** *   Gets the state (enabled, disabled) of the Interrupt.
 277:.\Generated_Source\PSoC5/sd_irq.c **** *
 278:.\Generated_Source\PSoC5/sd_irq.c **** * Parameters:
 279:.\Generated_Source\PSoC5/sd_irq.c **** *   None
 280:.\Generated_Source\PSoC5/sd_irq.c **** *
 281:.\Generated_Source\PSoC5/sd_irq.c **** * Return:
 282:.\Generated_Source\PSoC5/sd_irq.c **** *   1 if enabled, 0 if disabled.
 283:.\Generated_Source\PSoC5/sd_irq.c **** *
 284:.\Generated_Source\PSoC5/sd_irq.c **** *******************************************************************************/
 285:.\Generated_Source\PSoC5/sd_irq.c **** uint8 sd_irq_GetState(void)
 286:.\Generated_Source\PSoC5/sd_irq.c **** {
 187              		.loc 1 286 0
 188              		.cfi_startproc
 189              		@ args = 0, pretend = 0, frame = 0
 190              		@ frame_needed = 0, uses_anonymous_args = 0
 191              		@ link register save eliminated.
 287:.\Generated_Source\PSoC5/sd_irq.c ****     /* Get the state of the general interrupt. */
 288:.\Generated_Source\PSoC5/sd_irq.c ****     return ((*sd_irq_INTC_SET_EN & (uint32)sd_irq__INTC_MASK) != 0u) ? 1u:0u;
 192              		.loc 1 288 0
 193 0000 024B     		ldr	r3, .L25
 194 0002 1868     		ldr	r0, [r3, #0]
 195 0004 0009     		lsrs	r0, r0, #4
 289:.\Generated_Source\PSoC5/sd_irq.c **** }
 196              		.loc 1 289 0
 197 0006 00F00100 		and	r0, r0, #1
 198 000a 7047     		bx	lr
 199              	.L26:
 200              		.align	2
 201              	.L25:
 202 000c 00E100E0 		.word	-536813312
 203              		.cfi_endproc
 204              	.LFE9:
 205              		.size	sd_irq_GetState, .-sd_irq_GetState
 206              		.section	.text.sd_irq_Disable,"ax",%progbits
 207              		.align	1
 208              		.global	sd_irq_Disable
 209              		.thumb
 210              		.thumb_func
 211              		.type	sd_irq_Disable, %function
 212              	sd_irq_Disable:
 213              	.LFB10:
 290:.\Generated_Source\PSoC5/sd_irq.c **** 
 291:.\Generated_Source\PSoC5/sd_irq.c **** 
 292:.\Generated_Source\PSoC5/sd_irq.c **** /*******************************************************************************
 293:.\Generated_Source\PSoC5/sd_irq.c **** * Function Name: sd_irq_Disable
 294:.\Generated_Source\PSoC5/sd_irq.c **** ********************************************************************************
 295:.\Generated_Source\PSoC5/sd_irq.c **** *
 296:.\Generated_Source\PSoC5/sd_irq.c **** * Summary:
ARM GAS  C:\Users\SUZUKI~1\AppData\Local\Temp\ccBzXPmz.s 			page 10


 297:.\Generated_Source\PSoC5/sd_irq.c **** *   Disables the Interrupt.
 298:.\Generated_Source\PSoC5/sd_irq.c **** *
 299:.\Generated_Source\PSoC5/sd_irq.c **** * Parameters:
 300:.\Generated_Source\PSoC5/sd_irq.c **** *   None
 301:.\Generated_Source\PSoC5/sd_irq.c **** *
 302:.\Generated_Source\PSoC5/sd_irq.c **** * Return:
 303:.\Generated_Source\PSoC5/sd_irq.c **** *   None
 304:.\Generated_Source\PSoC5/sd_irq.c **** *
 305:.\Generated_Source\PSoC5/sd_irq.c **** *******************************************************************************/
 306:.\Generated_Source\PSoC5/sd_irq.c **** void sd_irq_Disable(void)
 307:.\Generated_Source\PSoC5/sd_irq.c **** {
 214              		.loc 1 307 0
 215              		.cfi_startproc
 216              		@ args = 0, pretend = 0, frame = 0
 217              		@ frame_needed = 0, uses_anonymous_args = 0
 218              		@ link register save eliminated.
 308:.\Generated_Source\PSoC5/sd_irq.c ****     /* Disable the general interrupt. */
 309:.\Generated_Source\PSoC5/sd_irq.c ****     *sd_irq_INTC_CLR_EN = sd_irq__INTC_MASK;
 219              		.loc 1 309 0
 220 0000 014B     		ldr	r3, .L29
 221 0002 1022     		movs	r2, #16
 222 0004 1A60     		str	r2, [r3, #0]
 310:.\Generated_Source\PSoC5/sd_irq.c **** }
 223              		.loc 1 310 0
 224 0006 7047     		bx	lr
 225              	.L30:
 226              		.align	2
 227              	.L29:
 228 0008 80E100E0 		.word	-536813184
 229              		.cfi_endproc
 230              	.LFE10:
 231              		.size	sd_irq_Disable, .-sd_irq_Disable
 232              		.section	.text.sd_irq_Stop,"ax",%progbits
 233              		.align	1
 234              		.global	sd_irq_Stop
 235              		.thumb
 236              		.thumb_func
 237              		.type	sd_irq_Stop, %function
 238              	sd_irq_Stop:
 239              	.LFB2:
 240              		.loc 1 117 0
 241              		.cfi_startproc
 242              		@ args = 0, pretend = 0, frame = 0
 243              		@ frame_needed = 0, uses_anonymous_args = 0
 244 0000 10B5     		push	{r4, lr}
 245              	.LCFI0:
 246              		.cfi_def_cfa_offset 8
 247              		.loc 1 119 0
 248              		.cfi_offset 14, -4
 249              		.cfi_offset 4, -8
 250 0002 FFF7FEFF 		bl	sd_irq_Disable
 251              		.loc 1 122 0
 252 0006 0248     		ldr	r0, .L33
 253              		.loc 1 123 0
 254 0008 BDE81040 		pop	{r4, lr}
 255              		.loc 1 122 0
 256 000c FFF7FEBF 		b	sd_irq_SetVector
ARM GAS  C:\Users\SUZUKI~1\AppData\Local\Temp\ccBzXPmz.s 			page 11


 257              	.L34:
 258              		.align	2
 259              	.L33:
 260 0010 00000000 		.word	IntDefaultHandler
 261              		.cfi_endproc
 262              	.LFE2:
 263              		.size	sd_irq_Stop, .-sd_irq_Stop
 264              		.section	.text.sd_irq_StartEx,"ax",%progbits
 265              		.align	1
 266              		.global	sd_irq_StartEx
 267              		.thumb
 268              		.thumb_func
 269              		.type	sd_irq_StartEx, %function
 270              	sd_irq_StartEx:
 271              	.LFB1:
 272              		.loc 1 88 0
 273              		.cfi_startproc
 274              		@ args = 0, pretend = 0, frame = 0
 275              		@ frame_needed = 0, uses_anonymous_args = 0
 276              	.LVL5:
 277 0000 10B5     		push	{r4, lr}
 278              	.LCFI1:
 279              		.cfi_def_cfa_offset 8
 280              		.loc 1 88 0
 281 0002 0446     		mov	r4, r0
 282              		.cfi_offset 14, -4
 283              		.cfi_offset 4, -8
 284              		.loc 1 90 0
 285 0004 FFF7FEFF 		bl	sd_irq_Disable
 286              	.LVL6:
 287              		.loc 1 93 0
 288 0008 2046     		mov	r0, r4
 289 000a FFF7FEFF 		bl	sd_irq_SetVector
 290              		.loc 1 96 0
 291 000e 0720     		movs	r0, #7
 292 0010 FFF7FEFF 		bl	sd_irq_SetPriority
 293              		.loc 1 100 0
 294 0014 BDE81040 		pop	{r4, lr}
 295              		.loc 1 99 0
 296 0018 FFF7FEBF 		b	sd_irq_Enable
 297              		.cfi_endproc
 298              	.LFE1:
 299              		.size	sd_irq_StartEx, .-sd_irq_StartEx
 300              		.section	.text.sd_irq_Start,"ax",%progbits
 301              		.align	1
 302              		.global	sd_irq_Start
 303              		.thumb
 304              		.thumb_func
 305              		.type	sd_irq_Start, %function
 306              	sd_irq_Start:
 307              	.LFB0:
 308              		.loc 1 58 0
 309              		.cfi_startproc
 310              		@ args = 0, pretend = 0, frame = 0
 311              		@ frame_needed = 0, uses_anonymous_args = 0
 312 0000 10B5     		push	{r4, lr}
 313              	.LCFI2:
ARM GAS  C:\Users\SUZUKI~1\AppData\Local\Temp\ccBzXPmz.s 			page 12


 314              		.cfi_def_cfa_offset 8
 315              		.loc 1 60 0
 316              		.cfi_offset 14, -4
 317              		.cfi_offset 4, -8
 318 0002 FFF7FEFF 		bl	sd_irq_Disable
 319              		.loc 1 63 0
 320 0006 0548     		ldr	r0, .L39
 321 0008 FFF7FEFF 		bl	sd_irq_SetVector
 322              		.loc 1 66 0
 323 000c 0720     		movs	r0, #7
 324 000e FFF7FEFF 		bl	sd_irq_SetPriority
 325              		.loc 1 70 0
 326 0012 BDE81040 		pop	{r4, lr}
 327              		.loc 1 69 0
 328 0016 FFF7FEBF 		b	sd_irq_Enable
 329              	.L40:
 330 001a 00BF     		.align	2
 331              	.L39:
 332 001c 00000000 		.word	sd_irq_Interrupt
 333              		.cfi_endproc
 334              	.LFE0:
 335              		.size	sd_irq_Start, .-sd_irq_Start
 336              		.section	.text.sd_irq_SetPending,"ax",%progbits
 337              		.align	1
 338              		.global	sd_irq_SetPending
 339              		.thumb
 340              		.thumb_func
 341              		.type	sd_irq_SetPending, %function
 342              	sd_irq_SetPending:
 343              	.LFB11:
 311:.\Generated_Source\PSoC5/sd_irq.c **** 
 312:.\Generated_Source\PSoC5/sd_irq.c **** 
 313:.\Generated_Source\PSoC5/sd_irq.c **** /*******************************************************************************
 314:.\Generated_Source\PSoC5/sd_irq.c **** * Function Name: sd_irq_SetPending
 315:.\Generated_Source\PSoC5/sd_irq.c **** ********************************************************************************
 316:.\Generated_Source\PSoC5/sd_irq.c **** *
 317:.\Generated_Source\PSoC5/sd_irq.c **** * Summary:
 318:.\Generated_Source\PSoC5/sd_irq.c **** *   Causes the Interrupt to enter the pending state, a software method of
 319:.\Generated_Source\PSoC5/sd_irq.c **** *   generating the interrupt.
 320:.\Generated_Source\PSoC5/sd_irq.c **** *
 321:.\Generated_Source\PSoC5/sd_irq.c **** * Parameters:
 322:.\Generated_Source\PSoC5/sd_irq.c **** *   None
 323:.\Generated_Source\PSoC5/sd_irq.c **** *
 324:.\Generated_Source\PSoC5/sd_irq.c **** * Return:
 325:.\Generated_Source\PSoC5/sd_irq.c **** *   None
 326:.\Generated_Source\PSoC5/sd_irq.c **** *
 327:.\Generated_Source\PSoC5/sd_irq.c **** *******************************************************************************/
 328:.\Generated_Source\PSoC5/sd_irq.c **** void sd_irq_SetPending(void)
 329:.\Generated_Source\PSoC5/sd_irq.c **** {
 344              		.loc 1 329 0
 345              		.cfi_startproc
 346              		@ args = 0, pretend = 0, frame = 0
 347              		@ frame_needed = 0, uses_anonymous_args = 0
 348              		@ link register save eliminated.
 330:.\Generated_Source\PSoC5/sd_irq.c ****     *sd_irq_INTC_SET_PD = sd_irq__INTC_MASK;
 349              		.loc 1 330 0
 350 0000 014B     		ldr	r3, .L43
ARM GAS  C:\Users\SUZUKI~1\AppData\Local\Temp\ccBzXPmz.s 			page 13


 351 0002 1022     		movs	r2, #16
 352 0004 1A60     		str	r2, [r3, #0]
 331:.\Generated_Source\PSoC5/sd_irq.c **** }
 353              		.loc 1 331 0
 354 0006 7047     		bx	lr
 355              	.L44:
 356              		.align	2
 357              	.L43:
 358 0008 00E200E0 		.word	-536813056
 359              		.cfi_endproc
 360              	.LFE11:
 361              		.size	sd_irq_SetPending, .-sd_irq_SetPending
 362              		.section	.text.sd_irq_ClearPending,"ax",%progbits
 363              		.align	1
 364              		.global	sd_irq_ClearPending
 365              		.thumb
 366              		.thumb_func
 367              		.type	sd_irq_ClearPending, %function
 368              	sd_irq_ClearPending:
 369              	.LFB12:
 332:.\Generated_Source\PSoC5/sd_irq.c **** 
 333:.\Generated_Source\PSoC5/sd_irq.c **** 
 334:.\Generated_Source\PSoC5/sd_irq.c **** /*******************************************************************************
 335:.\Generated_Source\PSoC5/sd_irq.c **** * Function Name: sd_irq_ClearPending
 336:.\Generated_Source\PSoC5/sd_irq.c **** ********************************************************************************
 337:.\Generated_Source\PSoC5/sd_irq.c **** *
 338:.\Generated_Source\PSoC5/sd_irq.c **** * Summary:
 339:.\Generated_Source\PSoC5/sd_irq.c **** *   Clears a pending interrupt.
 340:.\Generated_Source\PSoC5/sd_irq.c **** *
 341:.\Generated_Source\PSoC5/sd_irq.c **** * Parameters:
 342:.\Generated_Source\PSoC5/sd_irq.c **** *   None
 343:.\Generated_Source\PSoC5/sd_irq.c **** *
 344:.\Generated_Source\PSoC5/sd_irq.c **** * Return:
 345:.\Generated_Source\PSoC5/sd_irq.c **** *   None
 346:.\Generated_Source\PSoC5/sd_irq.c **** *
 347:.\Generated_Source\PSoC5/sd_irq.c **** *******************************************************************************/
 348:.\Generated_Source\PSoC5/sd_irq.c **** void sd_irq_ClearPending(void)
 349:.\Generated_Source\PSoC5/sd_irq.c **** {
 370              		.loc 1 349 0
 371              		.cfi_startproc
 372              		@ args = 0, pretend = 0, frame = 0
 373              		@ frame_needed = 0, uses_anonymous_args = 0
 374              		@ link register save eliminated.
 350:.\Generated_Source\PSoC5/sd_irq.c ****     *sd_irq_INTC_CLR_PD = sd_irq__INTC_MASK;
 375              		.loc 1 350 0
 376 0000 014B     		ldr	r3, .L47
 377 0002 1022     		movs	r2, #16
 378 0004 1A60     		str	r2, [r3, #0]
 351:.\Generated_Source\PSoC5/sd_irq.c **** }
 379              		.loc 1 351 0
 380 0006 7047     		bx	lr
 381              	.L48:
 382              		.align	2
 383              	.L47:
 384 0008 80E200E0 		.word	-536812928
 385              		.cfi_endproc
 386              	.LFE12:
ARM GAS  C:\Users\SUZUKI~1\AppData\Local\Temp\ccBzXPmz.s 			page 14


 387              		.size	sd_irq_ClearPending, .-sd_irq_ClearPending
 388              		.text
 389              	.Letext0:
 390              		.section	.debug_loc,"",%progbits
 391              	.Ldebug_loc0:
 392              	.LLST4:
 393 0000 00000000 		.4byte	.LVL3
 394 0004 02000000 		.4byte	.LVL4
 395 0008 0100     		.2byte	0x1
 396 000a 50       		.byte	0x50
 397 000b 00000000 		.4byte	0x0
 398 000f 00000000 		.4byte	0x0
 399              	.LLST9:
 400 0013 00000000 		.4byte	.LFB2
 401 0017 02000000 		.4byte	.LCFI0
 402 001b 0100     		.2byte	0x1
 403 001d 5D       		.byte	0x5d
 404 001e 02000000 		.4byte	.LCFI0
 405 0022 14000000 		.4byte	.LFE2
 406 0026 0200     		.2byte	0x2
 407 0028 7D       		.byte	0x7d
 408 0029 08       		.sleb128 8
 409 002a 00000000 		.4byte	0x0
 410 002e 00000000 		.4byte	0x0
 411              	.LLST10:
 412 0032 00000000 		.4byte	.LFB1
 413 0036 02000000 		.4byte	.LCFI1
 414 003a 0100     		.2byte	0x1
 415 003c 5D       		.byte	0x5d
 416 003d 02000000 		.4byte	.LCFI1
 417 0041 1C000000 		.4byte	.LFE1
 418 0045 0200     		.2byte	0x2
 419 0047 7D       		.byte	0x7d
 420 0048 08       		.sleb128 8
 421 0049 00000000 		.4byte	0x0
 422 004d 00000000 		.4byte	0x0
 423              	.LLST11:
 424 0051 00000000 		.4byte	.LVL5
 425 0055 08000000 		.4byte	.LVL6
 426 0059 0100     		.2byte	0x1
 427 005b 50       		.byte	0x50
 428 005c 08000000 		.4byte	.LVL6
 429 0060 1C000000 		.4byte	.LFE1
 430 0064 0100     		.2byte	0x1
 431 0066 54       		.byte	0x54
 432 0067 00000000 		.4byte	0x0
 433 006b 00000000 		.4byte	0x0
 434              	.LLST12:
 435 006f 00000000 		.4byte	.LFB0
 436 0073 02000000 		.4byte	.LCFI2
 437 0077 0100     		.2byte	0x1
 438 0079 5D       		.byte	0x5d
 439 007a 02000000 		.4byte	.LCFI2
 440 007e 20000000 		.4byte	.LFE0
 441 0082 0200     		.2byte	0x2
 442 0084 7D       		.byte	0x7d
 443 0085 08       		.sleb128 8
ARM GAS  C:\Users\SUZUKI~1\AppData\Local\Temp\ccBzXPmz.s 			page 15


 444 0086 00000000 		.4byte	0x0
 445 008a 00000000 		.4byte	0x0
 446              		.file 2 "./Generated_Source/PSoC5/cytypes.h"
 447              		.section	.debug_info
 448 0000 1F020000 		.4byte	0x21f
 449 0004 0200     		.2byte	0x2
 450 0006 00000000 		.4byte	.Ldebug_abbrev0
 451 000a 04       		.byte	0x4
 452 000b 01       		.uleb128 0x1
 453 000c 7C010000 		.4byte	.LASF29
 454 0010 01       		.byte	0x1
 455 0011 F2000000 		.4byte	.LASF30
 456 0015 0E000000 		.4byte	.LASF31
 457 0019 00000000 		.4byte	0x0
 458 001d 00000000 		.4byte	0x0
 459 0021 00000000 		.4byte	.Ldebug_ranges0+0x0
 460 0025 00000000 		.4byte	.Ldebug_line0
 461 0029 02       		.uleb128 0x2
 462 002a 01       		.byte	0x1
 463 002b 06       		.byte	0x6
 464 002c DE010000 		.4byte	.LASF0
 465 0030 02       		.uleb128 0x2
 466 0031 01       		.byte	0x1
 467 0032 08       		.byte	0x8
 468 0033 14010000 		.4byte	.LASF1
 469 0037 02       		.uleb128 0x2
 470 0038 02       		.byte	0x2
 471 0039 05       		.byte	0x5
 472 003a AB010000 		.4byte	.LASF2
 473 003e 02       		.uleb128 0x2
 474 003f 02       		.byte	0x2
 475 0040 07       		.byte	0x7
 476 0041 EA010000 		.4byte	.LASF3
 477 0045 03       		.uleb128 0x3
 478 0046 04       		.byte	0x4
 479 0047 05       		.byte	0x5
 480 0048 696E7400 		.ascii	"int\000"
 481 004c 02       		.uleb128 0x2
 482 004d 04       		.byte	0x4
 483 004e 07       		.byte	0x7
 484 004f 22010000 		.4byte	.LASF4
 485 0053 02       		.uleb128 0x2
 486 0054 08       		.byte	0x8
 487 0055 05       		.byte	0x5
 488 0056 00000000 		.4byte	.LASF5
 489 005a 02       		.uleb128 0x2
 490 005b 08       		.byte	0x8
 491 005c 07       		.byte	0x7
 492 005d 49010000 		.4byte	.LASF6
 493 0061 02       		.uleb128 0x2
 494 0062 04       		.byte	0x4
 495 0063 05       		.byte	0x5
 496 0064 C2010000 		.4byte	.LASF7
 497 0068 04       		.uleb128 0x4
 498 0069 04       		.byte	0x4
 499 006a 07       		.byte	0x7
 500 006b 02       		.uleb128 0x2
ARM GAS  C:\Users\SUZUKI~1\AppData\Local\Temp\ccBzXPmz.s 			page 16


 501 006c 04       		.byte	0x4
 502 006d 07       		.byte	0x7
 503 006e A3000000 		.4byte	.LASF8
 504 0072 05       		.uleb128 0x5
 505 0073 01       		.byte	0x1
 506 0074 06       		.uleb128 0x6
 507 0075 04       		.byte	0x4
 508 0076 72000000 		.4byte	0x72
 509 007a 02       		.uleb128 0x2
 510 007b 01       		.byte	0x1
 511 007c 08       		.byte	0x8
 512 007d 88010000 		.4byte	.LASF9
 513 0081 07       		.uleb128 0x7
 514 0082 B5000000 		.4byte	.LASF12
 515 0086 02       		.byte	0x2
 516 0087 4C       		.byte	0x4c
 517 0088 30000000 		.4byte	0x30
 518 008c 02       		.uleb128 0x2
 519 008d 04       		.byte	0x4
 520 008e 04       		.byte	0x4
 521 008f 6A000000 		.4byte	.LASF10
 522 0093 02       		.uleb128 0x2
 523 0094 08       		.byte	0x8
 524 0095 04       		.byte	0x4
 525 0096 D8000000 		.4byte	.LASF11
 526 009a 07       		.uleb128 0x7
 527 009b 6F010000 		.4byte	.LASF13
 528 009f 02       		.byte	0x2
 529 00a0 E0       		.byte	0xe0
 530 00a1 74000000 		.4byte	0x74
 531 00a5 08       		.uleb128 0x8
 532 00a6 01       		.byte	0x1
 533 00a7 81000000 		.4byte	.LASF21
 534 00ab 01       		.byte	0x1
 535 00ac 8E       		.byte	0x8e
 536 00ad 01       		.byte	0x1
 537 00ae 00000000 		.4byte	.LFB3
 538 00b2 02000000 		.4byte	.LFE3
 539 00b6 01       		.byte	0x1
 540 00b7 5D       		.byte	0x5d
 541 00b8 09       		.uleb128 0x9
 542 00b9 01       		.byte	0x1
 543 00ba 92000000 		.4byte	.LASF15
 544 00be 01       		.byte	0x1
 545 00bf A7       		.byte	0xa7
 546 00c0 01       		.byte	0x1
 547 00c1 00000000 		.4byte	.LFB4
 548 00c5 0C000000 		.4byte	.LFE4
 549 00c9 01       		.byte	0x1
 550 00ca 5D       		.byte	0x5d
 551 00cb EA000000 		.4byte	0xea
 552 00cf 0A       		.uleb128 0xa
 553 00d0 41010000 		.4byte	.LASF17
 554 00d4 01       		.byte	0x1
 555 00d5 A7       		.byte	0xa7
 556 00d6 9A000000 		.4byte	0x9a
 557 00da 01       		.byte	0x1
ARM GAS  C:\Users\SUZUKI~1\AppData\Local\Temp\ccBzXPmz.s 			page 17


 558 00db 50       		.byte	0x50
 559 00dc 0B       		.uleb128 0xb
 560 00dd 8D010000 		.4byte	.LASF14
 561 00e1 01       		.byte	0x1
 562 00e2 A9       		.byte	0xa9
 563 00e3 EA000000 		.4byte	0xea
 564 00e7 01       		.byte	0x1
 565 00e8 53       		.byte	0x53
 566 00e9 00       		.byte	0x0
 567 00ea 06       		.uleb128 0x6
 568 00eb 04       		.byte	0x4
 569 00ec 9A000000 		.4byte	0x9a
 570 00f0 0C       		.uleb128 0xc
 571 00f1 01       		.byte	0x1
 572 00f2 70000000 		.4byte	.LASF19
 573 00f6 01       		.byte	0x1
 574 00f7 BF       		.byte	0xbf
 575 00f8 01       		.byte	0x1
 576 00f9 9A000000 		.4byte	0x9a
 577 00fd 00000000 		.4byte	.LFB5
 578 0101 0C000000 		.4byte	.LFE5
 579 0105 01       		.byte	0x1
 580 0106 5D       		.byte	0x5d
 581 0107 19010000 		.4byte	0x119
 582 010b 0B       		.uleb128 0xb
 583 010c 8D010000 		.4byte	.LASF14
 584 0110 01       		.byte	0x1
 585 0111 C1       		.byte	0xc1
 586 0112 EA000000 		.4byte	0xea
 587 0116 01       		.byte	0x1
 588 0117 53       		.byte	0x53
 589 0118 00       		.byte	0x0
 590 0119 09       		.uleb128 0x9
 591 011a 01       		.byte	0x1
 592 011b CB010000 		.4byte	.LASF16
 593 011f 01       		.byte	0x1
 594 0120 DB       		.byte	0xdb
 595 0121 01       		.byte	0x1
 596 0122 00000000 		.4byte	.LFB6
 597 0126 10000000 		.4byte	.LFE6
 598 012a 01       		.byte	0x1
 599 012b 5D       		.byte	0x5d
 600 012c 40010000 		.4byte	0x140
 601 0130 0D       		.uleb128 0xd
 602 0131 BB000000 		.4byte	.LASF18
 603 0135 01       		.byte	0x1
 604 0136 DB       		.byte	0xdb
 605 0137 81000000 		.4byte	0x81
 606 013b 00000000 		.4byte	.LLST4
 607 013f 00       		.byte	0x0
 608 0140 0C       		.uleb128 0xc
 609 0141 01       		.byte	0x1
 610 0142 DF000000 		.4byte	.LASF20
 611 0146 01       		.byte	0x1
 612 0147 EF       		.byte	0xef
 613 0148 01       		.byte	0x1
 614 0149 81000000 		.4byte	0x81
ARM GAS  C:\Users\SUZUKI~1\AppData\Local\Temp\ccBzXPmz.s 			page 18


 615 014d 00000000 		.4byte	.LFB7
 616 0151 0C000000 		.4byte	.LFE7
 617 0155 01       		.byte	0x1
 618 0156 5D       		.byte	0x5d
 619 0157 67010000 		.4byte	0x167
 620 015b 0E       		.uleb128 0xe
 621 015c BB000000 		.4byte	.LASF18
 622 0160 01       		.byte	0x1
 623 0161 F1       		.byte	0xf1
 624 0162 81000000 		.4byte	0x81
 625 0166 00       		.byte	0x0
 626 0167 0F       		.uleb128 0xf
 627 0168 01       		.byte	0x1
 628 0169 5C000000 		.4byte	.LASF22
 629 016d 01       		.byte	0x1
 630 016e 0801     		.2byte	0x108
 631 0170 01       		.byte	0x1
 632 0171 00000000 		.4byte	.LFB8
 633 0175 0C000000 		.4byte	.LFE8
 634 0179 01       		.byte	0x1
 635 017a 5D       		.byte	0x5d
 636 017b 10       		.uleb128 0x10
 637 017c 01       		.byte	0x1
 638 017d 40000000 		.4byte	.LASF32
 639 0181 01       		.byte	0x1
 640 0182 1D01     		.2byte	0x11d
 641 0184 01       		.byte	0x1
 642 0185 81000000 		.4byte	0x81
 643 0189 00000000 		.4byte	.LFB9
 644 018d 10000000 		.4byte	.LFE9
 645 0191 01       		.byte	0x1
 646 0192 5D       		.byte	0x5d
 647 0193 0F       		.uleb128 0xf
 648 0194 01       		.byte	0x1
 649 0195 9C010000 		.4byte	.LASF23
 650 0199 01       		.byte	0x1
 651 019a 3201     		.2byte	0x132
 652 019c 01       		.byte	0x1
 653 019d 00000000 		.4byte	.LFB10
 654 01a1 0C000000 		.4byte	.LFE10
 655 01a5 01       		.byte	0x1
 656 01a6 5D       		.byte	0x5d
 657 01a7 11       		.uleb128 0x11
 658 01a8 01       		.byte	0x1
 659 01a9 50000000 		.4byte	.LASF24
 660 01ad 01       		.byte	0x1
 661 01ae 74       		.byte	0x74
 662 01af 01       		.byte	0x1
 663 01b0 00000000 		.4byte	.LFB2
 664 01b4 14000000 		.4byte	.LFE2
 665 01b8 13000000 		.4byte	.LLST9
 666 01bc 12       		.uleb128 0x12
 667 01bd 01       		.byte	0x1
 668 01be 60010000 		.4byte	.LASF25
 669 01c2 01       		.byte	0x1
 670 01c3 57       		.byte	0x57
 671 01c4 01       		.byte	0x1
ARM GAS  C:\Users\SUZUKI~1\AppData\Local\Temp\ccBzXPmz.s 			page 19


 672 01c5 00000000 		.4byte	.LFB1
 673 01c9 1C000000 		.4byte	.LFE1
 674 01cd 32000000 		.4byte	.LLST10
 675 01d1 E5010000 		.4byte	0x1e5
 676 01d5 0D       		.uleb128 0xd
 677 01d6 41010000 		.4byte	.LASF17
 678 01da 01       		.byte	0x1
 679 01db 57       		.byte	0x57
 680 01dc 9A000000 		.4byte	0x9a
 681 01e0 51000000 		.4byte	.LLST11
 682 01e4 00       		.byte	0x0
 683 01e5 11       		.uleb128 0x11
 684 01e6 01       		.byte	0x1
 685 01e7 B5010000 		.4byte	.LASF26
 686 01eb 01       		.byte	0x1
 687 01ec 39       		.byte	0x39
 688 01ed 01       		.byte	0x1
 689 01ee 00000000 		.4byte	.LFB0
 690 01f2 20000000 		.4byte	.LFE0
 691 01f6 6F000000 		.4byte	.LLST12
 692 01fa 0F       		.uleb128 0xf
 693 01fb 01       		.byte	0x1
 694 01fc 2F010000 		.4byte	.LASF27
 695 0200 01       		.byte	0x1
 696 0201 4801     		.2byte	0x148
 697 0203 01       		.byte	0x1
 698 0204 00000000 		.4byte	.LFB11
 699 0208 0C000000 		.4byte	.LFE11
 700 020c 01       		.byte	0x1
 701 020d 5D       		.byte	0x5d
 702 020e 0F       		.uleb128 0xf
 703 020f 01       		.byte	0x1
 704 0210 C4000000 		.4byte	.LASF28
 705 0214 01       		.byte	0x1
 706 0215 5C01     		.2byte	0x15c
 707 0217 01       		.byte	0x1
 708 0218 00000000 		.4byte	.LFB12
 709 021c 0C000000 		.4byte	.LFE12
 710 0220 01       		.byte	0x1
 711 0221 5D       		.byte	0x5d
 712 0222 00       		.byte	0x0
 713              		.section	.debug_abbrev
 714 0000 01       		.uleb128 0x1
 715 0001 11       		.uleb128 0x11
 716 0002 01       		.byte	0x1
 717 0003 25       		.uleb128 0x25
 718 0004 0E       		.uleb128 0xe
 719 0005 13       		.uleb128 0x13
 720 0006 0B       		.uleb128 0xb
 721 0007 03       		.uleb128 0x3
 722 0008 0E       		.uleb128 0xe
 723 0009 1B       		.uleb128 0x1b
 724 000a 0E       		.uleb128 0xe
 725 000b 11       		.uleb128 0x11
 726 000c 01       		.uleb128 0x1
 727 000d 52       		.uleb128 0x52
 728 000e 01       		.uleb128 0x1
ARM GAS  C:\Users\SUZUKI~1\AppData\Local\Temp\ccBzXPmz.s 			page 20


 729 000f 55       		.uleb128 0x55
 730 0010 06       		.uleb128 0x6
 731 0011 10       		.uleb128 0x10
 732 0012 06       		.uleb128 0x6
 733 0013 00       		.byte	0x0
 734 0014 00       		.byte	0x0
 735 0015 02       		.uleb128 0x2
 736 0016 24       		.uleb128 0x24
 737 0017 00       		.byte	0x0
 738 0018 0B       		.uleb128 0xb
 739 0019 0B       		.uleb128 0xb
 740 001a 3E       		.uleb128 0x3e
 741 001b 0B       		.uleb128 0xb
 742 001c 03       		.uleb128 0x3
 743 001d 0E       		.uleb128 0xe
 744 001e 00       		.byte	0x0
 745 001f 00       		.byte	0x0
 746 0020 03       		.uleb128 0x3
 747 0021 24       		.uleb128 0x24
 748 0022 00       		.byte	0x0
 749 0023 0B       		.uleb128 0xb
 750 0024 0B       		.uleb128 0xb
 751 0025 3E       		.uleb128 0x3e
 752 0026 0B       		.uleb128 0xb
 753 0027 03       		.uleb128 0x3
 754 0028 08       		.uleb128 0x8
 755 0029 00       		.byte	0x0
 756 002a 00       		.byte	0x0
 757 002b 04       		.uleb128 0x4
 758 002c 24       		.uleb128 0x24
 759 002d 00       		.byte	0x0
 760 002e 0B       		.uleb128 0xb
 761 002f 0B       		.uleb128 0xb
 762 0030 3E       		.uleb128 0x3e
 763 0031 0B       		.uleb128 0xb
 764 0032 00       		.byte	0x0
 765 0033 00       		.byte	0x0
 766 0034 05       		.uleb128 0x5
 767 0035 15       		.uleb128 0x15
 768 0036 00       		.byte	0x0
 769 0037 27       		.uleb128 0x27
 770 0038 0C       		.uleb128 0xc
 771 0039 00       		.byte	0x0
 772 003a 00       		.byte	0x0
 773 003b 06       		.uleb128 0x6
 774 003c 0F       		.uleb128 0xf
 775 003d 00       		.byte	0x0
 776 003e 0B       		.uleb128 0xb
 777 003f 0B       		.uleb128 0xb
 778 0040 49       		.uleb128 0x49
 779 0041 13       		.uleb128 0x13
 780 0042 00       		.byte	0x0
 781 0043 00       		.byte	0x0
 782 0044 07       		.uleb128 0x7
 783 0045 16       		.uleb128 0x16
 784 0046 00       		.byte	0x0
 785 0047 03       		.uleb128 0x3
ARM GAS  C:\Users\SUZUKI~1\AppData\Local\Temp\ccBzXPmz.s 			page 21


 786 0048 0E       		.uleb128 0xe
 787 0049 3A       		.uleb128 0x3a
 788 004a 0B       		.uleb128 0xb
 789 004b 3B       		.uleb128 0x3b
 790 004c 0B       		.uleb128 0xb
 791 004d 49       		.uleb128 0x49
 792 004e 13       		.uleb128 0x13
 793 004f 00       		.byte	0x0
 794 0050 00       		.byte	0x0
 795 0051 08       		.uleb128 0x8
 796 0052 2E       		.uleb128 0x2e
 797 0053 00       		.byte	0x0
 798 0054 3F       		.uleb128 0x3f
 799 0055 0C       		.uleb128 0xc
 800 0056 03       		.uleb128 0x3
 801 0057 0E       		.uleb128 0xe
 802 0058 3A       		.uleb128 0x3a
 803 0059 0B       		.uleb128 0xb
 804 005a 3B       		.uleb128 0x3b
 805 005b 0B       		.uleb128 0xb
 806 005c 27       		.uleb128 0x27
 807 005d 0C       		.uleb128 0xc
 808 005e 11       		.uleb128 0x11
 809 005f 01       		.uleb128 0x1
 810 0060 12       		.uleb128 0x12
 811 0061 01       		.uleb128 0x1
 812 0062 40       		.uleb128 0x40
 813 0063 0A       		.uleb128 0xa
 814 0064 00       		.byte	0x0
 815 0065 00       		.byte	0x0
 816 0066 09       		.uleb128 0x9
 817 0067 2E       		.uleb128 0x2e
 818 0068 01       		.byte	0x1
 819 0069 3F       		.uleb128 0x3f
 820 006a 0C       		.uleb128 0xc
 821 006b 03       		.uleb128 0x3
 822 006c 0E       		.uleb128 0xe
 823 006d 3A       		.uleb128 0x3a
 824 006e 0B       		.uleb128 0xb
 825 006f 3B       		.uleb128 0x3b
 826 0070 0B       		.uleb128 0xb
 827 0071 27       		.uleb128 0x27
 828 0072 0C       		.uleb128 0xc
 829 0073 11       		.uleb128 0x11
 830 0074 01       		.uleb128 0x1
 831 0075 12       		.uleb128 0x12
 832 0076 01       		.uleb128 0x1
 833 0077 40       		.uleb128 0x40
 834 0078 0A       		.uleb128 0xa
 835 0079 01       		.uleb128 0x1
 836 007a 13       		.uleb128 0x13
 837 007b 00       		.byte	0x0
 838 007c 00       		.byte	0x0
 839 007d 0A       		.uleb128 0xa
 840 007e 05       		.uleb128 0x5
 841 007f 00       		.byte	0x0
 842 0080 03       		.uleb128 0x3
ARM GAS  C:\Users\SUZUKI~1\AppData\Local\Temp\ccBzXPmz.s 			page 22


 843 0081 0E       		.uleb128 0xe
 844 0082 3A       		.uleb128 0x3a
 845 0083 0B       		.uleb128 0xb
 846 0084 3B       		.uleb128 0x3b
 847 0085 0B       		.uleb128 0xb
 848 0086 49       		.uleb128 0x49
 849 0087 13       		.uleb128 0x13
 850 0088 02       		.uleb128 0x2
 851 0089 0A       		.uleb128 0xa
 852 008a 00       		.byte	0x0
 853 008b 00       		.byte	0x0
 854 008c 0B       		.uleb128 0xb
 855 008d 34       		.uleb128 0x34
 856 008e 00       		.byte	0x0
 857 008f 03       		.uleb128 0x3
 858 0090 0E       		.uleb128 0xe
 859 0091 3A       		.uleb128 0x3a
 860 0092 0B       		.uleb128 0xb
 861 0093 3B       		.uleb128 0x3b
 862 0094 0B       		.uleb128 0xb
 863 0095 49       		.uleb128 0x49
 864 0096 13       		.uleb128 0x13
 865 0097 02       		.uleb128 0x2
 866 0098 0A       		.uleb128 0xa
 867 0099 00       		.byte	0x0
 868 009a 00       		.byte	0x0
 869 009b 0C       		.uleb128 0xc
 870 009c 2E       		.uleb128 0x2e
 871 009d 01       		.byte	0x1
 872 009e 3F       		.uleb128 0x3f
 873 009f 0C       		.uleb128 0xc
 874 00a0 03       		.uleb128 0x3
 875 00a1 0E       		.uleb128 0xe
 876 00a2 3A       		.uleb128 0x3a
 877 00a3 0B       		.uleb128 0xb
 878 00a4 3B       		.uleb128 0x3b
 879 00a5 0B       		.uleb128 0xb
 880 00a6 27       		.uleb128 0x27
 881 00a7 0C       		.uleb128 0xc
 882 00a8 49       		.uleb128 0x49
 883 00a9 13       		.uleb128 0x13
 884 00aa 11       		.uleb128 0x11
 885 00ab 01       		.uleb128 0x1
 886 00ac 12       		.uleb128 0x12
 887 00ad 01       		.uleb128 0x1
 888 00ae 40       		.uleb128 0x40
 889 00af 0A       		.uleb128 0xa
 890 00b0 01       		.uleb128 0x1
 891 00b1 13       		.uleb128 0x13
 892 00b2 00       		.byte	0x0
 893 00b3 00       		.byte	0x0
 894 00b4 0D       		.uleb128 0xd
 895 00b5 05       		.uleb128 0x5
 896 00b6 00       		.byte	0x0
 897 00b7 03       		.uleb128 0x3
 898 00b8 0E       		.uleb128 0xe
 899 00b9 3A       		.uleb128 0x3a
ARM GAS  C:\Users\SUZUKI~1\AppData\Local\Temp\ccBzXPmz.s 			page 23


 900 00ba 0B       		.uleb128 0xb
 901 00bb 3B       		.uleb128 0x3b
 902 00bc 0B       		.uleb128 0xb
 903 00bd 49       		.uleb128 0x49
 904 00be 13       		.uleb128 0x13
 905 00bf 02       		.uleb128 0x2
 906 00c0 06       		.uleb128 0x6
 907 00c1 00       		.byte	0x0
 908 00c2 00       		.byte	0x0
 909 00c3 0E       		.uleb128 0xe
 910 00c4 34       		.uleb128 0x34
 911 00c5 00       		.byte	0x0
 912 00c6 03       		.uleb128 0x3
 913 00c7 0E       		.uleb128 0xe
 914 00c8 3A       		.uleb128 0x3a
 915 00c9 0B       		.uleb128 0xb
 916 00ca 3B       		.uleb128 0x3b
 917 00cb 0B       		.uleb128 0xb
 918 00cc 49       		.uleb128 0x49
 919 00cd 13       		.uleb128 0x13
 920 00ce 00       		.byte	0x0
 921 00cf 00       		.byte	0x0
 922 00d0 0F       		.uleb128 0xf
 923 00d1 2E       		.uleb128 0x2e
 924 00d2 00       		.byte	0x0
 925 00d3 3F       		.uleb128 0x3f
 926 00d4 0C       		.uleb128 0xc
 927 00d5 03       		.uleb128 0x3
 928 00d6 0E       		.uleb128 0xe
 929 00d7 3A       		.uleb128 0x3a
 930 00d8 0B       		.uleb128 0xb
 931 00d9 3B       		.uleb128 0x3b
 932 00da 05       		.uleb128 0x5
 933 00db 27       		.uleb128 0x27
 934 00dc 0C       		.uleb128 0xc
 935 00dd 11       		.uleb128 0x11
 936 00de 01       		.uleb128 0x1
 937 00df 12       		.uleb128 0x12
 938 00e0 01       		.uleb128 0x1
 939 00e1 40       		.uleb128 0x40
 940 00e2 0A       		.uleb128 0xa
 941 00e3 00       		.byte	0x0
 942 00e4 00       		.byte	0x0
 943 00e5 10       		.uleb128 0x10
 944 00e6 2E       		.uleb128 0x2e
 945 00e7 00       		.byte	0x0
 946 00e8 3F       		.uleb128 0x3f
 947 00e9 0C       		.uleb128 0xc
 948 00ea 03       		.uleb128 0x3
 949 00eb 0E       		.uleb128 0xe
 950 00ec 3A       		.uleb128 0x3a
 951 00ed 0B       		.uleb128 0xb
 952 00ee 3B       		.uleb128 0x3b
 953 00ef 05       		.uleb128 0x5
 954 00f0 27       		.uleb128 0x27
 955 00f1 0C       		.uleb128 0xc
 956 00f2 49       		.uleb128 0x49
ARM GAS  C:\Users\SUZUKI~1\AppData\Local\Temp\ccBzXPmz.s 			page 24


 957 00f3 13       		.uleb128 0x13
 958 00f4 11       		.uleb128 0x11
 959 00f5 01       		.uleb128 0x1
 960 00f6 12       		.uleb128 0x12
 961 00f7 01       		.uleb128 0x1
 962 00f8 40       		.uleb128 0x40
 963 00f9 0A       		.uleb128 0xa
 964 00fa 00       		.byte	0x0
 965 00fb 00       		.byte	0x0
 966 00fc 11       		.uleb128 0x11
 967 00fd 2E       		.uleb128 0x2e
 968 00fe 00       		.byte	0x0
 969 00ff 3F       		.uleb128 0x3f
 970 0100 0C       		.uleb128 0xc
 971 0101 03       		.uleb128 0x3
 972 0102 0E       		.uleb128 0xe
 973 0103 3A       		.uleb128 0x3a
 974 0104 0B       		.uleb128 0xb
 975 0105 3B       		.uleb128 0x3b
 976 0106 0B       		.uleb128 0xb
 977 0107 27       		.uleb128 0x27
 978 0108 0C       		.uleb128 0xc
 979 0109 11       		.uleb128 0x11
 980 010a 01       		.uleb128 0x1
 981 010b 12       		.uleb128 0x12
 982 010c 01       		.uleb128 0x1
 983 010d 40       		.uleb128 0x40
 984 010e 06       		.uleb128 0x6
 985 010f 00       		.byte	0x0
 986 0110 00       		.byte	0x0
 987 0111 12       		.uleb128 0x12
 988 0112 2E       		.uleb128 0x2e
 989 0113 01       		.byte	0x1
 990 0114 3F       		.uleb128 0x3f
 991 0115 0C       		.uleb128 0xc
 992 0116 03       		.uleb128 0x3
 993 0117 0E       		.uleb128 0xe
 994 0118 3A       		.uleb128 0x3a
 995 0119 0B       		.uleb128 0xb
 996 011a 3B       		.uleb128 0x3b
 997 011b 0B       		.uleb128 0xb
 998 011c 27       		.uleb128 0x27
 999 011d 0C       		.uleb128 0xc
 1000 011e 11       		.uleb128 0x11
 1001 011f 01       		.uleb128 0x1
 1002 0120 12       		.uleb128 0x12
 1003 0121 01       		.uleb128 0x1
 1004 0122 40       		.uleb128 0x40
 1005 0123 06       		.uleb128 0x6
 1006 0124 01       		.uleb128 0x1
 1007 0125 13       		.uleb128 0x13
 1008 0126 00       		.byte	0x0
 1009 0127 00       		.byte	0x0
 1010 0128 00       		.byte	0x0
 1011              		.section	.debug_pubnames,"",%progbits
 1012 0000 16010000 		.4byte	0x116
 1013 0004 0200     		.2byte	0x2
ARM GAS  C:\Users\SUZUKI~1\AppData\Local\Temp\ccBzXPmz.s 			page 25


 1014 0006 00000000 		.4byte	.Ldebug_info0
 1015 000a 23020000 		.4byte	0x223
 1016 000e A5000000 		.4byte	0xa5
 1017 0012 73645F69 		.ascii	"sd_irq_Interrupt\000"
 1017      72715F49 
 1017      6E746572 
 1017      72757074 
 1017      00
 1018 0023 B8000000 		.4byte	0xb8
 1019 0027 73645F69 		.ascii	"sd_irq_SetVector\000"
 1019      72715F53 
 1019      65745665 
 1019      63746F72 
 1019      00
 1020 0038 F0000000 		.4byte	0xf0
 1021 003c 73645F69 		.ascii	"sd_irq_GetVector\000"
 1021      72715F47 
 1021      65745665 
 1021      63746F72 
 1021      00
 1022 004d 19010000 		.4byte	0x119
 1023 0051 73645F69 		.ascii	"sd_irq_SetPriority\000"
 1023      72715F53 
 1023      65745072 
 1023      696F7269 
 1023      747900
 1024 0064 40010000 		.4byte	0x140
 1025 0068 73645F69 		.ascii	"sd_irq_GetPriority\000"
 1025      72715F47 
 1025      65745072 
 1025      696F7269 
 1025      747900
 1026 007b 67010000 		.4byte	0x167
 1027 007f 73645F69 		.ascii	"sd_irq_Enable\000"
 1027      72715F45 
 1027      6E61626C 
 1027      6500
 1028 008d 7B010000 		.4byte	0x17b
 1029 0091 73645F69 		.ascii	"sd_irq_GetState\000"
 1029      72715F47 
 1029      65745374 
 1029      61746500 
 1030 00a1 93010000 		.4byte	0x193
 1031 00a5 73645F69 		.ascii	"sd_irq_Disable\000"
 1031      72715F44 
 1031      69736162 
 1031      6C6500
 1032 00b4 A7010000 		.4byte	0x1a7
 1033 00b8 73645F69 		.ascii	"sd_irq_Stop\000"
 1033      72715F53 
 1033      746F7000 
 1034 00c4 BC010000 		.4byte	0x1bc
 1035 00c8 73645F69 		.ascii	"sd_irq_StartEx\000"
 1035      72715F53 
 1035      74617274 
 1035      457800
 1036 00d7 E5010000 		.4byte	0x1e5
ARM GAS  C:\Users\SUZUKI~1\AppData\Local\Temp\ccBzXPmz.s 			page 26


 1037 00db 73645F69 		.ascii	"sd_irq_Start\000"
 1037      72715F53 
 1037      74617274 
 1037      00
 1038 00e8 FA010000 		.4byte	0x1fa
 1039 00ec 73645F69 		.ascii	"sd_irq_SetPending\000"
 1039      72715F53 
 1039      65745065 
 1039      6E64696E 
 1039      6700
 1040 00fe 0E020000 		.4byte	0x20e
 1041 0102 73645F69 		.ascii	"sd_irq_ClearPending\000"
 1041      72715F43 
 1041      6C656172 
 1041      50656E64 
 1041      696E6700 
 1042 0116 00000000 		.4byte	0x0
 1043              		.section	.debug_aranges,"",%progbits
 1044 0000 7C000000 		.4byte	0x7c
 1045 0004 0200     		.2byte	0x2
 1046 0006 00000000 		.4byte	.Ldebug_info0
 1047 000a 04       		.byte	0x4
 1048 000b 00       		.byte	0x0
 1049 000c 0000     		.2byte	0x0
 1050 000e 0000     		.2byte	0x0
 1051 0010 00000000 		.4byte	.LFB3
 1052 0014 02000000 		.4byte	.LFE3-.LFB3
 1053 0018 00000000 		.4byte	.LFB4
 1054 001c 0C000000 		.4byte	.LFE4-.LFB4
 1055 0020 00000000 		.4byte	.LFB5
 1056 0024 0C000000 		.4byte	.LFE5-.LFB5
 1057 0028 00000000 		.4byte	.LFB6
 1058 002c 10000000 		.4byte	.LFE6-.LFB6
 1059 0030 00000000 		.4byte	.LFB7
 1060 0034 0C000000 		.4byte	.LFE7-.LFB7
 1061 0038 00000000 		.4byte	.LFB8
 1062 003c 0C000000 		.4byte	.LFE8-.LFB8
 1063 0040 00000000 		.4byte	.LFB9
 1064 0044 10000000 		.4byte	.LFE9-.LFB9
 1065 0048 00000000 		.4byte	.LFB10
 1066 004c 0C000000 		.4byte	.LFE10-.LFB10
 1067 0050 00000000 		.4byte	.LFB2
 1068 0054 14000000 		.4byte	.LFE2-.LFB2
 1069 0058 00000000 		.4byte	.LFB1
 1070 005c 1C000000 		.4byte	.LFE1-.LFB1
 1071 0060 00000000 		.4byte	.LFB0
 1072 0064 20000000 		.4byte	.LFE0-.LFB0
 1073 0068 00000000 		.4byte	.LFB11
 1074 006c 0C000000 		.4byte	.LFE11-.LFB11
 1075 0070 00000000 		.4byte	.LFB12
 1076 0074 0C000000 		.4byte	.LFE12-.LFB12
 1077 0078 00000000 		.4byte	0x0
 1078 007c 00000000 		.4byte	0x0
 1079              		.section	.debug_ranges,"",%progbits
 1080              	.Ldebug_ranges0:
 1081 0000 00000000 		.4byte	.Ltext0
 1082 0004 00000000 		.4byte	.Letext0
ARM GAS  C:\Users\SUZUKI~1\AppData\Local\Temp\ccBzXPmz.s 			page 27


 1083 0008 00000000 		.4byte	.LFB3
 1084 000c 02000000 		.4byte	.LFE3
 1085 0010 00000000 		.4byte	.LFB4
 1086 0014 0C000000 		.4byte	.LFE4
 1087 0018 00000000 		.4byte	.LFB5
 1088 001c 0C000000 		.4byte	.LFE5
 1089 0020 00000000 		.4byte	.LFB6
 1090 0024 10000000 		.4byte	.LFE6
 1091 0028 00000000 		.4byte	.LFB7
 1092 002c 0C000000 		.4byte	.LFE7
 1093 0030 00000000 		.4byte	.LFB8
 1094 0034 0C000000 		.4byte	.LFE8
 1095 0038 00000000 		.4byte	.LFB9
 1096 003c 10000000 		.4byte	.LFE9
 1097 0040 00000000 		.4byte	.LFB10
 1098 0044 0C000000 		.4byte	.LFE10
 1099 0048 00000000 		.4byte	.LFB2
 1100 004c 14000000 		.4byte	.LFE2
 1101 0050 00000000 		.4byte	.LFB1
 1102 0054 1C000000 		.4byte	.LFE1
 1103 0058 00000000 		.4byte	.LFB0
 1104 005c 20000000 		.4byte	.LFE0
 1105 0060 00000000 		.4byte	.LFB11
 1106 0064 0C000000 		.4byte	.LFE11
 1107 0068 00000000 		.4byte	.LFB12
 1108 006c 0C000000 		.4byte	.LFE12
 1109 0070 00000000 		.4byte	0x0
 1110 0074 00000000 		.4byte	0x0
 1111              		.section	.debug_str,"MS",%progbits,1
 1112              	.LASF5:
 1113 0000 6C6F6E67 		.ascii	"long long int\000"
 1113      206C6F6E 
 1113      6720696E 
 1113      7400
 1114              	.LASF31:
 1115 000e 5A3A5C64 		.ascii	"Z:\\docs\\psoc\\creator\\ledmatrix\\ledmatrixfft.cy"
 1115      6F63735C 
 1115      70736F63 
 1115      5C637265 
 1115      61746F72 
 1116 003c 64736E00 		.ascii	"dsn\000"
 1117              	.LASF32:
 1118 0040 73645F69 		.ascii	"sd_irq_GetState\000"
 1118      72715F47 
 1118      65745374 
 1118      61746500 
 1119              	.LASF24:
 1120 0050 73645F69 		.ascii	"sd_irq_Stop\000"
 1120      72715F53 
 1120      746F7000 
 1121              	.LASF22:
 1122 005c 73645F69 		.ascii	"sd_irq_Enable\000"
 1122      72715F45 
 1122      6E61626C 
 1122      6500
 1123              	.LASF10:
 1124 006a 666C6F61 		.ascii	"float\000"
ARM GAS  C:\Users\SUZUKI~1\AppData\Local\Temp\ccBzXPmz.s 			page 28


 1124      7400
 1125              	.LASF19:
 1126 0070 73645F69 		.ascii	"sd_irq_GetVector\000"
 1126      72715F47 
 1126      65745665 
 1126      63746F72 
 1126      00
 1127              	.LASF21:
 1128 0081 73645F69 		.ascii	"sd_irq_Interrupt\000"
 1128      72715F49 
 1128      6E746572 
 1128      72757074 
 1128      00
 1129              	.LASF15:
 1130 0092 73645F69 		.ascii	"sd_irq_SetVector\000"
 1130      72715F53 
 1130      65745665 
 1130      63746F72 
 1130      00
 1131              	.LASF8:
 1132 00a3 6C6F6E67 		.ascii	"long unsigned int\000"
 1132      20756E73 
 1132      69676E65 
 1132      6420696E 
 1132      7400
 1133              	.LASF12:
 1134 00b5 75696E74 		.ascii	"uint8\000"
 1134      3800
 1135              	.LASF18:
 1136 00bb 7072696F 		.ascii	"priority\000"
 1136      72697479 
 1136      00
 1137              	.LASF28:
 1138 00c4 73645F69 		.ascii	"sd_irq_ClearPending\000"
 1138      72715F43 
 1138      6C656172 
 1138      50656E64 
 1138      696E6700 
 1139              	.LASF11:
 1140 00d8 646F7562 		.ascii	"double\000"
 1140      6C6500
 1141              	.LASF20:
 1142 00df 73645F69 		.ascii	"sd_irq_GetPriority\000"
 1142      72715F47 
 1142      65745072 
 1142      696F7269 
 1142      747900
 1143              	.LASF30:
 1144 00f2 2E5C4765 		.ascii	".\\Generated_Source\\PSoC5\\sd_irq.c\000"
 1144      6E657261 
 1144      7465645F 
 1144      536F7572 
 1144      63655C50 
 1145              	.LASF1:
 1146 0114 756E7369 		.ascii	"unsigned char\000"
 1146      676E6564 
 1146      20636861 
ARM GAS  C:\Users\SUZUKI~1\AppData\Local\Temp\ccBzXPmz.s 			page 29


 1146      7200
 1147              	.LASF4:
 1148 0122 756E7369 		.ascii	"unsigned int\000"
 1148      676E6564 
 1148      20696E74 
 1148      00
 1149              	.LASF27:
 1150 012f 73645F69 		.ascii	"sd_irq_SetPending\000"
 1150      72715F53 
 1150      65745065 
 1150      6E64696E 
 1150      6700
 1151              	.LASF17:
 1152 0141 61646472 		.ascii	"address\000"
 1152      65737300 
 1153              	.LASF6:
 1154 0149 6C6F6E67 		.ascii	"long long unsigned int\000"
 1154      206C6F6E 
 1154      6720756E 
 1154      7369676E 
 1154      65642069 
 1155              	.LASF25:
 1156 0160 73645F69 		.ascii	"sd_irq_StartEx\000"
 1156      72715F53 
 1156      74617274 
 1156      457800
 1157              	.LASF13:
 1158 016f 63796973 		.ascii	"cyisraddress\000"
 1158      72616464 
 1158      72657373 
 1158      00
 1159              	.LASF29:
 1160 017c 474E5520 		.ascii	"GNU C 4.4.1\000"
 1160      4320342E 
 1160      342E3100 
 1161              	.LASF9:
 1162 0188 63686172 		.ascii	"char\000"
 1162      00
 1163              	.LASF14:
 1164 018d 72616D56 		.ascii	"ramVectorTable\000"
 1164      6563746F 
 1164      72546162 
 1164      6C6500
 1165              	.LASF23:
 1166 019c 73645F69 		.ascii	"sd_irq_Disable\000"
 1166      72715F44 
 1166      69736162 
 1166      6C6500
 1167              	.LASF2:
 1168 01ab 73686F72 		.ascii	"short int\000"
 1168      7420696E 
 1168      7400
 1169              	.LASF26:
 1170 01b5 73645F69 		.ascii	"sd_irq_Start\000"
 1170      72715F53 
 1170      74617274 
 1170      00
ARM GAS  C:\Users\SUZUKI~1\AppData\Local\Temp\ccBzXPmz.s 			page 30


 1171              	.LASF7:
 1172 01c2 6C6F6E67 		.ascii	"long int\000"
 1172      20696E74 
 1172      00
 1173              	.LASF16:
 1174 01cb 73645F69 		.ascii	"sd_irq_SetPriority\000"
 1174      72715F53 
 1174      65745072 
 1174      696F7269 
 1174      747900
 1175              	.LASF0:
 1176 01de 7369676E 		.ascii	"signed char\000"
 1176      65642063 
 1176      68617200 
 1177              	.LASF3:
 1178 01ea 73686F72 		.ascii	"short unsigned int\000"
 1178      7420756E 
 1178      7369676E 
 1178      65642069 
 1178      6E7400
 1179              		.ident	"GCC: (Sourcery G++ Lite 2010q1-188) 4.4.1"
