ARM GAS  C:\Users\SUZUKI~1\AppData\Local\Temp\ccNhLsfy.s 			page 1


   1              		.syntax unified
   2              		.cpu cortex-m3
   3              		.fpu softvfp
   4              		.eabi_attribute 20, 1
   5              		.eabi_attribute 21, 1
   6              		.eabi_attribute 23, 3
   7              		.eabi_attribute 24, 1
   8              		.eabi_attribute 25, 1
   9              		.eabi_attribute 26, 1
  10              		.eabi_attribute 30, 4
  11              		.eabi_attribute 18, 4
  12              		.thumb
  13              		.file	"shift_irq.c"
  14              		.section	.debug_abbrev,"",%progbits
  15              	.Ldebug_abbrev0:
  16              		.section	.debug_info,"",%progbits
  17              	.Ldebug_info0:
  18              		.section	.debug_line,"",%progbits
  19              	.Ldebug_line0:
  20 0000 59010000 		.text
  20      02006100 
  20      00000201 
  20      FB0E0D00 
  20      01010101 
  21              	.Ltext0:
  22              		.cfi_sections	.debug_frame
  23              		.section	.text.shift_irq_Interrupt,"ax",%progbits
  24              		.align	1
  25              		.global	shift_irq_Interrupt
  26              		.thumb
  27              		.thumb_func
  28              		.type	shift_irq_Interrupt, %function
  29              	shift_irq_Interrupt:
  30              	.LFB3:
  31              		.file 1 ".\\Generated_Source\\PSoC5\\shift_irq.c"
   1:.\Generated_Source\PSoC5/shift_irq.c **** /*******************************************************************************
   2:.\Generated_Source\PSoC5/shift_irq.c **** * File Name: shift_irq.c  
   3:.\Generated_Source\PSoC5/shift_irq.c **** * Version 1.60
   4:.\Generated_Source\PSoC5/shift_irq.c **** *
   5:.\Generated_Source\PSoC5/shift_irq.c **** *  Description:
   6:.\Generated_Source\PSoC5/shift_irq.c **** *   API for controlling the state of an interrupt.
   7:.\Generated_Source\PSoC5/shift_irq.c **** *
   8:.\Generated_Source\PSoC5/shift_irq.c **** *
   9:.\Generated_Source\PSoC5/shift_irq.c **** *  Note:
  10:.\Generated_Source\PSoC5/shift_irq.c **** *
  11:.\Generated_Source\PSoC5/shift_irq.c **** ********************************************************************************
  12:.\Generated_Source\PSoC5/shift_irq.c **** * Copyright 2008-2010, Cypress Semiconductor Corporation.  All rights reserved.
  13:.\Generated_Source\PSoC5/shift_irq.c **** * You may use this file only in accordance with the license, terms, conditions, 
  14:.\Generated_Source\PSoC5/shift_irq.c **** * disclaimers, and limitations in the end user license agreement accompanying 
  15:.\Generated_Source\PSoC5/shift_irq.c **** * the software package with which this file was provided.
  16:.\Generated_Source\PSoC5/shift_irq.c **** ********************************************************************************/
  17:.\Generated_Source\PSoC5/shift_irq.c **** 
  18:.\Generated_Source\PSoC5/shift_irq.c **** 
  19:.\Generated_Source\PSoC5/shift_irq.c **** #include <CYDEVICE.H>
  20:.\Generated_Source\PSoC5/shift_irq.c **** #include <CYDEVICE_TRM.H>
  21:.\Generated_Source\PSoC5/shift_irq.c **** #include <CYLIB.H>
  22:.\Generated_Source\PSoC5/shift_irq.c **** #include <shift_irq.H>
ARM GAS  C:\Users\SUZUKI~1\AppData\Local\Temp\ccNhLsfy.s 			page 2


  23:.\Generated_Source\PSoC5/shift_irq.c **** 
  24:.\Generated_Source\PSoC5/shift_irq.c **** 
  25:.\Generated_Source\PSoC5/shift_irq.c **** /*******************************************************************************
  26:.\Generated_Source\PSoC5/shift_irq.c **** *  Place your includes, defines and code here 
  27:.\Generated_Source\PSoC5/shift_irq.c **** ********************************************************************************/
  28:.\Generated_Source\PSoC5/shift_irq.c **** /* `#START shift_irq_intc` */
  29:.\Generated_Source\PSoC5/shift_irq.c **** 
  30:.\Generated_Source\PSoC5/shift_irq.c **** /* `#END` */
  31:.\Generated_Source\PSoC5/shift_irq.c **** 
  32:.\Generated_Source\PSoC5/shift_irq.c **** #ifndef CYINT_IRQ_BASE
  33:.\Generated_Source\PSoC5/shift_irq.c **** #define CYINT_IRQ_BASE	16
  34:.\Generated_Source\PSoC5/shift_irq.c **** #endif
  35:.\Generated_Source\PSoC5/shift_irq.c **** #ifndef CYINT_VECT_TABLE
  36:.\Generated_Source\PSoC5/shift_irq.c **** #define CYINT_VECT_TABLE    ((cyisraddress **) CYREG_NVIC_VECT_OFFSET)
  37:.\Generated_Source\PSoC5/shift_irq.c **** #endif
  38:.\Generated_Source\PSoC5/shift_irq.c **** 
  39:.\Generated_Source\PSoC5/shift_irq.c **** /* Declared in startup, used to set unused interrupts to. */
  40:.\Generated_Source\PSoC5/shift_irq.c **** CY_ISR_PROTO(IntDefaultHandler);
  41:.\Generated_Source\PSoC5/shift_irq.c **** 
  42:.\Generated_Source\PSoC5/shift_irq.c **** /*******************************************************************************
  43:.\Generated_Source\PSoC5/shift_irq.c **** * Function Name: shift_irq_Start
  44:.\Generated_Source\PSoC5/shift_irq.c **** ********************************************************************************
  45:.\Generated_Source\PSoC5/shift_irq.c **** * Summary:
  46:.\Generated_Source\PSoC5/shift_irq.c **** *  Set up the interrupt and enable it.
  47:.\Generated_Source\PSoC5/shift_irq.c **** *
  48:.\Generated_Source\PSoC5/shift_irq.c **** * Parameters:  
  49:.\Generated_Source\PSoC5/shift_irq.c **** *   void.
  50:.\Generated_Source\PSoC5/shift_irq.c **** *
  51:.\Generated_Source\PSoC5/shift_irq.c **** *
  52:.\Generated_Source\PSoC5/shift_irq.c **** * Return:
  53:.\Generated_Source\PSoC5/shift_irq.c **** *   void.
  54:.\Generated_Source\PSoC5/shift_irq.c **** *
  55:.\Generated_Source\PSoC5/shift_irq.c **** *******************************************************************************/
  56:.\Generated_Source\PSoC5/shift_irq.c **** void shift_irq_Start(void)
  57:.\Generated_Source\PSoC5/shift_irq.c **** {
  58:.\Generated_Source\PSoC5/shift_irq.c ****     /* For all we know the interrupt is active. */
  59:.\Generated_Source\PSoC5/shift_irq.c ****     shift_irq_Disable();
  60:.\Generated_Source\PSoC5/shift_irq.c **** 
  61:.\Generated_Source\PSoC5/shift_irq.c ****     /* Set the ISR to point to the shift_irq Interrupt. */
  62:.\Generated_Source\PSoC5/shift_irq.c ****     shift_irq_SetVector(shift_irq_Interrupt);
  63:.\Generated_Source\PSoC5/shift_irq.c **** 
  64:.\Generated_Source\PSoC5/shift_irq.c ****     /* Set the priority. */
  65:.\Generated_Source\PSoC5/shift_irq.c ****     shift_irq_SetPriority(shift_irq_INTC_PRIOR_NUMBER);
  66:.\Generated_Source\PSoC5/shift_irq.c **** 
  67:.\Generated_Source\PSoC5/shift_irq.c ****     /* Enable it. */
  68:.\Generated_Source\PSoC5/shift_irq.c ****     shift_irq_Enable();
  69:.\Generated_Source\PSoC5/shift_irq.c **** }
  70:.\Generated_Source\PSoC5/shift_irq.c **** 
  71:.\Generated_Source\PSoC5/shift_irq.c **** /*******************************************************************************
  72:.\Generated_Source\PSoC5/shift_irq.c **** * Function Name: shift_irq_StartEx
  73:.\Generated_Source\PSoC5/shift_irq.c **** ********************************************************************************
  74:.\Generated_Source\PSoC5/shift_irq.c **** * Summary:
  75:.\Generated_Source\PSoC5/shift_irq.c **** *  Set up the interrupt and enable it.
  76:.\Generated_Source\PSoC5/shift_irq.c **** *
  77:.\Generated_Source\PSoC5/shift_irq.c **** * Parameters:  
  78:.\Generated_Source\PSoC5/shift_irq.c **** *   address: Address of the ISR to set in the interrupt vector table.
  79:.\Generated_Source\PSoC5/shift_irq.c **** *
ARM GAS  C:\Users\SUZUKI~1\AppData\Local\Temp\ccNhLsfy.s 			page 3


  80:.\Generated_Source\PSoC5/shift_irq.c **** *
  81:.\Generated_Source\PSoC5/shift_irq.c **** * Return:
  82:.\Generated_Source\PSoC5/shift_irq.c **** *   void.
  83:.\Generated_Source\PSoC5/shift_irq.c **** *
  84:.\Generated_Source\PSoC5/shift_irq.c **** *******************************************************************************/
  85:.\Generated_Source\PSoC5/shift_irq.c **** void shift_irq_StartEx(cyisraddress address)
  86:.\Generated_Source\PSoC5/shift_irq.c **** {
  87:.\Generated_Source\PSoC5/shift_irq.c ****     /* For all we know the interrupt is active. */
  88:.\Generated_Source\PSoC5/shift_irq.c ****     shift_irq_Disable();
  89:.\Generated_Source\PSoC5/shift_irq.c **** 
  90:.\Generated_Source\PSoC5/shift_irq.c ****     /* Set the ISR to point to the shift_irq Interrupt. */
  91:.\Generated_Source\PSoC5/shift_irq.c ****     shift_irq_SetVector(address);
  92:.\Generated_Source\PSoC5/shift_irq.c **** 
  93:.\Generated_Source\PSoC5/shift_irq.c ****     /* Set the priority. */
  94:.\Generated_Source\PSoC5/shift_irq.c ****     shift_irq_SetPriority(shift_irq_INTC_PRIOR_NUMBER);
  95:.\Generated_Source\PSoC5/shift_irq.c **** 
  96:.\Generated_Source\PSoC5/shift_irq.c ****     /* Enable it. */
  97:.\Generated_Source\PSoC5/shift_irq.c ****     shift_irq_Enable();
  98:.\Generated_Source\PSoC5/shift_irq.c **** }
  99:.\Generated_Source\PSoC5/shift_irq.c **** 
 100:.\Generated_Source\PSoC5/shift_irq.c **** /*******************************************************************************
 101:.\Generated_Source\PSoC5/shift_irq.c **** * Function Name: shift_irq_Stop
 102:.\Generated_Source\PSoC5/shift_irq.c **** ********************************************************************************
 103:.\Generated_Source\PSoC5/shift_irq.c **** * Summary:
 104:.\Generated_Source\PSoC5/shift_irq.c **** *   Disables and removes the interrupt.
 105:.\Generated_Source\PSoC5/shift_irq.c **** *
 106:.\Generated_Source\PSoC5/shift_irq.c **** * Parameters:  
 107:.\Generated_Source\PSoC5/shift_irq.c **** *
 108:.\Generated_Source\PSoC5/shift_irq.c **** *
 109:.\Generated_Source\PSoC5/shift_irq.c **** * Return:
 110:.\Generated_Source\PSoC5/shift_irq.c **** *   void.
 111:.\Generated_Source\PSoC5/shift_irq.c **** *
 112:.\Generated_Source\PSoC5/shift_irq.c **** *******************************************************************************/
 113:.\Generated_Source\PSoC5/shift_irq.c **** void shift_irq_Stop(void) 
 114:.\Generated_Source\PSoC5/shift_irq.c **** {
 115:.\Generated_Source\PSoC5/shift_irq.c ****     /* Disable this interrupt. */
 116:.\Generated_Source\PSoC5/shift_irq.c ****     shift_irq_Disable();
 117:.\Generated_Source\PSoC5/shift_irq.c **** 
 118:.\Generated_Source\PSoC5/shift_irq.c ****     /* Set the ISR to point to the passive one. */
 119:.\Generated_Source\PSoC5/shift_irq.c ****     shift_irq_SetVector(IntDefaultHandler);
 120:.\Generated_Source\PSoC5/shift_irq.c **** }
 121:.\Generated_Source\PSoC5/shift_irq.c **** 
 122:.\Generated_Source\PSoC5/shift_irq.c **** /*******************************************************************************
 123:.\Generated_Source\PSoC5/shift_irq.c **** * Function Name: shift_irq_Interrupt
 124:.\Generated_Source\PSoC5/shift_irq.c **** ********************************************************************************
 125:.\Generated_Source\PSoC5/shift_irq.c **** * Summary:
 126:.\Generated_Source\PSoC5/shift_irq.c **** *   The default Interrupt Service Routine for shift_irq.
 127:.\Generated_Source\PSoC5/shift_irq.c **** *
 128:.\Generated_Source\PSoC5/shift_irq.c **** *   Add custom code between the coments to keep the next version of this file
 129:.\Generated_Source\PSoC5/shift_irq.c **** *   from over writting your code.
 130:.\Generated_Source\PSoC5/shift_irq.c **** *
 131:.\Generated_Source\PSoC5/shift_irq.c **** *
 132:.\Generated_Source\PSoC5/shift_irq.c **** *
 133:.\Generated_Source\PSoC5/shift_irq.c **** * Parameters:  
 134:.\Generated_Source\PSoC5/shift_irq.c **** *
 135:.\Generated_Source\PSoC5/shift_irq.c **** *
 136:.\Generated_Source\PSoC5/shift_irq.c **** * Return:
ARM GAS  C:\Users\SUZUKI~1\AppData\Local\Temp\ccNhLsfy.s 			page 4


 137:.\Generated_Source\PSoC5/shift_irq.c **** *   void.
 138:.\Generated_Source\PSoC5/shift_irq.c **** *
 139:.\Generated_Source\PSoC5/shift_irq.c **** *******************************************************************************/
 140:.\Generated_Source\PSoC5/shift_irq.c **** CY_ISR(shift_irq_Interrupt)
 141:.\Generated_Source\PSoC5/shift_irq.c **** {
  32              		.loc 1 141 0
  33              		.cfi_startproc
  34              		@ args = 0, pretend = 0, frame = 0
  35              		@ frame_needed = 0, uses_anonymous_args = 0
  36              		@ link register save eliminated.
 142:.\Generated_Source\PSoC5/shift_irq.c ****     /*  Place your Interrupt code here. */
 143:.\Generated_Source\PSoC5/shift_irq.c ****     /* `#START shift_irq_Interrupt` */
 144:.\Generated_Source\PSoC5/shift_irq.c **** 
 145:.\Generated_Source\PSoC5/shift_irq.c ****     /* `#END` */
 146:.\Generated_Source\PSoC5/shift_irq.c **** }
  37              		.loc 1 146 0
  38 0000 7047     		bx	lr
  39              		.cfi_endproc
  40              	.LFE3:
  41              		.size	shift_irq_Interrupt, .-shift_irq_Interrupt
  42              		.section	.text.shift_irq_SetVector,"ax",%progbits
  43              		.align	1
  44              		.global	shift_irq_SetVector
  45              		.thumb
  46              		.thumb_func
  47              		.type	shift_irq_SetVector, %function
  48              	shift_irq_SetVector:
  49              	.LFB4:
 147:.\Generated_Source\PSoC5/shift_irq.c **** 
 148:.\Generated_Source\PSoC5/shift_irq.c **** /*******************************************************************************
 149:.\Generated_Source\PSoC5/shift_irq.c **** * Function Name: shift_irq_SetVector
 150:.\Generated_Source\PSoC5/shift_irq.c **** ********************************************************************************
 151:.\Generated_Source\PSoC5/shift_irq.c **** * Summary:
 152:.\Generated_Source\PSoC5/shift_irq.c **** *   Change the ISR vector for the Interrupt. Note calling shift_irq_Start
 153:.\Generated_Source\PSoC5/shift_irq.c **** *   will override any effect this method would have had. To set the vector before
 154:.\Generated_Source\PSoC5/shift_irq.c **** *   the component has been started use shift_irq_StartEx instead.
 155:.\Generated_Source\PSoC5/shift_irq.c **** *
 156:.\Generated_Source\PSoC5/shift_irq.c **** *
 157:.\Generated_Source\PSoC5/shift_irq.c **** * Parameters:
 158:.\Generated_Source\PSoC5/shift_irq.c **** *   address: Address of the ISR to set in the interrupt vector table.
 159:.\Generated_Source\PSoC5/shift_irq.c **** *
 160:.\Generated_Source\PSoC5/shift_irq.c **** *
 161:.\Generated_Source\PSoC5/shift_irq.c **** * Return:
 162:.\Generated_Source\PSoC5/shift_irq.c **** *   void.
 163:.\Generated_Source\PSoC5/shift_irq.c **** *
 164:.\Generated_Source\PSoC5/shift_irq.c **** *
 165:.\Generated_Source\PSoC5/shift_irq.c **** *******************************************************************************/
 166:.\Generated_Source\PSoC5/shift_irq.c **** void shift_irq_SetVector(cyisraddress address) 
 167:.\Generated_Source\PSoC5/shift_irq.c **** {
  50              		.loc 1 167 0
  51              		.cfi_startproc
  52              		@ args = 0, pretend = 0, frame = 0
  53              		@ frame_needed = 0, uses_anonymous_args = 0
  54              		@ link register save eliminated.
  55              	.LVL0:
 168:.\Generated_Source\PSoC5/shift_irq.c ****     cyisraddress * ramVectorTable;
 169:.\Generated_Source\PSoC5/shift_irq.c **** 
ARM GAS  C:\Users\SUZUKI~1\AppData\Local\Temp\ccNhLsfy.s 			page 5


 170:.\Generated_Source\PSoC5/shift_irq.c ****     ramVectorTable = (cyisraddress *) *CYINT_VECT_TABLE;
  56              		.loc 1 170 0
  57 0000 014B     		ldr	r3, .L5
  58 0002 1B68     		ldr	r3, [r3, #0]
  59              	.LVL1:
 171:.\Generated_Source\PSoC5/shift_irq.c **** 
 172:.\Generated_Source\PSoC5/shift_irq.c ****     ramVectorTable[CYINT_IRQ_BASE + shift_irq__INTC_NUMBER] = address;
  60              		.loc 1 172 0
  61 0004 1865     		str	r0, [r3, #80]
 173:.\Generated_Source\PSoC5/shift_irq.c **** }
  62              		.loc 1 173 0
  63 0006 7047     		bx	lr
  64              	.L6:
  65              		.align	2
  66              	.L5:
  67 0008 08ED00E0 		.word	-536810232
  68              		.cfi_endproc
  69              	.LFE4:
  70              		.size	shift_irq_SetVector, .-shift_irq_SetVector
  71              		.section	.text.shift_irq_GetVector,"ax",%progbits
  72              		.align	1
  73              		.global	shift_irq_GetVector
  74              		.thumb
  75              		.thumb_func
  76              		.type	shift_irq_GetVector, %function
  77              	shift_irq_GetVector:
  78              	.LFB5:
 174:.\Generated_Source\PSoC5/shift_irq.c **** 
 175:.\Generated_Source\PSoC5/shift_irq.c **** /*******************************************************************************
 176:.\Generated_Source\PSoC5/shift_irq.c **** * Function Name: shift_irq_GetVector
 177:.\Generated_Source\PSoC5/shift_irq.c **** ********************************************************************************
 178:.\Generated_Source\PSoC5/shift_irq.c **** * Summary:
 179:.\Generated_Source\PSoC5/shift_irq.c **** *   Gets the "address" of the current ISR vector for the Interrupt.
 180:.\Generated_Source\PSoC5/shift_irq.c **** *
 181:.\Generated_Source\PSoC5/shift_irq.c **** *
 182:.\Generated_Source\PSoC5/shift_irq.c **** * Parameters:
 183:.\Generated_Source\PSoC5/shift_irq.c **** *   void.
 184:.\Generated_Source\PSoC5/shift_irq.c **** *
 185:.\Generated_Source\PSoC5/shift_irq.c **** *
 186:.\Generated_Source\PSoC5/shift_irq.c **** * Return:
 187:.\Generated_Source\PSoC5/shift_irq.c **** *   Address of the ISR in the interrupt vector table.
 188:.\Generated_Source\PSoC5/shift_irq.c **** *
 189:.\Generated_Source\PSoC5/shift_irq.c **** *
 190:.\Generated_Source\PSoC5/shift_irq.c **** *******************************************************************************/
 191:.\Generated_Source\PSoC5/shift_irq.c **** cyisraddress shift_irq_GetVector(void) 
 192:.\Generated_Source\PSoC5/shift_irq.c **** {
  79              		.loc 1 192 0
  80              		.cfi_startproc
  81              		@ args = 0, pretend = 0, frame = 0
  82              		@ frame_needed = 0, uses_anonymous_args = 0
  83              		@ link register save eliminated.
 193:.\Generated_Source\PSoC5/shift_irq.c ****     cyisraddress * ramVectorTable;
 194:.\Generated_Source\PSoC5/shift_irq.c **** 
 195:.\Generated_Source\PSoC5/shift_irq.c ****     ramVectorTable = (cyisraddress *) *CYINT_VECT_TABLE;
  84              		.loc 1 195 0
  85 0000 014B     		ldr	r3, .L9
  86 0002 1B68     		ldr	r3, [r3, #0]
ARM GAS  C:\Users\SUZUKI~1\AppData\Local\Temp\ccNhLsfy.s 			page 6


  87              	.LVL2:
 196:.\Generated_Source\PSoC5/shift_irq.c **** 
 197:.\Generated_Source\PSoC5/shift_irq.c ****     return ramVectorTable[CYINT_IRQ_BASE + shift_irq__INTC_NUMBER];
 198:.\Generated_Source\PSoC5/shift_irq.c **** }
  88              		.loc 1 198 0
  89 0004 186D     		ldr	r0, [r3, #80]
  90 0006 7047     		bx	lr
  91              	.L10:
  92              		.align	2
  93              	.L9:
  94 0008 08ED00E0 		.word	-536810232
  95              		.cfi_endproc
  96              	.LFE5:
  97              		.size	shift_irq_GetVector, .-shift_irq_GetVector
  98              		.section	.text.shift_irq_SetPriority,"ax",%progbits
  99              		.align	1
 100              		.global	shift_irq_SetPriority
 101              		.thumb
 102              		.thumb_func
 103              		.type	shift_irq_SetPriority, %function
 104              	shift_irq_SetPriority:
 105              	.LFB6:
 199:.\Generated_Source\PSoC5/shift_irq.c **** 
 200:.\Generated_Source\PSoC5/shift_irq.c **** /*******************************************************************************
 201:.\Generated_Source\PSoC5/shift_irq.c **** * Function Name: shift_irq_SetPriority
 202:.\Generated_Source\PSoC5/shift_irq.c **** ********************************************************************************
 203:.\Generated_Source\PSoC5/shift_irq.c **** * Summary:
 204:.\Generated_Source\PSoC5/shift_irq.c **** *   Sets the Priority of the Interrupt. Note calling shift_irq_Start
 205:.\Generated_Source\PSoC5/shift_irq.c **** *   or shift_irq_StartEx will override any effect this method would have had. 
 206:.\Generated_Source\PSoC5/shift_irq.c **** *	This method should only be called after shift_irq_Start or 
 207:.\Generated_Source\PSoC5/shift_irq.c **** *	shift_irq_StartEx has been called. To set the initial
 208:.\Generated_Source\PSoC5/shift_irq.c **** *	priority for the component use the cydwr file in the tool.
 209:.\Generated_Source\PSoC5/shift_irq.c **** *
 210:.\Generated_Source\PSoC5/shift_irq.c **** *
 211:.\Generated_Source\PSoC5/shift_irq.c **** * Parameters:
 212:.\Generated_Source\PSoC5/shift_irq.c **** *   priority: Priority of the interrupt. 0 - 7, 0 being the highest.
 213:.\Generated_Source\PSoC5/shift_irq.c **** *
 214:.\Generated_Source\PSoC5/shift_irq.c **** *
 215:.\Generated_Source\PSoC5/shift_irq.c **** * Return:
 216:.\Generated_Source\PSoC5/shift_irq.c **** *   void.
 217:.\Generated_Source\PSoC5/shift_irq.c **** *
 218:.\Generated_Source\PSoC5/shift_irq.c **** *
 219:.\Generated_Source\PSoC5/shift_irq.c **** *******************************************************************************/
 220:.\Generated_Source\PSoC5/shift_irq.c **** void shift_irq_SetPriority(uint8 priority) 
 221:.\Generated_Source\PSoC5/shift_irq.c **** {
 106              		.loc 1 221 0
 107              		.cfi_startproc
 108              		@ args = 0, pretend = 0, frame = 0
 109              		@ frame_needed = 0, uses_anonymous_args = 0
 110              		@ link register save eliminated.
 111              	.LVL3:
 222:.\Generated_Source\PSoC5/shift_irq.c ****     *shift_irq_INTC_PRIOR = priority << 5;
 112              		.loc 1 222 0
 113 0000 4001     		lsls	r0, r0, #5
 114              	.LVL4:
 115 0002 024B     		ldr	r3, .L13
 116 0004 C0B2     		uxtb	r0, r0
ARM GAS  C:\Users\SUZUKI~1\AppData\Local\Temp\ccNhLsfy.s 			page 7


 117 0006 1870     		strb	r0, [r3, #0]
 223:.\Generated_Source\PSoC5/shift_irq.c **** }
 118              		.loc 1 223 0
 119 0008 7047     		bx	lr
 120              	.L14:
 121 000a 00BF     		.align	2
 122              	.L13:
 123 000c 04E400E0 		.word	-536812540
 124              		.cfi_endproc
 125              	.LFE6:
 126              		.size	shift_irq_SetPriority, .-shift_irq_SetPriority
 127              		.section	.text.shift_irq_GetPriority,"ax",%progbits
 128              		.align	1
 129              		.global	shift_irq_GetPriority
 130              		.thumb
 131              		.thumb_func
 132              		.type	shift_irq_GetPriority, %function
 133              	shift_irq_GetPriority:
 134              	.LFB7:
 224:.\Generated_Source\PSoC5/shift_irq.c **** 
 225:.\Generated_Source\PSoC5/shift_irq.c **** /*******************************************************************************
 226:.\Generated_Source\PSoC5/shift_irq.c **** * Function Name: shift_irq_GetPriority
 227:.\Generated_Source\PSoC5/shift_irq.c **** ********************************************************************************
 228:.\Generated_Source\PSoC5/shift_irq.c **** * Summary:
 229:.\Generated_Source\PSoC5/shift_irq.c **** *   Gets the Priority of the Interrupt.
 230:.\Generated_Source\PSoC5/shift_irq.c **** *
 231:.\Generated_Source\PSoC5/shift_irq.c **** *
 232:.\Generated_Source\PSoC5/shift_irq.c **** * Parameters:
 233:.\Generated_Source\PSoC5/shift_irq.c **** *   void.
 234:.\Generated_Source\PSoC5/shift_irq.c **** *
 235:.\Generated_Source\PSoC5/shift_irq.c **** *
 236:.\Generated_Source\PSoC5/shift_irq.c **** * Return:
 237:.\Generated_Source\PSoC5/shift_irq.c **** *   Priority of the interrupt. 0 - 7, 0 being the highest.
 238:.\Generated_Source\PSoC5/shift_irq.c **** *
 239:.\Generated_Source\PSoC5/shift_irq.c **** *
 240:.\Generated_Source\PSoC5/shift_irq.c **** *******************************************************************************/
 241:.\Generated_Source\PSoC5/shift_irq.c **** uint8 shift_irq_GetPriority(void) 
 242:.\Generated_Source\PSoC5/shift_irq.c **** {
 135              		.loc 1 242 0
 136              		.cfi_startproc
 137              		@ args = 0, pretend = 0, frame = 0
 138              		@ frame_needed = 0, uses_anonymous_args = 0
 139              		@ link register save eliminated.
 243:.\Generated_Source\PSoC5/shift_irq.c ****     uint8 priority;
 244:.\Generated_Source\PSoC5/shift_irq.c **** 
 245:.\Generated_Source\PSoC5/shift_irq.c **** 
 246:.\Generated_Source\PSoC5/shift_irq.c ****     priority = *shift_irq_INTC_PRIOR >> 5;
 140              		.loc 1 246 0
 141 0000 014B     		ldr	r3, .L17
 142 0002 1878     		ldrb	r0, [r3, #0]	@ zero_extendqisi2
 247:.\Generated_Source\PSoC5/shift_irq.c **** 
 248:.\Generated_Source\PSoC5/shift_irq.c ****     return priority;
 249:.\Generated_Source\PSoC5/shift_irq.c **** }
 143              		.loc 1 249 0
 144 0004 4009     		lsrs	r0, r0, #5
 145 0006 7047     		bx	lr
 146              	.L18:
ARM GAS  C:\Users\SUZUKI~1\AppData\Local\Temp\ccNhLsfy.s 			page 8


 147              		.align	2
 148              	.L17:
 149 0008 04E400E0 		.word	-536812540
 150              		.cfi_endproc
 151              	.LFE7:
 152              		.size	shift_irq_GetPriority, .-shift_irq_GetPriority
 153              		.section	.text.shift_irq_Enable,"ax",%progbits
 154              		.align	1
 155              		.global	shift_irq_Enable
 156              		.thumb
 157              		.thumb_func
 158              		.type	shift_irq_Enable, %function
 159              	shift_irq_Enable:
 160              	.LFB8:
 250:.\Generated_Source\PSoC5/shift_irq.c **** 
 251:.\Generated_Source\PSoC5/shift_irq.c **** /*******************************************************************************
 252:.\Generated_Source\PSoC5/shift_irq.c **** * Function Name: shift_irq_Enable
 253:.\Generated_Source\PSoC5/shift_irq.c **** ********************************************************************************
 254:.\Generated_Source\PSoC5/shift_irq.c **** * Summary:
 255:.\Generated_Source\PSoC5/shift_irq.c **** *   Enables the interrupt.
 256:.\Generated_Source\PSoC5/shift_irq.c **** *
 257:.\Generated_Source\PSoC5/shift_irq.c **** *
 258:.\Generated_Source\PSoC5/shift_irq.c **** * Parameters:
 259:.\Generated_Source\PSoC5/shift_irq.c **** *   void.
 260:.\Generated_Source\PSoC5/shift_irq.c **** *
 261:.\Generated_Source\PSoC5/shift_irq.c **** *
 262:.\Generated_Source\PSoC5/shift_irq.c **** * Return:
 263:.\Generated_Source\PSoC5/shift_irq.c **** *   void.
 264:.\Generated_Source\PSoC5/shift_irq.c **** *
 265:.\Generated_Source\PSoC5/shift_irq.c **** *
 266:.\Generated_Source\PSoC5/shift_irq.c **** *******************************************************************************/
 267:.\Generated_Source\PSoC5/shift_irq.c **** void shift_irq_Enable(void) 
 268:.\Generated_Source\PSoC5/shift_irq.c **** {
 161              		.loc 1 268 0
 162              		.cfi_startproc
 163              		@ args = 0, pretend = 0, frame = 0
 164              		@ frame_needed = 0, uses_anonymous_args = 0
 165              		@ link register save eliminated.
 269:.\Generated_Source\PSoC5/shift_irq.c ****     /* Enable the general interrupt. */
 270:.\Generated_Source\PSoC5/shift_irq.c ****     *shift_irq_INTC_SET_EN = shift_irq__INTC_MASK;
 166              		.loc 1 270 0
 167 0000 014B     		ldr	r3, .L21
 168 0002 1022     		movs	r2, #16
 169 0004 1A60     		str	r2, [r3, #0]
 271:.\Generated_Source\PSoC5/shift_irq.c **** }
 170              		.loc 1 271 0
 171 0006 7047     		bx	lr
 172              	.L22:
 173              		.align	2
 174              	.L21:
 175 0008 00E100E0 		.word	-536813312
 176              		.cfi_endproc
 177              	.LFE8:
 178              		.size	shift_irq_Enable, .-shift_irq_Enable
 179              		.section	.text.shift_irq_GetState,"ax",%progbits
 180              		.align	1
 181              		.global	shift_irq_GetState
ARM GAS  C:\Users\SUZUKI~1\AppData\Local\Temp\ccNhLsfy.s 			page 9


 182              		.thumb
 183              		.thumb_func
 184              		.type	shift_irq_GetState, %function
 185              	shift_irq_GetState:
 186              	.LFB9:
 272:.\Generated_Source\PSoC5/shift_irq.c **** 
 273:.\Generated_Source\PSoC5/shift_irq.c **** /*******************************************************************************
 274:.\Generated_Source\PSoC5/shift_irq.c **** * Function Name: shift_irq_GetState
 275:.\Generated_Source\PSoC5/shift_irq.c **** ********************************************************************************
 276:.\Generated_Source\PSoC5/shift_irq.c **** * Summary:
 277:.\Generated_Source\PSoC5/shift_irq.c **** *   Gets the state (enabled, disabled) of the Interrupt.
 278:.\Generated_Source\PSoC5/shift_irq.c **** *
 279:.\Generated_Source\PSoC5/shift_irq.c **** *
 280:.\Generated_Source\PSoC5/shift_irq.c **** * Parameters:
 281:.\Generated_Source\PSoC5/shift_irq.c **** *   void.
 282:.\Generated_Source\PSoC5/shift_irq.c **** *
 283:.\Generated_Source\PSoC5/shift_irq.c **** *
 284:.\Generated_Source\PSoC5/shift_irq.c **** * Return:
 285:.\Generated_Source\PSoC5/shift_irq.c **** *   1 if enabled, 0 if disabled.
 286:.\Generated_Source\PSoC5/shift_irq.c **** *
 287:.\Generated_Source\PSoC5/shift_irq.c **** *
 288:.\Generated_Source\PSoC5/shift_irq.c **** *******************************************************************************/
 289:.\Generated_Source\PSoC5/shift_irq.c **** uint8 shift_irq_GetState(void) 
 290:.\Generated_Source\PSoC5/shift_irq.c **** {
 187              		.loc 1 290 0
 188              		.cfi_startproc
 189              		@ args = 0, pretend = 0, frame = 0
 190              		@ frame_needed = 0, uses_anonymous_args = 0
 191              		@ link register save eliminated.
 291:.\Generated_Source\PSoC5/shift_irq.c ****     /* Get the state of the general interrupt. */
 292:.\Generated_Source\PSoC5/shift_irq.c ****     return (*shift_irq_INTC_SET_EN & shift_irq__INTC_MASK) ? 1:0;
 192              		.loc 1 292 0
 193 0000 024B     		ldr	r3, .L25
 194 0002 1868     		ldr	r0, [r3, #0]
 195 0004 0009     		lsrs	r0, r0, #4
 293:.\Generated_Source\PSoC5/shift_irq.c **** }
 196              		.loc 1 293 0
 197 0006 00F00100 		and	r0, r0, #1
 198 000a 7047     		bx	lr
 199              	.L26:
 200              		.align	2
 201              	.L25:
 202 000c 00E100E0 		.word	-536813312
 203              		.cfi_endproc
 204              	.LFE9:
 205              		.size	shift_irq_GetState, .-shift_irq_GetState
 206              		.section	.text.shift_irq_Disable,"ax",%progbits
 207              		.align	1
 208              		.global	shift_irq_Disable
 209              		.thumb
 210              		.thumb_func
 211              		.type	shift_irq_Disable, %function
 212              	shift_irq_Disable:
 213              	.LFB10:
 294:.\Generated_Source\PSoC5/shift_irq.c **** 
 295:.\Generated_Source\PSoC5/shift_irq.c **** /*******************************************************************************
 296:.\Generated_Source\PSoC5/shift_irq.c **** * Function Name: shift_irq_Disable
ARM GAS  C:\Users\SUZUKI~1\AppData\Local\Temp\ccNhLsfy.s 			page 10


 297:.\Generated_Source\PSoC5/shift_irq.c **** ********************************************************************************
 298:.\Generated_Source\PSoC5/shift_irq.c **** * Summary:
 299:.\Generated_Source\PSoC5/shift_irq.c **** *   Disables the Interrupt.
 300:.\Generated_Source\PSoC5/shift_irq.c **** *
 301:.\Generated_Source\PSoC5/shift_irq.c **** *
 302:.\Generated_Source\PSoC5/shift_irq.c **** * Parameters:
 303:.\Generated_Source\PSoC5/shift_irq.c **** *   void.
 304:.\Generated_Source\PSoC5/shift_irq.c **** *
 305:.\Generated_Source\PSoC5/shift_irq.c **** *
 306:.\Generated_Source\PSoC5/shift_irq.c **** * Return:
 307:.\Generated_Source\PSoC5/shift_irq.c **** *   void.
 308:.\Generated_Source\PSoC5/shift_irq.c **** *
 309:.\Generated_Source\PSoC5/shift_irq.c **** *
 310:.\Generated_Source\PSoC5/shift_irq.c **** *******************************************************************************/
 311:.\Generated_Source\PSoC5/shift_irq.c **** void shift_irq_Disable(void) 
 312:.\Generated_Source\PSoC5/shift_irq.c **** {
 214              		.loc 1 312 0
 215              		.cfi_startproc
 216              		@ args = 0, pretend = 0, frame = 0
 217              		@ frame_needed = 0, uses_anonymous_args = 0
 218              		@ link register save eliminated.
 313:.\Generated_Source\PSoC5/shift_irq.c ****     /* Disable the general interrupt. */
 314:.\Generated_Source\PSoC5/shift_irq.c ****     *shift_irq_INTC_CLR_EN = shift_irq__INTC_MASK;
 219              		.loc 1 314 0
 220 0000 014B     		ldr	r3, .L29
 221 0002 1022     		movs	r2, #16
 222 0004 1A60     		str	r2, [r3, #0]
 315:.\Generated_Source\PSoC5/shift_irq.c **** }
 223              		.loc 1 315 0
 224 0006 7047     		bx	lr
 225              	.L30:
 226              		.align	2
 227              	.L29:
 228 0008 80E100E0 		.word	-536813184
 229              		.cfi_endproc
 230              	.LFE10:
 231              		.size	shift_irq_Disable, .-shift_irq_Disable
 232              		.section	.text.shift_irq_Stop,"ax",%progbits
 233              		.align	1
 234              		.global	shift_irq_Stop
 235              		.thumb
 236              		.thumb_func
 237              		.type	shift_irq_Stop, %function
 238              	shift_irq_Stop:
 239              	.LFB2:
 240              		.loc 1 114 0
 241              		.cfi_startproc
 242              		@ args = 0, pretend = 0, frame = 0
 243              		@ frame_needed = 0, uses_anonymous_args = 0
 244 0000 10B5     		push	{r4, lr}
 245              	.LCFI0:
 246              		.cfi_def_cfa_offset 8
 247              		.loc 1 116 0
 248              		.cfi_offset 14, -4
 249              		.cfi_offset 4, -8
 250 0002 FFF7FEFF 		bl	shift_irq_Disable
 251              		.loc 1 119 0
ARM GAS  C:\Users\SUZUKI~1\AppData\Local\Temp\ccNhLsfy.s 			page 11


 252 0006 0248     		ldr	r0, .L33
 253              		.loc 1 120 0
 254 0008 BDE81040 		pop	{r4, lr}
 255              		.loc 1 119 0
 256 000c FFF7FEBF 		b	shift_irq_SetVector
 257              	.L34:
 258              		.align	2
 259              	.L33:
 260 0010 00000000 		.word	IntDefaultHandler
 261              		.cfi_endproc
 262              	.LFE2:
 263              		.size	shift_irq_Stop, .-shift_irq_Stop
 264              		.section	.text.shift_irq_StartEx,"ax",%progbits
 265              		.align	1
 266              		.global	shift_irq_StartEx
 267              		.thumb
 268              		.thumb_func
 269              		.type	shift_irq_StartEx, %function
 270              	shift_irq_StartEx:
 271              	.LFB1:
 272              		.loc 1 86 0
 273              		.cfi_startproc
 274              		@ args = 0, pretend = 0, frame = 0
 275              		@ frame_needed = 0, uses_anonymous_args = 0
 276              	.LVL5:
 277 0000 10B5     		push	{r4, lr}
 278              	.LCFI1:
 279              		.cfi_def_cfa_offset 8
 280              		.loc 1 86 0
 281 0002 0446     		mov	r4, r0
 282              		.cfi_offset 14, -4
 283              		.cfi_offset 4, -8
 284              		.loc 1 88 0
 285 0004 FFF7FEFF 		bl	shift_irq_Disable
 286              	.LVL6:
 287              		.loc 1 91 0
 288 0008 2046     		mov	r0, r4
 289 000a FFF7FEFF 		bl	shift_irq_SetVector
 290              		.loc 1 94 0
 291 000e 0720     		movs	r0, #7
 292 0010 FFF7FEFF 		bl	shift_irq_SetPriority
 293              		.loc 1 98 0
 294 0014 BDE81040 		pop	{r4, lr}
 295              		.loc 1 97 0
 296 0018 FFF7FEBF 		b	shift_irq_Enable
 297              		.cfi_endproc
 298              	.LFE1:
 299              		.size	shift_irq_StartEx, .-shift_irq_StartEx
 300              		.section	.text.shift_irq_Start,"ax",%progbits
 301              		.align	1
 302              		.global	shift_irq_Start
 303              		.thumb
 304              		.thumb_func
 305              		.type	shift_irq_Start, %function
 306              	shift_irq_Start:
 307              	.LFB0:
 308              		.loc 1 57 0
ARM GAS  C:\Users\SUZUKI~1\AppData\Local\Temp\ccNhLsfy.s 			page 12


 309              		.cfi_startproc
 310              		@ args = 0, pretend = 0, frame = 0
 311              		@ frame_needed = 0, uses_anonymous_args = 0
 312 0000 10B5     		push	{r4, lr}
 313              	.LCFI2:
 314              		.cfi_def_cfa_offset 8
 315              		.loc 1 59 0
 316              		.cfi_offset 14, -4
 317              		.cfi_offset 4, -8
 318 0002 FFF7FEFF 		bl	shift_irq_Disable
 319              		.loc 1 62 0
 320 0006 0548     		ldr	r0, .L39
 321 0008 FFF7FEFF 		bl	shift_irq_SetVector
 322              		.loc 1 65 0
 323 000c 0720     		movs	r0, #7
 324 000e FFF7FEFF 		bl	shift_irq_SetPriority
 325              		.loc 1 69 0
 326 0012 BDE81040 		pop	{r4, lr}
 327              		.loc 1 68 0
 328 0016 FFF7FEBF 		b	shift_irq_Enable
 329              	.L40:
 330 001a 00BF     		.align	2
 331              	.L39:
 332 001c 00000000 		.word	shift_irq_Interrupt
 333              		.cfi_endproc
 334              	.LFE0:
 335              		.size	shift_irq_Start, .-shift_irq_Start
 336              		.section	.text.shift_irq_SetPending,"ax",%progbits
 337              		.align	1
 338              		.global	shift_irq_SetPending
 339              		.thumb
 340              		.thumb_func
 341              		.type	shift_irq_SetPending, %function
 342              	shift_irq_SetPending:
 343              	.LFB11:
 316:.\Generated_Source\PSoC5/shift_irq.c **** 
 317:.\Generated_Source\PSoC5/shift_irq.c **** /*******************************************************************************
 318:.\Generated_Source\PSoC5/shift_irq.c **** * Function Name: shift_irq_SetPending
 319:.\Generated_Source\PSoC5/shift_irq.c **** ********************************************************************************
 320:.\Generated_Source\PSoC5/shift_irq.c **** * Summary:
 321:.\Generated_Source\PSoC5/shift_irq.c **** *   Causes the Interrupt to enter the pending state, a software method of
 322:.\Generated_Source\PSoC5/shift_irq.c **** *   generating the interrupt.
 323:.\Generated_Source\PSoC5/shift_irq.c **** *
 324:.\Generated_Source\PSoC5/shift_irq.c **** *
 325:.\Generated_Source\PSoC5/shift_irq.c **** * Parameters:
 326:.\Generated_Source\PSoC5/shift_irq.c **** *   void.
 327:.\Generated_Source\PSoC5/shift_irq.c **** *
 328:.\Generated_Source\PSoC5/shift_irq.c **** *
 329:.\Generated_Source\PSoC5/shift_irq.c **** * Return:
 330:.\Generated_Source\PSoC5/shift_irq.c **** *   void.
 331:.\Generated_Source\PSoC5/shift_irq.c **** *
 332:.\Generated_Source\PSoC5/shift_irq.c **** *
 333:.\Generated_Source\PSoC5/shift_irq.c **** *******************************************************************************/
 334:.\Generated_Source\PSoC5/shift_irq.c **** void shift_irq_SetPending(void) 
 335:.\Generated_Source\PSoC5/shift_irq.c **** {
 344              		.loc 1 335 0
 345              		.cfi_startproc
ARM GAS  C:\Users\SUZUKI~1\AppData\Local\Temp\ccNhLsfy.s 			page 13


 346              		@ args = 0, pretend = 0, frame = 0
 347              		@ frame_needed = 0, uses_anonymous_args = 0
 348              		@ link register save eliminated.
 336:.\Generated_Source\PSoC5/shift_irq.c ****     *shift_irq_INTC_SET_PD = shift_irq__INTC_MASK;
 349              		.loc 1 336 0
 350 0000 014B     		ldr	r3, .L43
 351 0002 1022     		movs	r2, #16
 352 0004 1A60     		str	r2, [r3, #0]
 337:.\Generated_Source\PSoC5/shift_irq.c **** }
 353              		.loc 1 337 0
 354 0006 7047     		bx	lr
 355              	.L44:
 356              		.align	2
 357              	.L43:
 358 0008 00E200E0 		.word	-536813056
 359              		.cfi_endproc
 360              	.LFE11:
 361              		.size	shift_irq_SetPending, .-shift_irq_SetPending
 362              		.section	.text.shift_irq_ClearPending,"ax",%progbits
 363              		.align	1
 364              		.global	shift_irq_ClearPending
 365              		.thumb
 366              		.thumb_func
 367              		.type	shift_irq_ClearPending, %function
 368              	shift_irq_ClearPending:
 369              	.LFB12:
 338:.\Generated_Source\PSoC5/shift_irq.c **** 
 339:.\Generated_Source\PSoC5/shift_irq.c **** /*******************************************************************************
 340:.\Generated_Source\PSoC5/shift_irq.c **** * Function Name: shift_irq_ClearPending
 341:.\Generated_Source\PSoC5/shift_irq.c **** ********************************************************************************
 342:.\Generated_Source\PSoC5/shift_irq.c **** * Summary:
 343:.\Generated_Source\PSoC5/shift_irq.c **** *   Clears a pending interrupt.
 344:.\Generated_Source\PSoC5/shift_irq.c **** *
 345:.\Generated_Source\PSoC5/shift_irq.c **** * Parameters:
 346:.\Generated_Source\PSoC5/shift_irq.c **** *   void.
 347:.\Generated_Source\PSoC5/shift_irq.c **** *
 348:.\Generated_Source\PSoC5/shift_irq.c **** *
 349:.\Generated_Source\PSoC5/shift_irq.c **** * Return:
 350:.\Generated_Source\PSoC5/shift_irq.c **** *   void.
 351:.\Generated_Source\PSoC5/shift_irq.c **** *
 352:.\Generated_Source\PSoC5/shift_irq.c **** *
 353:.\Generated_Source\PSoC5/shift_irq.c **** *******************************************************************************/
 354:.\Generated_Source\PSoC5/shift_irq.c **** void shift_irq_ClearPending(void) 
 355:.\Generated_Source\PSoC5/shift_irq.c **** {
 370              		.loc 1 355 0
 371              		.cfi_startproc
 372              		@ args = 0, pretend = 0, frame = 0
 373              		@ frame_needed = 0, uses_anonymous_args = 0
 374              		@ link register save eliminated.
 356:.\Generated_Source\PSoC5/shift_irq.c ****     *shift_irq_INTC_CLR_PD = shift_irq__INTC_MASK;
 375              		.loc 1 356 0
 376 0000 014B     		ldr	r3, .L47
 377 0002 1022     		movs	r2, #16
 378 0004 1A60     		str	r2, [r3, #0]
 357:.\Generated_Source\PSoC5/shift_irq.c **** }
 379              		.loc 1 357 0
 380 0006 7047     		bx	lr
ARM GAS  C:\Users\SUZUKI~1\AppData\Local\Temp\ccNhLsfy.s 			page 14


 381              	.L48:
 382              		.align	2
 383              	.L47:
 384 0008 80E200E0 		.word	-536812928
 385              		.cfi_endproc
 386              	.LFE12:
 387              		.size	shift_irq_ClearPending, .-shift_irq_ClearPending
 388              		.text
 389              	.Letext0:
 390              		.section	.debug_loc,"",%progbits
 391              	.Ldebug_loc0:
 392              	.LLST4:
 393 0000 00000000 		.4byte	.LVL3
 394 0004 02000000 		.4byte	.LVL4
 395 0008 0100     		.2byte	0x1
 396 000a 50       		.byte	0x50
 397 000b 00000000 		.4byte	0x0
 398 000f 00000000 		.4byte	0x0
 399              	.LLST9:
 400 0013 00000000 		.4byte	.LFB2
 401 0017 02000000 		.4byte	.LCFI0
 402 001b 0100     		.2byte	0x1
 403 001d 5D       		.byte	0x5d
 404 001e 02000000 		.4byte	.LCFI0
 405 0022 14000000 		.4byte	.LFE2
 406 0026 0200     		.2byte	0x2
 407 0028 7D       		.byte	0x7d
 408 0029 08       		.sleb128 8
 409 002a 00000000 		.4byte	0x0
 410 002e 00000000 		.4byte	0x0
 411              	.LLST10:
 412 0032 00000000 		.4byte	.LFB1
 413 0036 02000000 		.4byte	.LCFI1
 414 003a 0100     		.2byte	0x1
 415 003c 5D       		.byte	0x5d
 416 003d 02000000 		.4byte	.LCFI1
 417 0041 1C000000 		.4byte	.LFE1
 418 0045 0200     		.2byte	0x2
 419 0047 7D       		.byte	0x7d
 420 0048 08       		.sleb128 8
 421 0049 00000000 		.4byte	0x0
 422 004d 00000000 		.4byte	0x0
 423              	.LLST11:
 424 0051 00000000 		.4byte	.LVL5
 425 0055 08000000 		.4byte	.LVL6
 426 0059 0100     		.2byte	0x1
 427 005b 50       		.byte	0x50
 428 005c 08000000 		.4byte	.LVL6
 429 0060 1C000000 		.4byte	.LFE1
 430 0064 0100     		.2byte	0x1
 431 0066 54       		.byte	0x54
 432 0067 00000000 		.4byte	0x0
 433 006b 00000000 		.4byte	0x0
 434              	.LLST12:
 435 006f 00000000 		.4byte	.LFB0
 436 0073 02000000 		.4byte	.LCFI2
 437 0077 0100     		.2byte	0x1
ARM GAS  C:\Users\SUZUKI~1\AppData\Local\Temp\ccNhLsfy.s 			page 15


 438 0079 5D       		.byte	0x5d
 439 007a 02000000 		.4byte	.LCFI2
 440 007e 20000000 		.4byte	.LFE0
 441 0082 0200     		.2byte	0x2
 442 0084 7D       		.byte	0x7d
 443 0085 08       		.sleb128 8
 444 0086 00000000 		.4byte	0x0
 445 008a 00000000 		.4byte	0x0
 446              		.file 2 "./Generated_Source/PSoC5/cytypes.h"
 447              		.section	.debug_info
 448 0000 12020000 		.4byte	0x212
 449 0004 0200     		.2byte	0x2
 450 0006 00000000 		.4byte	.Ldebug_abbrev0
 451 000a 04       		.byte	0x4
 452 000b 01       		.uleb128 0x1
 453 000c 95010000 		.4byte	.LASF27
 454 0010 01       		.byte	0x1
 455 0011 70010000 		.4byte	.LASF28
 456 0015 21000000 		.4byte	.LASF29
 457 0019 00000000 		.4byte	0x0
 458 001d 00000000 		.4byte	0x0
 459 0021 00000000 		.4byte	.Ldebug_ranges0+0x0
 460 0025 00000000 		.4byte	.Ldebug_line0
 461 0029 02       		.uleb128 0x2
 462 002a 01       		.byte	0x1
 463 002b 06       		.byte	0x6
 464 002c EF010000 		.4byte	.LASF0
 465 0030 02       		.uleb128 0x2
 466 0031 01       		.byte	0x1
 467 0032 08       		.byte	0x8
 468 0033 78000000 		.4byte	.LASF1
 469 0037 02       		.uleb128 0x2
 470 0038 02       		.byte	0x2
 471 0039 05       		.byte	0x5
 472 003a B5010000 		.4byte	.LASF2
 473 003e 02       		.uleb128 0x2
 474 003f 02       		.byte	0x2
 475 0040 07       		.byte	0x7
 476 0041 0E000000 		.4byte	.LASF3
 477 0045 02       		.uleb128 0x2
 478 0046 04       		.byte	0x4
 479 0047 05       		.byte	0x5
 480 0048 D4010000 		.4byte	.LASF4
 481 004c 02       		.uleb128 0x2
 482 004d 04       		.byte	0x4
 483 004e 07       		.byte	0x7
 484 004f B0000000 		.4byte	.LASF5
 485 0053 02       		.uleb128 0x2
 486 0054 08       		.byte	0x8
 487 0055 05       		.byte	0x5
 488 0056 00000000 		.4byte	.LASF6
 489 005a 02       		.uleb128 0x2
 490 005b 08       		.byte	0x8
 491 005c 07       		.byte	0x7
 492 005d 24010000 		.4byte	.LASF7
 493 0061 03       		.uleb128 0x3
 494 0062 04       		.byte	0x4
ARM GAS  C:\Users\SUZUKI~1\AppData\Local\Temp\ccNhLsfy.s 			page 16


 495 0063 05       		.byte	0x5
 496 0064 696E7400 		.ascii	"int\000"
 497 0068 02       		.uleb128 0x2
 498 0069 04       		.byte	0x4
 499 006a 07       		.byte	0x7
 500 006b 0F010000 		.4byte	.LASF8
 501 006f 02       		.uleb128 0x2
 502 0070 01       		.byte	0x1
 503 0071 08       		.byte	0x8
 504 0072 A1010000 		.4byte	.LASF9
 505 0076 04       		.uleb128 0x4
 506 0077 C2000000 		.4byte	.LASF10
 507 007b 02       		.byte	0x2
 508 007c 60       		.byte	0x60
 509 007d 30000000 		.4byte	0x30
 510 0081 05       		.uleb128 0x5
 511 0082 63010000 		.4byte	.LASF11
 512 0086 02       		.byte	0x2
 513 0087 2B01     		.2byte	0x12b
 514 0089 8D000000 		.4byte	0x8d
 515 008d 06       		.uleb128 0x6
 516 008e 04       		.byte	0x4
 517 008f 93000000 		.4byte	0x93
 518 0093 07       		.uleb128 0x7
 519 0094 01       		.byte	0x1
 520 0095 08       		.uleb128 0x8
 521 0096 04       		.byte	0x4
 522 0097 07       		.byte	0x7
 523 0098 09       		.uleb128 0x9
 524 0099 01       		.byte	0x1
 525 009a 86000000 		.4byte	.LASF19
 526 009e 01       		.byte	0x1
 527 009f 8C       		.byte	0x8c
 528 00a0 01       		.byte	0x1
 529 00a1 00000000 		.4byte	.LFB3
 530 00a5 02000000 		.4byte	.LFE3
 531 00a9 01       		.byte	0x1
 532 00aa 5D       		.byte	0x5d
 533 00ab 0A       		.uleb128 0xa
 534 00ac 01       		.byte	0x1
 535 00ad E8000000 		.4byte	.LASF13
 536 00b1 01       		.byte	0x1
 537 00b2 A6       		.byte	0xa6
 538 00b3 01       		.byte	0x1
 539 00b4 00000000 		.4byte	.LFB4
 540 00b8 0C000000 		.4byte	.LFE4
 541 00bc 01       		.byte	0x1
 542 00bd 5D       		.byte	0x5d
 543 00be DD000000 		.4byte	0xdd
 544 00c2 0B       		.uleb128 0xb
 545 00c3 1C010000 		.4byte	.LASF15
 546 00c7 01       		.byte	0x1
 547 00c8 A6       		.byte	0xa6
 548 00c9 81000000 		.4byte	0x81
 549 00cd 01       		.byte	0x1
 550 00ce 50       		.byte	0x50
 551 00cf 0C       		.uleb128 0xc
ARM GAS  C:\Users\SUZUKI~1\AppData\Local\Temp\ccNhLsfy.s 			page 17


 552 00d0 A6010000 		.4byte	.LASF12
 553 00d4 01       		.byte	0x1
 554 00d5 A8       		.byte	0xa8
 555 00d6 DD000000 		.4byte	0xdd
 556 00da 01       		.byte	0x1
 557 00db 53       		.byte	0x53
 558 00dc 00       		.byte	0x0
 559 00dd 06       		.uleb128 0x6
 560 00de 04       		.byte	0x4
 561 00df 81000000 		.4byte	0x81
 562 00e3 0D       		.uleb128 0xd
 563 00e4 01       		.byte	0x1
 564 00e5 FB010000 		.4byte	.LASF17
 565 00e9 01       		.byte	0x1
 566 00ea BF       		.byte	0xbf
 567 00eb 01       		.byte	0x1
 568 00ec 81000000 		.4byte	0x81
 569 00f0 00000000 		.4byte	.LFB5
 570 00f4 0C000000 		.4byte	.LFE5
 571 00f8 01       		.byte	0x1
 572 00f9 5D       		.byte	0x5d
 573 00fa 0C010000 		.4byte	0x10c
 574 00fe 0C       		.uleb128 0xc
 575 00ff A6010000 		.4byte	.LASF12
 576 0103 01       		.byte	0x1
 577 0104 C1       		.byte	0xc1
 578 0105 DD000000 		.4byte	0xdd
 579 0109 01       		.byte	0x1
 580 010a 53       		.byte	0x53
 581 010b 00       		.byte	0x0
 582 010c 0A       		.uleb128 0xa
 583 010d 01       		.byte	0x1
 584 010e 4D010000 		.4byte	.LASF14
 585 0112 01       		.byte	0x1
 586 0113 DC       		.byte	0xdc
 587 0114 01       		.byte	0x1
 588 0115 00000000 		.4byte	.LFB6
 589 0119 10000000 		.4byte	.LFE6
 590 011d 01       		.byte	0x1
 591 011e 5D       		.byte	0x5d
 592 011f 33010000 		.4byte	0x133
 593 0123 0E       		.uleb128 0xe
 594 0124 DF000000 		.4byte	.LASF16
 595 0128 01       		.byte	0x1
 596 0129 DC       		.byte	0xdc
 597 012a 76000000 		.4byte	0x76
 598 012e 00000000 		.4byte	.LLST4
 599 0132 00       		.byte	0x0
 600 0133 0D       		.uleb128 0xd
 601 0134 01       		.byte	0x1
 602 0135 9A000000 		.4byte	.LASF18
 603 0139 01       		.byte	0x1
 604 013a F1       		.byte	0xf1
 605 013b 01       		.byte	0x1
 606 013c 76000000 		.4byte	0x76
 607 0140 00000000 		.4byte	.LFB7
 608 0144 0C000000 		.4byte	.LFE7
ARM GAS  C:\Users\SUZUKI~1\AppData\Local\Temp\ccNhLsfy.s 			page 18


 609 0148 01       		.byte	0x1
 610 0149 5D       		.byte	0x5d
 611 014a 5A010000 		.4byte	0x15a
 612 014e 0F       		.uleb128 0xf
 613 014f DF000000 		.4byte	.LASF16
 614 0153 01       		.byte	0x1
 615 0154 F3       		.byte	0xf3
 616 0155 76000000 		.4byte	0x76
 617 0159 00       		.byte	0x0
 618 015a 10       		.uleb128 0x10
 619 015b 01       		.byte	0x1
 620 015c 67000000 		.4byte	.LASF20
 621 0160 01       		.byte	0x1
 622 0161 0B01     		.2byte	0x10b
 623 0163 01       		.byte	0x1
 624 0164 00000000 		.4byte	.LFB8
 625 0168 0C000000 		.4byte	.LFE8
 626 016c 01       		.byte	0x1
 627 016d 5D       		.byte	0x5d
 628 016e 11       		.uleb128 0x11
 629 016f 01       		.byte	0x1
 630 0170 FC000000 		.4byte	.LASF30
 631 0174 01       		.byte	0x1
 632 0175 2101     		.2byte	0x121
 633 0177 01       		.byte	0x1
 634 0178 76000000 		.4byte	0x76
 635 017c 00000000 		.4byte	.LFB9
 636 0180 10000000 		.4byte	.LFE9
 637 0184 01       		.byte	0x1
 638 0185 5D       		.byte	0x5d
 639 0186 10       		.uleb128 0x10
 640 0187 01       		.byte	0x1
 641 0188 DD010000 		.4byte	.LASF21
 642 018c 01       		.byte	0x1
 643 018d 3701     		.2byte	0x137
 644 018f 01       		.byte	0x1
 645 0190 00000000 		.4byte	.LFB10
 646 0194 0C000000 		.4byte	.LFE10
 647 0198 01       		.byte	0x1
 648 0199 5D       		.byte	0x5d
 649 019a 12       		.uleb128 0x12
 650 019b 01       		.byte	0x1
 651 019c 58000000 		.4byte	.LASF22
 652 01a0 01       		.byte	0x1
 653 01a1 71       		.byte	0x71
 654 01a2 01       		.byte	0x1
 655 01a3 00000000 		.4byte	.LFB2
 656 01a7 14000000 		.4byte	.LFE2
 657 01ab 13000000 		.4byte	.LLST9
 658 01af 13       		.uleb128 0x13
 659 01b0 01       		.byte	0x1
 660 01b1 3B010000 		.4byte	.LASF23
 661 01b5 01       		.byte	0x1
 662 01b6 55       		.byte	0x55
 663 01b7 01       		.byte	0x1
 664 01b8 00000000 		.4byte	.LFB1
 665 01bc 1C000000 		.4byte	.LFE1
ARM GAS  C:\Users\SUZUKI~1\AppData\Local\Temp\ccNhLsfy.s 			page 19


 666 01c0 32000000 		.4byte	.LLST10
 667 01c4 D8010000 		.4byte	0x1d8
 668 01c8 0E       		.uleb128 0xe
 669 01c9 1C010000 		.4byte	.LASF15
 670 01cd 01       		.byte	0x1
 671 01ce 55       		.byte	0x55
 672 01cf 81000000 		.4byte	0x81
 673 01d3 51000000 		.4byte	.LLST11
 674 01d7 00       		.byte	0x0
 675 01d8 12       		.uleb128 0x12
 676 01d9 01       		.byte	0x1
 677 01da 0F020000 		.4byte	.LASF24
 678 01de 01       		.byte	0x1
 679 01df 38       		.byte	0x38
 680 01e0 01       		.byte	0x1
 681 01e1 00000000 		.4byte	.LFB0
 682 01e5 20000000 		.4byte	.LFE0
 683 01e9 6F000000 		.4byte	.LLST12
 684 01ed 10       		.uleb128 0x10
 685 01ee 01       		.byte	0x1
 686 01ef BF010000 		.4byte	.LASF25
 687 01f3 01       		.byte	0x1
 688 01f4 4E01     		.2byte	0x14e
 689 01f6 01       		.byte	0x1
 690 01f7 00000000 		.4byte	.LFB11
 691 01fb 0C000000 		.4byte	.LFE11
 692 01ff 01       		.byte	0x1
 693 0200 5D       		.byte	0x5d
 694 0201 10       		.uleb128 0x10
 695 0202 01       		.byte	0x1
 696 0203 C8000000 		.4byte	.LASF26
 697 0207 01       		.byte	0x1
 698 0208 6201     		.2byte	0x162
 699 020a 01       		.byte	0x1
 700 020b 00000000 		.4byte	.LFB12
 701 020f 0C000000 		.4byte	.LFE12
 702 0213 01       		.byte	0x1
 703 0214 5D       		.byte	0x5d
 704 0215 00       		.byte	0x0
 705              		.section	.debug_abbrev
 706 0000 01       		.uleb128 0x1
 707 0001 11       		.uleb128 0x11
 708 0002 01       		.byte	0x1
 709 0003 25       		.uleb128 0x25
 710 0004 0E       		.uleb128 0xe
 711 0005 13       		.uleb128 0x13
 712 0006 0B       		.uleb128 0xb
 713 0007 03       		.uleb128 0x3
 714 0008 0E       		.uleb128 0xe
 715 0009 1B       		.uleb128 0x1b
 716 000a 0E       		.uleb128 0xe
 717 000b 11       		.uleb128 0x11
 718 000c 01       		.uleb128 0x1
 719 000d 52       		.uleb128 0x52
 720 000e 01       		.uleb128 0x1
 721 000f 55       		.uleb128 0x55
 722 0010 06       		.uleb128 0x6
ARM GAS  C:\Users\SUZUKI~1\AppData\Local\Temp\ccNhLsfy.s 			page 20


 723 0011 10       		.uleb128 0x10
 724 0012 06       		.uleb128 0x6
 725 0013 00       		.byte	0x0
 726 0014 00       		.byte	0x0
 727 0015 02       		.uleb128 0x2
 728 0016 24       		.uleb128 0x24
 729 0017 00       		.byte	0x0
 730 0018 0B       		.uleb128 0xb
 731 0019 0B       		.uleb128 0xb
 732 001a 3E       		.uleb128 0x3e
 733 001b 0B       		.uleb128 0xb
 734 001c 03       		.uleb128 0x3
 735 001d 0E       		.uleb128 0xe
 736 001e 00       		.byte	0x0
 737 001f 00       		.byte	0x0
 738 0020 03       		.uleb128 0x3
 739 0021 24       		.uleb128 0x24
 740 0022 00       		.byte	0x0
 741 0023 0B       		.uleb128 0xb
 742 0024 0B       		.uleb128 0xb
 743 0025 3E       		.uleb128 0x3e
 744 0026 0B       		.uleb128 0xb
 745 0027 03       		.uleb128 0x3
 746 0028 08       		.uleb128 0x8
 747 0029 00       		.byte	0x0
 748 002a 00       		.byte	0x0
 749 002b 04       		.uleb128 0x4
 750 002c 16       		.uleb128 0x16
 751 002d 00       		.byte	0x0
 752 002e 03       		.uleb128 0x3
 753 002f 0E       		.uleb128 0xe
 754 0030 3A       		.uleb128 0x3a
 755 0031 0B       		.uleb128 0xb
 756 0032 3B       		.uleb128 0x3b
 757 0033 0B       		.uleb128 0xb
 758 0034 49       		.uleb128 0x49
 759 0035 13       		.uleb128 0x13
 760 0036 00       		.byte	0x0
 761 0037 00       		.byte	0x0
 762 0038 05       		.uleb128 0x5
 763 0039 16       		.uleb128 0x16
 764 003a 00       		.byte	0x0
 765 003b 03       		.uleb128 0x3
 766 003c 0E       		.uleb128 0xe
 767 003d 3A       		.uleb128 0x3a
 768 003e 0B       		.uleb128 0xb
 769 003f 3B       		.uleb128 0x3b
 770 0040 05       		.uleb128 0x5
 771 0041 49       		.uleb128 0x49
 772 0042 13       		.uleb128 0x13
 773 0043 00       		.byte	0x0
 774 0044 00       		.byte	0x0
 775 0045 06       		.uleb128 0x6
 776 0046 0F       		.uleb128 0xf
 777 0047 00       		.byte	0x0
 778 0048 0B       		.uleb128 0xb
 779 0049 0B       		.uleb128 0xb
ARM GAS  C:\Users\SUZUKI~1\AppData\Local\Temp\ccNhLsfy.s 			page 21


 780 004a 49       		.uleb128 0x49
 781 004b 13       		.uleb128 0x13
 782 004c 00       		.byte	0x0
 783 004d 00       		.byte	0x0
 784 004e 07       		.uleb128 0x7
 785 004f 15       		.uleb128 0x15
 786 0050 00       		.byte	0x0
 787 0051 27       		.uleb128 0x27
 788 0052 0C       		.uleb128 0xc
 789 0053 00       		.byte	0x0
 790 0054 00       		.byte	0x0
 791 0055 08       		.uleb128 0x8
 792 0056 24       		.uleb128 0x24
 793 0057 00       		.byte	0x0
 794 0058 0B       		.uleb128 0xb
 795 0059 0B       		.uleb128 0xb
 796 005a 3E       		.uleb128 0x3e
 797 005b 0B       		.uleb128 0xb
 798 005c 00       		.byte	0x0
 799 005d 00       		.byte	0x0
 800 005e 09       		.uleb128 0x9
 801 005f 2E       		.uleb128 0x2e
 802 0060 00       		.byte	0x0
 803 0061 3F       		.uleb128 0x3f
 804 0062 0C       		.uleb128 0xc
 805 0063 03       		.uleb128 0x3
 806 0064 0E       		.uleb128 0xe
 807 0065 3A       		.uleb128 0x3a
 808 0066 0B       		.uleb128 0xb
 809 0067 3B       		.uleb128 0x3b
 810 0068 0B       		.uleb128 0xb
 811 0069 27       		.uleb128 0x27
 812 006a 0C       		.uleb128 0xc
 813 006b 11       		.uleb128 0x11
 814 006c 01       		.uleb128 0x1
 815 006d 12       		.uleb128 0x12
 816 006e 01       		.uleb128 0x1
 817 006f 40       		.uleb128 0x40
 818 0070 0A       		.uleb128 0xa
 819 0071 00       		.byte	0x0
 820 0072 00       		.byte	0x0
 821 0073 0A       		.uleb128 0xa
 822 0074 2E       		.uleb128 0x2e
 823 0075 01       		.byte	0x1
 824 0076 3F       		.uleb128 0x3f
 825 0077 0C       		.uleb128 0xc
 826 0078 03       		.uleb128 0x3
 827 0079 0E       		.uleb128 0xe
 828 007a 3A       		.uleb128 0x3a
 829 007b 0B       		.uleb128 0xb
 830 007c 3B       		.uleb128 0x3b
 831 007d 0B       		.uleb128 0xb
 832 007e 27       		.uleb128 0x27
 833 007f 0C       		.uleb128 0xc
 834 0080 11       		.uleb128 0x11
 835 0081 01       		.uleb128 0x1
 836 0082 12       		.uleb128 0x12
ARM GAS  C:\Users\SUZUKI~1\AppData\Local\Temp\ccNhLsfy.s 			page 22


 837 0083 01       		.uleb128 0x1
 838 0084 40       		.uleb128 0x40
 839 0085 0A       		.uleb128 0xa
 840 0086 01       		.uleb128 0x1
 841 0087 13       		.uleb128 0x13
 842 0088 00       		.byte	0x0
 843 0089 00       		.byte	0x0
 844 008a 0B       		.uleb128 0xb
 845 008b 05       		.uleb128 0x5
 846 008c 00       		.byte	0x0
 847 008d 03       		.uleb128 0x3
 848 008e 0E       		.uleb128 0xe
 849 008f 3A       		.uleb128 0x3a
 850 0090 0B       		.uleb128 0xb
 851 0091 3B       		.uleb128 0x3b
 852 0092 0B       		.uleb128 0xb
 853 0093 49       		.uleb128 0x49
 854 0094 13       		.uleb128 0x13
 855 0095 02       		.uleb128 0x2
 856 0096 0A       		.uleb128 0xa
 857 0097 00       		.byte	0x0
 858 0098 00       		.byte	0x0
 859 0099 0C       		.uleb128 0xc
 860 009a 34       		.uleb128 0x34
 861 009b 00       		.byte	0x0
 862 009c 03       		.uleb128 0x3
 863 009d 0E       		.uleb128 0xe
 864 009e 3A       		.uleb128 0x3a
 865 009f 0B       		.uleb128 0xb
 866 00a0 3B       		.uleb128 0x3b
 867 00a1 0B       		.uleb128 0xb
 868 00a2 49       		.uleb128 0x49
 869 00a3 13       		.uleb128 0x13
 870 00a4 02       		.uleb128 0x2
 871 00a5 0A       		.uleb128 0xa
 872 00a6 00       		.byte	0x0
 873 00a7 00       		.byte	0x0
 874 00a8 0D       		.uleb128 0xd
 875 00a9 2E       		.uleb128 0x2e
 876 00aa 01       		.byte	0x1
 877 00ab 3F       		.uleb128 0x3f
 878 00ac 0C       		.uleb128 0xc
 879 00ad 03       		.uleb128 0x3
 880 00ae 0E       		.uleb128 0xe
 881 00af 3A       		.uleb128 0x3a
 882 00b0 0B       		.uleb128 0xb
 883 00b1 3B       		.uleb128 0x3b
 884 00b2 0B       		.uleb128 0xb
 885 00b3 27       		.uleb128 0x27
 886 00b4 0C       		.uleb128 0xc
 887 00b5 49       		.uleb128 0x49
 888 00b6 13       		.uleb128 0x13
 889 00b7 11       		.uleb128 0x11
 890 00b8 01       		.uleb128 0x1
 891 00b9 12       		.uleb128 0x12
 892 00ba 01       		.uleb128 0x1
 893 00bb 40       		.uleb128 0x40
ARM GAS  C:\Users\SUZUKI~1\AppData\Local\Temp\ccNhLsfy.s 			page 23


 894 00bc 0A       		.uleb128 0xa
 895 00bd 01       		.uleb128 0x1
 896 00be 13       		.uleb128 0x13
 897 00bf 00       		.byte	0x0
 898 00c0 00       		.byte	0x0
 899 00c1 0E       		.uleb128 0xe
 900 00c2 05       		.uleb128 0x5
 901 00c3 00       		.byte	0x0
 902 00c4 03       		.uleb128 0x3
 903 00c5 0E       		.uleb128 0xe
 904 00c6 3A       		.uleb128 0x3a
 905 00c7 0B       		.uleb128 0xb
 906 00c8 3B       		.uleb128 0x3b
 907 00c9 0B       		.uleb128 0xb
 908 00ca 49       		.uleb128 0x49
 909 00cb 13       		.uleb128 0x13
 910 00cc 02       		.uleb128 0x2
 911 00cd 06       		.uleb128 0x6
 912 00ce 00       		.byte	0x0
 913 00cf 00       		.byte	0x0
 914 00d0 0F       		.uleb128 0xf
 915 00d1 34       		.uleb128 0x34
 916 00d2 00       		.byte	0x0
 917 00d3 03       		.uleb128 0x3
 918 00d4 0E       		.uleb128 0xe
 919 00d5 3A       		.uleb128 0x3a
 920 00d6 0B       		.uleb128 0xb
 921 00d7 3B       		.uleb128 0x3b
 922 00d8 0B       		.uleb128 0xb
 923 00d9 49       		.uleb128 0x49
 924 00da 13       		.uleb128 0x13
 925 00db 00       		.byte	0x0
 926 00dc 00       		.byte	0x0
 927 00dd 10       		.uleb128 0x10
 928 00de 2E       		.uleb128 0x2e
 929 00df 00       		.byte	0x0
 930 00e0 3F       		.uleb128 0x3f
 931 00e1 0C       		.uleb128 0xc
 932 00e2 03       		.uleb128 0x3
 933 00e3 0E       		.uleb128 0xe
 934 00e4 3A       		.uleb128 0x3a
 935 00e5 0B       		.uleb128 0xb
 936 00e6 3B       		.uleb128 0x3b
 937 00e7 05       		.uleb128 0x5
 938 00e8 27       		.uleb128 0x27
 939 00e9 0C       		.uleb128 0xc
 940 00ea 11       		.uleb128 0x11
 941 00eb 01       		.uleb128 0x1
 942 00ec 12       		.uleb128 0x12
 943 00ed 01       		.uleb128 0x1
 944 00ee 40       		.uleb128 0x40
 945 00ef 0A       		.uleb128 0xa
 946 00f0 00       		.byte	0x0
 947 00f1 00       		.byte	0x0
 948 00f2 11       		.uleb128 0x11
 949 00f3 2E       		.uleb128 0x2e
 950 00f4 00       		.byte	0x0
ARM GAS  C:\Users\SUZUKI~1\AppData\Local\Temp\ccNhLsfy.s 			page 24


 951 00f5 3F       		.uleb128 0x3f
 952 00f6 0C       		.uleb128 0xc
 953 00f7 03       		.uleb128 0x3
 954 00f8 0E       		.uleb128 0xe
 955 00f9 3A       		.uleb128 0x3a
 956 00fa 0B       		.uleb128 0xb
 957 00fb 3B       		.uleb128 0x3b
 958 00fc 05       		.uleb128 0x5
 959 00fd 27       		.uleb128 0x27
 960 00fe 0C       		.uleb128 0xc
 961 00ff 49       		.uleb128 0x49
 962 0100 13       		.uleb128 0x13
 963 0101 11       		.uleb128 0x11
 964 0102 01       		.uleb128 0x1
 965 0103 12       		.uleb128 0x12
 966 0104 01       		.uleb128 0x1
 967 0105 40       		.uleb128 0x40
 968 0106 0A       		.uleb128 0xa
 969 0107 00       		.byte	0x0
 970 0108 00       		.byte	0x0
 971 0109 12       		.uleb128 0x12
 972 010a 2E       		.uleb128 0x2e
 973 010b 00       		.byte	0x0
 974 010c 3F       		.uleb128 0x3f
 975 010d 0C       		.uleb128 0xc
 976 010e 03       		.uleb128 0x3
 977 010f 0E       		.uleb128 0xe
 978 0110 3A       		.uleb128 0x3a
 979 0111 0B       		.uleb128 0xb
 980 0112 3B       		.uleb128 0x3b
 981 0113 0B       		.uleb128 0xb
 982 0114 27       		.uleb128 0x27
 983 0115 0C       		.uleb128 0xc
 984 0116 11       		.uleb128 0x11
 985 0117 01       		.uleb128 0x1
 986 0118 12       		.uleb128 0x12
 987 0119 01       		.uleb128 0x1
 988 011a 40       		.uleb128 0x40
 989 011b 06       		.uleb128 0x6
 990 011c 00       		.byte	0x0
 991 011d 00       		.byte	0x0
 992 011e 13       		.uleb128 0x13
 993 011f 2E       		.uleb128 0x2e
 994 0120 01       		.byte	0x1
 995 0121 3F       		.uleb128 0x3f
 996 0122 0C       		.uleb128 0xc
 997 0123 03       		.uleb128 0x3
 998 0124 0E       		.uleb128 0xe
 999 0125 3A       		.uleb128 0x3a
 1000 0126 0B       		.uleb128 0xb
 1001 0127 3B       		.uleb128 0x3b
 1002 0128 0B       		.uleb128 0xb
 1003 0129 27       		.uleb128 0x27
 1004 012a 0C       		.uleb128 0xc
 1005 012b 11       		.uleb128 0x11
 1006 012c 01       		.uleb128 0x1
 1007 012d 12       		.uleb128 0x12
ARM GAS  C:\Users\SUZUKI~1\AppData\Local\Temp\ccNhLsfy.s 			page 25


 1008 012e 01       		.uleb128 0x1
 1009 012f 40       		.uleb128 0x40
 1010 0130 06       		.uleb128 0x6
 1011 0131 01       		.uleb128 0x1
 1012 0132 13       		.uleb128 0x13
 1013 0133 00       		.byte	0x0
 1014 0134 00       		.byte	0x0
 1015 0135 00       		.byte	0x0
 1016              		.section	.debug_pubnames,"",%progbits
 1017 0000 3D010000 		.4byte	0x13d
 1018 0004 0200     		.2byte	0x2
 1019 0006 00000000 		.4byte	.Ldebug_info0
 1020 000a 16020000 		.4byte	0x216
 1021 000e 98000000 		.4byte	0x98
 1022 0012 73686966 		.ascii	"shift_irq_Interrupt\000"
 1022      745F6972 
 1022      715F496E 
 1022      74657272 
 1022      75707400 
 1023 0026 AB000000 		.4byte	0xab
 1024 002a 73686966 		.ascii	"shift_irq_SetVector\000"
 1024      745F6972 
 1024      715F5365 
 1024      74566563 
 1024      746F7200 
 1025 003e E3000000 		.4byte	0xe3
 1026 0042 73686966 		.ascii	"shift_irq_GetVector\000"
 1026      745F6972 
 1026      715F4765 
 1026      74566563 
 1026      746F7200 
 1027 0056 0C010000 		.4byte	0x10c
 1028 005a 73686966 		.ascii	"shift_irq_SetPriority\000"
 1028      745F6972 
 1028      715F5365 
 1028      74507269 
 1028      6F726974 
 1029 0070 33010000 		.4byte	0x133
 1030 0074 73686966 		.ascii	"shift_irq_GetPriority\000"
 1030      745F6972 
 1030      715F4765 
 1030      74507269 
 1030      6F726974 
 1031 008a 5A010000 		.4byte	0x15a
 1032 008e 73686966 		.ascii	"shift_irq_Enable\000"
 1032      745F6972 
 1032      715F456E 
 1032      61626C65 
 1032      00
 1033 009f 6E010000 		.4byte	0x16e
 1034 00a3 73686966 		.ascii	"shift_irq_GetState\000"
 1034      745F6972 
 1034      715F4765 
 1034      74537461 
 1034      746500
 1035 00b6 86010000 		.4byte	0x186
 1036 00ba 73686966 		.ascii	"shift_irq_Disable\000"
ARM GAS  C:\Users\SUZUKI~1\AppData\Local\Temp\ccNhLsfy.s 			page 26


 1036      745F6972 
 1036      715F4469 
 1036      7361626C 
 1036      6500
 1037 00cc 9A010000 		.4byte	0x19a
 1038 00d0 73686966 		.ascii	"shift_irq_Stop\000"
 1038      745F6972 
 1038      715F5374 
 1038      6F7000
 1039 00df AF010000 		.4byte	0x1af
 1040 00e3 73686966 		.ascii	"shift_irq_StartEx\000"
 1040      745F6972 
 1040      715F5374 
 1040      61727445 
 1040      7800
 1041 00f5 D8010000 		.4byte	0x1d8
 1042 00f9 73686966 		.ascii	"shift_irq_Start\000"
 1042      745F6972 
 1042      715F5374 
 1042      61727400 
 1043 0109 ED010000 		.4byte	0x1ed
 1044 010d 73686966 		.ascii	"shift_irq_SetPending\000"
 1044      745F6972 
 1044      715F5365 
 1044      7450656E 
 1044      64696E67 
 1045 0122 01020000 		.4byte	0x201
 1046 0126 73686966 		.ascii	"shift_irq_ClearPending\000"
 1046      745F6972 
 1046      715F436C 
 1046      65617250 
 1046      656E6469 
 1047 013d 00000000 		.4byte	0x0
 1048              		.section	.debug_aranges,"",%progbits
 1049 0000 7C000000 		.4byte	0x7c
 1050 0004 0200     		.2byte	0x2
 1051 0006 00000000 		.4byte	.Ldebug_info0
 1052 000a 04       		.byte	0x4
 1053 000b 00       		.byte	0x0
 1054 000c 0000     		.2byte	0x0
 1055 000e 0000     		.2byte	0x0
 1056 0010 00000000 		.4byte	.LFB3
 1057 0014 02000000 		.4byte	.LFE3-.LFB3
 1058 0018 00000000 		.4byte	.LFB4
 1059 001c 0C000000 		.4byte	.LFE4-.LFB4
 1060 0020 00000000 		.4byte	.LFB5
 1061 0024 0C000000 		.4byte	.LFE5-.LFB5
 1062 0028 00000000 		.4byte	.LFB6
 1063 002c 10000000 		.4byte	.LFE6-.LFB6
 1064 0030 00000000 		.4byte	.LFB7
 1065 0034 0C000000 		.4byte	.LFE7-.LFB7
 1066 0038 00000000 		.4byte	.LFB8
 1067 003c 0C000000 		.4byte	.LFE8-.LFB8
 1068 0040 00000000 		.4byte	.LFB9
 1069 0044 10000000 		.4byte	.LFE9-.LFB9
 1070 0048 00000000 		.4byte	.LFB10
 1071 004c 0C000000 		.4byte	.LFE10-.LFB10
ARM GAS  C:\Users\SUZUKI~1\AppData\Local\Temp\ccNhLsfy.s 			page 27


 1072 0050 00000000 		.4byte	.LFB2
 1073 0054 14000000 		.4byte	.LFE2-.LFB2
 1074 0058 00000000 		.4byte	.LFB1
 1075 005c 1C000000 		.4byte	.LFE1-.LFB1
 1076 0060 00000000 		.4byte	.LFB0
 1077 0064 20000000 		.4byte	.LFE0-.LFB0
 1078 0068 00000000 		.4byte	.LFB11
 1079 006c 0C000000 		.4byte	.LFE11-.LFB11
 1080 0070 00000000 		.4byte	.LFB12
 1081 0074 0C000000 		.4byte	.LFE12-.LFB12
 1082 0078 00000000 		.4byte	0x0
 1083 007c 00000000 		.4byte	0x0
 1084              		.section	.debug_ranges,"",%progbits
 1085              	.Ldebug_ranges0:
 1086 0000 00000000 		.4byte	.Ltext0
 1087 0004 00000000 		.4byte	.Letext0
 1088 0008 00000000 		.4byte	.LFB3
 1089 000c 02000000 		.4byte	.LFE3
 1090 0010 00000000 		.4byte	.LFB4
 1091 0014 0C000000 		.4byte	.LFE4
 1092 0018 00000000 		.4byte	.LFB5
 1093 001c 0C000000 		.4byte	.LFE5
 1094 0020 00000000 		.4byte	.LFB6
 1095 0024 10000000 		.4byte	.LFE6
 1096 0028 00000000 		.4byte	.LFB7
 1097 002c 0C000000 		.4byte	.LFE7
 1098 0030 00000000 		.4byte	.LFB8
 1099 0034 0C000000 		.4byte	.LFE8
 1100 0038 00000000 		.4byte	.LFB9
 1101 003c 10000000 		.4byte	.LFE9
 1102 0040 00000000 		.4byte	.LFB10
 1103 0044 0C000000 		.4byte	.LFE10
 1104 0048 00000000 		.4byte	.LFB2
 1105 004c 14000000 		.4byte	.LFE2
 1106 0050 00000000 		.4byte	.LFB1
 1107 0054 1C000000 		.4byte	.LFE1
 1108 0058 00000000 		.4byte	.LFB0
 1109 005c 20000000 		.4byte	.LFE0
 1110 0060 00000000 		.4byte	.LFB11
 1111 0064 0C000000 		.4byte	.LFE11
 1112 0068 00000000 		.4byte	.LFB12
 1113 006c 0C000000 		.4byte	.LFE12
 1114 0070 00000000 		.4byte	0x0
 1115 0074 00000000 		.4byte	0x0
 1116              		.section	.debug_str,"MS",%progbits,1
 1117              	.LASF6:
 1118 0000 6C6F6E67 		.ascii	"long long int\000"
 1118      206C6F6E 
 1118      6720696E 
 1118      7400
 1119              	.LASF3:
 1120 000e 73686F72 		.ascii	"short unsigned int\000"
 1120      7420756E 
 1120      7369676E 
 1120      65642069 
 1120      6E7400
 1121              	.LASF29:
ARM GAS  C:\Users\SUZUKI~1\AppData\Local\Temp\ccNhLsfy.s 			page 28


 1122 0021 463A5C44 		.ascii	"F:\\Documents\\PSoC_Creator\\ledmatrix\\ledmatrixff"
 1122      6F63756D 
 1122      656E7473 
 1122      5C50536F 
 1122      435F4372 
 1123 0050 742E6379 		.ascii	"t.cydsn\000"
 1123      64736E00 
 1124              	.LASF22:
 1125 0058 73686966 		.ascii	"shift_irq_Stop\000"
 1125      745F6972 
 1125      715F5374 
 1125      6F7000
 1126              	.LASF20:
 1127 0067 73686966 		.ascii	"shift_irq_Enable\000"
 1127      745F6972 
 1127      715F456E 
 1127      61626C65 
 1127      00
 1128              	.LASF1:
 1129 0078 756E7369 		.ascii	"unsigned char\000"
 1129      676E6564 
 1129      20636861 
 1129      7200
 1130              	.LASF19:
 1131 0086 73686966 		.ascii	"shift_irq_Interrupt\000"
 1131      745F6972 
 1131      715F496E 
 1131      74657272 
 1131      75707400 
 1132              	.LASF18:
 1133 009a 73686966 		.ascii	"shift_irq_GetPriority\000"
 1133      745F6972 
 1133      715F4765 
 1133      74507269 
 1133      6F726974 
 1134              	.LASF5:
 1135 00b0 6C6F6E67 		.ascii	"long unsigned int\000"
 1135      20756E73 
 1135      69676E65 
 1135      6420696E 
 1135      7400
 1136              	.LASF10:
 1137 00c2 75696E74 		.ascii	"uint8\000"
 1137      3800
 1138              	.LASF26:
 1139 00c8 73686966 		.ascii	"shift_irq_ClearPending\000"
 1139      745F6972 
 1139      715F436C 
 1139      65617250 
 1139      656E6469 
 1140              	.LASF16:
 1141 00df 7072696F 		.ascii	"priority\000"
 1141      72697479 
 1141      00
 1142              	.LASF13:
 1143 00e8 73686966 		.ascii	"shift_irq_SetVector\000"
 1143      745F6972 
ARM GAS  C:\Users\SUZUKI~1\AppData\Local\Temp\ccNhLsfy.s 			page 29


 1143      715F5365 
 1143      74566563 
 1143      746F7200 
 1144              	.LASF30:
 1145 00fc 73686966 		.ascii	"shift_irq_GetState\000"
 1145      745F6972 
 1145      715F4765 
 1145      74537461 
 1145      746500
 1146              	.LASF8:
 1147 010f 756E7369 		.ascii	"unsigned int\000"
 1147      676E6564 
 1147      20696E74 
 1147      00
 1148              	.LASF15:
 1149 011c 61646472 		.ascii	"address\000"
 1149      65737300 
 1150              	.LASF7:
 1151 0124 6C6F6E67 		.ascii	"long long unsigned int\000"
 1151      206C6F6E 
 1151      6720756E 
 1151      7369676E 
 1151      65642069 
 1152              	.LASF23:
 1153 013b 73686966 		.ascii	"shift_irq_StartEx\000"
 1153      745F6972 
 1153      715F5374 
 1153      61727445 
 1153      7800
 1154              	.LASF14:
 1155 014d 73686966 		.ascii	"shift_irq_SetPriority\000"
 1155      745F6972 
 1155      715F5365 
 1155      74507269 
 1155      6F726974 
 1156              	.LASF11:
 1157 0163 63796973 		.ascii	"cyisraddress\000"
 1157      72616464 
 1157      72657373 
 1157      00
 1158              	.LASF28:
 1159 0170 2E5C4765 		.ascii	".\\Generated_Source\\PSoC5\\shift_irq.c\000"
 1159      6E657261 
 1159      7465645F 
 1159      536F7572 
 1159      63655C50 
 1160              	.LASF27:
 1161 0195 474E5520 		.ascii	"GNU C 4.4.1\000"
 1161      4320342E 
 1161      342E3100 
 1162              	.LASF9:
 1163 01a1 63686172 		.ascii	"char\000"
 1163      00
 1164              	.LASF12:
 1165 01a6 72616D56 		.ascii	"ramVectorTable\000"
 1165      6563746F 
 1165      72546162 
ARM GAS  C:\Users\SUZUKI~1\AppData\Local\Temp\ccNhLsfy.s 			page 30


 1165      6C6500
 1166              	.LASF2:
 1167 01b5 73686F72 		.ascii	"short int\000"
 1167      7420696E 
 1167      7400
 1168              	.LASF25:
 1169 01bf 73686966 		.ascii	"shift_irq_SetPending\000"
 1169      745F6972 
 1169      715F5365 
 1169      7450656E 
 1169      64696E67 
 1170              	.LASF4:
 1171 01d4 6C6F6E67 		.ascii	"long int\000"
 1171      20696E74 
 1171      00
 1172              	.LASF21:
 1173 01dd 73686966 		.ascii	"shift_irq_Disable\000"
 1173      745F6972 
 1173      715F4469 
 1173      7361626C 
 1173      6500
 1174              	.LASF0:
 1175 01ef 7369676E 		.ascii	"signed char\000"
 1175      65642063 
 1175      68617200 
 1176              	.LASF17:
 1177 01fb 73686966 		.ascii	"shift_irq_GetVector\000"
 1177      745F6972 
 1177      715F4765 
 1177      74566563 
 1177      746F7200 
 1178              	.LASF24:
 1179 020f 73686966 		.ascii	"shift_irq_Start\000"
 1179      745F6972 
 1179      715F5374 
 1179      61727400 
 1180              		.ident	"GCC: (Sourcery G++ Lite 2010q1-188) 4.4.1"
