G71*G90*G75*D02*
%ASAXBY*OFA0B0*MOMM*FSLAX43Y43*IPPOS*%
%ADD11C,0.100*%
%ADD13C,0.200*%
%ADD14C,0.250*%
%ADD16C,0.350*%
%ADD18C,0.550*%
%ADD20C,0.800*%
%ADD21C,1.000*%
%ADD22C,1.100*%
%ADD23C,1.600*%
%ADD25C,2.000*%
%ADD27C,4.000*%
%ADD29C,4.500*%
%ADD37R,0.800X0.800*%
G54D25*
G01X141351Y135254D03*
X143891D03*
X146432D03*
X148971D03*
X151511D03*
X154051Y135255D03*
X156591D03*
X159131D03*
X180975Y86995D03*
X178435Y86994D03*
X175895D03*
X173356D03*
X170815D03*
X168275D03*
G54D20*
X163195Y90488D03*
G54D18*
X120295Y128625D02*
Y116525D01*
X122873Y113983D01*
G54D20*
D03*
G54D25*
X174308Y119064D03*
Y121603D03*
Y124144D03*
Y126683D03*
Y129224D03*
G54D20*
X164148Y122555D03*
Y121603D03*
Y120650D03*
X172403Y108903D03*
X173673D03*
X162560Y101600D03*
G54D21*
X173673Y108903D02*
X172403D01*
G54D20*
X139700Y110173D03*
X140653D03*
X145733Y101918D03*
Y100965D03*
G54D21*
X164148Y120650D02*
Y122555D01*
G54D14*
X141288Y107633D02*
X145415D01*
G54D20*
X141288D03*
X140653Y106680D03*
G54D14*
X145415D01*
X147955Y108268D02*
X145415Y105728D01*
G54D20*
X142558Y104775D03*
G54D14*
X145415D01*
Y105728D02*
X141605D01*
X145415Y104775D02*
X148273Y107633D01*
X145415Y106680D02*
X147638Y108903D01*
X145415Y107633D02*
X147320Y109538D01*
G54D20*
X148273Y110808D03*
G54D14*
X147320Y109538D02*
X166688D01*
G54D20*
D03*
X167323Y108585D03*
G54D14*
X166370D02*
X167323D01*
X147638Y108903D02*
X166053D01*
X166370Y108585D01*
G54D20*
X167958Y107633D03*
G54D14*
X166370D01*
X165735Y108268D02*
X147955D01*
X166370Y107633D02*
X165735Y108268D01*
X148273Y107633D02*
X165418D01*
G54D20*
X167323Y106680D03*
G54D14*
X165418Y107633D02*
X166370Y106680D01*
X167323D01*
G54D21*
X172403Y108903D02*
X169228D01*
X165735Y112395D01*
X147638D02*
X144145Y108903D01*
G54D20*
X154940Y127635D03*
X170180Y129540D03*
X169228Y128588D03*
G54D14*
X154940Y127635D02*
X170815D01*
G54D20*
D03*
G54D14*
X153670Y128270D02*
Y127635D01*
G54D20*
D03*
G54D14*
X153988Y128588D02*
X153670Y128270D01*
X169228Y128588D02*
X153988D01*
Y129540D02*
X170180D01*
X152083Y127635D02*
X153988Y129540D01*
G54D20*
X152083Y127635D03*
G54D21*
X162560Y126365D02*
X142240D01*
G54D20*
D03*
G54D21*
X164148Y124778D02*
X162560Y126365D01*
X164148Y122555D02*
Y124778D01*
G54D20*
X135255Y123508D03*
G54D21*
X138113Y126365D02*
X135255Y123508D01*
X142240Y126365D02*
X138113D01*
G54D23*
X120015Y110808D03*
X125095D03*
G54D21*
Y113665D02*
X122238Y110808D01*
X120015D01*
G54D14*
X171133Y110490D02*
X171768D01*
G54D20*
X173673Y110173D03*
G54D14*
X171768Y110490D02*
X172085Y110173D01*
X173673D01*
X174943D02*
Y108585D01*
X173990Y107633D01*
G54D20*
X155893Y98743D03*
X157163Y95250D03*
G54D16*
Y99378D02*
Y95250D01*
G54D20*
X155575Y92075D03*
G54D21*
X155893Y92393D02*
X155575Y92075D01*
G54D20*
X153035Y93663D03*
X132715Y92075D03*
G54D21*
X134303Y90488D02*
X132715Y92075D01*
G54D20*
X127635Y100013D03*
G54D21*
X135573Y92075D02*
X127635Y100013D01*
X155575Y92075D02*
X135573D01*
G54D20*
X139383Y100013D03*
G54D21*
Y95568D01*
X141288Y93663D01*
X139383Y107950D02*
Y100013D01*
X144145Y108903D02*
X140335D01*
X139383Y107950D01*
X164148Y120650D02*
X167958Y116840D01*
G54D20*
X172403Y113665D03*
G54D14*
X148273Y110808D02*
X158750D01*
G54D20*
D03*
X167958Y113348D03*
X141605Y119698D03*
G54D16*
Y121603D01*
G54D20*
X145733Y124143D03*
G54D21*
X135255Y123508D02*
Y113983D01*
G54D20*
D03*
G54D21*
X172720Y129223D02*
X174308D01*
X172403Y128905D02*
X172720Y129223D01*
X172403Y127000D02*
Y128905D01*
G54D20*
X139700Y111125D03*
X143193Y126365D03*
X144145D03*
G54D21*
X167958Y116840D02*
Y112395D01*
G54D20*
D03*
Y114300D03*
X153988Y93663D03*
G54D21*
X141288D02*
X153988D01*
G54D20*
X152083D03*
X155893Y99695D03*
G54D21*
X157798Y101600D02*
X155893Y99695D01*
Y97790D01*
Y92393D01*
G54D20*
Y97790D03*
Y93028D03*
X154623Y92075D03*
X163513Y101600D03*
X161608D03*
G54D21*
X157798D01*
X163513D02*
X161608D01*
G54D20*
X131763Y92075D03*
X130810D03*
G54D21*
X132715D02*
X130810D01*
G54D20*
X128588Y100013D03*
X126683D03*
G54D21*
X128588D02*
X126683D01*
G54D20*
X134620Y113348D03*
X133985Y112713D03*
X127635Y108268D03*
G54D21*
Y100013D01*
X135255Y113983D02*
X131128Y109855D01*
G54D20*
X129223D03*
G54D21*
X131128D02*
X129223D01*
X127635Y108268D01*
G54D20*
X128270Y108903D03*
G54D13*
X140653Y118745D02*
X142558D01*
Y120333D01*
X143193D01*
X146685Y123825D01*
Y125095D01*
X145098D01*
X143193Y123190D01*
X141923D01*
X140653Y121920D01*
Y118745D01*
G54D37*
X122555Y102400D03*
Y100800D03*
G54D13*
X123825Y103188D02*
Y99060D01*
X121285D01*
Y103188D01*
X123825D01*
G54D20*
X122555Y100013D03*
G54D18*
Y100648D01*
G54D16*
X120968Y102553D02*
X124143D01*
X122555D02*
Y103823D01*
G54D21*
X174308Y126683D02*
X176530D01*
G54D37*
X169380Y110490D03*
X170980D03*
G54D25*
X163258Y135254D03*
X165798D03*
X168339D03*
X170878D03*
X173418D03*
X175958Y135255D03*
X178498D03*
X181038D03*
X163195Y86995D03*
X160655Y86994D03*
X158115D03*
X155576D03*
X153035D03*
X150495D03*
G54D20*
X135255Y132715D03*
X140335Y130175D03*
X137795Y122555D03*
Y117475D03*
X140335Y115570D03*
X147955Y122555D03*
Y127635D03*
X145415Y130175D03*
X150495D03*
Y125095D03*
X147955Y117475D03*
X150495Y114935D03*
X153035Y117475D03*
X155575Y114935D03*
X158115Y117475D03*
X153035Y112395D03*
X158115D03*
X163195Y131445D03*
X165418D03*
X161925Y122555D03*
Y123825D03*
Y125095D03*
X175895Y114935D03*
X180975D03*
X178435Y120015D03*
X180975Y125095D03*
Y132715D03*
X178435Y109855D03*
X180975Y104775D03*
X183515Y109855D03*
X175895Y92075D03*
X180975Y89535D03*
X183515Y97155D03*
X147955Y106045D03*
X153035D03*
X158115D03*
X153035Y97155D03*
X158115Y92075D03*
X163195D03*
X160655Y97155D03*
X165735D03*
Y86995D03*
X158115Y88900D03*
X160655D03*
X120015Y109220D03*
X121285D03*
X122555D03*
X123825D03*
X132715D03*
X135255D03*
X133985D03*
X127635Y112395D03*
X130175Y111443D03*
X120015Y94615D03*
Y92075D03*
Y86995D03*
X135255D03*
X137795Y104775D03*
X135255Y122555D03*
X130175Y103505D03*
X131763D03*
X133350D03*
X134938D03*
X121603D03*
X123190D03*
X124778D03*
X120015D03*
X178435Y130810D03*
X144780Y100965D03*
X141605Y105728D03*
X140970Y104140D03*
Y103188D03*
Y102235D03*
X141923Y103188D03*
X147955Y88900D03*
Y86995D03*
G54D21*
X163195Y90488D02*
X134303D01*
G54D20*
X140970Y92075D03*
X141923D03*
X142875D03*
X138430Y90488D03*
X140335D03*
X139383D03*
X136208Y94298D03*
X138430D03*
X145098Y95250D03*
X144145D03*
X143193D03*
X146050D03*
X137795D03*
X136843D03*
X137795Y97155D03*
X132715D03*
X150495Y95250D03*
X140335Y86995D03*
G54D23*
X123095Y121325D03*
G54D29*
X120295Y128625D03*
Y116525D03*
G54D23*
X125095Y123825D03*
Y121325D03*
X123095Y123825D03*
G54D14*
X125095D02*
Y132715D01*
X127635Y135255D02*
X130493Y132398D01*
G54D20*
D03*
G54D14*
X127635Y132715D02*
X129223Y131128D01*
X130493D01*
G54D20*
D03*
G54D14*
X123095Y123825D02*
Y125000D01*
X124460Y126365D02*
X123095Y125000D01*
X124460Y126365D02*
Y129540D01*
G54D20*
X137795Y135255D03*
X162243Y90488D03*
X161290D03*
X159385Y88900D03*
X138430Y100013D03*
X140335D03*
G54D21*
X138430D01*
G54D37*
X153823Y95568D03*
X155423D03*
G54D16*
X153670D02*
X152083D01*
G54D37*
X176683Y129223D03*
X178283D03*
G54D16*
X178435D02*
X179705D01*
X176530D02*
X174308D01*
G54D37*
X133185Y121285D03*
X134785D03*
G54D16*
X133033D02*
X131763D01*
G54D37*
X169380Y107315D03*
X170980D03*
X169380Y105410D03*
X170980D03*
X169380Y103505D03*
X170980D03*
G54D20*
X172403Y107633D03*
G54D14*
X173990D02*
X172403D01*
G54D20*
X172085Y106363D03*
X173673D03*
G54D21*
X172085D02*
X175578D01*
G54D14*
X171133Y103505D02*
X171768Y104140D01*
G54D20*
D03*
X172403Y105093D03*
G54D14*
X171768D02*
X172403D01*
X171133Y105410D02*
X171450D01*
X171768Y105093D01*
G54D16*
X171133Y107315D02*
X172085Y106363D01*
G54D37*
X162078Y112395D03*
X163678D03*
G54D21*
X165735D02*
X163830D01*
X161925D02*
X147638D01*
G54D13*
X137478Y100965D02*
X138430D01*
X137478Y99060D02*
Y100965D01*
X138430Y99060D02*
X137478D01*
X138430Y95250D02*
Y99060D01*
X140653Y93028D02*
X138430Y95250D01*
X135890Y93028D02*
X140653D01*
X129540Y99378D02*
X135890Y93028D01*
X129540Y100965D02*
Y99378D01*
X128588Y100965D02*
X129540D01*
X128588Y107950D02*
Y100965D01*
X129540Y108903D02*
X128588Y107950D01*
X131445Y108903D02*
X129540D01*
X136208Y113665D02*
X131445Y108903D01*
X136208Y123190D02*
Y113665D01*
X138430Y125413D02*
X136208Y123190D01*
X162243Y125413D02*
X138430D01*
X163195Y124460D02*
X162243Y125413D01*
X163195Y120333D02*
Y124460D01*
X167005Y116523D02*
X163195Y120333D01*
X167005Y113348D02*
Y116523D01*
X147320Y113348D02*
X167005D01*
X143828Y109855D02*
X147320Y113348D01*
X140018Y109855D02*
X143828D01*
X138430Y108268D02*
X140018Y109855D01*
X138430Y100965D02*
Y108268D01*
X140653Y118745D02*
X142558D01*
X140653Y121920D02*
Y118745D01*
X141923Y123190D02*
X140653Y121920D01*
X143193Y123190D02*
X141923D01*
X145098Y125095D02*
X143193Y123190D01*
X146685Y125095D02*
X145098D01*
X146685Y123825D02*
Y125095D01*
X143193Y120333D02*
X146685Y123825D01*
X142558Y120333D02*
X143193D01*
X142558Y118745D02*
Y120333D01*
X135748Y93170D02*
X140510D01*
X135558Y93360D02*
X140320D01*
X135368Y93550D02*
X140130D01*
X135178Y93740D02*
X139940D01*
X134988Y93930D02*
X139750D01*
X134798Y94120D02*
X139560D01*
X134608Y94310D02*
X139370D01*
X134418Y94500D02*
X139180D01*
X134228Y94690D02*
X138990D01*
X134038Y94880D02*
X138800D01*
X133848Y95070D02*
X138610D01*
X133658Y95260D02*
X138430D01*
X133468Y95450D02*
X138430D01*
X133278Y95640D02*
X138430D01*
X133088Y95830D02*
X138430D01*
X132898Y96020D02*
X138430D01*
X132708Y96210D02*
X138430D01*
X132518Y96400D02*
X138430D01*
X132328Y96590D02*
X138430D01*
X132138Y96780D02*
X138430D01*
X131948Y96970D02*
X138430D01*
X131758Y97160D02*
X138430D01*
X131568Y97350D02*
X138430D01*
X131378Y97540D02*
X138430D01*
X131188Y97730D02*
X138430D01*
X130998Y97920D02*
X138430D01*
X130808Y98110D02*
X138430D01*
X130618Y98300D02*
X138430D01*
X130428Y98490D02*
X138430D01*
X130238Y98680D02*
X138430D01*
X130048Y98870D02*
X138430D01*
X129857Y99060D02*
X137478D01*
X129667Y99250D02*
X137478D01*
X129540Y99440D02*
X137478D01*
X129540Y99630D02*
X137478D01*
X129540Y99820D02*
X137478D01*
X129540Y100010D02*
X137478D01*
X129540Y100200D02*
X137478D01*
X129540Y100390D02*
X137478D01*
X129540Y100580D02*
X137478D01*
X129540Y100770D02*
X137478D01*
X129540Y100960D02*
X137478D01*
X128588Y101150D02*
X138430D01*
X128588Y101340D02*
X138430D01*
X128588Y101530D02*
X138430D01*
X128588Y101720D02*
X138430D01*
X128588Y101910D02*
X138430D01*
X128588Y102100D02*
X138430D01*
X128588Y102290D02*
X138430D01*
X128588Y102480D02*
X138430D01*
X128588Y102670D02*
X138430D01*
X128588Y102860D02*
X138430D01*
X128588Y103050D02*
X138430D01*
X128588Y103240D02*
X138430D01*
X128588Y103430D02*
X138430D01*
X128588Y103620D02*
X138430D01*
X128588Y103810D02*
X138430D01*
X128588Y104000D02*
X138430D01*
X128588Y104190D02*
X138430D01*
X128588Y104380D02*
X138430D01*
X128588Y104570D02*
X138430D01*
X128588Y104760D02*
X138430D01*
X128588Y104950D02*
X138430D01*
X128588Y105140D02*
X138430D01*
X128588Y105330D02*
X138430D01*
X128588Y105520D02*
X138430D01*
X128588Y105710D02*
X138430D01*
X128588Y105900D02*
X138430D01*
X128588Y106090D02*
X138430D01*
X128588Y106280D02*
X138430D01*
X128588Y106470D02*
X138430D01*
X128588Y106660D02*
X138430D01*
X128588Y106850D02*
X138430D01*
X128588Y107040D02*
X138430D01*
X128588Y107230D02*
X138430D01*
X128588Y107420D02*
X138430D01*
X128588Y107610D02*
X138430D01*
X128588Y107800D02*
X138430D01*
X128628Y107990D02*
X138430D01*
X128818Y108180D02*
X138430D01*
X129008Y108370D02*
X138533D01*
X129198Y108560D02*
X138723D01*
X129388Y108750D02*
X138913D01*
X131483Y108940D02*
X139103D01*
X131673Y109130D02*
X139293D01*
X131863Y109320D02*
X139483D01*
X132053Y109510D02*
X139673D01*
X132243Y109700D02*
X139863D01*
X132433Y109890D02*
X143863D01*
X132623Y110080D02*
X144053D01*
X132813Y110270D02*
X144243D01*
X133003Y110460D02*
X144433D01*
X133193Y110650D02*
X144623D01*
X133383Y110840D02*
X144813D01*
X133573Y111030D02*
X145003D01*
X133763Y111220D02*
X145193D01*
X133953Y111410D02*
X145383D01*
X134143Y111600D02*
X145573D01*
X134333Y111790D02*
X145763D01*
X134523Y111980D02*
X145953D01*
X134713Y112170D02*
X146143D01*
X134903Y112360D02*
X146333D01*
X135093Y112550D02*
X146523D01*
X135283Y112740D02*
X146713D01*
X135473Y112930D02*
X146903D01*
X135663Y113120D02*
X147093D01*
X135853Y113310D02*
X147283D01*
X136043Y113500D02*
X167005D01*
X136208Y113690D02*
X167005D01*
X136208Y113880D02*
X167005D01*
X136208Y114070D02*
X167005D01*
X136208Y114260D02*
X167005D01*
X136208Y114450D02*
X167005D01*
X136208Y114640D02*
X167005D01*
X136208Y114830D02*
X167005D01*
X136208Y115020D02*
X167005D01*
X136208Y115210D02*
X167005D01*
X136208Y115400D02*
X167005D01*
X136208Y115590D02*
X167005D01*
X136208Y115780D02*
X167005D01*
X136208Y115970D02*
X167005D01*
X136208Y116160D02*
X167005D01*
X136208Y116350D02*
X167005D01*
X136208Y116540D02*
X166988D01*
X136208Y116730D02*
X166798D01*
X136208Y116920D02*
X166608D01*
X136208Y117110D02*
X166418D01*
X136208Y117300D02*
X166228D01*
X136208Y117490D02*
X166038D01*
X136208Y117680D02*
X165848D01*
X136208Y117870D02*
X165658D01*
X136208Y118060D02*
X165468D01*
X136208Y118250D02*
X165278D01*
X136208Y118440D02*
X165088D01*
X136208Y118630D02*
X164898D01*
X136208Y118820D02*
X140653D01*
X142558D02*
X164708D01*
X136208Y119010D02*
X140653D01*
X142558D02*
X164518D01*
X136208Y119200D02*
X140653D01*
X142558D02*
X164328D01*
X136208Y119390D02*
X140653D01*
X142558D02*
X164138D01*
X136208Y119580D02*
X140653D01*
X142558D02*
X163948D01*
X136208Y119770D02*
X140653D01*
X142558D02*
X163758D01*
X136208Y119960D02*
X140653D01*
X142558D02*
X163568D01*
X136208Y120150D02*
X140653D01*
X142558D02*
X163378D01*
X136208Y120340D02*
X140653D01*
X143200D02*
X163195D01*
X136208Y120530D02*
X140653D01*
X143390D02*
X163195D01*
X136208Y120720D02*
X140653D01*
X143580D02*
X163195D01*
X136208Y120910D02*
X140653D01*
X143770D02*
X163195D01*
X136208Y121100D02*
X140653D01*
X143960D02*
X163195D01*
X136208Y121290D02*
X140653D01*
X144150D02*
X163195D01*
X136208Y121480D02*
X140653D01*
X144340D02*
X163195D01*
X136208Y121670D02*
X140653D01*
X144530D02*
X163195D01*
X136208Y121860D02*
X140653D01*
X144720D02*
X163195D01*
X136208Y122050D02*
X140784D01*
X144910D02*
X163195D01*
X136208Y122240D02*
X140974D01*
X145100D02*
X163195D01*
X136208Y122430D02*
X141164D01*
X145290D02*
X163195D01*
X136208Y122620D02*
X141354D01*
X145480D02*
X163195D01*
X136208Y122810D02*
X141544D01*
X145670D02*
X163195D01*
X136208Y123000D02*
X141734D01*
X145860D02*
X163195D01*
X136208Y123190D02*
X143194D01*
X146050D02*
X163195D01*
X136398Y123380D02*
X143384D01*
X146240D02*
X163195D01*
X136588Y123570D02*
X143574D01*
X146430D02*
X163195D01*
X136778Y123760D02*
X143764D01*
X146620D02*
X163195D01*
X136968Y123950D02*
X143954D01*
X146685D02*
X163195D01*
X137158Y124140D02*
X144144D01*
X146685D02*
X163195D01*
X137348Y124330D02*
X144334D01*
X146685D02*
X163195D01*
X137538Y124520D02*
X144524D01*
X146685D02*
X163135D01*
X137728Y124710D02*
X144714D01*
X146685D02*
X162945D01*
X137918Y124900D02*
X144904D01*
X146685D02*
X162755D01*
X138108Y125090D02*
X145094D01*
X146685D02*
X162565D01*
X138298Y125280D02*
X162375D01*
G54D11*
X124345Y119325D02*
X125845D01*
Y118275D01*
X124345D01*
Y119325D01*
Y119230D02*
X125845D01*
X124345Y119135D02*
X125845D01*
X124345Y119040D02*
X125845D01*
X124345Y118945D02*
X125845D01*
X124345Y118850D02*
X125845D01*
X124345Y118755D02*
X125845D01*
X124345Y118660D02*
X125845D01*
X124345Y118565D02*
X125845D01*
X124345Y118470D02*
X125845D01*
X124345Y118375D02*
X125845D01*
X124345Y118280D02*
X125845D01*
X124345Y116675D02*
X125845D01*
Y115625D01*
X124345D01*
Y116675D01*
Y116580D02*
X125845D01*
X124345Y116485D02*
X125845D01*
X124345Y116390D02*
X125845D01*
X124345Y116295D02*
X125845D01*
X124345Y116200D02*
X125845D01*
X124345Y116105D02*
X125845D01*
X124345Y116010D02*
X125845D01*
X124345Y115915D02*
X125845D01*
X124345Y115820D02*
X125845D01*
X124345Y115725D02*
X125845D01*
X124345Y115630D02*
X125845D01*
G54D21*
X125095Y121285D02*
Y119063D01*
Y115888D02*
Y113665D01*
G54D14*
X142875Y121285D02*
X145733Y124143D01*
G54D20*
X142875Y121285D03*
X142558Y122555D03*
G54D16*
X141605Y121603D02*
X142558Y122555D01*
G54D20*
X141605Y123825D03*
Y124778D03*
X130175Y123825D03*
Y121285D03*
Y122238D03*
X126365Y126048D03*
G54D14*
X130175Y123825D02*
X128588D01*
X126365Y126048D01*
G54D20*
X153670Y121920D03*
X154940D03*
G54D23*
X122556Y135255D03*
X125096D03*
X127636D03*
X122556Y132715D03*
X125096D03*
X127636D03*
G54D14*
X123825Y133985D02*
X125095Y135255D01*
X123825Y130175D02*
Y133985D01*
X124460Y129540D02*
X123825Y130175D01*
G54D21*
X164148Y124778D02*
X168910D01*
G54D37*
X170333Y124143D03*
X171933D03*
G54D16*
X172085D02*
X174308D01*
G54D21*
X171450Y126048D02*
X172403Y127000D01*
X170180Y126048D02*
X171450D01*
X168910Y124778D02*
X170180Y126048D01*
G54D16*
Y124143D02*
X169228Y125095D01*
G54D37*
X169380Y112395D03*
X170980D03*
X169380Y114300D03*
X170980D03*
G54D18*
X169228D02*
Y103505D01*
G54D14*
X172403Y113665D02*
X171768Y114300D01*
X171133D01*
X172720Y112395D02*
X174943Y110173D01*
X171133Y112395D02*
X172720D01*
G54D13*
X175436Y110632D02*
X185738D01*
X175246Y110822D02*
X185738D01*
X175056Y111012D02*
X185738D01*
X174866Y111202D02*
X185738D01*
X174676Y111392D02*
X185738D01*
X174486Y111582D02*
X185738D01*
X174296Y111772D02*
X185738D01*
X174106Y111962D02*
X185738D01*
X173916Y112152D02*
X185738D01*
X173726Y112342D02*
X185738D01*
X173536Y112532D02*
X185738D01*
X173355Y112722D02*
X185738D01*
X173355Y112912D02*
X185738D01*
X173355Y113102D02*
X185738D01*
X173355Y113292D02*
X185738D01*
X173355Y113482D02*
X185738D01*
X173355Y113672D02*
X185738D01*
X173355Y113862D02*
X185738D01*
X173286Y114052D02*
X185738D01*
X173096Y114242D02*
X185738D01*
X172906Y114432D02*
X185738D01*
X172716Y114622D02*
X185738D01*
X172526Y114812D02*
X185738D01*
X172336Y115002D02*
X185738D01*
X172146Y115192D02*
X185738D01*
X171956Y115382D02*
X185738D01*
X168910Y115572D02*
X185738D01*
X168910Y115762D02*
X185738D01*
X168910Y115952D02*
X185738D01*
X168910Y116142D02*
X185738D01*
X168910Y116332D02*
X185738D01*
X168910Y116522D02*
X185738D01*
X168910Y116712D02*
X185738D01*
X168910Y116902D02*
X185738D01*
X168910Y117092D02*
X185738D01*
X168910Y117282D02*
X185738D01*
X168910Y117472D02*
X185738D01*
X168722Y117662D02*
X173168D01*
X175448D02*
X185738D01*
X168532Y117852D02*
X172978D01*
X175638D02*
X185738D01*
X168342Y118042D02*
X172788D01*
X175828D02*
X185738D01*
X168152Y118232D02*
X172720D01*
X175895D02*
X185738D01*
X167962Y118422D02*
X172720D01*
X175895D02*
X185738D01*
X167772Y118612D02*
X172720D01*
X175895D02*
X185738D01*
X167582Y118802D02*
X172720D01*
X175895D02*
X185738D01*
X167392Y118992D02*
X172720D01*
X175895D02*
X185738D01*
X126365Y119182D02*
X134303D01*
X167202D02*
X172720D01*
X175895D02*
X185738D01*
X126365Y119372D02*
X134303D01*
X167012D02*
X172720D01*
X175895D02*
X185738D01*
X126365Y119562D02*
X134303D01*
X166822D02*
X172720D01*
X175895D02*
X185738D01*
X126365Y119752D02*
X134303D01*
X166632D02*
X172720D01*
X175895D02*
X185738D01*
X126365Y119942D02*
X134303D01*
X166442D02*
X172720D01*
X175895D02*
X185738D01*
X126365Y120132D02*
X134303D01*
X166252D02*
X172720D01*
X175895D02*
X185738D01*
X126365Y120322D02*
X134303D01*
X166062D02*
X172720D01*
X175895D02*
X185738D01*
X126365Y120512D02*
X132398D01*
X165872D02*
X172720D01*
X175895D02*
X185738D01*
X126365Y120702D02*
X132398D01*
X165682D02*
X172720D01*
X175895D02*
X185738D01*
X126365Y120892D02*
X132398D01*
X165492D02*
X172720D01*
X175895D02*
X185738D01*
X126365Y121082D02*
X132398D01*
X165302D02*
X172720D01*
X175895D02*
X185738D01*
X126365Y121272D02*
X132398D01*
X165112D02*
X172720D01*
X175895D02*
X185738D01*
X126365Y121462D02*
X132398D01*
X165100D02*
X172720D01*
X175895D02*
X185738D01*
X126365Y121652D02*
X132398D01*
X165100D02*
X172720D01*
X175895D02*
X185738D01*
X126365Y121842D02*
X132398D01*
X165100D02*
X172720D01*
X175895D02*
X185738D01*
X126365Y122032D02*
X132398D01*
X165100D02*
X172720D01*
X175895D02*
X185738D01*
X126365Y122222D02*
X132398D01*
X165100D02*
X172720D01*
X175895D02*
X185738D01*
X126365Y122412D02*
X134303D01*
X165100D02*
X172720D01*
X175895D02*
X185564D01*
X126365Y122602D02*
X134303D01*
X165100D02*
X172720D01*
X175895D02*
X185374D01*
X126365Y122792D02*
X134303D01*
X165100D02*
X172720D01*
X175895D02*
X185184D01*
X126365Y122982D02*
X128478D01*
X131128D02*
X134303D01*
X165100D02*
X169753D01*
X175895D02*
X184994D01*
X126365Y123172D02*
X128288D01*
X131128D02*
X134303D01*
X165100D02*
X169563D01*
X175895D02*
X184804D01*
X126365Y123362D02*
X128098D01*
X131128D02*
X134303D01*
X165100D02*
X169373D01*
X175895D02*
X184614D01*
X126365Y123552D02*
X127908D01*
X131128D02*
X134303D01*
X165100D02*
X169183D01*
X175895D02*
X184424D01*
X126365Y123742D02*
X127718D01*
X131128D02*
X134303D01*
X165100D02*
X168993D01*
X175895D02*
X184234D01*
X126365Y123932D02*
X127528D01*
X131128D02*
X134303D01*
X175895D02*
X184044D01*
X126365Y124122D02*
X127338D01*
X131128D02*
X134303D01*
X175895D02*
X183854D01*
X126365Y124312D02*
X127148D01*
X131128D02*
X134472D01*
X175895D02*
X183664D01*
X126365Y124502D02*
X126958D01*
X131128D02*
X134662D01*
X175895D02*
X183474D01*
X126365Y124692D02*
X126768D01*
X131128D02*
X134852D01*
X175895D02*
X183284D01*
X126365Y124882D02*
X126578D01*
X128800D02*
X135042D01*
X175895D02*
X183198D01*
X126365Y125072D02*
X126388D01*
X128610D02*
X135232D01*
X175895D02*
X183198D01*
X128420Y125262D02*
X135422D01*
X175895D02*
X183198D01*
X128230Y125452D02*
X135612D01*
X175895D02*
X183198D01*
X128041Y125642D02*
X135802D01*
X175895D02*
X183198D01*
X127850Y125832D02*
X135992D01*
X175895D02*
X183198D01*
X127660Y126022D02*
X136182D01*
X175895D02*
X183198D01*
X127470Y126212D02*
X136372D01*
X175895D02*
X183198D01*
X127280Y126402D02*
X136562D01*
X175895D02*
X183198D01*
X127090Y126592D02*
X136752D01*
X175895D02*
X183198D01*
X126900Y126782D02*
X136942D01*
X175895D02*
X183198D01*
X126710Y126972D02*
X137132D01*
X175895D02*
X183198D01*
X126520Y127162D02*
X137322D01*
X175895D02*
X183198D01*
X126330Y127352D02*
X150530D01*
X175895D02*
X183198D01*
X126140Y127542D02*
X150720D01*
X175895D02*
X183198D01*
X126048Y127732D02*
X150910D01*
X175895D02*
X183198D01*
X126048Y127922D02*
X151100D01*
X175895D02*
X183198D01*
X126048Y128113D02*
X151290D01*
X175895D02*
X183198D01*
X126048Y128303D02*
X151480D01*
X179070D02*
X183198D01*
X126048Y128492D02*
X151670D01*
X179070D02*
X183198D01*
X126048Y128682D02*
X151860D01*
X179070D02*
X183198D01*
X126048Y128872D02*
X152050D01*
X179070D02*
X183198D01*
X126048Y129062D02*
X152240D01*
X179070D02*
X183198D01*
X126048Y129252D02*
X152430D01*
X179070D02*
X183198D01*
X126048Y129442D02*
X152620D01*
X179070D02*
X183198D01*
X126048Y129632D02*
X152810D01*
X179070D02*
X183198D01*
X126048Y129822D02*
X153000D01*
X179070D02*
X183198D01*
X126048Y130012D02*
X153190D01*
X179070D02*
X183198D01*
X126048Y130202D02*
X129196D01*
X131445D02*
X169572D01*
X175868D02*
X183198D01*
X126048Y130393D02*
X129006D01*
X131445D02*
X169762D01*
X175678D02*
X183198D01*
X126048Y130583D02*
X128815D01*
X131445D02*
X173128D01*
X175488D02*
X183198D01*
X126048Y130773D02*
X128625D01*
X131445D02*
X173318D01*
X175298D02*
X183198D01*
X126048Y130962D02*
X128435D01*
X131445D02*
X183198D01*
X131445Y131152D02*
X183198D01*
X131445Y131342D02*
X183198D01*
X131445Y131532D02*
X183198D01*
X131445Y131722D02*
X183198D01*
X131445Y131912D02*
X183198D01*
X131445Y132102D02*
X183198D01*
X131445Y132292D02*
X183198D01*
X131445Y132482D02*
X183198D01*
X131445Y132672D02*
X183198D01*
X131298Y132862D02*
X183198D01*
X131108Y133052D02*
X183198D01*
X130917Y133242D02*
X183198D01*
X130727Y133432D02*
X183198D01*
X130538Y133622D02*
X183198D01*
X130348Y133812D02*
X139700D01*
X130175Y134002D02*
X139700D01*
X130175Y134192D02*
X139700D01*
X130175Y134382D02*
X139700D01*
X130175Y134572D02*
X139700D01*
X130175Y134762D02*
X139700D01*
X130175Y134952D02*
X139700D01*
X130175Y135142D02*
X139700D01*
X130175Y135332D02*
X139700D01*
X130175Y135522D02*
X139700D01*
X130175Y135712D02*
X139700D01*
X130175Y135902D02*
X139700D01*
X130175Y136092D02*
X139700D01*
X130175Y136282D02*
X139700D01*
X130175Y136472D02*
X139700D01*
X130175Y136662D02*
X139700D01*
X130175Y136852D02*
X139700D01*
X130175Y137042D02*
X139700D01*
X130175Y137232D02*
X139700D01*
X130175Y137422D02*
X139700D01*
X168910Y117475D02*
Y115570D01*
X165100Y121285D02*
X168910Y117475D01*
X165100Y123825D02*
Y121285D01*
X168910Y123825D02*
X165100D01*
X169863Y122873D02*
X168910Y123825D01*
X172720Y122873D02*
X169863D01*
X172720Y118110D02*
Y122873D01*
X173355Y117475D02*
X172720Y118110D01*
X175260Y117475D02*
X173355D01*
X175895Y118110D02*
X175260Y117475D01*
X175895Y128270D02*
Y118110D01*
X179070Y128270D02*
X175895D01*
X179070Y130175D02*
Y128270D01*
X175895Y130175D02*
X179070D01*
X175260Y130810D02*
X175895Y130175D01*
X173355Y130810D02*
X175260D01*
X173038Y130493D02*
X173355Y130810D01*
X169863Y130493D02*
X173038D01*
X169545Y130175D02*
X169863Y130493D01*
X153353Y130175D02*
X169545D01*
X150495Y127318D02*
X153353Y130175D01*
X137478Y127318D02*
X150495D01*
X134303Y124143D02*
X137478Y127318D01*
X134303Y122238D02*
Y124143D01*
X132398Y122238D02*
X134303D01*
X132398Y120333D02*
Y122238D01*
X134303Y120333D02*
X132398D01*
X134303Y119063D02*
Y120333D01*
X126365Y119063D02*
X134303D01*
X126365Y125095D02*
Y119063D01*
X128588Y122873D02*
X126365Y125095D01*
X131128Y122873D02*
X128588D01*
X131128Y124778D02*
Y122873D01*
X128905Y124778D02*
X131128D01*
X126048Y127635D02*
X128905Y124778D01*
X126048Y131128D02*
Y127635D01*
X128270Y131128D02*
X126048D01*
X129223Y130175D02*
X128270Y131128D01*
X131445Y130175D02*
X129223D01*
X131445Y132715D02*
Y130175D01*
X130175Y133985D02*
X131445Y132715D01*
X130175Y137478D02*
Y133985D01*
Y137478D02*
X139700D01*
Y133668D01*
X183198D01*
Y124778D01*
X185738Y122238D01*
Y110490D01*
X175578D02*
X185738D01*
X173355Y112713D02*
X175578Y110490D01*
X173355Y113983D02*
Y112713D01*
X171768Y115570D02*
X173355Y113983D01*
X168910Y115570D02*
X171768D01*
G54D22*
X143891Y135254D02*
Y133033D01*
G54D21*
X158115Y88900D02*
Y86995D01*
X160655D01*
Y88900D01*
G54D27*
X122556Y92076D03*
X127636D03*
X125096Y87631D03*
G54D20*
X127635Y114618D03*
X141923Y86995D03*
G54D25*
X174625Y95884D03*
X180975D03*
X174625Y100330D03*
X180975D03*
G54D16*
X158115D02*
X157163Y99378D01*
X174625Y100331D02*
X158115Y100330D01*
G54D13*
X180023Y101918D02*
X181928D01*
X179388Y101283D02*
X180023Y101918D01*
X179388Y99378D02*
Y101283D01*
X180023Y98743D02*
X179388Y99378D01*
X181928Y98743D02*
X180023D01*
X182563Y99378D02*
X181928Y98743D01*
Y101918D02*
X182563Y101283D01*
Y99378D01*
X175578Y97473D02*
X176213Y96838D01*
Y94933D01*
X175578Y94298D01*
X179388Y96838D02*
X180023Y97473D01*
X181928D01*
X182563Y96838D01*
Y94933D01*
X181928Y94298D01*
X180023D01*
X179388Y94933D02*
Y96838D01*
X180023Y94298D02*
X179388Y94933D01*
G54D18*
X178753Y95885D02*
X183198D01*
X180975Y97790D02*
Y93980D01*
G54D20*
X177800Y98108D03*
Y94298D03*
G54D18*
X174625Y95885D02*
X176848D01*
X174625Y97790D02*
Y93663D01*
G54D13*
X158433Y99378D02*
X166370D01*
X158115Y99060D02*
X158433Y99378D01*
X158115Y94298D02*
Y99060D01*
X157163Y94298D02*
X158115D01*
X157163Y91440D02*
Y94298D01*
X164148Y91440D02*
X157163D01*
X164148Y89535D02*
Y91440D01*
X133985Y89535D02*
X164148D01*
X132398Y91123D02*
X133985Y89535D01*
X130493Y91123D02*
X132398D01*
X128588Y89218D02*
X130493Y91123D01*
X126683Y89218D02*
X128588D01*
X125095Y90805D02*
X126683Y89218D01*
X125095Y93345D02*
Y90805D01*
X126683Y94933D02*
X125095Y93345D01*
X128588Y94933D02*
X126683D01*
X130493Y93028D02*
X128588Y94933D01*
X133350Y93028D02*
X130493D01*
X127318Y99060D02*
X133350Y93028D01*
X125730Y99060D02*
X127318D01*
X125730Y100965D02*
Y99060D01*
X126683Y100965D02*
X125730D01*
X126683Y108585D02*
Y100965D01*
X128905Y110808D02*
X126683Y108585D01*
X130810Y110808D02*
X128905D01*
X134303Y114300D02*
X130810Y110808D01*
X134303Y119380D02*
Y114300D01*
X126365Y119380D02*
X134303D01*
X126365D02*
Y110173D01*
X125730Y109538D01*
X117793D01*
Y84773D01*
X148908D01*
Y87948D02*
Y84773D01*
X149543Y88583D02*
X148908Y87948D01*
X164148Y88583D02*
X149543D01*
X164783Y87948D02*
X164148Y88583D01*
X164783Y84773D02*
Y87948D01*
X166370Y84773D02*
X164783D01*
X166370Y99378D02*
Y84773D01*
X123825Y99060D02*
X121285D01*
X123825Y103188D02*
Y99060D01*
X121285Y103188D02*
X123825D01*
X121285Y99060D02*
Y103188D01*
X117793Y84916D02*
X148908D01*
X164783D02*
X166370D01*
X117793Y85105D02*
X148908D01*
X164783D02*
X166370D01*
X117793Y85295D02*
X148908D01*
X164783D02*
X166370D01*
X117793Y85485D02*
X148908D01*
X164783D02*
X166370D01*
X117793Y85675D02*
X148908D01*
X164783D02*
X166370D01*
X117793Y85865D02*
X148908D01*
X164783D02*
X166370D01*
X117793Y86055D02*
X148908D01*
X164783D02*
X166370D01*
X117793Y86245D02*
X148908D01*
X164783D02*
X166370D01*
X117793Y86435D02*
X148908D01*
X164783D02*
X166370D01*
X117793Y86625D02*
X148908D01*
X164783D02*
X166370D01*
X117793Y86815D02*
X148908D01*
X164783D02*
X166370D01*
X117793Y87005D02*
X148908D01*
X164783D02*
X166370D01*
X117793Y87195D02*
X148908D01*
X164783D02*
X166370D01*
X117793Y87385D02*
X148908D01*
X164783D02*
X166370D01*
X117793Y87575D02*
X148908D01*
X164783D02*
X166370D01*
X117793Y87765D02*
X148908D01*
X164783D02*
X166370D01*
X117793Y87955D02*
X148915D01*
X164776D02*
X166370D01*
X117793Y88145D02*
X149105D01*
X164586D02*
X166370D01*
X117793Y88335D02*
X149295D01*
X164396D02*
X166370D01*
X117793Y88525D02*
X149485D01*
X164206D02*
X166370D01*
X117793Y88715D02*
X166370D01*
X117793Y88905D02*
X166370D01*
X117793Y89095D02*
X166370D01*
X117793Y89285D02*
X126615D01*
X128655D02*
X166370D01*
X117793Y89475D02*
X126425D01*
X128845D02*
X166370D01*
X117793Y89665D02*
X126235D01*
X129035D02*
X133855D01*
X164148D02*
X166370D01*
X117793Y89855D02*
X126045D01*
X129225D02*
X133665D01*
X164148D02*
X166370D01*
X117793Y90045D02*
X125855D01*
X129415D02*
X133475D01*
X164148D02*
X166370D01*
X117793Y90235D02*
X125665D01*
X129605D02*
X133285D01*
X164148D02*
X166370D01*
X117793Y90425D02*
X125475D01*
X129795D02*
X133095D01*
X164148D02*
X166370D01*
X117793Y90615D02*
X125285D01*
X129985D02*
X132905D01*
X164148D02*
X166370D01*
X117793Y90805D02*
X125095D01*
X130175D02*
X132715D01*
X164148D02*
X166370D01*
X117793Y90995D02*
X125095D01*
X130365D02*
X132525D01*
X164148D02*
X166370D01*
X117793Y91185D02*
X125095D01*
X164148D02*
X166370D01*
X117793Y91375D02*
X125095D01*
X164148D02*
X166370D01*
X117793Y91565D02*
X125095D01*
X157163D02*
X166370D01*
X117793Y91755D02*
X125095D01*
X157163D02*
X166370D01*
X117793Y91945D02*
X125095D01*
X157163D02*
X166370D01*
X117793Y92135D02*
X125095D01*
X157163D02*
X166370D01*
X117793Y92325D02*
X125095D01*
X157163D02*
X166370D01*
X117793Y92515D02*
X125095D01*
X157163D02*
X166370D01*
X117793Y92705D02*
X125095D01*
X157163D02*
X166370D01*
X117793Y92895D02*
X125095D01*
X157163D02*
X166370D01*
X117793Y93085D02*
X125095D01*
X130436D02*
X133293D01*
X157163D02*
X166370D01*
X117793Y93275D02*
X125095D01*
X130246D02*
X133103D01*
X157163D02*
X166370D01*
X117793Y93465D02*
X125215D01*
X130056D02*
X132913D01*
X157163D02*
X166370D01*
X117793Y93655D02*
X125405D01*
X129866D02*
X132723D01*
X157163D02*
X166370D01*
X117793Y93845D02*
X125595D01*
X129676D02*
X132533D01*
X157163D02*
X166370D01*
X117793Y94035D02*
X125785D01*
X129486D02*
X132343D01*
X157163D02*
X166370D01*
X117793Y94225D02*
X125975D01*
X129296D02*
X132153D01*
X157163D02*
X166370D01*
X117793Y94415D02*
X126165D01*
X129106D02*
X131963D01*
X158115D02*
X166370D01*
X117793Y94605D02*
X126355D01*
X128916D02*
X131773D01*
X158115D02*
X166370D01*
X117793Y94795D02*
X126545D01*
X128726D02*
X131583D01*
X158115D02*
X166370D01*
X117793Y94985D02*
X131393D01*
X158115D02*
X166370D01*
X117793Y95175D02*
X131203D01*
X158115D02*
X166370D01*
X117793Y95365D02*
X131013D01*
X158115D02*
X166370D01*
X117793Y95555D02*
X130823D01*
X158115D02*
X166370D01*
X117793Y95745D02*
X130633D01*
X158115D02*
X166370D01*
X117793Y95935D02*
X130443D01*
X158115D02*
X166370D01*
X117793Y96125D02*
X130253D01*
X158115D02*
X166370D01*
X117793Y96315D02*
X130063D01*
X158115D02*
X166370D01*
X117793Y96505D02*
X129873D01*
X158115D02*
X166370D01*
X117793Y96695D02*
X129683D01*
X158115D02*
X166370D01*
X117793Y96885D02*
X129493D01*
X158115D02*
X166370D01*
X117793Y97075D02*
X129303D01*
X158115D02*
X166370D01*
X117793Y97265D02*
X129113D01*
X158115D02*
X166370D01*
X117793Y97455D02*
X128923D01*
X158115D02*
X166370D01*
X117793Y97645D02*
X128733D01*
X158115D02*
X166370D01*
X117793Y97835D02*
X128543D01*
X158115D02*
X166370D01*
X117793Y98025D02*
X128353D01*
X158115D02*
X166370D01*
X117793Y98215D02*
X128163D01*
X158115D02*
X166370D01*
X117793Y98405D02*
X127973D01*
X158115D02*
X166370D01*
X117793Y98595D02*
X127783D01*
X158115D02*
X166370D01*
X117793Y98785D02*
X127593D01*
X158115D02*
X166370D01*
X117793Y98975D02*
X127403D01*
X158115D02*
X166370D01*
X117793Y99165D02*
X121285D01*
X123825D02*
X125730D01*
X158220D02*
X166370D01*
X117793Y99355D02*
X121285D01*
X123825D02*
X125730D01*
X158410D02*
X166370D01*
X117793Y99545D02*
X121285D01*
X123825D02*
X125730D01*
X117793Y99735D02*
X121285D01*
X123825D02*
X125730D01*
X117793Y99925D02*
X121285D01*
X123825D02*
X125730D01*
X117793Y100115D02*
X121285D01*
X123825D02*
X125730D01*
X117793Y100305D02*
X121285D01*
X123825D02*
X125730D01*
X117793Y100495D02*
X121285D01*
X123825D02*
X125730D01*
X117793Y100685D02*
X121285D01*
X123825D02*
X125730D01*
X117793Y100875D02*
X121285D01*
X123825D02*
X125730D01*
X117793Y101065D02*
X121285D01*
X123825D02*
X126683D01*
X117793Y101255D02*
X121285D01*
X123825D02*
X126683D01*
X117793Y101445D02*
X121285D01*
X123825D02*
X126683D01*
X117793Y101635D02*
X121285D01*
X123825D02*
X126683D01*
X117793Y101825D02*
X121285D01*
X123825D02*
X126683D01*
X117793Y102015D02*
X121285D01*
X123825D02*
X126683D01*
X117793Y102205D02*
X121285D01*
X123825D02*
X126683D01*
X117793Y102395D02*
X121285D01*
X123825D02*
X126683D01*
X117793Y102585D02*
X121285D01*
X123825D02*
X126683D01*
X117793Y102775D02*
X121285D01*
X123825D02*
X126683D01*
X117793Y102965D02*
X121285D01*
X123825D02*
X126683D01*
X117793Y103155D02*
X121285D01*
X123825D02*
X126683D01*
X117793Y103345D02*
X126683D01*
X117793Y103535D02*
X126683D01*
X117793Y103725D02*
X126683D01*
X117793Y103915D02*
X126683D01*
X117793Y104105D02*
X126683D01*
X117793Y104295D02*
X126683D01*
X117793Y104485D02*
X126683D01*
X117793Y104675D02*
X126683D01*
X117793Y104865D02*
X126683D01*
X117793Y105055D02*
X126683D01*
X117793Y105245D02*
X126683D01*
X117793Y105435D02*
X126683D01*
X117793Y105625D02*
X126683D01*
X117793Y105815D02*
X126683D01*
X117793Y106005D02*
X126683D01*
X117793Y106195D02*
X126683D01*
X117793Y106385D02*
X126683D01*
X117793Y106575D02*
X126683D01*
X117793Y106765D02*
X126683D01*
X117793Y106955D02*
X126683D01*
X117793Y107145D02*
X126683D01*
X117793Y107335D02*
X126683D01*
X117793Y107525D02*
X126683D01*
X117793Y107715D02*
X126683D01*
X117793Y107905D02*
X126683D01*
X117793Y108095D02*
X126683D01*
X117793Y108285D02*
X126683D01*
X117793Y108475D02*
X126683D01*
X117793Y108665D02*
X126763D01*
X117793Y108855D02*
X126953D01*
X117793Y109045D02*
X127143D01*
X117793Y109235D02*
X127333D01*
X117793Y109425D02*
X127523D01*
X125807Y109615D02*
X127713D01*
X125997Y109805D02*
X127903D01*
X126187Y109995D02*
X128093D01*
X126365Y110185D02*
X128283D01*
X126365Y110375D02*
X128473D01*
X126365Y110565D02*
X128663D01*
X126365Y110755D02*
X128853D01*
X126365Y110945D02*
X130948D01*
X126365Y111135D02*
X131138D01*
X126365Y111325D02*
X131328D01*
X126365Y111515D02*
X131518D01*
X126365Y111705D02*
X131708D01*
X126365Y111895D02*
X131898D01*
X126365Y112085D02*
X132088D01*
X126365Y112275D02*
X132278D01*
X126365Y112465D02*
X132468D01*
X126365Y112655D02*
X132658D01*
X126365Y112845D02*
X132848D01*
X126365Y113035D02*
X133038D01*
X126365Y113225D02*
X133228D01*
X126365Y113415D02*
X133418D01*
X126365Y113605D02*
X133608D01*
X126365Y113795D02*
X133798D01*
X126365Y113985D02*
X133988D01*
X126365Y114175D02*
X134178D01*
X126365Y114365D02*
X134303D01*
X126365Y114555D02*
X134303D01*
X126365Y114745D02*
X134303D01*
X126365Y114935D02*
X134303D01*
X126365Y115125D02*
X134303D01*
X126365Y115315D02*
X134303D01*
X126365Y115505D02*
X134303D01*
X126365Y115695D02*
X134303D01*
X126365Y115885D02*
X134303D01*
X126365Y116075D02*
X134303D01*
X126365Y116265D02*
X134303D01*
X126365Y116455D02*
X134303D01*
X126365Y116645D02*
X134303D01*
X126365Y116835D02*
X134303D01*
X126365Y117025D02*
X134303D01*
X126365Y117215D02*
X134303D01*
X126365Y117405D02*
X134303D01*
X126365Y117595D02*
X134303D01*
X126365Y117785D02*
X134303D01*
X126365Y117975D02*
X134303D01*
X126365Y118165D02*
X134303D01*
X126365Y118355D02*
X134303D01*
X126365Y118545D02*
X134303D01*
X126365Y118735D02*
X134303D01*
X126365Y118925D02*
X134303D01*
X126365Y119115D02*
X134303D01*
X126365Y119305D02*
X134303D01*
X173673Y97473D02*
X175578D01*
Y94298D02*
X173673D01*
X173038Y94933D01*
Y96838D02*
X173673Y97473D01*
X173038Y94933D02*
Y96838D01*
X148590Y106998D02*
X165100D01*
X145415Y103823D02*
X148590Y106998D01*
X142240Y103823D02*
X145415D01*
X140335Y105728D02*
X142240Y103823D01*
X140335Y105728D02*
Y100965D01*
X141288D01*
Y99060D01*
X140335D01*
Y95885D01*
X141605Y94615D01*
X153035D01*
Y96838D01*
X154940D01*
Y100013D01*
X157480Y102553D01*
X164465D01*
Y101283D01*
X173038D01*
X173673Y101918D01*
X175578D01*
X176213Y101283D01*
Y99378D01*
X175578Y98743D01*
X173673D01*
X173038Y99378D01*
X166053D01*
Y84773D01*
X166688D01*
Y87948D01*
X167323Y88583D01*
X184468D01*
X185738Y89853D02*
X184468Y88583D01*
X185738Y111125D02*
Y89853D01*
X175578Y111125D02*
X185738D01*
X175578Y108268D02*
Y111125D01*
X174625Y107315D02*
X175578Y108268D01*
X174625Y105728D02*
Y107315D01*
X171450Y102553D02*
X174625Y105728D01*
X168275Y102553D02*
X171450D01*
X168275Y105728D02*
Y102553D01*
X166370Y105728D02*
X168275D01*
X165100Y106998D02*
X166370Y105728D01*
X175578Y94298D02*
X173673D01*
X176213Y94933D02*
X175578Y94298D01*
X176213Y96838D02*
Y94933D01*
X175578Y97473D02*
X176213Y96838D01*
X173673Y97473D02*
X175578D01*
X173038Y96838D02*
X173673Y97473D01*
X173038Y94933D02*
Y96838D01*
X173673Y94298D02*
X173038Y94933D01*
X181928Y94298D02*
X180023D01*
X182563Y94933D02*
X181928Y94298D01*
X182563Y96838D02*
Y94933D01*
X181928Y97473D02*
X182563Y96838D01*
X180023Y97473D02*
X181928D01*
X179388Y96838D02*
X180023Y97473D01*
X179388Y94933D02*
Y96838D01*
X180023Y94298D02*
X179388Y94933D01*
X181928Y98743D02*
X180023D01*
X182563Y99378D02*
X181928Y98743D01*
X182563Y101283D02*
Y99378D01*
X181928Y101918D02*
X182563Y101283D01*
X180023Y101918D02*
X181928D01*
X179388Y101283D02*
X180023Y101918D01*
X179388Y99378D02*
Y101283D01*
X180023Y98743D02*
X179388Y99378D01*
X166053Y84916D02*
X166688D01*
X166053Y85105D02*
X166688D01*
X166053Y85295D02*
X166688D01*
X166053Y85485D02*
X166688D01*
X166053Y85675D02*
X166688D01*
X166053Y85865D02*
X166688D01*
X166053Y86055D02*
X166688D01*
X166053Y86245D02*
X166688D01*
X166053Y86435D02*
X166688D01*
X166053Y86625D02*
X166688D01*
X166053Y86815D02*
X166688D01*
X166053Y87005D02*
X166688D01*
X166053Y87195D02*
X166688D01*
X166053Y87385D02*
X166688D01*
X166053Y87575D02*
X166688D01*
X166053Y87765D02*
X166688D01*
X166053Y87955D02*
X166695D01*
X166053Y88145D02*
X166885D01*
X166053Y88335D02*
X167075D01*
X166053Y88525D02*
X167265D01*
X166053Y88715D02*
X184600D01*
X166053Y88905D02*
X184790D01*
X166053Y89095D02*
X184980D01*
X166053Y89285D02*
X185170D01*
X166053Y89475D02*
X185360D01*
X166053Y89665D02*
X185550D01*
X166053Y89855D02*
X185738D01*
X166053Y90045D02*
X185738D01*
X166053Y90235D02*
X185738D01*
X166053Y90425D02*
X185738D01*
X166053Y90615D02*
X185738D01*
X166053Y90805D02*
X185738D01*
X166053Y90995D02*
X185738D01*
X166053Y91185D02*
X185738D01*
X166053Y91375D02*
X185738D01*
X166053Y91565D02*
X185738D01*
X166053Y91755D02*
X185738D01*
X166053Y91945D02*
X185738D01*
X166053Y92135D02*
X185738D01*
X166053Y92325D02*
X185738D01*
X166053Y92515D02*
X185738D01*
X166053Y92705D02*
X185738D01*
X166053Y92895D02*
X185738D01*
X166053Y93085D02*
X185738D01*
X166053Y93275D02*
X185738D01*
X166053Y93465D02*
X185738D01*
X166053Y93655D02*
X185738D01*
X166053Y93845D02*
X185738D01*
X166053Y94035D02*
X185738D01*
X166053Y94225D02*
X185738D01*
X166053Y94415D02*
X173556D01*
X175695D02*
X179906D01*
X182045D02*
X185738D01*
X166053Y94605D02*
X173366D01*
X175885D02*
X179716D01*
X182235D02*
X185738D01*
X141425Y94795D02*
X153035D01*
X166053D02*
X173176D01*
X176075D02*
X179526D01*
X182425D02*
X185738D01*
X141235Y94985D02*
X153035D01*
X166053D02*
X173038D01*
X176213D02*
X179388D01*
X182563D02*
X185738D01*
X141045Y95175D02*
X153035D01*
X166053D02*
X173038D01*
X176213D02*
X179388D01*
X182563D02*
X185738D01*
X140855Y95365D02*
X153035D01*
X166053D02*
X173038D01*
X176213D02*
X179388D01*
X182563D02*
X185738D01*
X140665Y95555D02*
X153035D01*
X166053D02*
X173038D01*
X176213D02*
X179388D01*
X182563D02*
X185738D01*
X140475Y95745D02*
X153035D01*
X166053D02*
X173038D01*
X176213D02*
X179388D01*
X182563D02*
X185738D01*
X140335Y95935D02*
X153035D01*
X166053D02*
X173038D01*
X176213D02*
X179388D01*
X182563D02*
X185738D01*
X140335Y96125D02*
X153035D01*
X166053D02*
X173038D01*
X176213D02*
X179388D01*
X182563D02*
X185738D01*
X140335Y96315D02*
X153035D01*
X166053D02*
X173038D01*
X176213D02*
X179388D01*
X182563D02*
X185738D01*
X140335Y96505D02*
X153035D01*
X166053D02*
X173038D01*
X176213D02*
X179388D01*
X182563D02*
X185738D01*
X140335Y96695D02*
X153035D01*
X166053D02*
X173038D01*
X176213D02*
X179388D01*
X182563D02*
X185738D01*
X140335Y96885D02*
X154940D01*
X166053D02*
X173085D01*
X176166D02*
X179435D01*
X182516D02*
X185738D01*
X140335Y97075D02*
X154940D01*
X166053D02*
X173275D01*
X175976D02*
X179625D01*
X182326D02*
X185738D01*
X140335Y97265D02*
X154940D01*
X166053D02*
X173465D01*
X175786D02*
X179815D01*
X182136D02*
X185738D01*
X140335Y97455D02*
X154940D01*
X166053D02*
X173655D01*
X175596D02*
X180005D01*
X181946D02*
X185738D01*
X140335Y97645D02*
X154940D01*
X166053D02*
X185738D01*
X140335Y97835D02*
X154940D01*
X166053D02*
X185738D01*
X140335Y98025D02*
X154940D01*
X166053D02*
X185738D01*
X140335Y98215D02*
X154940D01*
X166053D02*
X185738D01*
X140335Y98405D02*
X154940D01*
X166053D02*
X185738D01*
X140335Y98595D02*
X154940D01*
X166053D02*
X185738D01*
X140335Y98785D02*
X154940D01*
X166053D02*
X173631D01*
X175620D02*
X179981D01*
X181970D02*
X185738D01*
X140335Y98975D02*
X154940D01*
X166053D02*
X173441D01*
X175810D02*
X179791D01*
X182160D02*
X185738D01*
X141288Y99165D02*
X154940D01*
X166053D02*
X173251D01*
X176000D02*
X179601D01*
X182350D02*
X185738D01*
X141288Y99355D02*
X154940D01*
X166053D02*
X173061D01*
X176190D02*
X179411D01*
X182540D02*
X185738D01*
X141288Y99545D02*
X154940D01*
X176213D02*
X179388D01*
X182563D02*
X185738D01*
X141288Y99735D02*
X154940D01*
X176213D02*
X179388D01*
X182563D02*
X185738D01*
X141288Y99925D02*
X154940D01*
X176213D02*
X179388D01*
X182563D02*
X185738D01*
X141288Y100115D02*
X155042D01*
X176213D02*
X179388D01*
X182563D02*
X185738D01*
X141288Y100305D02*
X155232D01*
X176213D02*
X179388D01*
X182563D02*
X185738D01*
X141288Y100495D02*
X155422D01*
X176213D02*
X179388D01*
X182563D02*
X185738D01*
X141288Y100685D02*
X155612D01*
X176213D02*
X179388D01*
X182563D02*
X185738D01*
X141288Y100875D02*
X155802D01*
X176213D02*
X179388D01*
X182563D02*
X185738D01*
X140335Y101065D02*
X155992D01*
X176213D02*
X179388D01*
X182563D02*
X185738D01*
X140335Y101255D02*
X156182D01*
X176213D02*
X179388D01*
X182563D02*
X185738D01*
X140335Y101445D02*
X156372D01*
X164465D02*
X173200D01*
X176051D02*
X179550D01*
X182401D02*
X185738D01*
X140335Y101635D02*
X156562D01*
X164465D02*
X173390D01*
X175861D02*
X179740D01*
X182211D02*
X185738D01*
X140335Y101825D02*
X156752D01*
X164465D02*
X173580D01*
X175671D02*
X179930D01*
X182021D02*
X185738D01*
X140335Y102015D02*
X156942D01*
X164465D02*
X185738D01*
X140335Y102205D02*
X157132D01*
X164465D02*
X185738D01*
X140335Y102395D02*
X157322D01*
X164465D02*
X185738D01*
X140335Y102585D02*
X168275D01*
X171482D02*
X185738D01*
X140335Y102775D02*
X168275D01*
X171672D02*
X185738D01*
X140335Y102965D02*
X168275D01*
X171862D02*
X185738D01*
X140335Y103155D02*
X168275D01*
X172052D02*
X185738D01*
X140335Y103345D02*
X168275D01*
X172242D02*
X185738D01*
X140335Y103535D02*
X168275D01*
X172432D02*
X185738D01*
X140335Y103725D02*
X168275D01*
X172622D02*
X185738D01*
X140335Y103915D02*
X142148D01*
X145507D02*
X168275D01*
X172812D02*
X185738D01*
X140335Y104105D02*
X141958D01*
X145697D02*
X168275D01*
X173002D02*
X185738D01*
X140335Y104295D02*
X141768D01*
X145887D02*
X168275D01*
X173192D02*
X185738D01*
X140335Y104485D02*
X141578D01*
X146077D02*
X168275D01*
X173382D02*
X185738D01*
X140335Y104675D02*
X141388D01*
X146267D02*
X168275D01*
X173572D02*
X185738D01*
X140335Y104865D02*
X141198D01*
X146457D02*
X168275D01*
X173762D02*
X185738D01*
X140335Y105055D02*
X141008D01*
X146647D02*
X168275D01*
X173952D02*
X185738D01*
X140335Y105245D02*
X140818D01*
X146837D02*
X168275D01*
X174142D02*
X185738D01*
X140335Y105435D02*
X140628D01*
X147027D02*
X168275D01*
X174332D02*
X185738D01*
X140335Y105625D02*
X140438D01*
X147217D02*
X168275D01*
X174522D02*
X185738D01*
X147407Y105815D02*
X166283D01*
X174625D02*
X185738D01*
X147597Y106005D02*
X166093D01*
X174625D02*
X185738D01*
X147787Y106195D02*
X165903D01*
X174625D02*
X185738D01*
X147977Y106385D02*
X165713D01*
X174625D02*
X185738D01*
X148167Y106575D02*
X165523D01*
X174625D02*
X185738D01*
X148357Y106765D02*
X165333D01*
X174625D02*
X185738D01*
X148547Y106955D02*
X165143D01*
X174625D02*
X185738D01*
X174625Y107145D02*
X185738D01*
X174645Y107335D02*
X185738D01*
X174835Y107525D02*
X185738D01*
X175025Y107715D02*
X185738D01*
X175215Y107905D02*
X185738D01*
X175405Y108095D02*
X185738D01*
X175578Y108285D02*
X185738D01*
X175578Y108475D02*
X185738D01*
X175578Y108665D02*
X185738D01*
X175578Y108855D02*
X185738D01*
X175578Y109045D02*
X185738D01*
X175578Y109235D02*
X185738D01*
X175578Y109425D02*
X185738D01*
X175578Y109615D02*
X185738D01*
X175578Y109805D02*
X185738D01*
X175578Y109995D02*
X185738D01*
X175578Y110185D02*
X185738D01*
X175578Y110375D02*
X185738D01*
X175578Y110565D02*
X185738D01*
X175578Y110755D02*
X185738D01*
X175578Y110945D02*
X185738D01*
D02*
G01X0Y0*
M00*
