ARM GAS  C:\Users\SUZUKI~1\AppData\Local\Temp\ccK3leqY.s 			page 1


   1              		.syntax unified
   2              		.cpu cortex-m3
   3              		.fpu softvfp
   4              		.eabi_attribute 20, 1
   5              		.eabi_attribute 21, 1
   6              		.eabi_attribute 23, 3
   7              		.eabi_attribute 24, 1
   8              		.eabi_attribute 25, 1
   9              		.eabi_attribute 26, 1
  10              		.eabi_attribute 30, 2
  11              		.eabi_attribute 18, 4
  12              		.thumb
  13              		.file	"Clock_1.c"
  14              		.section	.debug_abbrev,"",%progbits
  15              	.Ldebug_abbrev0:
  16              		.section	.debug_info,"",%progbits
  17              	.Ldebug_info0:
  18              		.section	.debug_line,"",%progbits
  19              	.Ldebug_line0:
  20 0000 95010000 		.text
  20      02005F00 
  20      00000201 
  20      FB0E0D00 
  20      01010101 
  21              	.Ltext0:
  22              		.cfi_sections	.debug_frame
  23              		.section	.text.Clock_1_Start,"ax",%progbits
  24              		.align	2
  25              		.global	Clock_1_Start
  26              		.thumb
  27              		.thumb_func
  28              		.type	Clock_1_Start, %function
  29              	Clock_1_Start:
  30              	.LFB0:
  31              		.file 1 ".\\Generated_Source\\PSoC5\\Clock_1.c"
   1:.\Generated_Source\PSoC5/Clock_1.c **** /*******************************************************************************
   2:.\Generated_Source\PSoC5/Clock_1.c **** * File Name: Clock_1.c
   3:.\Generated_Source\PSoC5/Clock_1.c **** * Version 1.70
   4:.\Generated_Source\PSoC5/Clock_1.c **** *
   5:.\Generated_Source\PSoC5/Clock_1.c **** *  Description:
   6:.\Generated_Source\PSoC5/Clock_1.c **** *   This file provides the source code to the API for the clock component.
   7:.\Generated_Source\PSoC5/Clock_1.c **** *
   8:.\Generated_Source\PSoC5/Clock_1.c **** *  Note:
   9:.\Generated_Source\PSoC5/Clock_1.c **** *
  10:.\Generated_Source\PSoC5/Clock_1.c **** ********************************************************************************
  11:.\Generated_Source\PSoC5/Clock_1.c **** * Copyright 2008-2010, Cypress Semiconductor Corporation.  All rights reserved.
  12:.\Generated_Source\PSoC5/Clock_1.c **** * You may use this file only in accordance with the license, terms, conditions, 
  13:.\Generated_Source\PSoC5/Clock_1.c **** * disclaimers, and limitations in the end user license agreement accompanying 
  14:.\Generated_Source\PSoC5/Clock_1.c **** * the software package with which this file was provided.
  15:.\Generated_Source\PSoC5/Clock_1.c **** ********************************************************************************/
  16:.\Generated_Source\PSoC5/Clock_1.c **** 
  17:.\Generated_Source\PSoC5/Clock_1.c **** #include <cydevice_trm.h>
  18:.\Generated_Source\PSoC5/Clock_1.c **** #include "Clock_1.h"
  19:.\Generated_Source\PSoC5/Clock_1.c **** 
  20:.\Generated_Source\PSoC5/Clock_1.c **** /* Clock Distribution registers. */
  21:.\Generated_Source\PSoC5/Clock_1.c **** #define CLK_DIST_LD              (* (reg8 *) CYREG_CLKDIST_LD)
  22:.\Generated_Source\PSoC5/Clock_1.c **** #define CLK_DIST_BCFG2           (* (reg8 *) CYREG_CLKDIST_BCFG2)
ARM GAS  C:\Users\SUZUKI~1\AppData\Local\Temp\ccK3leqY.s 			page 2


  23:.\Generated_Source\PSoC5/Clock_1.c **** #define BCFG2_MASK               (0x80u)
  24:.\Generated_Source\PSoC5/Clock_1.c **** #define CLK_DIST_DMASK           (* (reg8 *) CYREG_CLKDIST_DMASK)
  25:.\Generated_Source\PSoC5/Clock_1.c **** #define CLK_DIST_AMASK           (* (reg8 *) CYREG_CLKDIST_AMASK)
  26:.\Generated_Source\PSoC5/Clock_1.c **** 
  27:.\Generated_Source\PSoC5/Clock_1.c **** #define HAS_CLKDIST_LD_DISABLE   (CY_PSOC3 || CY_PSOC5LP)
  28:.\Generated_Source\PSoC5/Clock_1.c **** 
  29:.\Generated_Source\PSoC5/Clock_1.c **** 
  30:.\Generated_Source\PSoC5/Clock_1.c **** /*******************************************************************************
  31:.\Generated_Source\PSoC5/Clock_1.c **** * Function Name: Clock_1_Start
  32:.\Generated_Source\PSoC5/Clock_1.c **** ********************************************************************************
  33:.\Generated_Source\PSoC5/Clock_1.c **** * Summary:
  34:.\Generated_Source\PSoC5/Clock_1.c **** *  Starts the clock. Note that on startup, clocks may be already running if the
  35:.\Generated_Source\PSoC5/Clock_1.c **** *  "Start on Reset" option is enabled in the DWR.
  36:.\Generated_Source\PSoC5/Clock_1.c **** *
  37:.\Generated_Source\PSoC5/Clock_1.c **** * Parameters:
  38:.\Generated_Source\PSoC5/Clock_1.c **** *  void
  39:.\Generated_Source\PSoC5/Clock_1.c **** *
  40:.\Generated_Source\PSoC5/Clock_1.c **** * Returns:
  41:.\Generated_Source\PSoC5/Clock_1.c **** *  void
  42:.\Generated_Source\PSoC5/Clock_1.c **** *
  43:.\Generated_Source\PSoC5/Clock_1.c **** *******************************************************************************/
  44:.\Generated_Source\PSoC5/Clock_1.c **** void Clock_1_Start(void) 
  45:.\Generated_Source\PSoC5/Clock_1.c **** {
  32              		.loc 1 45 0
  33              		.cfi_startproc
  34              		@ args = 0, pretend = 0, frame = 0
  35              		@ frame_needed = 0, uses_anonymous_args = 0
  36              		@ link register save eliminated.
  46:.\Generated_Source\PSoC5/Clock_1.c ****     /* Set the bit to enable the clock. */
  47:.\Generated_Source\PSoC5/Clock_1.c ****     Clock_1_CLKEN |= Clock_1_CLKEN_MASK;
  37              		.loc 1 47 0
  38 0000 44F2A233 		movw	r3, #:lower16:1073759138
  39 0004 C4F20003 		movt	r3, #:upper16:1073759138
  40 0008 1878     		ldrb	r0, [r3, #0]	@ zero_extendqisi2
  41 000a 40F00202 		orr	r2, r0, #2
  42 000e 1A70     		strb	r2, [r3, #0]
  48:.\Generated_Source\PSoC5/Clock_1.c **** }
  43              		.loc 1 48 0
  44 0010 7047     		bx	lr
  45              		.cfi_endproc
  46              	.LFE0:
  47              		.size	Clock_1_Start, .-Clock_1_Start
  48 0012 00BF     		.section	.text.Clock_1_Stop,"ax",%progbits
  49              		.align	2
  50              		.global	Clock_1_Stop
  51              		.thumb
  52              		.thumb_func
  53              		.type	Clock_1_Stop, %function
  54              	Clock_1_Stop:
  55              	.LFB1:
  49:.\Generated_Source\PSoC5/Clock_1.c **** 
  50:.\Generated_Source\PSoC5/Clock_1.c **** 
  51:.\Generated_Source\PSoC5/Clock_1.c **** /*******************************************************************************
  52:.\Generated_Source\PSoC5/Clock_1.c **** * Function Name: Clock_1_Stop
  53:.\Generated_Source\PSoC5/Clock_1.c **** ********************************************************************************
  54:.\Generated_Source\PSoC5/Clock_1.c **** * Summary:
  55:.\Generated_Source\PSoC5/Clock_1.c **** *  Stops the clock and returns immediately. This API does not require the
ARM GAS  C:\Users\SUZUKI~1\AppData\Local\Temp\ccK3leqY.s 			page 3


  56:.\Generated_Source\PSoC5/Clock_1.c **** *  source clock to be running but may return before the hardware is actually
  57:.\Generated_Source\PSoC5/Clock_1.c **** *  disabled. If the settings of the clock are changed after calling this
  58:.\Generated_Source\PSoC5/Clock_1.c **** *  function, the clock may glitch when it is started. To avoid the clock
  59:.\Generated_Source\PSoC5/Clock_1.c **** *  glitch, use the StopBlock function.
  60:.\Generated_Source\PSoC5/Clock_1.c **** *
  61:.\Generated_Source\PSoC5/Clock_1.c **** * Parameters:
  62:.\Generated_Source\PSoC5/Clock_1.c **** *  void
  63:.\Generated_Source\PSoC5/Clock_1.c **** *
  64:.\Generated_Source\PSoC5/Clock_1.c **** * Returns:
  65:.\Generated_Source\PSoC5/Clock_1.c **** *  void
  66:.\Generated_Source\PSoC5/Clock_1.c **** *
  67:.\Generated_Source\PSoC5/Clock_1.c **** *******************************************************************************/
  68:.\Generated_Source\PSoC5/Clock_1.c **** void Clock_1_Stop(void) 
  69:.\Generated_Source\PSoC5/Clock_1.c **** {
  56              		.loc 1 69 0
  57              		.cfi_startproc
  58              		@ args = 0, pretend = 0, frame = 0
  59              		@ frame_needed = 0, uses_anonymous_args = 0
  60              		@ link register save eliminated.
  70:.\Generated_Source\PSoC5/Clock_1.c ****     /* Clear the bit to disable the clock. */
  71:.\Generated_Source\PSoC5/Clock_1.c ****     Clock_1_CLKEN &= ~Clock_1_CLKEN_MASK;
  61              		.loc 1 71 0
  62 0000 44F2A233 		movw	r3, #:lower16:1073759138
  63 0004 C4F20003 		movt	r3, #:upper16:1073759138
  64 0008 1878     		ldrb	r0, [r3, #0]	@ zero_extendqisi2
  65 000a 00F0FD02 		and	r2, r0, #253
  66 000e 1A70     		strb	r2, [r3, #0]
  72:.\Generated_Source\PSoC5/Clock_1.c **** }
  67              		.loc 1 72 0
  68 0010 7047     		bx	lr
  69              		.cfi_endproc
  70              	.LFE1:
  71              		.size	Clock_1_Stop, .-Clock_1_Stop
  72              		.section	.text.Clock_1_StandbyPower,"ax",%progbits
  73              		.align	2
  74              		.global	Clock_1_StandbyPower
  75              		.thumb
  76              		.thumb_func
  77              		.type	Clock_1_StandbyPower, %function
  78              	Clock_1_StandbyPower:
  79              	.LFB2:
  73:.\Generated_Source\PSoC5/Clock_1.c **** 
  74:.\Generated_Source\PSoC5/Clock_1.c **** 
  75:.\Generated_Source\PSoC5/Clock_1.c **** #if(CY_PSOC3 || CY_PSOC5LP)
  76:.\Generated_Source\PSoC5/Clock_1.c **** /*******************************************************************************
  77:.\Generated_Source\PSoC5/Clock_1.c **** * Function Name: Clock_1_StopBlock
  78:.\Generated_Source\PSoC5/Clock_1.c **** ********************************************************************************
  79:.\Generated_Source\PSoC5/Clock_1.c **** * Summary:
  80:.\Generated_Source\PSoC5/Clock_1.c **** *  Stops the clock and waits for the hardware to actually be disabled before
  81:.\Generated_Source\PSoC5/Clock_1.c **** *  returning. This ensures that the clock is never truncated (high part of the
  82:.\Generated_Source\PSoC5/Clock_1.c **** *  cycle will terminate before the clock is disabled and the API returns).
  83:.\Generated_Source\PSoC5/Clock_1.c **** *  Note that the source clock must be running or this API will never return as
  84:.\Generated_Source\PSoC5/Clock_1.c **** *  a stopped clock cannot be disabled.
  85:.\Generated_Source\PSoC5/Clock_1.c **** *
  86:.\Generated_Source\PSoC5/Clock_1.c **** * Parameters:
  87:.\Generated_Source\PSoC5/Clock_1.c **** *  void
  88:.\Generated_Source\PSoC5/Clock_1.c **** *
ARM GAS  C:\Users\SUZUKI~1\AppData\Local\Temp\ccK3leqY.s 			page 4


  89:.\Generated_Source\PSoC5/Clock_1.c **** * Returns:
  90:.\Generated_Source\PSoC5/Clock_1.c **** *  void
  91:.\Generated_Source\PSoC5/Clock_1.c **** *
  92:.\Generated_Source\PSoC5/Clock_1.c **** *******************************************************************************/
  93:.\Generated_Source\PSoC5/Clock_1.c **** void Clock_1_StopBlock(void) 
  94:.\Generated_Source\PSoC5/Clock_1.c **** {
  95:.\Generated_Source\PSoC5/Clock_1.c ****     if (Clock_1_CLKEN & Clock_1_CLKEN_MASK)
  96:.\Generated_Source\PSoC5/Clock_1.c ****     {
  97:.\Generated_Source\PSoC5/Clock_1.c **** #if HAS_CLKDIST_LD_DISABLE
  98:.\Generated_Source\PSoC5/Clock_1.c ****         uint16 oldDivider;
  99:.\Generated_Source\PSoC5/Clock_1.c **** 
 100:.\Generated_Source\PSoC5/Clock_1.c ****         CLK_DIST_LD = 0;
 101:.\Generated_Source\PSoC5/Clock_1.c **** 
 102:.\Generated_Source\PSoC5/Clock_1.c ****         /* Clear all the mask bits except ours. */
 103:.\Generated_Source\PSoC5/Clock_1.c **** #if defined(Clock_1__CFG3)
 104:.\Generated_Source\PSoC5/Clock_1.c ****         CLK_DIST_AMASK = Clock_1_CLKEN_MASK;
 105:.\Generated_Source\PSoC5/Clock_1.c ****         CLK_DIST_DMASK = 0x00u;
 106:.\Generated_Source\PSoC5/Clock_1.c **** #else
 107:.\Generated_Source\PSoC5/Clock_1.c ****         CLK_DIST_DMASK = Clock_1_CLKEN_MASK;
 108:.\Generated_Source\PSoC5/Clock_1.c ****         CLK_DIST_AMASK = 0x00u;
 109:.\Generated_Source\PSoC5/Clock_1.c **** #endif
 110:.\Generated_Source\PSoC5/Clock_1.c **** 
 111:.\Generated_Source\PSoC5/Clock_1.c ****         /* Clear mask of bus clock. */
 112:.\Generated_Source\PSoC5/Clock_1.c ****         CLK_DIST_BCFG2 &= ~BCFG2_MASK;
 113:.\Generated_Source\PSoC5/Clock_1.c **** 
 114:.\Generated_Source\PSoC5/Clock_1.c ****         oldDivider = CY_GET_REG16(Clock_1_DIV_PTR);
 115:.\Generated_Source\PSoC5/Clock_1.c ****         CY_SET_REG16(CYREG_CLKDIST_WRK0, oldDivider);
 116:.\Generated_Source\PSoC5/Clock_1.c ****         CLK_DIST_LD = CYCLK_LD_DISABLE | CYCLK_LD_SYNC_EN | CYCLK_LD_LOAD;
 117:.\Generated_Source\PSoC5/Clock_1.c **** 
 118:.\Generated_Source\PSoC5/Clock_1.c ****         /* Wait for clock to be disabled */
 119:.\Generated_Source\PSoC5/Clock_1.c ****         while (CLK_DIST_LD & CYCLK_LD_LOAD) { }
 120:.\Generated_Source\PSoC5/Clock_1.c **** #endif
 121:.\Generated_Source\PSoC5/Clock_1.c **** 
 122:.\Generated_Source\PSoC5/Clock_1.c ****         /* Clear the bit to disable the clock. */
 123:.\Generated_Source\PSoC5/Clock_1.c ****         Clock_1_CLKEN &= ~Clock_1_CLKEN_MASK;
 124:.\Generated_Source\PSoC5/Clock_1.c **** 
 125:.\Generated_Source\PSoC5/Clock_1.c **** #if HAS_CLKDIST_LD_DISABLE
 126:.\Generated_Source\PSoC5/Clock_1.c ****         /* Clear the disable bit */
 127:.\Generated_Source\PSoC5/Clock_1.c ****         CLK_DIST_LD = 0x00u;
 128:.\Generated_Source\PSoC5/Clock_1.c ****         CY_SET_REG16(Clock_1_DIV_PTR, oldDivider);
 129:.\Generated_Source\PSoC5/Clock_1.c **** #endif
 130:.\Generated_Source\PSoC5/Clock_1.c ****     }
 131:.\Generated_Source\PSoC5/Clock_1.c **** }
 132:.\Generated_Source\PSoC5/Clock_1.c **** #endif
 133:.\Generated_Source\PSoC5/Clock_1.c **** 
 134:.\Generated_Source\PSoC5/Clock_1.c **** /*******************************************************************************
 135:.\Generated_Source\PSoC5/Clock_1.c **** * Function Name: Clock_1_StandbyPower
 136:.\Generated_Source\PSoC5/Clock_1.c **** ********************************************************************************
 137:.\Generated_Source\PSoC5/Clock_1.c **** * Summary:
 138:.\Generated_Source\PSoC5/Clock_1.c **** *  Sets whether the clock is active in standby mode.
 139:.\Generated_Source\PSoC5/Clock_1.c **** *
 140:.\Generated_Source\PSoC5/Clock_1.c **** * Parameters:
 141:.\Generated_Source\PSoC5/Clock_1.c **** *  state:  0 to disable clock during standby, nonzero to enable.
 142:.\Generated_Source\PSoC5/Clock_1.c **** *
 143:.\Generated_Source\PSoC5/Clock_1.c **** * Returns:
 144:.\Generated_Source\PSoC5/Clock_1.c **** *  void
 145:.\Generated_Source\PSoC5/Clock_1.c **** *
ARM GAS  C:\Users\SUZUKI~1\AppData\Local\Temp\ccK3leqY.s 			page 5


 146:.\Generated_Source\PSoC5/Clock_1.c **** *******************************************************************************/
 147:.\Generated_Source\PSoC5/Clock_1.c **** void Clock_1_StandbyPower(uint8 state) 
 148:.\Generated_Source\PSoC5/Clock_1.c **** {
  80              		.loc 1 148 0
  81              		.cfi_startproc
  82              		@ args = 0, pretend = 0, frame = 0
  83              		@ frame_needed = 0, uses_anonymous_args = 0
  84              		@ link register save eliminated.
  85              	.LVL0:
 149:.\Generated_Source\PSoC5/Clock_1.c ****     if(state == 0)
  86              		.loc 1 149 0
  87 0000 48B1     		cbz	r0, .L10
 150:.\Generated_Source\PSoC5/Clock_1.c ****     {
 151:.\Generated_Source\PSoC5/Clock_1.c ****         Clock_1_CLKSTBY &= ~Clock_1_CLKSTBY_MASK;
 152:.\Generated_Source\PSoC5/Clock_1.c ****     }
 153:.\Generated_Source\PSoC5/Clock_1.c ****     else
 154:.\Generated_Source\PSoC5/Clock_1.c ****     {
 155:.\Generated_Source\PSoC5/Clock_1.c ****         Clock_1_CLKSTBY |= Clock_1_CLKSTBY_MASK;
  88              		.loc 1 155 0
  89 0002 44F2B233 		movw	r3, #:lower16:1073759154
  90 0006 C4F20003 		movt	r3, #:upper16:1073759154
  91 000a 93F800C0 		ldrb	ip, [r3, #0]	@ zero_extendqisi2
  92 000e 4CF00201 		orr	r1, ip, #2
  93 0012 1970     		strb	r1, [r3, #0]
  94 0014 7047     		bx	lr
  95              	.L10:
  96              		.loc 1 151 0
  97 0016 44F2B233 		movw	r3, #:lower16:1073759154
  98 001a C4F20003 		movt	r3, #:upper16:1073759154
  99 001e 1878     		ldrb	r0, [r3, #0]	@ zero_extendqisi2
 100              	.LVL1:
 101 0020 00F0FD02 		and	r2, r0, #253
 102 0024 1A70     		strb	r2, [r3, #0]
 103 0026 7047     		bx	lr
 104              		.cfi_endproc
 105              	.LFE2:
 106              		.size	Clock_1_StandbyPower, .-Clock_1_StandbyPower
 107              		.section	.text.Clock_1_SetDividerRegister,"ax",%progbits
 108              		.align	2
 109              		.global	Clock_1_SetDividerRegister
 110              		.thumb
 111              		.thumb_func
 112              		.type	Clock_1_SetDividerRegister, %function
 113              	Clock_1_SetDividerRegister:
 114              	.LFB3:
 156:.\Generated_Source\PSoC5/Clock_1.c ****     }
 157:.\Generated_Source\PSoC5/Clock_1.c **** }
 158:.\Generated_Source\PSoC5/Clock_1.c **** 
 159:.\Generated_Source\PSoC5/Clock_1.c **** 
 160:.\Generated_Source\PSoC5/Clock_1.c **** /*******************************************************************************
 161:.\Generated_Source\PSoC5/Clock_1.c **** * Function Name: Clock_1_SetDividerRegister
 162:.\Generated_Source\PSoC5/Clock_1.c **** ********************************************************************************
 163:.\Generated_Source\PSoC5/Clock_1.c **** * Summary:
 164:.\Generated_Source\PSoC5/Clock_1.c **** *  Modifies the clock divider and, thus, the frequency. When the clock divider
 165:.\Generated_Source\PSoC5/Clock_1.c **** *  register is set to zero or changed from zero, the clock will be temporarily
 166:.\Generated_Source\PSoC5/Clock_1.c **** *  disabled in order to change the SSS mode bit. If the clock is enabled when
 167:.\Generated_Source\PSoC5/Clock_1.c **** *  SetDividerRegister is called, then the source clock must be running.
ARM GAS  C:\Users\SUZUKI~1\AppData\Local\Temp\ccK3leqY.s 			page 6


 168:.\Generated_Source\PSoC5/Clock_1.c **** *
 169:.\Generated_Source\PSoC5/Clock_1.c **** * Parameters:
 170:.\Generated_Source\PSoC5/Clock_1.c **** *  clkDivider:  Divider register value (0-65,535). This value is NOT the
 171:.\Generated_Source\PSoC5/Clock_1.c **** *    divider; the clock hardware divides by clkDivider plus one. For example,
 172:.\Generated_Source\PSoC5/Clock_1.c **** *    to divide the clock by 2, this parameter should be set to 1.
 173:.\Generated_Source\PSoC5/Clock_1.c **** *  restart:  If nonzero, restarts the clock divider: the current clock cycle
 174:.\Generated_Source\PSoC5/Clock_1.c **** *   will be truncated and the new divide value will take effect immediately. If
 175:.\Generated_Source\PSoC5/Clock_1.c **** *   zero, the new divide value will take effect at the end of the current clock
 176:.\Generated_Source\PSoC5/Clock_1.c **** *   cycle.
 177:.\Generated_Source\PSoC5/Clock_1.c **** *
 178:.\Generated_Source\PSoC5/Clock_1.c **** * Returns:
 179:.\Generated_Source\PSoC5/Clock_1.c **** *  void
 180:.\Generated_Source\PSoC5/Clock_1.c **** *
 181:.\Generated_Source\PSoC5/Clock_1.c **** *******************************************************************************/
 182:.\Generated_Source\PSoC5/Clock_1.c **** void Clock_1_SetDividerRegister(uint16 clkDivider, uint8 restart) 
 183:.\Generated_Source\PSoC5/Clock_1.c **** {
 115              		.loc 1 183 0
 116              		.cfi_startproc
 117              		@ args = 0, pretend = 0, frame = 0
 118              		@ frame_needed = 0, uses_anonymous_args = 0
 119              		@ link register save eliminated.
 120              	.LVL2:
 121 0000 70B4     		push	{r4, r5, r6}
 122              	.LCFI0:
 123              		.cfi_def_cfa_offset 12
 124              	.LBB10:
 125              	.LBB12:
 184:.\Generated_Source\PSoC5/Clock_1.c ****     uint8 enabled;
 185:.\Generated_Source\PSoC5/Clock_1.c **** 
 186:.\Generated_Source\PSoC5/Clock_1.c ****     uint8 currSrc = Clock_1_GetSourceRegister();
 187:.\Generated_Source\PSoC5/Clock_1.c ****     uint16 oldDivider = Clock_1_GetDividerRegister();
 188:.\Generated_Source\PSoC5/Clock_1.c **** 
 189:.\Generated_Source\PSoC5/Clock_1.c ****     if (clkDivider != oldDivider)
 190:.\Generated_Source\PSoC5/Clock_1.c ****     {
 191:.\Generated_Source\PSoC5/Clock_1.c ****         enabled = Clock_1_CLKEN & Clock_1_CLKEN_MASK;
 192:.\Generated_Source\PSoC5/Clock_1.c **** 
 193:.\Generated_Source\PSoC5/Clock_1.c ****         if (currSrc == CYCLK_SRC_SEL_CLK_SYNC_D && (oldDivider == 0 || clkDivider == 0))
 194:.\Generated_Source\PSoC5/Clock_1.c ****         {
 195:.\Generated_Source\PSoC5/Clock_1.c ****             /* Moving to/from SSS requires correct ordering to prevent halting the clock    */
 196:.\Generated_Source\PSoC5/Clock_1.c ****             if (oldDivider == 0 && clkDivider != 0)
 197:.\Generated_Source\PSoC5/Clock_1.c ****             {
 198:.\Generated_Source\PSoC5/Clock_1.c ****                 /* Moving away from SSS, set the divider first so when SSS is cleared we    */
 199:.\Generated_Source\PSoC5/Clock_1.c ****                 /* don't halt the clock.  Using the shadow load isn't required as the       */
 200:.\Generated_Source\PSoC5/Clock_1.c ****                 /* divider is ignored while SSS is set.                                     */
 201:.\Generated_Source\PSoC5/Clock_1.c ****                 CY_SET_REG16(Clock_1_DIV_PTR, clkDivider);
 202:.\Generated_Source\PSoC5/Clock_1.c ****                 Clock_1_MOD_SRC &= ~CYCLK_SSS;
 203:.\Generated_Source\PSoC5/Clock_1.c ****             }
 204:.\Generated_Source\PSoC5/Clock_1.c ****             else
 205:.\Generated_Source\PSoC5/Clock_1.c ****             {
 206:.\Generated_Source\PSoC5/Clock_1.c ****                 /* Moving to SSS, set SSS which then ignores the divider and we can set     */
 207:.\Generated_Source\PSoC5/Clock_1.c ****                 /* it without bothering with the shadow load.                               */
 208:.\Generated_Source\PSoC5/Clock_1.c ****                 Clock_1_MOD_SRC |= CYCLK_SSS;
 209:.\Generated_Source\PSoC5/Clock_1.c ****                 CY_SET_REG16(Clock_1_DIV_PTR, clkDivider);
 210:.\Generated_Source\PSoC5/Clock_1.c ****             }
 211:.\Generated_Source\PSoC5/Clock_1.c ****         }
 212:.\Generated_Source\PSoC5/Clock_1.c ****         else
 213:.\Generated_Source\PSoC5/Clock_1.c ****         {
ARM GAS  C:\Users\SUZUKI~1\AppData\Local\Temp\ccK3leqY.s 			page 7


 214:.\Generated_Source\PSoC5/Clock_1.c ****             if (enabled)
 215:.\Generated_Source\PSoC5/Clock_1.c ****             {
 216:.\Generated_Source\PSoC5/Clock_1.c ****                 CLK_DIST_LD = 0x00u;
 217:.\Generated_Source\PSoC5/Clock_1.c **** 
 218:.\Generated_Source\PSoC5/Clock_1.c ****                 /* Clear all the mask bits except ours. */
 219:.\Generated_Source\PSoC5/Clock_1.c **** #if defined(Clock_1__CFG3)
 220:.\Generated_Source\PSoC5/Clock_1.c ****                 CLK_DIST_AMASK = Clock_1_CLKEN_MASK;
 221:.\Generated_Source\PSoC5/Clock_1.c ****                 CLK_DIST_DMASK = 0x00u;
 222:.\Generated_Source\PSoC5/Clock_1.c **** #else
 223:.\Generated_Source\PSoC5/Clock_1.c ****                 CLK_DIST_DMASK = Clock_1_CLKEN_MASK;
 224:.\Generated_Source\PSoC5/Clock_1.c ****                 CLK_DIST_AMASK = 0x00u;
 225:.\Generated_Source\PSoC5/Clock_1.c **** #endif
 226:.\Generated_Source\PSoC5/Clock_1.c ****                 /* Clear mask of bus clock. */
 227:.\Generated_Source\PSoC5/Clock_1.c ****                 CLK_DIST_BCFG2 &= ~BCFG2_MASK;
 228:.\Generated_Source\PSoC5/Clock_1.c **** 
 229:.\Generated_Source\PSoC5/Clock_1.c **** #if HAS_CLKDIST_LD_DISABLE
 230:.\Generated_Source\PSoC5/Clock_1.c ****                 CY_SET_REG16(CYREG_CLKDIST_WRK0, oldDivider);
 231:.\Generated_Source\PSoC5/Clock_1.c ****                 CLK_DIST_LD = CYCLK_LD_DISABLE|CYCLK_LD_SYNC_EN|CYCLK_LD_LOAD;
 232:.\Generated_Source\PSoC5/Clock_1.c **** 
 233:.\Generated_Source\PSoC5/Clock_1.c ****                 /* Wait for clock to be disabled */
 234:.\Generated_Source\PSoC5/Clock_1.c ****                 while (CLK_DIST_LD & CYCLK_LD_LOAD) { }
 235:.\Generated_Source\PSoC5/Clock_1.c **** #endif
 236:.\Generated_Source\PSoC5/Clock_1.c **** 
 237:.\Generated_Source\PSoC5/Clock_1.c ****                 Clock_1_CLKEN &= ~Clock_1_CLKEN_MASK;
 238:.\Generated_Source\PSoC5/Clock_1.c **** 
 239:.\Generated_Source\PSoC5/Clock_1.c **** #if HAS_CLKDIST_LD_DISABLE
 240:.\Generated_Source\PSoC5/Clock_1.c ****                 /* Clear the disable bit */
 241:.\Generated_Source\PSoC5/Clock_1.c ****                 CLK_DIST_LD = 0x00u;
 242:.\Generated_Source\PSoC5/Clock_1.c **** #endif
 243:.\Generated_Source\PSoC5/Clock_1.c ****             }
 244:.\Generated_Source\PSoC5/Clock_1.c **** 
 245:.\Generated_Source\PSoC5/Clock_1.c ****             /* Load divide value. */
 246:.\Generated_Source\PSoC5/Clock_1.c ****             if (Clock_1_CLKEN & Clock_1_CLKEN_MASK)
 247:.\Generated_Source\PSoC5/Clock_1.c ****             {
 248:.\Generated_Source\PSoC5/Clock_1.c ****                 /* If the clock is still enabled, use the shadow registers */
 249:.\Generated_Source\PSoC5/Clock_1.c ****                 CY_SET_REG16(CYREG_CLKDIST_WRK0, clkDivider);
 250:.\Generated_Source\PSoC5/Clock_1.c **** 
 251:.\Generated_Source\PSoC5/Clock_1.c ****                 CLK_DIST_LD = (CYCLK_LD_LOAD | (restart ? CYCLK_LD_SYNC_EN : 0x00u));
 252:.\Generated_Source\PSoC5/Clock_1.c ****                 while (CLK_DIST_LD & CYCLK_LD_LOAD) { }
 253:.\Generated_Source\PSoC5/Clock_1.c ****             }
 254:.\Generated_Source\PSoC5/Clock_1.c ****             else
 255:.\Generated_Source\PSoC5/Clock_1.c ****             {
 256:.\Generated_Source\PSoC5/Clock_1.c ****                 /* If the clock is disabled, set the divider directly */
 257:.\Generated_Source\PSoC5/Clock_1.c ****                 CY_SET_REG16(Clock_1_DIV_PTR, clkDivider);
 258:.\Generated_Source\PSoC5/Clock_1.c ****             }
 259:.\Generated_Source\PSoC5/Clock_1.c **** 
 260:.\Generated_Source\PSoC5/Clock_1.c ****             Clock_1_CLKEN |= enabled;
 261:.\Generated_Source\PSoC5/Clock_1.c ****         }
 262:.\Generated_Source\PSoC5/Clock_1.c ****     }
 263:.\Generated_Source\PSoC5/Clock_1.c **** }
 264:.\Generated_Source\PSoC5/Clock_1.c **** 
 265:.\Generated_Source\PSoC5/Clock_1.c **** 
 266:.\Generated_Source\PSoC5/Clock_1.c **** /*******************************************************************************
 267:.\Generated_Source\PSoC5/Clock_1.c **** * Function Name: Clock_1_GetDividerRegister
 268:.\Generated_Source\PSoC5/Clock_1.c **** ********************************************************************************
 269:.\Generated_Source\PSoC5/Clock_1.c **** * Summary:
 270:.\Generated_Source\PSoC5/Clock_1.c **** *  Gets the clock divider register value.
ARM GAS  C:\Users\SUZUKI~1\AppData\Local\Temp\ccK3leqY.s 			page 8


 271:.\Generated_Source\PSoC5/Clock_1.c **** *
 272:.\Generated_Source\PSoC5/Clock_1.c **** * Parameters:
 273:.\Generated_Source\PSoC5/Clock_1.c **** *  void
 274:.\Generated_Source\PSoC5/Clock_1.c **** *
 275:.\Generated_Source\PSoC5/Clock_1.c **** * Returns:
 276:.\Generated_Source\PSoC5/Clock_1.c **** *  Divide value of the clock minus 1. For example, if the clock is set to
 277:.\Generated_Source\PSoC5/Clock_1.c **** *  divide by 2, the return value will be 1.
 278:.\Generated_Source\PSoC5/Clock_1.c **** *
 279:.\Generated_Source\PSoC5/Clock_1.c **** *******************************************************************************/
 280:.\Generated_Source\PSoC5/Clock_1.c **** uint16 Clock_1_GetDividerRegister(void) 
 281:.\Generated_Source\PSoC5/Clock_1.c **** {
 282:.\Generated_Source\PSoC5/Clock_1.c ****     return CY_GET_REG16(Clock_1_DIV_PTR);
 283:.\Generated_Source\PSoC5/Clock_1.c **** }
 284:.\Generated_Source\PSoC5/Clock_1.c **** 
 285:.\Generated_Source\PSoC5/Clock_1.c **** 
 286:.\Generated_Source\PSoC5/Clock_1.c **** /*******************************************************************************
 287:.\Generated_Source\PSoC5/Clock_1.c **** * Function Name: Clock_1_SetModeRegister
 288:.\Generated_Source\PSoC5/Clock_1.c **** ********************************************************************************
 289:.\Generated_Source\PSoC5/Clock_1.c **** * Summary:
 290:.\Generated_Source\PSoC5/Clock_1.c **** *  Sets flags that control the operating mode of the clock. This function only
 291:.\Generated_Source\PSoC5/Clock_1.c **** *  changes flags from 0 to 1; flags that are already 1 will remain unchanged.
 292:.\Generated_Source\PSoC5/Clock_1.c **** *  To clear flags, use the ClearModeRegister function. The clock must be
 293:.\Generated_Source\PSoC5/Clock_1.c **** *  disabled before changing the mode.
 294:.\Generated_Source\PSoC5/Clock_1.c **** *
 295:.\Generated_Source\PSoC5/Clock_1.c **** * Parameters:
 296:.\Generated_Source\PSoC5/Clock_1.c **** *  clkMode: Bit mask containing the bits to set. For PSoC 3 and PSoC 5,
 297:.\Generated_Source\PSoC5/Clock_1.c **** *   clkMode should be a set of the following optional bits or'ed together.
 298:.\Generated_Source\PSoC5/Clock_1.c **** *   - CYCLK_EARLY Enable early phase mode. Rising edge of output clock will
 299:.\Generated_Source\PSoC5/Clock_1.c **** *                 occur when the divider count reaches half of the divide
 300:.\Generated_Source\PSoC5/Clock_1.c **** *                 value.
 301:.\Generated_Source\PSoC5/Clock_1.c **** *   - CYCLK_DUTY  Enable 50% duty cycle output. When enabled, the output clock
 302:.\Generated_Source\PSoC5/Clock_1.c **** *                 is asserted for approximately half of its period. When
 303:.\Generated_Source\PSoC5/Clock_1.c **** *                 disabled, the output clock is asserted for one period of the
 304:.\Generated_Source\PSoC5/Clock_1.c **** *                 source clock.
 305:.\Generated_Source\PSoC5/Clock_1.c **** *   - CYCLK_SYNC  Enable output synchronization to master clock. This should
 306:.\Generated_Source\PSoC5/Clock_1.c **** *                 be enabled for all synchronous clocks.
 307:.\Generated_Source\PSoC5/Clock_1.c **** *   See the Technical Reference Manual for details about setting the mode of
 308:.\Generated_Source\PSoC5/Clock_1.c **** *   the clock. Specifically, see the CLKDIST.DCFG.CFG2 register.
 309:.\Generated_Source\PSoC5/Clock_1.c **** *
 310:.\Generated_Source\PSoC5/Clock_1.c **** * Returns:
 311:.\Generated_Source\PSoC5/Clock_1.c **** *  void
 312:.\Generated_Source\PSoC5/Clock_1.c **** *
 313:.\Generated_Source\PSoC5/Clock_1.c **** *******************************************************************************/
 314:.\Generated_Source\PSoC5/Clock_1.c **** void Clock_1_SetModeRegister(uint8 clkMode) 
 315:.\Generated_Source\PSoC5/Clock_1.c **** {
 316:.\Generated_Source\PSoC5/Clock_1.c ****     Clock_1_MOD_SRC |= clkMode & Clock_1_MODE_MASK;
 317:.\Generated_Source\PSoC5/Clock_1.c **** }
 318:.\Generated_Source\PSoC5/Clock_1.c **** 
 319:.\Generated_Source\PSoC5/Clock_1.c **** 
 320:.\Generated_Source\PSoC5/Clock_1.c **** /*******************************************************************************
 321:.\Generated_Source\PSoC5/Clock_1.c **** * Function Name: Clock_1_ClearModeRegister
 322:.\Generated_Source\PSoC5/Clock_1.c **** ********************************************************************************
 323:.\Generated_Source\PSoC5/Clock_1.c **** * Summary:
 324:.\Generated_Source\PSoC5/Clock_1.c **** *  Clears flags that control the operating mode of the clock. This function
 325:.\Generated_Source\PSoC5/Clock_1.c **** *  only changes flags from 1 to 0; flags that are already 0 will remain
 326:.\Generated_Source\PSoC5/Clock_1.c **** *  unchanged. To set flags, use the SetModeRegister function. The clock must be
 327:.\Generated_Source\PSoC5/Clock_1.c **** *  disabled before changing the mode.
ARM GAS  C:\Users\SUZUKI~1\AppData\Local\Temp\ccK3leqY.s 			page 9


 328:.\Generated_Source\PSoC5/Clock_1.c **** *
 329:.\Generated_Source\PSoC5/Clock_1.c **** * Parameters:
 330:.\Generated_Source\PSoC5/Clock_1.c **** *  clkMode: Bit mask containing the bits to clear. For PSoC 3 and PSoC 5,
 331:.\Generated_Source\PSoC5/Clock_1.c **** *   clkMode should be a set of the following optional bits or'ed together.
 332:.\Generated_Source\PSoC5/Clock_1.c **** *   - CYCLK_EARLY Enable early phase mode. Rising edge of output clock will
 333:.\Generated_Source\PSoC5/Clock_1.c **** *                 occur when the divider count reaches half of the divide
 334:.\Generated_Source\PSoC5/Clock_1.c **** *                 value.
 335:.\Generated_Source\PSoC5/Clock_1.c **** *   - CYCLK_DUTY  Enable 50% duty cycle output. When enabled, the output clock
 336:.\Generated_Source\PSoC5/Clock_1.c **** *                 is asserted for approximately half of its period. When
 337:.\Generated_Source\PSoC5/Clock_1.c **** *                 disabled, the output clock is asserted for one period of the
 338:.\Generated_Source\PSoC5/Clock_1.c **** *                 source clock.
 339:.\Generated_Source\PSoC5/Clock_1.c **** *   - CYCLK_SYNC  Enable output synchronization to master clock. This should
 340:.\Generated_Source\PSoC5/Clock_1.c **** *                 be enabled for all synchronous clocks.
 341:.\Generated_Source\PSoC5/Clock_1.c **** *   See the Technical Reference Manual for details about setting the mode of
 342:.\Generated_Source\PSoC5/Clock_1.c **** *   the clock. Specifically, see the CLKDIST.DCFG.CFG2 register.
 343:.\Generated_Source\PSoC5/Clock_1.c **** *
 344:.\Generated_Source\PSoC5/Clock_1.c **** * Returns:
 345:.\Generated_Source\PSoC5/Clock_1.c **** *  void
 346:.\Generated_Source\PSoC5/Clock_1.c **** *
 347:.\Generated_Source\PSoC5/Clock_1.c **** *******************************************************************************/
 348:.\Generated_Source\PSoC5/Clock_1.c **** void Clock_1_ClearModeRegister(uint8 clkMode) 
 349:.\Generated_Source\PSoC5/Clock_1.c **** {
 350:.\Generated_Source\PSoC5/Clock_1.c ****     Clock_1_MOD_SRC &= ~clkMode | ~Clock_1_MODE_MASK;
 351:.\Generated_Source\PSoC5/Clock_1.c **** }
 352:.\Generated_Source\PSoC5/Clock_1.c **** 
 353:.\Generated_Source\PSoC5/Clock_1.c **** 
 354:.\Generated_Source\PSoC5/Clock_1.c **** /*******************************************************************************
 355:.\Generated_Source\PSoC5/Clock_1.c **** * Function Name: Clock_1_GetModeRegister
 356:.\Generated_Source\PSoC5/Clock_1.c **** ********************************************************************************
 357:.\Generated_Source\PSoC5/Clock_1.c **** * Summary:
 358:.\Generated_Source\PSoC5/Clock_1.c **** *  Gets the clock mode register value.
 359:.\Generated_Source\PSoC5/Clock_1.c **** *
 360:.\Generated_Source\PSoC5/Clock_1.c **** * Parameters:
 361:.\Generated_Source\PSoC5/Clock_1.c **** *  void
 362:.\Generated_Source\PSoC5/Clock_1.c **** *
 363:.\Generated_Source\PSoC5/Clock_1.c **** * Returns:
 364:.\Generated_Source\PSoC5/Clock_1.c **** *  Bit mask representing the enabled mode bits. See the SetModeRegister and
 365:.\Generated_Source\PSoC5/Clock_1.c **** *  ClearModeRegister descriptions for details about the mode bits.
 366:.\Generated_Source\PSoC5/Clock_1.c **** *
 367:.\Generated_Source\PSoC5/Clock_1.c **** *******************************************************************************/
 368:.\Generated_Source\PSoC5/Clock_1.c **** uint8 Clock_1_GetModeRegister(void) 
 369:.\Generated_Source\PSoC5/Clock_1.c **** {
 370:.\Generated_Source\PSoC5/Clock_1.c ****     return Clock_1_MOD_SRC & Clock_1_MODE_MASK;
 371:.\Generated_Source\PSoC5/Clock_1.c **** }
 372:.\Generated_Source\PSoC5/Clock_1.c **** 
 373:.\Generated_Source\PSoC5/Clock_1.c **** 
 374:.\Generated_Source\PSoC5/Clock_1.c **** /*******************************************************************************
 375:.\Generated_Source\PSoC5/Clock_1.c **** * Function Name: Clock_1_SetSourceRegister
 376:.\Generated_Source\PSoC5/Clock_1.c **** ********************************************************************************
 377:.\Generated_Source\PSoC5/Clock_1.c **** * Summary:
 378:.\Generated_Source\PSoC5/Clock_1.c **** *  Sets the input source of the clock. The clock must be disabled before
 379:.\Generated_Source\PSoC5/Clock_1.c **** *  changing the source. The old and new clock sources must be running.
 380:.\Generated_Source\PSoC5/Clock_1.c **** *
 381:.\Generated_Source\PSoC5/Clock_1.c **** * Parameters:
 382:.\Generated_Source\PSoC5/Clock_1.c **** *  clkSource:  For PSoC 3 and PSoC 5 devices, clkSource should be one of the
 383:.\Generated_Source\PSoC5/Clock_1.c **** *   following input sources:
 384:.\Generated_Source\PSoC5/Clock_1.c **** *   - CYCLK_SRC_SEL_SYNC_DIG
ARM GAS  C:\Users\SUZUKI~1\AppData\Local\Temp\ccK3leqY.s 			page 10


 385:.\Generated_Source\PSoC5/Clock_1.c **** *   - CYCLK_SRC_SEL_IMO
 386:.\Generated_Source\PSoC5/Clock_1.c **** *   - CYCLK_SRC_SEL_XTALM
 387:.\Generated_Source\PSoC5/Clock_1.c **** *   - CYCLK_SRC_SEL_ILO
 388:.\Generated_Source\PSoC5/Clock_1.c **** *   - CYCLK_SRC_SEL_PLL
 389:.\Generated_Source\PSoC5/Clock_1.c **** *   - CYCLK_SRC_SEL_XTALK
 390:.\Generated_Source\PSoC5/Clock_1.c **** *   - CYCLK_SRC_SEL_DSI_G
 391:.\Generated_Source\PSoC5/Clock_1.c **** *   - CYCLK_SRC_SEL_DSI_D/CYCLK_SRC_SEL_DSI_A
 392:.\Generated_Source\PSoC5/Clock_1.c **** *   See the Technical Reference Manual for details on clock sources.
 393:.\Generated_Source\PSoC5/Clock_1.c **** *
 394:.\Generated_Source\PSoC5/Clock_1.c **** * Returns:
 395:.\Generated_Source\PSoC5/Clock_1.c **** *  void
 396:.\Generated_Source\PSoC5/Clock_1.c **** *
 397:.\Generated_Source\PSoC5/Clock_1.c **** *******************************************************************************/
 398:.\Generated_Source\PSoC5/Clock_1.c **** void Clock_1_SetSourceRegister(uint8 clkSource) 
 399:.\Generated_Source\PSoC5/Clock_1.c **** {
 400:.\Generated_Source\PSoC5/Clock_1.c ****     uint16 currDiv = Clock_1_GetDividerRegister();
 401:.\Generated_Source\PSoC5/Clock_1.c ****     uint8 oldSrc = Clock_1_GetSourceRegister();
 402:.\Generated_Source\PSoC5/Clock_1.c **** 
 403:.\Generated_Source\PSoC5/Clock_1.c ****     if (oldSrc != CYCLK_SRC_SEL_CLK_SYNC_D && clkSource == CYCLK_SRC_SEL_CLK_SYNC_D && currDiv == 0
 404:.\Generated_Source\PSoC5/Clock_1.c ****     {
 405:.\Generated_Source\PSoC5/Clock_1.c ****         /* Switching to Master and divider is 1, set SSS, which will output master, */
 406:.\Generated_Source\PSoC5/Clock_1.c ****         /* then set the source so we are consistent.                                */
 407:.\Generated_Source\PSoC5/Clock_1.c ****         Clock_1_MOD_SRC |= CYCLK_SSS;
 408:.\Generated_Source\PSoC5/Clock_1.c ****         Clock_1_MOD_SRC =
 409:.\Generated_Source\PSoC5/Clock_1.c ****             (Clock_1_MOD_SRC & ~Clock_1_SRC_SEL_MSK) | clkSource;
 410:.\Generated_Source\PSoC5/Clock_1.c ****     }
 411:.\Generated_Source\PSoC5/Clock_1.c ****     else if (oldSrc == CYCLK_SRC_SEL_CLK_SYNC_D && clkSource != CYCLK_SRC_SEL_CLK_SYNC_D && currDiv
 412:.\Generated_Source\PSoC5/Clock_1.c ****     {
 413:.\Generated_Source\PSoC5/Clock_1.c ****         /* Switching from Master to not and divider is 1, set source, so we don't   */
 414:.\Generated_Source\PSoC5/Clock_1.c ****         /* lock when we clear SSS.                                                  */
 415:.\Generated_Source\PSoC5/Clock_1.c ****         Clock_1_MOD_SRC =
 416:.\Generated_Source\PSoC5/Clock_1.c ****             (Clock_1_MOD_SRC & ~Clock_1_SRC_SEL_MSK) | clkSource;
 417:.\Generated_Source\PSoC5/Clock_1.c ****         Clock_1_MOD_SRC &= ~CYCLK_SSS;
 418:.\Generated_Source\PSoC5/Clock_1.c ****     }
 419:.\Generated_Source\PSoC5/Clock_1.c ****     else
 420:.\Generated_Source\PSoC5/Clock_1.c ****     {
 421:.\Generated_Source\PSoC5/Clock_1.c ****         Clock_1_MOD_SRC =
 422:.\Generated_Source\PSoC5/Clock_1.c ****             (Clock_1_MOD_SRC & ~Clock_1_SRC_SEL_MSK) | clkSource;
 423:.\Generated_Source\PSoC5/Clock_1.c ****     }
 424:.\Generated_Source\PSoC5/Clock_1.c **** }
 425:.\Generated_Source\PSoC5/Clock_1.c **** 
 426:.\Generated_Source\PSoC5/Clock_1.c **** 
 427:.\Generated_Source\PSoC5/Clock_1.c **** /*******************************************************************************
 428:.\Generated_Source\PSoC5/Clock_1.c **** * Function Name: Clock_1_GetSourceRegister
 429:.\Generated_Source\PSoC5/Clock_1.c **** ********************************************************************************
 430:.\Generated_Source\PSoC5/Clock_1.c **** * Summary:
 431:.\Generated_Source\PSoC5/Clock_1.c **** *  Gets the input source of the clock.
 432:.\Generated_Source\PSoC5/Clock_1.c **** *
 433:.\Generated_Source\PSoC5/Clock_1.c **** * Parameters:
 434:.\Generated_Source\PSoC5/Clock_1.c **** *  void
 435:.\Generated_Source\PSoC5/Clock_1.c **** *
 436:.\Generated_Source\PSoC5/Clock_1.c **** * Returns:
 437:.\Generated_Source\PSoC5/Clock_1.c **** *  The input source of the clock. See SetSourceRegister for details.
 438:.\Generated_Source\PSoC5/Clock_1.c **** *
 439:.\Generated_Source\PSoC5/Clock_1.c **** *******************************************************************************/
 440:.\Generated_Source\PSoC5/Clock_1.c **** uint8 Clock_1_GetSourceRegister(void) 
 441:.\Generated_Source\PSoC5/Clock_1.c **** {
ARM GAS  C:\Users\SUZUKI~1\AppData\Local\Temp\ccK3leqY.s 			page 11


 442:.\Generated_Source\PSoC5/Clock_1.c ****     return Clock_1_MOD_SRC & Clock_1_SRC_SEL_MSK;
 126              		.loc 1 442 0
 127 0002 44F28603 		movw	r3, #:lower16:1073758342
 128              	.LBE12:
 129              	.LBE10:
 130              	.LBB14:
 131              	.LBB16:
 132              		.loc 1 282 0
 133 0006 44F28402 		movw	r2, #:lower16:1073758340
 134              	.LBE16:
 135              	.LBE14:
 136              	.LBB18:
 137              	.LBB11:
 138              		.loc 1 442 0
 139 000a C4F20003 		movt	r3, #:upper16:1073758342
 140              	.LBE11:
 141              	.LBE18:
 142              	.LBB19:
 143              	.LBB15:
 144              		.loc 1 282 0
 145 000e C4F20002 		movt	r2, #:upper16:1073758340
 146              	.LBE15:
 147              	.LBE19:
 148              	.LBB20:
 149              	.LBB13:
 150              		.loc 1 442 0
 151 0012 93F800C0 		ldrb	ip, [r3, #0]	@ zero_extendqisi2
 152              	.LBE13:
 153              	.LBE20:
 154              	.LBB21:
 155              	.LBB17:
 156              		.loc 1 282 0
 157 0016 1488     		ldrh	r4, [r2, #0]
 158              		.cfi_offset 6, -4
 159              		.cfi_offset 5, -8
 160              		.cfi_offset 4, -12
 161 0018 A4B2     		uxth	r4, r4
 162              	.LVL3:
 163              	.LBE17:
 164              	.LBE21:
 165              		.loc 1 189 0
 166 001a A042     		cmp	r0, r4
 167 001c 6FD0     		beq	.L21
 168              		.loc 1 191 0
 169 001e 44F2A235 		movw	r5, #:lower16:1073759138
 170 0022 C4F20005 		movt	r5, #:upper16:1073759138
 171              		.loc 1 193 0
 172 0026 1CF0070F 		tst	ip, #7
 173              		.loc 1 191 0
 174 002a 2D78     		ldrb	r5, [r5, #0]	@ zero_extendqisi2
 175              		.loc 1 193 0
 176 002c 16D1     		bne	.L13
 177 002e D4F10104 		rsbs	r4, r4, #1
 178 0032 38BF     		it	cc
 179 0034 0024     		movcc	r4, #0
 180              	.LVL4:
 181 0036 0028     		cmp	r0, #0
ARM GAS  C:\Users\SUZUKI~1\AppData\Local\Temp\ccK3leqY.s 			page 12


 182 0038 14BF     		ite	ne
 183 003a 2646     		movne	r6, r4
 184 003c 44F00106 		orreq	r6, r4, #1
 185 0040 66B1     		cbz	r6, .L13
 186              		.loc 1 196 0
 187 0042 0028     		cmp	r0, #0
 188 0044 0CBF     		ite	eq
 189 0046 0024     		moveq	r4, #0
 190 0048 04F00104 		andne	r4, r4, #1
 191 004c 002C     		cmp	r4, #0
 192 004e 58D0     		beq	.L14
 193              		.loc 1 201 0
 194 0050 1080     		strh	r0, [r2, #0]	@ movhi
 195              		.loc 1 202 0
 196 0052 1878     		ldrb	r0, [r3, #0]	@ zero_extendqisi2
 197              	.LVL5:
 198 0054 00F0BF02 		and	r2, r0, #191
 199 0058 1A70     		strb	r2, [r3, #0]
 200 005a 50E0     		b	.L21
 201              	.LVL6:
 202              	.L13:
 203              		.loc 1 214 0
 204 005c 15F00205 		ands	r5, r5, #2
 205              	.LVL7:
 206 0060 26D0     		beq	.L15
 207              		.loc 1 216 0
 208 0062 44F20106 		movw	r6, #:lower16:1073758209
 209 0066 4FF0000C 		mov	ip, #0
 210 006a C4F20006 		movt	r6, #:upper16:1073758209
 211              		.loc 1 223 0
 212 006e 44F21004 		movw	r4, #:lower16:1073758224
 213              	.LVL8:
 214              		.loc 1 224 0
 215 0072 44F21403 		movw	r3, #:lower16:1073758228
 216              		.loc 1 216 0
 217 0076 86F800C0 		strb	ip, [r6, #0]
 218              		.loc 1 224 0
 219 007a C4F20003 		movt	r3, #:upper16:1073758228
 220              		.loc 1 223 0
 221 007e C4F20004 		movt	r4, #:upper16:1073758224
 222              		.loc 1 227 0
 223 0082 44F20802 		movw	r2, #:lower16:1073758216
 224              		.loc 1 223 0
 225 0086 0226     		movs	r6, #2
 226 0088 2670     		strb	r6, [r4, #0]
 227              		.loc 1 227 0
 228 008a C4F20002 		movt	r2, #:upper16:1073758216
 229              		.loc 1 224 0
 230 008e 83F800C0 		strb	ip, [r3, #0]
 231              		.loc 1 227 0
 232 0092 92F800C0 		ldrb	ip, [r2, #0]	@ zero_extendqisi2
 233              		.loc 1 237 0
 234 0096 44F2A233 		movw	r3, #:lower16:1073759138
 235              		.loc 1 227 0
 236 009a 0CF07F0C 		and	ip, ip, #127
 237 009e 82F800C0 		strb	ip, [r2, #0]
 238              		.loc 1 237 0
ARM GAS  C:\Users\SUZUKI~1\AppData\Local\Temp\ccK3leqY.s 			page 13


 239 00a2 C4F20003 		movt	r3, #:upper16:1073759138
 240 00a6 93F800C0 		ldrb	ip, [r3, #0]	@ zero_extendqisi2
 241 00aa 0CF0FD02 		and	r2, ip, #253
 242 00ae 1A70     		strb	r2, [r3, #0]
 243              	.LVL9:
 244              	.L15:
 245              		.loc 1 246 0
 246 00b0 44F2A233 		movw	r3, #:lower16:1073759138
 247 00b4 C4F20003 		movt	r3, #:upper16:1073759138
 248 00b8 1A78     		ldrb	r2, [r3, #0]	@ zero_extendqisi2
 249 00ba 12F0020F 		tst	r2, #2
 250              		.loc 1 257 0
 251 00be 02BF     		ittt	eq
 252 00c0 44F28402 		movweq	r2, #:lower16:1073758340
 253 00c4 C4F20002 		movteq	r2, #:upper16:1073758340
 254 00c8 1080     		strheq	r0, [r2, #0]	@ movhi
 255              		.loc 1 246 0
 256 00ca 11D0     		beq	.L20
 257              		.loc 1 249 0
 258 00cc 44F20203 		movw	r3, #:lower16:1073758210
 259              		.loc 1 251 0
 260 00d0 44F20102 		movw	r2, #:lower16:1073758209
 261 00d4 C4F20002 		movt	r2, #:upper16:1073758209
 262              		.loc 1 249 0
 263 00d8 C4F20003 		movt	r3, #:upper16:1073758210
 264              		.loc 1 251 0
 265 00dc 0029     		cmp	r1, #0
 266 00de 14BF     		ite	ne
 267 00e0 0321     		movne	r1, #3
 268 00e2 0121     		moveq	r1, #1
 269              	.LVL10:
 270              		.loc 1 249 0
 271 00e4 1880     		strh	r0, [r3, #0]	@ movhi
 272              		.loc 1 251 0
 273 00e6 1170     		strb	r1, [r2, #0]
 274              	.L19:
 275              		.loc 1 252 0
 276 00e8 1078     		ldrb	r0, [r2, #0]	@ zero_extendqisi2
 277              	.LVL11:
 278 00ea 10F0010F 		tst	r0, #1
 279 00ee FBD1     		bne	.L19
 280              	.LVL12:
 281              	.L20:
 282              		.loc 1 260 0
 283 00f0 44F2A231 		movw	r1, #:lower16:1073759138
 284              	.LVL13:
 285 00f4 C4F20001 		movt	r1, #:upper16:1073759138
 286 00f8 0A78     		ldrb	r2, [r1, #0]	@ zero_extendqisi2
 287 00fa 1543     		orrs	r5, r5, r2
 288              	.LVL14:
 289 00fc 0D70     		strb	r5, [r1, #0]
 290              	.LVL15:
 291              	.L21:
 292              		.loc 1 263 0
 293 00fe 70BC     		pop	{r4, r5, r6}
 294 0100 7047     		bx	lr
 295              	.LVL16:
ARM GAS  C:\Users\SUZUKI~1\AppData\Local\Temp\ccK3leqY.s 			page 14


 296              	.L14:
 297              		.loc 1 208 0
 298 0102 93F800C0 		ldrb	ip, [r3, #0]	@ zero_extendqisi2
 299 0106 4CF04001 		orr	r1, ip, #64
 300              	.LVL17:
 301 010a 1970     		strb	r1, [r3, #0]
 302              		.loc 1 209 0
 303 010c 1080     		strh	r0, [r2, #0]	@ movhi
 304 010e F6E7     		b	.L21
 305              		.cfi_endproc
 306              	.LFE3:
 307              		.size	Clock_1_SetDividerRegister, .-Clock_1_SetDividerRegister
 308              		.section	.text.Clock_1_GetDividerRegister,"ax",%progbits
 309              		.align	2
 310              		.global	Clock_1_GetDividerRegister
 311              		.thumb
 312              		.thumb_func
 313              		.type	Clock_1_GetDividerRegister, %function
 314              	Clock_1_GetDividerRegister:
 315              	.LFB4:
 316              		.loc 1 281 0
 317              		.cfi_startproc
 318              		@ args = 0, pretend = 0, frame = 0
 319              		@ frame_needed = 0, uses_anonymous_args = 0
 320              		@ link register save eliminated.
 321              		.loc 1 282 0
 322 0000 44F28403 		movw	r3, #:lower16:1073758340
 323 0004 C4F20003 		movt	r3, #:upper16:1073758340
 324 0008 1888     		ldrh	r0, [r3, #0]
 325              		.loc 1 283 0
 326 000a 80B2     		uxth	r0, r0
 327 000c 7047     		bx	lr
 328              		.cfi_endproc
 329              	.LFE4:
 330              		.size	Clock_1_GetDividerRegister, .-Clock_1_GetDividerRegister
 331 000e 00BF     		.section	.text.Clock_1_SetModeRegister,"ax",%progbits
 332              		.align	2
 333              		.global	Clock_1_SetModeRegister
 334              		.thumb
 335              		.thumb_func
 336              		.type	Clock_1_SetModeRegister, %function
 337              	Clock_1_SetModeRegister:
 338              	.LFB5:
 339              		.loc 1 315 0
 340              		.cfi_startproc
 341              		@ args = 0, pretend = 0, frame = 0
 342              		@ frame_needed = 0, uses_anonymous_args = 0
 343              		@ link register save eliminated.
 344              	.LVL18:
 345              		.loc 1 316 0
 346 0000 44F28603 		movw	r3, #:lower16:1073758342
 347 0004 C4F20003 		movt	r3, #:upper16:1073758342
 348 0008 1A78     		ldrb	r2, [r3, #0]	@ zero_extendqisi2
 349 000a 00F0F800 		and	r0, r0, #248
 350              	.LVL19:
 351 000e 0243     		orrs	r2, r2, r0
 352 0010 1A70     		strb	r2, [r3, #0]
ARM GAS  C:\Users\SUZUKI~1\AppData\Local\Temp\ccK3leqY.s 			page 15


 353              		.loc 1 317 0
 354 0012 7047     		bx	lr
 355              		.cfi_endproc
 356              	.LFE5:
 357              		.size	Clock_1_SetModeRegister, .-Clock_1_SetModeRegister
 358              		.section	.text.Clock_1_ClearModeRegister,"ax",%progbits
 359              		.align	2
 360              		.global	Clock_1_ClearModeRegister
 361              		.thumb
 362              		.thumb_func
 363              		.type	Clock_1_ClearModeRegister, %function
 364              	Clock_1_ClearModeRegister:
 365              	.LFB6:
 366              		.loc 1 349 0
 367              		.cfi_startproc
 368              		@ args = 0, pretend = 0, frame = 0
 369              		@ frame_needed = 0, uses_anonymous_args = 0
 370              		@ link register save eliminated.
 371              	.LVL20:
 372              		.loc 1 350 0
 373 0000 44F28603 		movw	r3, #:lower16:1073758342
 374 0004 C4F20003 		movt	r3, #:upper16:1073758342
 375 0008 C243     		mvns	r2, r0
 376 000a 1978     		ldrb	r1, [r3, #0]	@ zero_extendqisi2
 377 000c 42F00700 		orr	r0, r2, #7
 378              	.LVL21:
 379 0010 01EA0002 		and	r2, r1, r0
 380 0014 1A70     		strb	r2, [r3, #0]
 381              		.loc 1 351 0
 382 0016 7047     		bx	lr
 383              		.cfi_endproc
 384              	.LFE6:
 385              		.size	Clock_1_ClearModeRegister, .-Clock_1_ClearModeRegister
 386              		.section	.text.Clock_1_GetModeRegister,"ax",%progbits
 387              		.align	2
 388              		.global	Clock_1_GetModeRegister
 389              		.thumb
 390              		.thumb_func
 391              		.type	Clock_1_GetModeRegister, %function
 392              	Clock_1_GetModeRegister:
 393              	.LFB7:
 394              		.loc 1 369 0
 395              		.cfi_startproc
 396              		@ args = 0, pretend = 0, frame = 0
 397              		@ frame_needed = 0, uses_anonymous_args = 0
 398              		@ link register save eliminated.
 399              		.loc 1 370 0
 400 0000 44F28603 		movw	r3, #:lower16:1073758342
 401 0004 C4F20003 		movt	r3, #:upper16:1073758342
 402 0008 1878     		ldrb	r0, [r3, #0]	@ zero_extendqisi2
 403              		.loc 1 371 0
 404 000a 00F0F800 		and	r0, r0, #248
 405 000e 7047     		bx	lr
 406              		.cfi_endproc
 407              	.LFE7:
 408              		.size	Clock_1_GetModeRegister, .-Clock_1_GetModeRegister
 409              		.section	.text.Clock_1_SetSourceRegister,"ax",%progbits
ARM GAS  C:\Users\SUZUKI~1\AppData\Local\Temp\ccK3leqY.s 			page 16


 410              		.align	2
 411              		.global	Clock_1_SetSourceRegister
 412              		.thumb
 413              		.thumb_func
 414              		.type	Clock_1_SetSourceRegister, %function
 415              	Clock_1_SetSourceRegister:
 416              	.LFB8:
 417              		.loc 1 399 0
 418              		.cfi_startproc
 419              		@ args = 0, pretend = 0, frame = 0
 420              		@ frame_needed = 0, uses_anonymous_args = 0
 421              		@ link register save eliminated.
 422              	.LVL22:
 423 0000 10B4     		push	{r4}
 424              	.LCFI1:
 425              		.cfi_def_cfa_offset 4
 426              	.LBB22:
 427              	.LBB24:
 428              		.loc 1 442 0
 429 0002 44F28603 		movw	r3, #:lower16:1073758342
 430              	.LBE24:
 431              	.LBE22:
 432              	.LBB26:
 433              	.LBB28:
 434              		.loc 1 282 0
 435 0006 44F28404 		movw	r4, #:lower16:1073758340
 436              		.cfi_offset 4, -4
 437 000a C4F20004 		movt	r4, #:upper16:1073758340
 438              	.LBE28:
 439              	.LBE26:
 440              	.LBB30:
 441              	.LBB23:
 442              		.loc 1 442 0
 443 000e C4F20003 		movt	r3, #:upper16:1073758342
 444              	.LBE23:
 445              	.LBE30:
 446              	.LBB31:
 447              	.LBB27:
 448              		.loc 1 282 0
 449 0012 2188     		ldrh	r1, [r4, #0]
 450              	.LBE27:
 451              	.LBE31:
 452              	.LBB32:
 453              	.LBB25:
 454              		.loc 1 442 0
 455 0014 1A78     		ldrb	r2, [r3, #0]	@ zero_extendqisi2
 456              	.LBE25:
 457              	.LBE32:
 458              	.LBB33:
 459              	.LBB29:
 460              		.loc 1 282 0
 461 0016 89B2     		uxth	r1, r1
 462              	.LVL23:
 463              	.LBE29:
 464              	.LBE33:
 465              		.loc 1 403 0
 466 0018 12F0070C 		ands	ip, r2, #7
ARM GAS  C:\Users\SUZUKI~1\AppData\Local\Temp\ccK3leqY.s 			page 17


 467 001c 18BF     		it	ne
 468 001e 4FF0010C 		movne	ip, #1
 469 0022 0028     		cmp	r0, #0
 470 0024 14BF     		ite	ne
 471 0026 0024     		movne	r4, #0
 472 0028 0CF00104 		andeq	r4, ip, #1
 473 002c 02F00702 		and	r2, r2, #7
 474              	.LVL24:
 475 0030 0CB1     		cbz	r4, .L32
 476 0032 0029     		cmp	r1, #0
 477 0034 25D0     		beq	.L36
 478              	.L32:
 479              		.loc 1 411 0
 480 0036 D2F10103 		rsbs	r3, r2, #1
 481 003a 38BF     		it	cc
 482 003c 0023     		movcc	r3, #0
 483 003e 0028     		cmp	r0, #0
 484 0040 0CBF     		ite	eq
 485 0042 0023     		moveq	r3, #0
 486 0044 03F00103 		andne	r3, r3, #1
 487 0048 53B9     		cbnz	r3, .L37
 488              	.L34:
 489              		.loc 1 422 0
 490 004a 44F28601 		movw	r1, #:lower16:1073758342
 491              	.LVL25:
 492 004e C4F20001 		movt	r1, #:upper16:1073758342
 493 0052 0B78     		ldrb	r3, [r1, #0]	@ zero_extendqisi2
 494              		.loc 1 421 0
 495 0054 03F0F802 		and	r2, r3, #248
 496              	.LVL26:
 497 0058 1043     		orrs	r0, r0, r2
 498              	.LVL27:
 499 005a 0870     		strb	r0, [r1, #0]
 500              	.L35:
 501              		.loc 1 424 0
 502 005c 10BC     		pop	{r4}
 503 005e 7047     		bx	lr
 504              	.LVL28:
 505              	.L37:
 506              		.loc 1 411 0
 507 0060 0029     		cmp	r1, #0
 508 0062 F2D1     		bne	.L34
 509              		.loc 1 416 0
 510 0064 44F28601 		movw	r1, #:lower16:1073758342
 511              	.LVL29:
 512 0068 C4F20001 		movt	r1, #:upper16:1073758342
 513 006c 91F800C0 		ldrb	ip, [r1, #0]	@ zero_extendqisi2
 514              		.loc 1 415 0
 515 0070 0CF0F803 		and	r3, ip, #248
 516 0074 1843     		orrs	r0, r0, r3
 517              	.LVL30:
 518 0076 0870     		strb	r0, [r1, #0]
 519              		.loc 1 417 0
 520 0078 0A78     		ldrb	r2, [r1, #0]	@ zero_extendqisi2
 521              	.LVL31:
 522 007a 02F0BF00 		and	r0, r2, #191
 523 007e 0870     		strb	r0, [r1, #0]
ARM GAS  C:\Users\SUZUKI~1\AppData\Local\Temp\ccK3leqY.s 			page 18


 524              		.loc 1 411 0
 525 0080 ECE7     		b	.L35
 526              	.LVL32:
 527              	.L36:
 528              		.loc 1 407 0
 529 0082 93F800C0 		ldrb	ip, [r3, #0]	@ zero_extendqisi2
 530 0086 4CF04001 		orr	r1, ip, #64
 531              	.LVL33:
 532 008a 1970     		strb	r1, [r3, #0]
 533              		.loc 1 409 0
 534 008c 1A78     		ldrb	r2, [r3, #0]	@ zero_extendqisi2
 535              	.LVL34:
 536              		.loc 1 408 0
 537 008e 02F0F800 		and	r0, r2, #248
 538              	.LVL35:
 539 0092 1870     		strb	r0, [r3, #0]
 540              		.loc 1 403 0
 541 0094 E2E7     		b	.L35
 542              		.cfi_endproc
 543              	.LFE8:
 544              		.size	Clock_1_SetSourceRegister, .-Clock_1_SetSourceRegister
 545 0096 00BF     		.section	.text.Clock_1_GetSourceRegister,"ax",%progbits
 546              		.align	2
 547              		.global	Clock_1_GetSourceRegister
 548              		.thumb
 549              		.thumb_func
 550              		.type	Clock_1_GetSourceRegister, %function
 551              	Clock_1_GetSourceRegister:
 552              	.LFB9:
 553              		.loc 1 441 0
 554              		.cfi_startproc
 555              		@ args = 0, pretend = 0, frame = 0
 556              		@ frame_needed = 0, uses_anonymous_args = 0
 557              		@ link register save eliminated.
 558              		.loc 1 442 0
 559 0000 44F28603 		movw	r3, #:lower16:1073758342
 560 0004 C4F20003 		movt	r3, #:upper16:1073758342
 561 0008 1878     		ldrb	r0, [r3, #0]	@ zero_extendqisi2
 443:.\Generated_Source\PSoC5/Clock_1.c **** }
 562              		.loc 1 443 0
 563 000a 00F00700 		and	r0, r0, #7
 564 000e 7047     		bx	lr
 565              		.cfi_endproc
 566              	.LFE9:
 567              		.size	Clock_1_GetSourceRegister, .-Clock_1_GetSourceRegister
 568              		.text
 569              	.Letext0:
 570              		.section	.debug_loc,"",%progbits
 571              	.Ldebug_loc0:
 572              	.LLST3:
 573 0000 00000000 		.4byte	.LVL0
 574 0004 20000000 		.4byte	.LVL1
 575 0008 0100     		.2byte	0x1
 576 000a 50       		.byte	0x50
 577 000b 00000000 		.4byte	0x0
 578 000f 00000000 		.4byte	0x0
 579              	.LLST4:
ARM GAS  C:\Users\SUZUKI~1\AppData\Local\Temp\ccK3leqY.s 			page 19


 580 0013 00000000 		.4byte	.LFB3
 581 0017 02000000 		.4byte	.LCFI0
 582 001b 0100     		.2byte	0x1
 583 001d 5D       		.byte	0x5d
 584 001e 02000000 		.4byte	.LCFI0
 585 0022 10010000 		.4byte	.LFE3
 586 0026 0200     		.2byte	0x2
 587 0028 7D       		.byte	0x7d
 588 0029 0C       		.sleb128 12
 589 002a 00000000 		.4byte	0x0
 590 002e 00000000 		.4byte	0x0
 591              	.LLST5:
 592 0032 00000000 		.4byte	.LVL2
 593 0036 54000000 		.4byte	.LVL5
 594 003a 0100     		.2byte	0x1
 595 003c 50       		.byte	0x50
 596 003d 5C000000 		.4byte	.LVL6
 597 0041 EA000000 		.4byte	.LVL11
 598 0045 0100     		.2byte	0x1
 599 0047 50       		.byte	0x50
 600 0048 F0000000 		.4byte	.LVL12
 601 004c 10010000 		.4byte	.LFE3
 602 0050 0100     		.2byte	0x1
 603 0052 50       		.byte	0x50
 604 0053 00000000 		.4byte	0x0
 605 0057 00000000 		.4byte	0x0
 606              	.LLST6:
 607 005b 00000000 		.4byte	.LVL2
 608 005f E4000000 		.4byte	.LVL10
 609 0063 0100     		.2byte	0x1
 610 0065 51       		.byte	0x51
 611 0066 F0000000 		.4byte	.LVL12
 612 006a F4000000 		.4byte	.LVL13
 613 006e 0100     		.2byte	0x1
 614 0070 51       		.byte	0x51
 615 0071 FE000000 		.4byte	.LVL15
 616 0075 0A010000 		.4byte	.LVL17
 617 0079 0100     		.2byte	0x1
 618 007b 51       		.byte	0x51
 619 007c 00000000 		.4byte	0x0
 620 0080 00000000 		.4byte	0x0
 621              	.LLST7:
 622 0084 60000000 		.4byte	.LVL7
 623 0088 FC000000 		.4byte	.LVL14
 624 008c 0100     		.2byte	0x1
 625 008e 55       		.byte	0x55
 626 008f 00000000 		.4byte	0x0
 627 0093 00000000 		.4byte	0x0
 628              	.LLST8:
 629 0097 1A000000 		.4byte	.LVL3
 630 009b 36000000 		.4byte	.LVL4
 631 009f 0100     		.2byte	0x1
 632 00a1 54       		.byte	0x54
 633 00a2 5C000000 		.4byte	.LVL6
 634 00a6 72000000 		.4byte	.LVL8
 635 00aa 0100     		.2byte	0x1
 636 00ac 54       		.byte	0x54
ARM GAS  C:\Users\SUZUKI~1\AppData\Local\Temp\ccK3leqY.s 			page 20


 637 00ad B0000000 		.4byte	.LVL9
 638 00b1 02010000 		.4byte	.LVL16
 639 00b5 0100     		.2byte	0x1
 640 00b7 54       		.byte	0x54
 641 00b8 00000000 		.4byte	0x0
 642 00bc 00000000 		.4byte	0x0
 643              	.LLST11:
 644 00c0 00000000 		.4byte	.LVL18
 645 00c4 0E000000 		.4byte	.LVL19
 646 00c8 0100     		.2byte	0x1
 647 00ca 50       		.byte	0x50
 648 00cb 00000000 		.4byte	0x0
 649 00cf 00000000 		.4byte	0x0
 650              	.LLST13:
 651 00d3 00000000 		.4byte	.LVL20
 652 00d7 10000000 		.4byte	.LVL21
 653 00db 0100     		.2byte	0x1
 654 00dd 50       		.byte	0x50
 655 00de 00000000 		.4byte	0x0
 656 00e2 00000000 		.4byte	0x0
 657              	.LLST15:
 658 00e6 00000000 		.4byte	.LFB8
 659 00ea 02000000 		.4byte	.LCFI1
 660 00ee 0100     		.2byte	0x1
 661 00f0 5D       		.byte	0x5d
 662 00f1 02000000 		.4byte	.LCFI1
 663 00f5 96000000 		.4byte	.LFE8
 664 00f9 0200     		.2byte	0x2
 665 00fb 7D       		.byte	0x7d
 666 00fc 04       		.sleb128 4
 667 00fd 00000000 		.4byte	0x0
 668 0101 00000000 		.4byte	0x0
 669              	.LLST16:
 670 0105 00000000 		.4byte	.LVL22
 671 0109 5A000000 		.4byte	.LVL27
 672 010d 0100     		.2byte	0x1
 673 010f 50       		.byte	0x50
 674 0110 60000000 		.4byte	.LVL28
 675 0114 76000000 		.4byte	.LVL30
 676 0118 0100     		.2byte	0x1
 677 011a 50       		.byte	0x50
 678 011b 82000000 		.4byte	.LVL32
 679 011f 92000000 		.4byte	.LVL35
 680 0123 0100     		.2byte	0x1
 681 0125 50       		.byte	0x50
 682 0126 00000000 		.4byte	0x0
 683 012a 00000000 		.4byte	0x0
 684              	.LLST17:
 685 012e 18000000 		.4byte	.LVL23
 686 0132 4E000000 		.4byte	.LVL25
 687 0136 0100     		.2byte	0x1
 688 0138 51       		.byte	0x51
 689 0139 60000000 		.4byte	.LVL28
 690 013d 68000000 		.4byte	.LVL29
 691 0141 0100     		.2byte	0x1
 692 0143 51       		.byte	0x51
 693 0144 82000000 		.4byte	.LVL32
ARM GAS  C:\Users\SUZUKI~1\AppData\Local\Temp\ccK3leqY.s 			page 21


 694 0148 8A000000 		.4byte	.LVL33
 695 014c 0100     		.2byte	0x1
 696 014e 51       		.byte	0x51
 697 014f 00000000 		.4byte	0x0
 698 0153 00000000 		.4byte	0x0
 699              	.LLST18:
 700 0157 30000000 		.4byte	.LVL24
 701 015b 58000000 		.4byte	.LVL26
 702 015f 0100     		.2byte	0x1
 703 0161 52       		.byte	0x52
 704 0162 60000000 		.4byte	.LVL28
 705 0166 7A000000 		.4byte	.LVL31
 706 016a 0100     		.2byte	0x1
 707 016c 52       		.byte	0x52
 708 016d 82000000 		.4byte	.LVL32
 709 0171 8E000000 		.4byte	.LVL34
 710 0175 0100     		.2byte	0x1
 711 0177 52       		.byte	0x52
 712 0178 00000000 		.4byte	0x0
 713 017c 00000000 		.4byte	0x0
 714              		.file 2 "./Generated_Source/PSoC5/cytypes.h"
 715              		.section	.debug_info
 716 0000 66020000 		.4byte	0x266
 717 0004 0200     		.2byte	0x2
 718 0006 00000000 		.4byte	.Ldebug_abbrev0
 719 000a 04       		.byte	0x4
 720 000b 01       		.uleb128 0x1
 721 000c A4010000 		.4byte	.LASF30
 722 0010 01       		.byte	0x1
 723 0011 3A000000 		.4byte	.LASF31
 724 0015 CE000000 		.4byte	.LASF32
 725 0019 00000000 		.4byte	0x0
 726 001d 00000000 		.4byte	0x0
 727 0021 80000000 		.4byte	.Ldebug_ranges0+0x80
 728 0025 00000000 		.4byte	.Ldebug_line0
 729 0029 02       		.uleb128 0x2
 730 002a 01       		.byte	0x1
 731 002b 06       		.byte	0x6
 732 002c FA010000 		.4byte	.LASF0
 733 0030 02       		.uleb128 0x2
 734 0031 01       		.byte	0x1
 735 0032 08       		.byte	0x8
 736 0033 85000000 		.4byte	.LASF1
 737 0037 02       		.uleb128 0x2
 738 0038 02       		.byte	0x2
 739 0039 05       		.byte	0x5
 740 003a BD010000 		.4byte	.LASF2
 741 003e 02       		.uleb128 0x2
 742 003f 02       		.byte	0x2
 743 0040 07       		.byte	0x7
 744 0041 BB000000 		.4byte	.LASF3
 745 0045 02       		.uleb128 0x2
 746 0046 04       		.byte	0x4
 747 0047 05       		.byte	0x5
 748 0048 E7010000 		.4byte	.LASF4
 749 004c 02       		.uleb128 0x2
 750 004d 04       		.byte	0x4
ARM GAS  C:\Users\SUZUKI~1\AppData\Local\Temp\ccK3leqY.s 			page 22


 751 004e 07       		.byte	0x7
 752 004f A9000000 		.4byte	.LASF5
 753 0053 02       		.uleb128 0x2
 754 0054 08       		.byte	0x8
 755 0055 05       		.byte	0x5
 756 0056 00000000 		.4byte	.LASF6
 757 005a 02       		.uleb128 0x2
 758 005b 08       		.byte	0x8
 759 005c 07       		.byte	0x7
 760 005d 5D010000 		.4byte	.LASF7
 761 0061 03       		.uleb128 0x3
 762 0062 04       		.byte	0x4
 763 0063 05       		.byte	0x5
 764 0064 696E7400 		.ascii	"int\000"
 765 0068 02       		.uleb128 0x2
 766 0069 04       		.byte	0x4
 767 006a 07       		.byte	0x7
 768 006b 48010000 		.4byte	.LASF8
 769 006f 02       		.uleb128 0x2
 770 0070 01       		.byte	0x1
 771 0071 08       		.byte	0x8
 772 0072 B0010000 		.4byte	.LASF9
 773 0076 04       		.uleb128 0x4
 774 0077 C7010000 		.4byte	.LASF10
 775 007b 02       		.byte	0x2
 776 007c 60       		.byte	0x60
 777 007d 30000000 		.4byte	0x30
 778 0081 04       		.uleb128 0x4
 779 0082 1F010000 		.4byte	.LASF11
 780 0086 02       		.byte	0x2
 781 0087 61       		.byte	0x61
 782 0088 3E000000 		.4byte	0x3e
 783 008c 05       		.uleb128 0x5
 784 008d 01       		.byte	0x1
 785 008e 0E000000 		.4byte	.LASF12
 786 0092 01       		.byte	0x1
 787 0093 1801     		.2byte	0x118
 788 0095 01       		.byte	0x1
 789 0096 81000000 		.4byte	0x81
 790 009a 01       		.byte	0x1
 791 009b 05       		.uleb128 0x5
 792 009c 01       		.byte	0x1
 793 009d 1B020000 		.4byte	.LASF13
 794 00a1 01       		.byte	0x1
 795 00a2 B801     		.2byte	0x1b8
 796 00a4 01       		.byte	0x1
 797 00a5 76000000 		.4byte	0x76
 798 00a9 01       		.byte	0x1
 799 00aa 06       		.uleb128 0x6
 800 00ab 01       		.byte	0x1
 801 00ac 93000000 		.4byte	.LASF14
 802 00b0 01       		.byte	0x1
 803 00b1 2C       		.byte	0x2c
 804 00b2 01       		.byte	0x1
 805 00b3 00000000 		.4byte	.LFB0
 806 00b7 12000000 		.4byte	.LFE0
 807 00bb 01       		.byte	0x1
ARM GAS  C:\Users\SUZUKI~1\AppData\Local\Temp\ccK3leqY.s 			page 23


 808 00bc 5D       		.byte	0x5d
 809 00bd 06       		.uleb128 0x6
 810 00be 01       		.byte	0x1
 811 00bf 78000000 		.4byte	.LASF15
 812 00c3 01       		.byte	0x1
 813 00c4 44       		.byte	0x44
 814 00c5 01       		.byte	0x1
 815 00c6 00000000 		.4byte	.LFB1
 816 00ca 12000000 		.4byte	.LFE1
 817 00ce 01       		.byte	0x1
 818 00cf 5D       		.byte	0x5d
 819 00d0 07       		.uleb128 0x7
 820 00d1 01       		.byte	0x1
 821 00d2 06020000 		.4byte	.LASF16
 822 00d6 01       		.byte	0x1
 823 00d7 93       		.byte	0x93
 824 00d8 01       		.byte	0x1
 825 00d9 00000000 		.4byte	.LFB2
 826 00dd 28000000 		.4byte	.LFE2
 827 00e1 01       		.byte	0x1
 828 00e2 5D       		.byte	0x5d
 829 00e3 F7000000 		.4byte	0xf7
 830 00e7 08       		.uleb128 0x8
 831 00e8 29000000 		.4byte	.LASF18
 832 00ec 01       		.byte	0x1
 833 00ed 93       		.byte	0x93
 834 00ee 76000000 		.4byte	0x76
 835 00f2 00000000 		.4byte	.LLST3
 836 00f6 00       		.byte	0x0
 837 00f7 09       		.uleb128 0x9
 838 00f8 01       		.byte	0x1
 839 00f9 5D000000 		.4byte	.LASF17
 840 00fd 01       		.byte	0x1
 841 00fe B6       		.byte	0xb6
 842 00ff 01       		.byte	0x1
 843 0100 00000000 		.4byte	.LFB3
 844 0104 10010000 		.4byte	.LFE3
 845 0108 13000000 		.4byte	.LLST4
 846 010c 76010000 		.4byte	0x176
 847 0110 08       		.uleb128 0x8
 848 0111 05010000 		.4byte	.LASF19
 849 0115 01       		.byte	0x1
 850 0116 B6       		.byte	0xb6
 851 0117 81000000 		.4byte	0x81
 852 011b 32000000 		.4byte	.LLST5
 853 011f 08       		.uleb128 0x8
 854 0120 17010000 		.4byte	.LASF20
 855 0124 01       		.byte	0x1
 856 0125 B6       		.byte	0xb6
 857 0126 76000000 		.4byte	0x76
 858 012a 5B000000 		.4byte	.LLST6
 859 012e 0A       		.uleb128 0xa
 860 012f A1000000 		.4byte	.LASF21
 861 0133 01       		.byte	0x1
 862 0134 B8       		.byte	0xb8
 863 0135 76000000 		.4byte	0x76
 864 0139 84000000 		.4byte	.LLST7
ARM GAS  C:\Users\SUZUKI~1\AppData\Local\Temp\ccK3leqY.s 			page 24


 865 013d 0B       		.uleb128 0xb
 866 013e 55010000 		.4byte	.LASF33
 867 0142 01       		.byte	0x1
 868 0143 BA       		.byte	0xba
 869 0144 76000000 		.4byte	0x76
 870 0148 0A       		.uleb128 0xa
 871 0149 2F000000 		.4byte	.LASF22
 872 014d 01       		.byte	0x1
 873 014e BB       		.byte	0xbb
 874 014f 81000000 		.4byte	0x81
 875 0153 97000000 		.4byte	.LLST8
 876 0157 0C       		.uleb128 0xc
 877 0158 9B000000 		.4byte	0x9b
 878 015c 02000000 		.4byte	.LBB10
 879 0160 00000000 		.4byte	.Ldebug_ranges0+0x0
 880 0164 01       		.byte	0x1
 881 0165 BA       		.byte	0xba
 882 0166 0C       		.uleb128 0xc
 883 0167 8C000000 		.4byte	0x8c
 884 016b 06000000 		.4byte	.LBB14
 885 016f 20000000 		.4byte	.Ldebug_ranges0+0x20
 886 0173 01       		.byte	0x1
 887 0174 BB       		.byte	0xbb
 888 0175 00       		.byte	0x0
 889 0176 0D       		.uleb128 0xd
 890 0177 8C000000 		.4byte	0x8c
 891 017b 00000000 		.4byte	.LFB4
 892 017f 0E000000 		.4byte	.LFE4
 893 0183 01       		.byte	0x1
 894 0184 5D       		.byte	0x5d
 895 0185 0E       		.uleb128 0xe
 896 0186 01       		.byte	0x1
 897 0187 8C010000 		.4byte	.LASF23
 898 018b 01       		.byte	0x1
 899 018c 3A01     		.2byte	0x13a
 900 018e 01       		.byte	0x1
 901 018f 00000000 		.4byte	.LFB5
 902 0193 14000000 		.4byte	.LFE5
 903 0197 01       		.byte	0x1
 904 0198 5D       		.byte	0x5d
 905 0199 AE010000 		.4byte	0x1ae
 906 019d 0F       		.uleb128 0xf
 907 019e 26010000 		.4byte	.LASF24
 908 01a2 01       		.byte	0x1
 909 01a3 3A01     		.2byte	0x13a
 910 01a5 76000000 		.4byte	0x76
 911 01a9 C0000000 		.4byte	.LLST11
 912 01ad 00       		.byte	0x0
 913 01ae 0E       		.uleb128 0xe
 914 01af 01       		.byte	0x1
 915 01b0 2E010000 		.4byte	.LASF25
 916 01b4 01       		.byte	0x1
 917 01b5 5C01     		.2byte	0x15c
 918 01b7 01       		.byte	0x1
 919 01b8 00000000 		.4byte	.LFB6
 920 01bc 18000000 		.4byte	.LFE6
 921 01c0 01       		.byte	0x1
ARM GAS  C:\Users\SUZUKI~1\AppData\Local\Temp\ccK3leqY.s 			page 25


 922 01c1 5D       		.byte	0x5d
 923 01c2 D7010000 		.4byte	0x1d7
 924 01c6 0F       		.uleb128 0xf
 925 01c7 26010000 		.4byte	.LASF24
 926 01cb 01       		.byte	0x1
 927 01cc 5C01     		.2byte	0x15c
 928 01ce 76000000 		.4byte	0x76
 929 01d2 D3000000 		.4byte	.LLST13
 930 01d6 00       		.byte	0x0
 931 01d7 10       		.uleb128 0x10
 932 01d8 01       		.byte	0x1
 933 01d9 74010000 		.4byte	.LASF34
 934 01dd 01       		.byte	0x1
 935 01de 7001     		.2byte	0x170
 936 01e0 01       		.byte	0x1
 937 01e1 76000000 		.4byte	0x76
 938 01e5 00000000 		.4byte	.LFB7
 939 01e9 10000000 		.4byte	.LFE7
 940 01ed 01       		.byte	0x1
 941 01ee 5D       		.byte	0x5d
 942 01ef 11       		.uleb128 0x11
 943 01f0 01       		.byte	0x1
 944 01f1 CD010000 		.4byte	.LASF26
 945 01f5 01       		.byte	0x1
 946 01f6 8E01     		.2byte	0x18e
 947 01f8 01       		.byte	0x1
 948 01f9 00000000 		.4byte	.LFB8
 949 01fd 96000000 		.4byte	.LFE8
 950 0201 E6000000 		.4byte	.LLST15
 951 0205 5A020000 		.4byte	0x25a
 952 0209 0F       		.uleb128 0xf
 953 020a F0010000 		.4byte	.LASF27
 954 020e 01       		.byte	0x1
 955 020f 8E01     		.2byte	0x18e
 956 0211 76000000 		.4byte	0x76
 957 0215 05010000 		.4byte	.LLST16
 958 0219 12       		.uleb128 0x12
 959 021a B5010000 		.4byte	.LASF28
 960 021e 01       		.byte	0x1
 961 021f 9001     		.2byte	0x190
 962 0221 81000000 		.4byte	0x81
 963 0225 2E010000 		.4byte	.LLST17
 964 0229 12       		.uleb128 0x12
 965 022a 10010000 		.4byte	.LASF29
 966 022e 01       		.byte	0x1
 967 022f 9101     		.2byte	0x191
 968 0231 76000000 		.4byte	0x76
 969 0235 57010000 		.4byte	.LLST18
 970 0239 13       		.uleb128 0x13
 971 023a 9B000000 		.4byte	0x9b
 972 023e 02000000 		.4byte	.LBB22
 973 0242 40000000 		.4byte	.Ldebug_ranges0+0x40
 974 0246 01       		.byte	0x1
 975 0247 9101     		.2byte	0x191
 976 0249 13       		.uleb128 0x13
 977 024a 8C000000 		.4byte	0x8c
 978 024e 06000000 		.4byte	.LBB26
ARM GAS  C:\Users\SUZUKI~1\AppData\Local\Temp\ccK3leqY.s 			page 26


 979 0252 60000000 		.4byte	.Ldebug_ranges0+0x60
 980 0256 01       		.byte	0x1
 981 0257 9001     		.2byte	0x190
 982 0259 00       		.byte	0x0
 983 025a 0D       		.uleb128 0xd
 984 025b 9B000000 		.4byte	0x9b
 985 025f 00000000 		.4byte	.LFB9
 986 0263 10000000 		.4byte	.LFE9
 987 0267 01       		.byte	0x1
 988 0268 5D       		.byte	0x5d
 989 0269 00       		.byte	0x0
 990              		.section	.debug_abbrev
 991 0000 01       		.uleb128 0x1
 992 0001 11       		.uleb128 0x11
 993 0002 01       		.byte	0x1
 994 0003 25       		.uleb128 0x25
 995 0004 0E       		.uleb128 0xe
 996 0005 13       		.uleb128 0x13
 997 0006 0B       		.uleb128 0xb
 998 0007 03       		.uleb128 0x3
 999 0008 0E       		.uleb128 0xe
 1000 0009 1B       		.uleb128 0x1b
 1001 000a 0E       		.uleb128 0xe
 1002 000b 11       		.uleb128 0x11
 1003 000c 01       		.uleb128 0x1
 1004 000d 52       		.uleb128 0x52
 1005 000e 01       		.uleb128 0x1
 1006 000f 55       		.uleb128 0x55
 1007 0010 06       		.uleb128 0x6
 1008 0011 10       		.uleb128 0x10
 1009 0012 06       		.uleb128 0x6
 1010 0013 00       		.byte	0x0
 1011 0014 00       		.byte	0x0
 1012 0015 02       		.uleb128 0x2
 1013 0016 24       		.uleb128 0x24
 1014 0017 00       		.byte	0x0
 1015 0018 0B       		.uleb128 0xb
 1016 0019 0B       		.uleb128 0xb
 1017 001a 3E       		.uleb128 0x3e
 1018 001b 0B       		.uleb128 0xb
 1019 001c 03       		.uleb128 0x3
 1020 001d 0E       		.uleb128 0xe
 1021 001e 00       		.byte	0x0
 1022 001f 00       		.byte	0x0
 1023 0020 03       		.uleb128 0x3
 1024 0021 24       		.uleb128 0x24
 1025 0022 00       		.byte	0x0
 1026 0023 0B       		.uleb128 0xb
 1027 0024 0B       		.uleb128 0xb
 1028 0025 3E       		.uleb128 0x3e
 1029 0026 0B       		.uleb128 0xb
 1030 0027 03       		.uleb128 0x3
 1031 0028 08       		.uleb128 0x8
 1032 0029 00       		.byte	0x0
 1033 002a 00       		.byte	0x0
 1034 002b 04       		.uleb128 0x4
 1035 002c 16       		.uleb128 0x16
ARM GAS  C:\Users\SUZUKI~1\AppData\Local\Temp\ccK3leqY.s 			page 27


 1036 002d 00       		.byte	0x0
 1037 002e 03       		.uleb128 0x3
 1038 002f 0E       		.uleb128 0xe
 1039 0030 3A       		.uleb128 0x3a
 1040 0031 0B       		.uleb128 0xb
 1041 0032 3B       		.uleb128 0x3b
 1042 0033 0B       		.uleb128 0xb
 1043 0034 49       		.uleb128 0x49
 1044 0035 13       		.uleb128 0x13
 1045 0036 00       		.byte	0x0
 1046 0037 00       		.byte	0x0
 1047 0038 05       		.uleb128 0x5
 1048 0039 2E       		.uleb128 0x2e
 1049 003a 00       		.byte	0x0
 1050 003b 3F       		.uleb128 0x3f
 1051 003c 0C       		.uleb128 0xc
 1052 003d 03       		.uleb128 0x3
 1053 003e 0E       		.uleb128 0xe
 1054 003f 3A       		.uleb128 0x3a
 1055 0040 0B       		.uleb128 0xb
 1056 0041 3B       		.uleb128 0x3b
 1057 0042 05       		.uleb128 0x5
 1058 0043 27       		.uleb128 0x27
 1059 0044 0C       		.uleb128 0xc
 1060 0045 49       		.uleb128 0x49
 1061 0046 13       		.uleb128 0x13
 1062 0047 20       		.uleb128 0x20
 1063 0048 0B       		.uleb128 0xb
 1064 0049 00       		.byte	0x0
 1065 004a 00       		.byte	0x0
 1066 004b 06       		.uleb128 0x6
 1067 004c 2E       		.uleb128 0x2e
 1068 004d 00       		.byte	0x0
 1069 004e 3F       		.uleb128 0x3f
 1070 004f 0C       		.uleb128 0xc
 1071 0050 03       		.uleb128 0x3
 1072 0051 0E       		.uleb128 0xe
 1073 0052 3A       		.uleb128 0x3a
 1074 0053 0B       		.uleb128 0xb
 1075 0054 3B       		.uleb128 0x3b
 1076 0055 0B       		.uleb128 0xb
 1077 0056 27       		.uleb128 0x27
 1078 0057 0C       		.uleb128 0xc
 1079 0058 11       		.uleb128 0x11
 1080 0059 01       		.uleb128 0x1
 1081 005a 12       		.uleb128 0x12
 1082 005b 01       		.uleb128 0x1
 1083 005c 40       		.uleb128 0x40
 1084 005d 0A       		.uleb128 0xa
 1085 005e 00       		.byte	0x0
 1086 005f 00       		.byte	0x0
 1087 0060 07       		.uleb128 0x7
 1088 0061 2E       		.uleb128 0x2e
 1089 0062 01       		.byte	0x1
 1090 0063 3F       		.uleb128 0x3f
 1091 0064 0C       		.uleb128 0xc
 1092 0065 03       		.uleb128 0x3
ARM GAS  C:\Users\SUZUKI~1\AppData\Local\Temp\ccK3leqY.s 			page 28


 1093 0066 0E       		.uleb128 0xe
 1094 0067 3A       		.uleb128 0x3a
 1095 0068 0B       		.uleb128 0xb
 1096 0069 3B       		.uleb128 0x3b
 1097 006a 0B       		.uleb128 0xb
 1098 006b 27       		.uleb128 0x27
 1099 006c 0C       		.uleb128 0xc
 1100 006d 11       		.uleb128 0x11
 1101 006e 01       		.uleb128 0x1
 1102 006f 12       		.uleb128 0x12
 1103 0070 01       		.uleb128 0x1
 1104 0071 40       		.uleb128 0x40
 1105 0072 0A       		.uleb128 0xa
 1106 0073 01       		.uleb128 0x1
 1107 0074 13       		.uleb128 0x13
 1108 0075 00       		.byte	0x0
 1109 0076 00       		.byte	0x0
 1110 0077 08       		.uleb128 0x8
 1111 0078 05       		.uleb128 0x5
 1112 0079 00       		.byte	0x0
 1113 007a 03       		.uleb128 0x3
 1114 007b 0E       		.uleb128 0xe
 1115 007c 3A       		.uleb128 0x3a
 1116 007d 0B       		.uleb128 0xb
 1117 007e 3B       		.uleb128 0x3b
 1118 007f 0B       		.uleb128 0xb
 1119 0080 49       		.uleb128 0x49
 1120 0081 13       		.uleb128 0x13
 1121 0082 02       		.uleb128 0x2
 1122 0083 06       		.uleb128 0x6
 1123 0084 00       		.byte	0x0
 1124 0085 00       		.byte	0x0
 1125 0086 09       		.uleb128 0x9
 1126 0087 2E       		.uleb128 0x2e
 1127 0088 01       		.byte	0x1
 1128 0089 3F       		.uleb128 0x3f
 1129 008a 0C       		.uleb128 0xc
 1130 008b 03       		.uleb128 0x3
 1131 008c 0E       		.uleb128 0xe
 1132 008d 3A       		.uleb128 0x3a
 1133 008e 0B       		.uleb128 0xb
 1134 008f 3B       		.uleb128 0x3b
 1135 0090 0B       		.uleb128 0xb
 1136 0091 27       		.uleb128 0x27
 1137 0092 0C       		.uleb128 0xc
 1138 0093 11       		.uleb128 0x11
 1139 0094 01       		.uleb128 0x1
 1140 0095 12       		.uleb128 0x12
 1141 0096 01       		.uleb128 0x1
 1142 0097 40       		.uleb128 0x40
 1143 0098 06       		.uleb128 0x6
 1144 0099 01       		.uleb128 0x1
 1145 009a 13       		.uleb128 0x13
 1146 009b 00       		.byte	0x0
 1147 009c 00       		.byte	0x0
 1148 009d 0A       		.uleb128 0xa
 1149 009e 34       		.uleb128 0x34
ARM GAS  C:\Users\SUZUKI~1\AppData\Local\Temp\ccK3leqY.s 			page 29


 1150 009f 00       		.byte	0x0
 1151 00a0 03       		.uleb128 0x3
 1152 00a1 0E       		.uleb128 0xe
 1153 00a2 3A       		.uleb128 0x3a
 1154 00a3 0B       		.uleb128 0xb
 1155 00a4 3B       		.uleb128 0x3b
 1156 00a5 0B       		.uleb128 0xb
 1157 00a6 49       		.uleb128 0x49
 1158 00a7 13       		.uleb128 0x13
 1159 00a8 02       		.uleb128 0x2
 1160 00a9 06       		.uleb128 0x6
 1161 00aa 00       		.byte	0x0
 1162 00ab 00       		.byte	0x0
 1163 00ac 0B       		.uleb128 0xb
 1164 00ad 34       		.uleb128 0x34
 1165 00ae 00       		.byte	0x0
 1166 00af 03       		.uleb128 0x3
 1167 00b0 0E       		.uleb128 0xe
 1168 00b1 3A       		.uleb128 0x3a
 1169 00b2 0B       		.uleb128 0xb
 1170 00b3 3B       		.uleb128 0x3b
 1171 00b4 0B       		.uleb128 0xb
 1172 00b5 49       		.uleb128 0x49
 1173 00b6 13       		.uleb128 0x13
 1174 00b7 00       		.byte	0x0
 1175 00b8 00       		.byte	0x0
 1176 00b9 0C       		.uleb128 0xc
 1177 00ba 1D       		.uleb128 0x1d
 1178 00bb 00       		.byte	0x0
 1179 00bc 31       		.uleb128 0x31
 1180 00bd 13       		.uleb128 0x13
 1181 00be 52       		.uleb128 0x52
 1182 00bf 01       		.uleb128 0x1
 1183 00c0 55       		.uleb128 0x55
 1184 00c1 06       		.uleb128 0x6
 1185 00c2 58       		.uleb128 0x58
 1186 00c3 0B       		.uleb128 0xb
 1187 00c4 59       		.uleb128 0x59
 1188 00c5 0B       		.uleb128 0xb
 1189 00c6 00       		.byte	0x0
 1190 00c7 00       		.byte	0x0
 1191 00c8 0D       		.uleb128 0xd
 1192 00c9 2E       		.uleb128 0x2e
 1193 00ca 00       		.byte	0x0
 1194 00cb 31       		.uleb128 0x31
 1195 00cc 13       		.uleb128 0x13
 1196 00cd 11       		.uleb128 0x11
 1197 00ce 01       		.uleb128 0x1
 1198 00cf 12       		.uleb128 0x12
 1199 00d0 01       		.uleb128 0x1
 1200 00d1 40       		.uleb128 0x40
 1201 00d2 0A       		.uleb128 0xa
 1202 00d3 00       		.byte	0x0
 1203 00d4 00       		.byte	0x0
 1204 00d5 0E       		.uleb128 0xe
 1205 00d6 2E       		.uleb128 0x2e
 1206 00d7 01       		.byte	0x1
ARM GAS  C:\Users\SUZUKI~1\AppData\Local\Temp\ccK3leqY.s 			page 30


 1207 00d8 3F       		.uleb128 0x3f
 1208 00d9 0C       		.uleb128 0xc
 1209 00da 03       		.uleb128 0x3
 1210 00db 0E       		.uleb128 0xe
 1211 00dc 3A       		.uleb128 0x3a
 1212 00dd 0B       		.uleb128 0xb
 1213 00de 3B       		.uleb128 0x3b
 1214 00df 05       		.uleb128 0x5
 1215 00e0 27       		.uleb128 0x27
 1216 00e1 0C       		.uleb128 0xc
 1217 00e2 11       		.uleb128 0x11
 1218 00e3 01       		.uleb128 0x1
 1219 00e4 12       		.uleb128 0x12
 1220 00e5 01       		.uleb128 0x1
 1221 00e6 40       		.uleb128 0x40
 1222 00e7 0A       		.uleb128 0xa
 1223 00e8 01       		.uleb128 0x1
 1224 00e9 13       		.uleb128 0x13
 1225 00ea 00       		.byte	0x0
 1226 00eb 00       		.byte	0x0
 1227 00ec 0F       		.uleb128 0xf
 1228 00ed 05       		.uleb128 0x5
 1229 00ee 00       		.byte	0x0
 1230 00ef 03       		.uleb128 0x3
 1231 00f0 0E       		.uleb128 0xe
 1232 00f1 3A       		.uleb128 0x3a
 1233 00f2 0B       		.uleb128 0xb
 1234 00f3 3B       		.uleb128 0x3b
 1235 00f4 05       		.uleb128 0x5
 1236 00f5 49       		.uleb128 0x49
 1237 00f6 13       		.uleb128 0x13
 1238 00f7 02       		.uleb128 0x2
 1239 00f8 06       		.uleb128 0x6
 1240 00f9 00       		.byte	0x0
 1241 00fa 00       		.byte	0x0
 1242 00fb 10       		.uleb128 0x10
 1243 00fc 2E       		.uleb128 0x2e
 1244 00fd 00       		.byte	0x0
 1245 00fe 3F       		.uleb128 0x3f
 1246 00ff 0C       		.uleb128 0xc
 1247 0100 03       		.uleb128 0x3
 1248 0101 0E       		.uleb128 0xe
 1249 0102 3A       		.uleb128 0x3a
 1250 0103 0B       		.uleb128 0xb
 1251 0104 3B       		.uleb128 0x3b
 1252 0105 05       		.uleb128 0x5
 1253 0106 27       		.uleb128 0x27
 1254 0107 0C       		.uleb128 0xc
 1255 0108 49       		.uleb128 0x49
 1256 0109 13       		.uleb128 0x13
 1257 010a 11       		.uleb128 0x11
 1258 010b 01       		.uleb128 0x1
 1259 010c 12       		.uleb128 0x12
 1260 010d 01       		.uleb128 0x1
 1261 010e 40       		.uleb128 0x40
 1262 010f 0A       		.uleb128 0xa
 1263 0110 00       		.byte	0x0
ARM GAS  C:\Users\SUZUKI~1\AppData\Local\Temp\ccK3leqY.s 			page 31


 1264 0111 00       		.byte	0x0
 1265 0112 11       		.uleb128 0x11
 1266 0113 2E       		.uleb128 0x2e
 1267 0114 01       		.byte	0x1
 1268 0115 3F       		.uleb128 0x3f
 1269 0116 0C       		.uleb128 0xc
 1270 0117 03       		.uleb128 0x3
 1271 0118 0E       		.uleb128 0xe
 1272 0119 3A       		.uleb128 0x3a
 1273 011a 0B       		.uleb128 0xb
 1274 011b 3B       		.uleb128 0x3b
 1275 011c 05       		.uleb128 0x5
 1276 011d 27       		.uleb128 0x27
 1277 011e 0C       		.uleb128 0xc
 1278 011f 11       		.uleb128 0x11
 1279 0120 01       		.uleb128 0x1
 1280 0121 12       		.uleb128 0x12
 1281 0122 01       		.uleb128 0x1
 1282 0123 40       		.uleb128 0x40
 1283 0124 06       		.uleb128 0x6
 1284 0125 01       		.uleb128 0x1
 1285 0126 13       		.uleb128 0x13
 1286 0127 00       		.byte	0x0
 1287 0128 00       		.byte	0x0
 1288 0129 12       		.uleb128 0x12
 1289 012a 34       		.uleb128 0x34
 1290 012b 00       		.byte	0x0
 1291 012c 03       		.uleb128 0x3
 1292 012d 0E       		.uleb128 0xe
 1293 012e 3A       		.uleb128 0x3a
 1294 012f 0B       		.uleb128 0xb
 1295 0130 3B       		.uleb128 0x3b
 1296 0131 05       		.uleb128 0x5
 1297 0132 49       		.uleb128 0x49
 1298 0133 13       		.uleb128 0x13
 1299 0134 02       		.uleb128 0x2
 1300 0135 06       		.uleb128 0x6
 1301 0136 00       		.byte	0x0
 1302 0137 00       		.byte	0x0
 1303 0138 13       		.uleb128 0x13
 1304 0139 1D       		.uleb128 0x1d
 1305 013a 00       		.byte	0x0
 1306 013b 31       		.uleb128 0x31
 1307 013c 13       		.uleb128 0x13
 1308 013d 52       		.uleb128 0x52
 1309 013e 01       		.uleb128 0x1
 1310 013f 55       		.uleb128 0x55
 1311 0140 06       		.uleb128 0x6
 1312 0141 58       		.uleb128 0x58
 1313 0142 0B       		.uleb128 0xb
 1314 0143 59       		.uleb128 0x59
 1315 0144 05       		.uleb128 0x5
 1316 0145 00       		.byte	0x0
 1317 0146 00       		.byte	0x0
 1318 0147 00       		.byte	0x0
 1319              		.section	.debug_pubnames,"",%progbits
 1320 0000 1A010000 		.4byte	0x11a
ARM GAS  C:\Users\SUZUKI~1\AppData\Local\Temp\ccK3leqY.s 			page 32


 1321 0004 0200     		.2byte	0x2
 1322 0006 00000000 		.4byte	.Ldebug_info0
 1323 000a 6A020000 		.4byte	0x26a
 1324 000e AA000000 		.4byte	0xaa
 1325 0012 436C6F63 		.ascii	"Clock_1_Start\000"
 1325      6B5F315F 
 1325      53746172 
 1325      7400
 1326 0020 BD000000 		.4byte	0xbd
 1327 0024 436C6F63 		.ascii	"Clock_1_Stop\000"
 1327      6B5F315F 
 1327      53746F70 
 1327      00
 1328 0031 D0000000 		.4byte	0xd0
 1329 0035 436C6F63 		.ascii	"Clock_1_StandbyPower\000"
 1329      6B5F315F 
 1329      5374616E 
 1329      64627950 
 1329      6F776572 
 1330 004a F7000000 		.4byte	0xf7
 1331 004e 436C6F63 		.ascii	"Clock_1_SetDividerRegister\000"
 1331      6B5F315F 
 1331      53657444 
 1331      69766964 
 1331      65725265 
 1332 0069 76010000 		.4byte	0x176
 1333 006d 436C6F63 		.ascii	"Clock_1_GetDividerRegister\000"
 1333      6B5F315F 
 1333      47657444 
 1333      69766964 
 1333      65725265 
 1334 0088 85010000 		.4byte	0x185
 1335 008c 436C6F63 		.ascii	"Clock_1_SetModeRegister\000"
 1335      6B5F315F 
 1335      5365744D 
 1335      6F646552 
 1335      65676973 
 1336 00a4 AE010000 		.4byte	0x1ae
 1337 00a8 436C6F63 		.ascii	"Clock_1_ClearModeRegister\000"
 1337      6B5F315F 
 1337      436C6561 
 1337      724D6F64 
 1337      65526567 
 1338 00c2 D7010000 		.4byte	0x1d7
 1339 00c6 436C6F63 		.ascii	"Clock_1_GetModeRegister\000"
 1339      6B5F315F 
 1339      4765744D 
 1339      6F646552 
 1339      65676973 
 1340 00de EF010000 		.4byte	0x1ef
 1341 00e2 436C6F63 		.ascii	"Clock_1_SetSourceRegister\000"
 1341      6B5F315F 
 1341      53657453 
 1341      6F757263 
 1341      65526567 
 1342 00fc 5A020000 		.4byte	0x25a
 1343 0100 436C6F63 		.ascii	"Clock_1_GetSourceRegister\000"
ARM GAS  C:\Users\SUZUKI~1\AppData\Local\Temp\ccK3leqY.s 			page 33


 1343      6B5F315F 
 1343      47657453 
 1343      6F757263 
 1343      65526567 
 1344 011a 00000000 		.4byte	0x0
 1345              		.section	.debug_aranges,"",%progbits
 1346 0000 64000000 		.4byte	0x64
 1347 0004 0200     		.2byte	0x2
 1348 0006 00000000 		.4byte	.Ldebug_info0
 1349 000a 04       		.byte	0x4
 1350 000b 00       		.byte	0x0
 1351 000c 0000     		.2byte	0x0
 1352 000e 0000     		.2byte	0x0
 1353 0010 00000000 		.4byte	.LFB0
 1354 0014 12000000 		.4byte	.LFE0-.LFB0
 1355 0018 00000000 		.4byte	.LFB1
 1356 001c 12000000 		.4byte	.LFE1-.LFB1
 1357 0020 00000000 		.4byte	.LFB2
 1358 0024 28000000 		.4byte	.LFE2-.LFB2
 1359 0028 00000000 		.4byte	.LFB3
 1360 002c 10010000 		.4byte	.LFE3-.LFB3
 1361 0030 00000000 		.4byte	.LFB4
 1362 0034 0E000000 		.4byte	.LFE4-.LFB4
 1363 0038 00000000 		.4byte	.LFB5
 1364 003c 14000000 		.4byte	.LFE5-.LFB5
 1365 0040 00000000 		.4byte	.LFB6
 1366 0044 18000000 		.4byte	.LFE6-.LFB6
 1367 0048 00000000 		.4byte	.LFB7
 1368 004c 10000000 		.4byte	.LFE7-.LFB7
 1369 0050 00000000 		.4byte	.LFB8
 1370 0054 96000000 		.4byte	.LFE8-.LFB8
 1371 0058 00000000 		.4byte	.LFB9
 1372 005c 10000000 		.4byte	.LFE9-.LFB9
 1373 0060 00000000 		.4byte	0x0
 1374 0064 00000000 		.4byte	0x0
 1375              		.section	.debug_ranges,"",%progbits
 1376              	.Ldebug_ranges0:
 1377 0000 02000000 		.4byte	.LBB10
 1378 0004 06000000 		.4byte	.LBE10
 1379 0008 12000000 		.4byte	.LBB20
 1380 000c 16000000 		.4byte	.LBE20
 1381 0010 0A000000 		.4byte	.LBB18
 1382 0014 0E000000 		.4byte	.LBE18
 1383 0018 00000000 		.4byte	0x0
 1384 001c 00000000 		.4byte	0x0
 1385 0020 06000000 		.4byte	.LBB14
 1386 0024 0A000000 		.4byte	.LBE14
 1387 0028 16000000 		.4byte	.LBB21
 1388 002c 1A000000 		.4byte	.LBE21
 1389 0030 0E000000 		.4byte	.LBB19
 1390 0034 12000000 		.4byte	.LBE19
 1391 0038 00000000 		.4byte	0x0
 1392 003c 00000000 		.4byte	0x0
 1393 0040 02000000 		.4byte	.LBB22
 1394 0044 06000000 		.4byte	.LBE22
 1395 0048 14000000 		.4byte	.LBB32
 1396 004c 16000000 		.4byte	.LBE32
ARM GAS  C:\Users\SUZUKI~1\AppData\Local\Temp\ccK3leqY.s 			page 34


 1397 0050 0E000000 		.4byte	.LBB30
 1398 0054 12000000 		.4byte	.LBE30
 1399 0058 00000000 		.4byte	0x0
 1400 005c 00000000 		.4byte	0x0
 1401 0060 06000000 		.4byte	.LBB26
 1402 0064 0E000000 		.4byte	.LBE26
 1403 0068 16000000 		.4byte	.LBB33
 1404 006c 18000000 		.4byte	.LBE33
 1405 0070 12000000 		.4byte	.LBB31
 1406 0074 14000000 		.4byte	.LBE31
 1407 0078 00000000 		.4byte	0x0
 1408 007c 00000000 		.4byte	0x0
 1409 0080 00000000 		.4byte	.Ltext0
 1410 0084 00000000 		.4byte	.Letext0
 1411 0088 00000000 		.4byte	.LFB0
 1412 008c 12000000 		.4byte	.LFE0
 1413 0090 00000000 		.4byte	.LFB1
 1414 0094 12000000 		.4byte	.LFE1
 1415 0098 00000000 		.4byte	.LFB2
 1416 009c 28000000 		.4byte	.LFE2
 1417 00a0 00000000 		.4byte	.LFB3
 1418 00a4 10010000 		.4byte	.LFE3
 1419 00a8 00000000 		.4byte	.LFB4
 1420 00ac 0E000000 		.4byte	.LFE4
 1421 00b0 00000000 		.4byte	.LFB5
 1422 00b4 14000000 		.4byte	.LFE5
 1423 00b8 00000000 		.4byte	.LFB6
 1424 00bc 18000000 		.4byte	.LFE6
 1425 00c0 00000000 		.4byte	.LFB7
 1426 00c4 10000000 		.4byte	.LFE7
 1427 00c8 00000000 		.4byte	.LFB8
 1428 00cc 96000000 		.4byte	.LFE8
 1429 00d0 00000000 		.4byte	.LFB9
 1430 00d4 10000000 		.4byte	.LFE9
 1431 00d8 00000000 		.4byte	0x0
 1432 00dc 00000000 		.4byte	0x0
 1433              		.section	.debug_str,"MS",%progbits,1
 1434              	.LASF6:
 1435 0000 6C6F6E67 		.ascii	"long long int\000"
 1435      206C6F6E 
 1435      6720696E 
 1435      7400
 1436              	.LASF12:
 1437 000e 436C6F63 		.ascii	"Clock_1_GetDividerRegister\000"
 1437      6B5F315F 
 1437      47657444 
 1437      69766964 
 1437      65725265 
 1438              	.LASF18:
 1439 0029 73746174 		.ascii	"state\000"
 1439      6500
 1440              	.LASF22:
 1441 002f 6F6C6444 		.ascii	"oldDivider\000"
 1441      69766964 
 1441      657200
 1442              	.LASF31:
 1443 003a 2E5C4765 		.ascii	".\\Generated_Source\\PSoC5\\Clock_1.c\000"
ARM GAS  C:\Users\SUZUKI~1\AppData\Local\Temp\ccK3leqY.s 			page 35


 1443      6E657261 
 1443      7465645F 
 1443      536F7572 
 1443      63655C50 
 1444              	.LASF17:
 1445 005d 436C6F63 		.ascii	"Clock_1_SetDividerRegister\000"
 1445      6B5F315F 
 1445      53657444 
 1445      69766964 
 1445      65725265 
 1446              	.LASF15:
 1447 0078 436C6F63 		.ascii	"Clock_1_Stop\000"
 1447      6B5F315F 
 1447      53746F70 
 1447      00
 1448              	.LASF1:
 1449 0085 756E7369 		.ascii	"unsigned char\000"
 1449      676E6564 
 1449      20636861 
 1449      7200
 1450              	.LASF14:
 1451 0093 436C6F63 		.ascii	"Clock_1_Start\000"
 1451      6B5F315F 
 1451      53746172 
 1451      7400
 1452              	.LASF21:
 1453 00a1 656E6162 		.ascii	"enabled\000"
 1453      6C656400 
 1454              	.LASF5:
 1455 00a9 6C6F6E67 		.ascii	"long unsigned int\000"
 1455      20756E73 
 1455      69676E65 
 1455      6420696E 
 1455      7400
 1456              	.LASF3:
 1457 00bb 73686F72 		.ascii	"short unsigned int\000"
 1457      7420756E 
 1457      7369676E 
 1457      65642069 
 1457      6E7400
 1458              	.LASF32:
 1459 00ce 463A5C44 		.ascii	"F:\\Documents\\PSoC_Creator\\ledmatrix\\ledmatrixdm"
 1459      6F63756D 
 1459      656E7473 
 1459      5C50536F 
 1459      435F4372 
 1460 00fd 612E6379 		.ascii	"a.cydsn\000"
 1460      64736E00 
 1461              	.LASF19:
 1462 0105 636C6B44 		.ascii	"clkDivider\000"
 1462      69766964 
 1462      657200
 1463              	.LASF29:
 1464 0110 6F6C6453 		.ascii	"oldSrc\000"
 1464      726300
 1465              	.LASF20:
 1466 0117 72657374 		.ascii	"restart\000"
ARM GAS  C:\Users\SUZUKI~1\AppData\Local\Temp\ccK3leqY.s 			page 36


 1466      61727400 
 1467              	.LASF11:
 1468 011f 75696E74 		.ascii	"uint16\000"
 1468      313600
 1469              	.LASF24:
 1470 0126 636C6B4D 		.ascii	"clkMode\000"
 1470      6F646500 
 1471              	.LASF25:
 1472 012e 436C6F63 		.ascii	"Clock_1_ClearModeRegister\000"
 1472      6B5F315F 
 1472      436C6561 
 1472      724D6F64 
 1472      65526567 
 1473              	.LASF8:
 1474 0148 756E7369 		.ascii	"unsigned int\000"
 1474      676E6564 
 1474      20696E74 
 1474      00
 1475              	.LASF33:
 1476 0155 63757272 		.ascii	"currSrc\000"
 1476      53726300 
 1477              	.LASF7:
 1478 015d 6C6F6E67 		.ascii	"long long unsigned int\000"
 1478      206C6F6E 
 1478      6720756E 
 1478      7369676E 
 1478      65642069 
 1479              	.LASF34:
 1480 0174 436C6F63 		.ascii	"Clock_1_GetModeRegister\000"
 1480      6B5F315F 
 1480      4765744D 
 1480      6F646552 
 1480      65676973 
 1481              	.LASF23:
 1482 018c 436C6F63 		.ascii	"Clock_1_SetModeRegister\000"
 1482      6B5F315F 
 1482      5365744D 
 1482      6F646552 
 1482      65676973 
 1483              	.LASF30:
 1484 01a4 474E5520 		.ascii	"GNU C 4.4.1\000"
 1484      4320342E 
 1484      342E3100 
 1485              	.LASF9:
 1486 01b0 63686172 		.ascii	"char\000"
 1486      00
 1487              	.LASF28:
 1488 01b5 63757272 		.ascii	"currDiv\000"
 1488      44697600 
 1489              	.LASF2:
 1490 01bd 73686F72 		.ascii	"short int\000"
 1490      7420696E 
 1490      7400
 1491              	.LASF10:
 1492 01c7 75696E74 		.ascii	"uint8\000"
 1492      3800
 1493              	.LASF26:
ARM GAS  C:\Users\SUZUKI~1\AppData\Local\Temp\ccK3leqY.s 			page 37


 1494 01cd 436C6F63 		.ascii	"Clock_1_SetSourceRegister\000"
 1494      6B5F315F 
 1494      53657453 
 1494      6F757263 
 1494      65526567 
 1495              	.LASF4:
 1496 01e7 6C6F6E67 		.ascii	"long int\000"
 1496      20696E74 
 1496      00
 1497              	.LASF27:
 1498 01f0 636C6B53 		.ascii	"clkSource\000"
 1498      6F757263 
 1498      6500
 1499              	.LASF0:
 1500 01fa 7369676E 		.ascii	"signed char\000"
 1500      65642063 
 1500      68617200 
 1501              	.LASF16:
 1502 0206 436C6F63 		.ascii	"Clock_1_StandbyPower\000"
 1502      6B5F315F 
 1502      5374616E 
 1502      64627950 
 1502      6F776572 
 1503              	.LASF13:
 1504 021b 436C6F63 		.ascii	"Clock_1_GetSourceRegister\000"
 1504      6B5F315F 
 1504      47657453 
 1504      6F757263 
 1504      65526567 
 1505              		.ident	"GCC: (Sourcery G++ Lite 2010q1-188) 4.4.1"
