ARM GAS  C:\Users\SUZUKI~1\AppData\Local\Temp\ccrMKzS4.s 			page 1


   1              		.syntax unified
   2              		.cpu cortex-m3
   3              		.fpu softvfp
   4              		.eabi_attribute 20, 1
   5              		.eabi_attribute 21, 1
   6              		.eabi_attribute 23, 3
   7              		.eabi_attribute 24, 1
   8              		.eabi_attribute 25, 1
   9              		.eabi_attribute 26, 1
  10              		.eabi_attribute 30, 6
  11              		.eabi_attribute 18, 4
  12              		.thumb
  13              		.file	"DMA_ROW_CLEAR_dma.c"
  14              		.section	.debug_abbrev,"",%progbits
  15              	.Ldebug_abbrev0:
  16              		.section	.debug_info,"",%progbits
  17              	.Ldebug_info0:
  18              		.section	.debug_line,"",%progbits
  19              	.Ldebug_line0:
  20 0000 99000000 		.text
  20      02006900 
  20      00000201 
  20      FB0E0D00 
  20      01010101 
  21              	.Ltext0:
  22              		.cfi_sections	.debug_frame
  23              		.global	DMA_ROW_CLEAR_DmaHandle
  24              		.data
  25              		.type	DMA_ROW_CLEAR_DmaHandle, %object
  26              		.size	DMA_ROW_CLEAR_DmaHandle, 1
  27              	DMA_ROW_CLEAR_DmaHandle:
  28 0000 FF       		.byte	-1
  29              		.section	.text.DMA_ROW_CLEAR_DmaInitialize,"ax",%progbits
  30              		.align	2
  31              		.global	DMA_ROW_CLEAR_DmaInitialize
  32              		.thumb
  33              		.thumb_func
  34              		.type	DMA_ROW_CLEAR_DmaInitialize, %function
  35              	DMA_ROW_CLEAR_DmaInitialize:
  36              	.LFB0:
  37              		.file 1 ".\\Generated_Source\\PSoC5\\DMA_ROW_CLEAR_dma.c"
   1:.\Generated_Source\PSoC5/DMA_ROW_CLEAR_dma.c **** /***************************************************************************
   2:.\Generated_Source\PSoC5/DMA_ROW_CLEAR_dma.c **** * File Name: DMA_ROW_CLEAR_dma.c  
   3:.\Generated_Source\PSoC5/DMA_ROW_CLEAR_dma.c **** * Version 1.60
   4:.\Generated_Source\PSoC5/DMA_ROW_CLEAR_dma.c **** *
   5:.\Generated_Source\PSoC5/DMA_ROW_CLEAR_dma.c **** *  Description:
   6:.\Generated_Source\PSoC5/DMA_ROW_CLEAR_dma.c **** *   Provides an API for the DMAC component. The API includes functions
   7:.\Generated_Source\PSoC5/DMA_ROW_CLEAR_dma.c **** *   for the DMA controller, DMA channels and Transfer Descriptors.
   8:.\Generated_Source\PSoC5/DMA_ROW_CLEAR_dma.c **** *
   9:.\Generated_Source\PSoC5/DMA_ROW_CLEAR_dma.c **** *
  10:.\Generated_Source\PSoC5/DMA_ROW_CLEAR_dma.c **** *   Note:
  11:.\Generated_Source\PSoC5/DMA_ROW_CLEAR_dma.c **** *     This module requires the developer to finish or fill in the auto
  12:.\Generated_Source\PSoC5/DMA_ROW_CLEAR_dma.c **** *     generated funcions and setup the dma channel and TD's.
  13:.\Generated_Source\PSoC5/DMA_ROW_CLEAR_dma.c **** *
  14:.\Generated_Source\PSoC5/DMA_ROW_CLEAR_dma.c **** ********************************************************************************
  15:.\Generated_Source\PSoC5/DMA_ROW_CLEAR_dma.c **** * Copyright 2008-2010, Cypress Semiconductor Corporation.  All rights reserved.
  16:.\Generated_Source\PSoC5/DMA_ROW_CLEAR_dma.c **** * You may use this file only in accordance with the license, terms, conditions, 
ARM GAS  C:\Users\SUZUKI~1\AppData\Local\Temp\ccrMKzS4.s 			page 2


  17:.\Generated_Source\PSoC5/DMA_ROW_CLEAR_dma.c **** * disclaimers, and limitations in the end user license agreement accompanying 
  18:.\Generated_Source\PSoC5/DMA_ROW_CLEAR_dma.c **** * the software package with which this file was provided.
  19:.\Generated_Source\PSoC5/DMA_ROW_CLEAR_dma.c **** ********************************************************************************/
  20:.\Generated_Source\PSoC5/DMA_ROW_CLEAR_dma.c **** #include <CYLIB.H>
  21:.\Generated_Source\PSoC5/DMA_ROW_CLEAR_dma.c **** #include <CYDMAC.H>
  22:.\Generated_Source\PSoC5/DMA_ROW_CLEAR_dma.c **** #include <DMA_ROW_CLEAR_dma.H>
  23:.\Generated_Source\PSoC5/DMA_ROW_CLEAR_dma.c **** 
  24:.\Generated_Source\PSoC5/DMA_ROW_CLEAR_dma.c **** 
  25:.\Generated_Source\PSoC5/DMA_ROW_CLEAR_dma.c **** 
  26:.\Generated_Source\PSoC5/DMA_ROW_CLEAR_dma.c **** /****************************************************************************
  27:.\Generated_Source\PSoC5/DMA_ROW_CLEAR_dma.c **** * 
  28:.\Generated_Source\PSoC5/DMA_ROW_CLEAR_dma.c **** * The following defines are available in Cyfitter.h
  29:.\Generated_Source\PSoC5/DMA_ROW_CLEAR_dma.c **** * 
  30:.\Generated_Source\PSoC5/DMA_ROW_CLEAR_dma.c **** * 
  31:.\Generated_Source\PSoC5/DMA_ROW_CLEAR_dma.c **** * 
  32:.\Generated_Source\PSoC5/DMA_ROW_CLEAR_dma.c **** * DMA_ROW_CLEAR__DRQ_CTL_REG
  33:.\Generated_Source\PSoC5/DMA_ROW_CLEAR_dma.c **** * 
  34:.\Generated_Source\PSoC5/DMA_ROW_CLEAR_dma.c **** * 
  35:.\Generated_Source\PSoC5/DMA_ROW_CLEAR_dma.c **** * DMA_ROW_CLEAR__DRQ_NUMBER
  36:.\Generated_Source\PSoC5/DMA_ROW_CLEAR_dma.c **** * 
  37:.\Generated_Source\PSoC5/DMA_ROW_CLEAR_dma.c **** * Number of TD's used by this channel.
  38:.\Generated_Source\PSoC5/DMA_ROW_CLEAR_dma.c **** * DMA_ROW_CLEAR__NUMBEROF_TDS
  39:.\Generated_Source\PSoC5/DMA_ROW_CLEAR_dma.c **** * 
  40:.\Generated_Source\PSoC5/DMA_ROW_CLEAR_dma.c **** * Priority of this channel.
  41:.\Generated_Source\PSoC5/DMA_ROW_CLEAR_dma.c **** * DMA_ROW_CLEAR__PRIORITY
  42:.\Generated_Source\PSoC5/DMA_ROW_CLEAR_dma.c **** * 
  43:.\Generated_Source\PSoC5/DMA_ROW_CLEAR_dma.c **** * True if DMA_ROW_CLEAR_TERMIN_SEL is used.
  44:.\Generated_Source\PSoC5/DMA_ROW_CLEAR_dma.c **** * DMA_ROW_CLEAR__TERMIN_EN
  45:.\Generated_Source\PSoC5/DMA_ROW_CLEAR_dma.c **** * 
  46:.\Generated_Source\PSoC5/DMA_ROW_CLEAR_dma.c **** * TERMIN interrupt line to signal terminate.
  47:.\Generated_Source\PSoC5/DMA_ROW_CLEAR_dma.c **** * DMA_ROW_CLEAR__TERMIN_SEL
  48:.\Generated_Source\PSoC5/DMA_ROW_CLEAR_dma.c **** * 
  49:.\Generated_Source\PSoC5/DMA_ROW_CLEAR_dma.c **** * 
  50:.\Generated_Source\PSoC5/DMA_ROW_CLEAR_dma.c **** * True if DMA_ROW_CLEAR_TERMOUT0_SEL is used.
  51:.\Generated_Source\PSoC5/DMA_ROW_CLEAR_dma.c **** * DMA_ROW_CLEAR__TERMOUT0_EN
  52:.\Generated_Source\PSoC5/DMA_ROW_CLEAR_dma.c **** * 
  53:.\Generated_Source\PSoC5/DMA_ROW_CLEAR_dma.c **** * 
  54:.\Generated_Source\PSoC5/DMA_ROW_CLEAR_dma.c **** * TERMOUT0 interrupt line to signal completion.
  55:.\Generated_Source\PSoC5/DMA_ROW_CLEAR_dma.c **** * DMA_ROW_CLEAR__TERMOUT0_SEL
  56:.\Generated_Source\PSoC5/DMA_ROW_CLEAR_dma.c **** * 
  57:.\Generated_Source\PSoC5/DMA_ROW_CLEAR_dma.c **** * 
  58:.\Generated_Source\PSoC5/DMA_ROW_CLEAR_dma.c **** * True if DMA_ROW_CLEAR_TERMOUT1_SEL is used.
  59:.\Generated_Source\PSoC5/DMA_ROW_CLEAR_dma.c **** * DMA_ROW_CLEAR__TERMOUT1_EN
  60:.\Generated_Source\PSoC5/DMA_ROW_CLEAR_dma.c **** * 
  61:.\Generated_Source\PSoC5/DMA_ROW_CLEAR_dma.c **** * 
  62:.\Generated_Source\PSoC5/DMA_ROW_CLEAR_dma.c **** * TERMOUT1 interrupt line to signal completion.
  63:.\Generated_Source\PSoC5/DMA_ROW_CLEAR_dma.c **** * DMA_ROW_CLEAR__TERMOUT1_SEL
  64:.\Generated_Source\PSoC5/DMA_ROW_CLEAR_dma.c **** * 
  65:.\Generated_Source\PSoC5/DMA_ROW_CLEAR_dma.c **** ****************************************************************************/
  66:.\Generated_Source\PSoC5/DMA_ROW_CLEAR_dma.c **** 
  67:.\Generated_Source\PSoC5/DMA_ROW_CLEAR_dma.c **** 
  68:.\Generated_Source\PSoC5/DMA_ROW_CLEAR_dma.c **** /* Zero based index of DMA_ROW_CLEAR dma channel */
  69:.\Generated_Source\PSoC5/DMA_ROW_CLEAR_dma.c **** uint8 DMA_ROW_CLEAR_DmaHandle = DMA_INVALID_CHANNEL;
  70:.\Generated_Source\PSoC5/DMA_ROW_CLEAR_dma.c **** 
  71:.\Generated_Source\PSoC5/DMA_ROW_CLEAR_dma.c **** /*********************************************************************
  72:.\Generated_Source\PSoC5/DMA_ROW_CLEAR_dma.c **** * Function Name: uint8 DMA_ROW_CLEAR_DmaInitalize
  73:.\Generated_Source\PSoC5/DMA_ROW_CLEAR_dma.c **** **********************************************************************
ARM GAS  C:\Users\SUZUKI~1\AppData\Local\Temp\ccrMKzS4.s 			page 3


  74:.\Generated_Source\PSoC5/DMA_ROW_CLEAR_dma.c **** * Summary:
  75:.\Generated_Source\PSoC5/DMA_ROW_CLEAR_dma.c **** *   Allocates and initialises a channel of the DMAC to be used by the
  76:.\Generated_Source\PSoC5/DMA_ROW_CLEAR_dma.c **** *   caller.
  77:.\Generated_Source\PSoC5/DMA_ROW_CLEAR_dma.c **** *
  78:.\Generated_Source\PSoC5/DMA_ROW_CLEAR_dma.c **** * Parameters:
  79:.\Generated_Source\PSoC5/DMA_ROW_CLEAR_dma.c **** *   BurstCount.
  80:.\Generated_Source\PSoC5/DMA_ROW_CLEAR_dma.c **** *       
  81:.\Generated_Source\PSoC5/DMA_ROW_CLEAR_dma.c **** *       
  82:.\Generated_Source\PSoC5/DMA_ROW_CLEAR_dma.c **** *   ReqestPerBurst.
  83:.\Generated_Source\PSoC5/DMA_ROW_CLEAR_dma.c **** *       
  84:.\Generated_Source\PSoC5/DMA_ROW_CLEAR_dma.c **** *       
  85:.\Generated_Source\PSoC5/DMA_ROW_CLEAR_dma.c **** *   UpperSrcAddress.
  86:.\Generated_Source\PSoC5/DMA_ROW_CLEAR_dma.c **** *       
  87:.\Generated_Source\PSoC5/DMA_ROW_CLEAR_dma.c **** *       
  88:.\Generated_Source\PSoC5/DMA_ROW_CLEAR_dma.c **** *   UpperDestAddress.
  89:.\Generated_Source\PSoC5/DMA_ROW_CLEAR_dma.c **** *       
  90:.\Generated_Source\PSoC5/DMA_ROW_CLEAR_dma.c **** *
  91:.\Generated_Source\PSoC5/DMA_ROW_CLEAR_dma.c **** * Return:
  92:.\Generated_Source\PSoC5/DMA_ROW_CLEAR_dma.c **** *   The channel that can be used by the caller for DMA activity.
  93:.\Generated_Source\PSoC5/DMA_ROW_CLEAR_dma.c **** *   DMA_INVALID_CHANNEL (0xFF) if there are no channels left. 
  94:.\Generated_Source\PSoC5/DMA_ROW_CLEAR_dma.c **** *
  95:.\Generated_Source\PSoC5/DMA_ROW_CLEAR_dma.c **** *
  96:.\Generated_Source\PSoC5/DMA_ROW_CLEAR_dma.c **** *******************************************************************/
  97:.\Generated_Source\PSoC5/DMA_ROW_CLEAR_dma.c **** uint8 DMA_ROW_CLEAR_DmaInitialize(uint8 BurstCount, uint8 ReqestPerBurst, uint16 UpperSrcAddress, u
  98:.\Generated_Source\PSoC5/DMA_ROW_CLEAR_dma.c **** {
  38              		.loc 1 98 0
  39              		.cfi_startproc
  40              		@ args = 0, pretend = 0, frame = 8
  41              		@ frame_needed = 1, uses_anonymous_args = 0
  42 0000 80B5     		push	{r7, lr}
  43              	.LCFI0:
  44              		.cfi_def_cfa_offset 8
  45 0002 84B0     		sub	sp, sp, #16
  46              	.LCFI1:
  47              		.cfi_def_cfa_offset 24
  48 0004 02AF     		add	r7, sp, #8
  49              		.cfi_offset 14, -4
  50              		.cfi_offset 7, -8
  51              	.LCFI2:
  52              		.cfi_def_cfa 7, 16
  53 0006 F871     		strb	r0, [r7, #7]
  54 0008 B971     		strb	r1, [r7, #6]
  55 000a BA80     		strh	r2, [r7, #4]	@ movhi
  56 000c 7B80     		strh	r3, [r7, #2]	@ movhi
  99:.\Generated_Source\PSoC5/DMA_ROW_CLEAR_dma.c **** 
 100:.\Generated_Source\PSoC5/DMA_ROW_CLEAR_dma.c ****     /* Allocate a DMA channel. */
 101:.\Generated_Source\PSoC5/DMA_ROW_CLEAR_dma.c ****     DMA_ROW_CLEAR_DmaHandle = DMA_ROW_CLEAR__DRQ_NUMBER;
  57              		.loc 1 101 0
  58 000e 40F20003 		movw	r3, #:lower16:DMA_ROW_CLEAR_DmaHandle
  59 0012 C0F20003 		movt	r3, #:upper16:DMA_ROW_CLEAR_DmaHandle
  60 0016 4FF00302 		mov	r2, #3
  61 001a 1A70     		strb	r2, [r3, #0]
 102:.\Generated_Source\PSoC5/DMA_ROW_CLEAR_dma.c **** 
 103:.\Generated_Source\PSoC5/DMA_ROW_CLEAR_dma.c ****     if(DMA_ROW_CLEAR_DmaHandle != DMA_INVALID_CHANNEL)
  62              		.loc 1 103 0
  63 001c 40F20003 		movw	r3, #:lower16:DMA_ROW_CLEAR_DmaHandle
  64 0020 C0F20003 		movt	r3, #:upper16:DMA_ROW_CLEAR_DmaHandle
ARM GAS  C:\Users\SUZUKI~1\AppData\Local\Temp\ccrMKzS4.s 			page 4


  65 0024 1B78     		ldrb	r3, [r3, #0]	@ zero_extendqisi2
  66 0026 FF2B     		cmp	r3, #255
  67 0028 29D0     		beq	.L2
 104:.\Generated_Source\PSoC5/DMA_ROW_CLEAR_dma.c ****     {
 105:.\Generated_Source\PSoC5/DMA_ROW_CLEAR_dma.c ****         /* Configure the channel. */
 106:.\Generated_Source\PSoC5/DMA_ROW_CLEAR_dma.c ****         CyDmaChSetConfiguration(DMA_ROW_CLEAR_DmaHandle,
  68              		.loc 1 106 0
  69 002a 40F20003 		movw	r3, #:lower16:DMA_ROW_CLEAR_DmaHandle
  70 002e C0F20003 		movt	r3, #:upper16:DMA_ROW_CLEAR_DmaHandle
  71 0032 1978     		ldrb	r1, [r3, #0]	@ zero_extendqisi2
  72 0034 FA79     		ldrb	r2, [r7, #7]	@ zero_extendqisi2
  73 0036 BB79     		ldrb	r3, [r7, #6]	@ zero_extendqisi2
  74 0038 4FF00000 		mov	r0, #0
  75 003c 0090     		str	r0, [sp, #0]
  76 003e 4FF00000 		mov	r0, #0
  77 0042 0190     		str	r0, [sp, #4]
  78 0044 0846     		mov	r0, r1
  79 0046 1146     		mov	r1, r2
  80 0048 1A46     		mov	r2, r3
  81 004a 4FF00003 		mov	r3, #0
  82 004e FFF7FEFF 		bl	CyDmaChSetConfiguration
 107:.\Generated_Source\PSoC5/DMA_ROW_CLEAR_dma.c ****                                 BurstCount,
 108:.\Generated_Source\PSoC5/DMA_ROW_CLEAR_dma.c ****                                 ReqestPerBurst,
 109:.\Generated_Source\PSoC5/DMA_ROW_CLEAR_dma.c ****                                 DMA_ROW_CLEAR__TERMOUT0_SEL,
 110:.\Generated_Source\PSoC5/DMA_ROW_CLEAR_dma.c ****                                 DMA_ROW_CLEAR__TERMOUT1_SEL,
 111:.\Generated_Source\PSoC5/DMA_ROW_CLEAR_dma.c ****                                 DMA_ROW_CLEAR__TERMIN_SEL);
 112:.\Generated_Source\PSoC5/DMA_ROW_CLEAR_dma.c **** 
 113:.\Generated_Source\PSoC5/DMA_ROW_CLEAR_dma.c ****         /* Set the extended address for the transfers */
 114:.\Generated_Source\PSoC5/DMA_ROW_CLEAR_dma.c ****         CyDmaChSetExtendedAddress(DMA_ROW_CLEAR_DmaHandle, UpperSrcAddress, UpperDestAddress);
  83              		.loc 1 114 0
  84 0052 40F20003 		movw	r3, #:lower16:DMA_ROW_CLEAR_DmaHandle
  85 0056 C0F20003 		movt	r3, #:upper16:DMA_ROW_CLEAR_DmaHandle
  86 005a 1978     		ldrb	r1, [r3, #0]	@ zero_extendqisi2
  87 005c BA88     		ldrh	r2, [r7, #4]
  88 005e 7B88     		ldrh	r3, [r7, #2]
  89 0060 0846     		mov	r0, r1
  90 0062 1146     		mov	r1, r2
  91 0064 1A46     		mov	r2, r3
  92 0066 FFF7FEFF 		bl	CyDmaChSetExtendedAddress
 115:.\Generated_Source\PSoC5/DMA_ROW_CLEAR_dma.c **** 
 116:.\Generated_Source\PSoC5/DMA_ROW_CLEAR_dma.c ****         /* Set the priority for this channel */
 117:.\Generated_Source\PSoC5/DMA_ROW_CLEAR_dma.c ****         CyDmaChPriority(DMA_ROW_CLEAR_DmaHandle, DMA_ROW_CLEAR__PRIORITY);
  93              		.loc 1 117 0
  94 006a 40F20003 		movw	r3, #:lower16:DMA_ROW_CLEAR_DmaHandle
  95 006e C0F20003 		movt	r3, #:upper16:DMA_ROW_CLEAR_DmaHandle
  96 0072 1B78     		ldrb	r3, [r3, #0]	@ zero_extendqisi2
  97 0074 1846     		mov	r0, r3
  98 0076 4FF00201 		mov	r1, #2
  99 007a FFF7FEFF 		bl	CyDmaChPriority
 100              	.L2:
 118:.\Generated_Source\PSoC5/DMA_ROW_CLEAR_dma.c ****     }
 119:.\Generated_Source\PSoC5/DMA_ROW_CLEAR_dma.c **** 
 120:.\Generated_Source\PSoC5/DMA_ROW_CLEAR_dma.c ****     return DMA_ROW_CLEAR_DmaHandle;
 101              		.loc 1 120 0
 102 007e 40F20003 		movw	r3, #:lower16:DMA_ROW_CLEAR_DmaHandle
 103 0082 C0F20003 		movt	r3, #:upper16:DMA_ROW_CLEAR_DmaHandle
 104 0086 1B78     		ldrb	r3, [r3, #0]	@ zero_extendqisi2
ARM GAS  C:\Users\SUZUKI~1\AppData\Local\Temp\ccrMKzS4.s 			page 5


 121:.\Generated_Source\PSoC5/DMA_ROW_CLEAR_dma.c **** }
 105              		.loc 1 121 0
 106 0088 1846     		mov	r0, r3
 107 008a 07F10807 		add	r7, r7, #8
 108 008e BD46     		mov	sp, r7
 109 0090 80BD     		pop	{r7, pc}
 110              		.cfi_endproc
 111              	.LFE0:
 112              		.size	DMA_ROW_CLEAR_DmaInitialize, .-DMA_ROW_CLEAR_DmaInitialize
 113 0092 00BF     		.section	.text.DMA_ROW_CLEAR_DmaRelease,"ax",%progbits
 114              		.align	2
 115              		.global	DMA_ROW_CLEAR_DmaRelease
 116              		.thumb
 117              		.thumb_func
 118              		.type	DMA_ROW_CLEAR_DmaRelease, %function
 119              	DMA_ROW_CLEAR_DmaRelease:
 120              	.LFB1:
 122:.\Generated_Source\PSoC5/DMA_ROW_CLEAR_dma.c **** 
 123:.\Generated_Source\PSoC5/DMA_ROW_CLEAR_dma.c **** /*********************************************************************
 124:.\Generated_Source\PSoC5/DMA_ROW_CLEAR_dma.c **** * Function Name: void DMA_ROW_CLEAR_DmaRelease
 125:.\Generated_Source\PSoC5/DMA_ROW_CLEAR_dma.c **** **********************************************************************
 126:.\Generated_Source\PSoC5/DMA_ROW_CLEAR_dma.c **** * Summary:
 127:.\Generated_Source\PSoC5/DMA_ROW_CLEAR_dma.c **** *   Frees the channel associated with DMA_ROW_CLEAR.
 128:.\Generated_Source\PSoC5/DMA_ROW_CLEAR_dma.c **** *
 129:.\Generated_Source\PSoC5/DMA_ROW_CLEAR_dma.c **** *
 130:.\Generated_Source\PSoC5/DMA_ROW_CLEAR_dma.c **** * Parameters:
 131:.\Generated_Source\PSoC5/DMA_ROW_CLEAR_dma.c **** *   void.
 132:.\Generated_Source\PSoC5/DMA_ROW_CLEAR_dma.c **** *
 133:.\Generated_Source\PSoC5/DMA_ROW_CLEAR_dma.c **** *
 134:.\Generated_Source\PSoC5/DMA_ROW_CLEAR_dma.c **** *
 135:.\Generated_Source\PSoC5/DMA_ROW_CLEAR_dma.c **** * Return:
 136:.\Generated_Source\PSoC5/DMA_ROW_CLEAR_dma.c **** *   void.
 137:.\Generated_Source\PSoC5/DMA_ROW_CLEAR_dma.c **** *
 138:.\Generated_Source\PSoC5/DMA_ROW_CLEAR_dma.c **** *******************************************************************/
 139:.\Generated_Source\PSoC5/DMA_ROW_CLEAR_dma.c **** void DMA_ROW_CLEAR_DmaRelease(void) 
 140:.\Generated_Source\PSoC5/DMA_ROW_CLEAR_dma.c **** {
 121              		.loc 1 140 0
 122              		.cfi_startproc
 123              		@ args = 0, pretend = 0, frame = 0
 124              		@ frame_needed = 1, uses_anonymous_args = 0
 125 0000 80B5     		push	{r7, lr}
 126              	.LCFI3:
 127              		.cfi_def_cfa_offset 8
 128 0002 00AF     		add	r7, sp, #0
 129              		.cfi_offset 14, -4
 130              		.cfi_offset 7, -8
 131              	.LCFI4:
 132              		.cfi_def_cfa_register 7
 141:.\Generated_Source\PSoC5/DMA_ROW_CLEAR_dma.c ****     /* Disable the channel, even if someone just did! */
 142:.\Generated_Source\PSoC5/DMA_ROW_CLEAR_dma.c ****     CyDmaChDisable(DMA_ROW_CLEAR_DmaHandle);
 133              		.loc 1 142 0
 134 0004 40F20003 		movw	r3, #:lower16:DMA_ROW_CLEAR_DmaHandle
 135 0008 C0F20003 		movt	r3, #:upper16:DMA_ROW_CLEAR_DmaHandle
 136 000c 1B78     		ldrb	r3, [r3, #0]	@ zero_extendqisi2
 137 000e 1846     		mov	r0, r3
 138 0010 FFF7FEFF 		bl	CyDmaChDisable
 143:.\Generated_Source\PSoC5/DMA_ROW_CLEAR_dma.c **** 
ARM GAS  C:\Users\SUZUKI~1\AppData\Local\Temp\ccrMKzS4.s 			page 6


 144:.\Generated_Source\PSoC5/DMA_ROW_CLEAR_dma.c **** 
 145:.\Generated_Source\PSoC5/DMA_ROW_CLEAR_dma.c ****     /* Free Transfer Descriptors. */
 146:.\Generated_Source\PSoC5/DMA_ROW_CLEAR_dma.c **** 
 147:.\Generated_Source\PSoC5/DMA_ROW_CLEAR_dma.c **** 
 148:.\Generated_Source\PSoC5/DMA_ROW_CLEAR_dma.c **** }
 139              		.loc 1 148 0
 140 0014 80BD     		pop	{r7, pc}
 141              		.cfi_endproc
 142              	.LFE1:
 143              		.size	DMA_ROW_CLEAR_DmaRelease, .-DMA_ROW_CLEAR_DmaRelease
 144 0016 00BF     		.text
 145              	.Letext0:
 146              		.section	.debug_loc,"",%progbits
 147              	.Ldebug_loc0:
 148              	.LLST0:
 149 0000 00000000 		.4byte	.LFB0
 150 0004 02000000 		.4byte	.LCFI0
 151 0008 0100     		.2byte	0x1
 152 000a 5D       		.byte	0x5d
 153 000b 02000000 		.4byte	.LCFI0
 154 000f 04000000 		.4byte	.LCFI1
 155 0013 0200     		.2byte	0x2
 156 0015 7D       		.byte	0x7d
 157 0016 08       		.sleb128 8
 158 0017 04000000 		.4byte	.LCFI1
 159 001b 06000000 		.4byte	.LCFI2
 160 001f 0200     		.2byte	0x2
 161 0021 7D       		.byte	0x7d
 162 0022 18       		.sleb128 24
 163 0023 06000000 		.4byte	.LCFI2
 164 0027 92000000 		.4byte	.LFE0
 165 002b 0200     		.2byte	0x2
 166 002d 77       		.byte	0x77
 167 002e 10       		.sleb128 16
 168 002f 00000000 		.4byte	0x0
 169 0033 00000000 		.4byte	0x0
 170              	.LLST1:
 171 0037 00000000 		.4byte	.LFB1
 172 003b 02000000 		.4byte	.LCFI3
 173 003f 0100     		.2byte	0x1
 174 0041 5D       		.byte	0x5d
 175 0042 02000000 		.4byte	.LCFI3
 176 0046 04000000 		.4byte	.LCFI4
 177 004a 0200     		.2byte	0x2
 178 004c 7D       		.byte	0x7d
 179 004d 08       		.sleb128 8
 180 004e 04000000 		.4byte	.LCFI4
 181 0052 16000000 		.4byte	.LFE1
 182 0056 0200     		.2byte	0x2
 183 0058 77       		.byte	0x77
 184 0059 08       		.sleb128 8
 185 005a 00000000 		.4byte	0x0
 186 005e 00000000 		.4byte	0x0
 187              		.file 2 "./Generated_Source/PSoC5/cytypes.h"
 188              		.section	.debug_info
 189 0000 09010000 		.4byte	0x109
 190 0004 0200     		.2byte	0x2
ARM GAS  C:\Users\SUZUKI~1\AppData\Local\Temp\ccrMKzS4.s 			page 7


 191 0006 00000000 		.4byte	.Ldebug_abbrev0
 192 000a 04       		.byte	0x4
 193 000b 01       		.uleb128 0x1
 194 000c 8B000000 		.4byte	.LASF16
 195 0010 01       		.byte	0x1
 196 0011 D1000000 		.4byte	.LASF17
 197 0015 50010000 		.4byte	.LASF18
 198 0019 00000000 		.4byte	0x0
 199 001d 00000000 		.4byte	0x0
 200 0021 00000000 		.4byte	.Ldebug_ranges0+0x0
 201 0025 00000000 		.4byte	.Ldebug_line0
 202 0029 02       		.uleb128 0x2
 203 002a 01       		.byte	0x1
 204 002b 06       		.byte	0x6
 205 002c 24010000 		.4byte	.LASF0
 206 0030 02       		.uleb128 0x2
 207 0031 01       		.byte	0x1
 208 0032 08       		.byte	0x8
 209 0033 2B000000 		.4byte	.LASF1
 210 0037 02       		.uleb128 0x2
 211 0038 02       		.byte	0x2
 212 0039 05       		.byte	0x5
 213 003a 07010000 		.4byte	.LASF2
 214 003e 02       		.uleb128 0x2
 215 003f 02       		.byte	0x2
 216 0040 07       		.byte	0x7
 217 0041 11010000 		.4byte	.LASF3
 218 0045 03       		.uleb128 0x3
 219 0046 04       		.byte	0x4
 220 0047 05       		.byte	0x5
 221 0048 696E7400 		.ascii	"int\000"
 222 004c 02       		.uleb128 0x2
 223 004d 04       		.byte	0x4
 224 004e 07       		.byte	0x7
 225 004f 1E000000 		.4byte	.LASF4
 226 0053 02       		.uleb128 0x2
 227 0054 08       		.byte	0x8
 228 0055 05       		.byte	0x5
 229 0056 00000000 		.4byte	.LASF5
 230 005a 02       		.uleb128 0x2
 231 005b 08       		.byte	0x8
 232 005c 07       		.byte	0x7
 233 005d 5C000000 		.4byte	.LASF6
 234 0061 02       		.uleb128 0x2
 235 0062 04       		.byte	0x4
 236 0063 05       		.byte	0x5
 237 0064 FE000000 		.4byte	.LASF7
 238 0068 04       		.uleb128 0x4
 239 0069 04       		.byte	0x4
 240 006a 07       		.byte	0x7
 241 006b 02       		.uleb128 0x2
 242 006c 04       		.byte	0x4
 243 006d 07       		.byte	0x7
 244 006e 4A000000 		.4byte	.LASF8
 245 0072 02       		.uleb128 0x2
 246 0073 01       		.byte	0x1
 247 0074 08       		.byte	0x8
ARM GAS  C:\Users\SUZUKI~1\AppData\Local\Temp\ccrMKzS4.s 			page 8


 248 0075 B0000000 		.4byte	.LASF9
 249 0079 05       		.uleb128 0x5
 250 007a 44000000 		.4byte	.LASF10
 251 007e 02       		.byte	0x2
 252 007f 60       		.byte	0x60
 253 0080 30000000 		.4byte	0x30
 254 0084 05       		.uleb128 0x5
 255 0085 87010000 		.4byte	.LASF11
 256 0089 02       		.byte	0x2
 257 008a 61       		.byte	0x61
 258 008b 3E000000 		.4byte	0x3e
 259 008f 06       		.uleb128 0x6
 260 0090 01       		.byte	0x1
 261 0091 B5000000 		.4byte	.LASF19
 262 0095 01       		.byte	0x1
 263 0096 61       		.byte	0x61
 264 0097 01       		.byte	0x1
 265 0098 79000000 		.4byte	0x79
 266 009c 00000000 		.4byte	.LFB0
 267 00a0 92000000 		.4byte	.LFE0
 268 00a4 00000000 		.4byte	.LLST0
 269 00a8 E5000000 		.4byte	0xe5
 270 00ac 07       		.uleb128 0x7
 271 00ad 39000000 		.4byte	.LASF12
 272 00b1 01       		.byte	0x1
 273 00b2 61       		.byte	0x61
 274 00b3 79000000 		.4byte	0x79
 275 00b7 02       		.byte	0x2
 276 00b8 91       		.byte	0x91
 277 00b9 77       		.sleb128 -9
 278 00ba 07       		.uleb128 0x7
 279 00bb 30010000 		.4byte	.LASF13
 280 00bf 01       		.byte	0x1
 281 00c0 61       		.byte	0x61
 282 00c1 79000000 		.4byte	0x79
 283 00c5 02       		.byte	0x2
 284 00c6 91       		.byte	0x91
 285 00c7 76       		.sleb128 -10
 286 00c8 07       		.uleb128 0x7
 287 00c9 0E000000 		.4byte	.LASF14
 288 00cd 01       		.byte	0x1
 289 00ce 61       		.byte	0x61
 290 00cf 84000000 		.4byte	0x84
 291 00d3 02       		.byte	0x2
 292 00d4 91       		.byte	0x91
 293 00d5 74       		.sleb128 -12
 294 00d6 07       		.uleb128 0x7
 295 00d7 3F010000 		.4byte	.LASF15
 296 00db 01       		.byte	0x1
 297 00dc 61       		.byte	0x61
 298 00dd 84000000 		.4byte	0x84
 299 00e1 02       		.byte	0x2
 300 00e2 91       		.byte	0x91
 301 00e3 72       		.sleb128 -14
 302 00e4 00       		.byte	0x0
 303 00e5 08       		.uleb128 0x8
 304 00e6 01       		.byte	0x1
ARM GAS  C:\Users\SUZUKI~1\AppData\Local\Temp\ccrMKzS4.s 			page 9


 305 00e7 97000000 		.4byte	.LASF20
 306 00eb 01       		.byte	0x1
 307 00ec 8B       		.byte	0x8b
 308 00ed 01       		.byte	0x1
 309 00ee 00000000 		.4byte	.LFB1
 310 00f2 16000000 		.4byte	.LFE1
 311 00f6 37000000 		.4byte	.LLST1
 312 00fa 09       		.uleb128 0x9
 313 00fb 73000000 		.4byte	.LASF21
 314 00ff 01       		.byte	0x1
 315 0100 45       		.byte	0x45
 316 0101 79000000 		.4byte	0x79
 317 0105 01       		.byte	0x1
 318 0106 05       		.byte	0x5
 319 0107 03       		.byte	0x3
 320 0108 00000000 		.4byte	DMA_ROW_CLEAR_DmaHandle
 321 010c 00       		.byte	0x0
 322              		.section	.debug_abbrev
 323 0000 01       		.uleb128 0x1
 324 0001 11       		.uleb128 0x11
 325 0002 01       		.byte	0x1
 326 0003 25       		.uleb128 0x25
 327 0004 0E       		.uleb128 0xe
 328 0005 13       		.uleb128 0x13
 329 0006 0B       		.uleb128 0xb
 330 0007 03       		.uleb128 0x3
 331 0008 0E       		.uleb128 0xe
 332 0009 1B       		.uleb128 0x1b
 333 000a 0E       		.uleb128 0xe
 334 000b 11       		.uleb128 0x11
 335 000c 01       		.uleb128 0x1
 336 000d 52       		.uleb128 0x52
 337 000e 01       		.uleb128 0x1
 338 000f 55       		.uleb128 0x55
 339 0010 06       		.uleb128 0x6
 340 0011 10       		.uleb128 0x10
 341 0012 06       		.uleb128 0x6
 342 0013 00       		.byte	0x0
 343 0014 00       		.byte	0x0
 344 0015 02       		.uleb128 0x2
 345 0016 24       		.uleb128 0x24
 346 0017 00       		.byte	0x0
 347 0018 0B       		.uleb128 0xb
 348 0019 0B       		.uleb128 0xb
 349 001a 3E       		.uleb128 0x3e
 350 001b 0B       		.uleb128 0xb
 351 001c 03       		.uleb128 0x3
 352 001d 0E       		.uleb128 0xe
 353 001e 00       		.byte	0x0
 354 001f 00       		.byte	0x0
 355 0020 03       		.uleb128 0x3
 356 0021 24       		.uleb128 0x24
 357 0022 00       		.byte	0x0
 358 0023 0B       		.uleb128 0xb
 359 0024 0B       		.uleb128 0xb
 360 0025 3E       		.uleb128 0x3e
 361 0026 0B       		.uleb128 0xb
ARM GAS  C:\Users\SUZUKI~1\AppData\Local\Temp\ccrMKzS4.s 			page 10


 362 0027 03       		.uleb128 0x3
 363 0028 08       		.uleb128 0x8
 364 0029 00       		.byte	0x0
 365 002a 00       		.byte	0x0
 366 002b 04       		.uleb128 0x4
 367 002c 24       		.uleb128 0x24
 368 002d 00       		.byte	0x0
 369 002e 0B       		.uleb128 0xb
 370 002f 0B       		.uleb128 0xb
 371 0030 3E       		.uleb128 0x3e
 372 0031 0B       		.uleb128 0xb
 373 0032 00       		.byte	0x0
 374 0033 00       		.byte	0x0
 375 0034 05       		.uleb128 0x5
 376 0035 16       		.uleb128 0x16
 377 0036 00       		.byte	0x0
 378 0037 03       		.uleb128 0x3
 379 0038 0E       		.uleb128 0xe
 380 0039 3A       		.uleb128 0x3a
 381 003a 0B       		.uleb128 0xb
 382 003b 3B       		.uleb128 0x3b
 383 003c 0B       		.uleb128 0xb
 384 003d 49       		.uleb128 0x49
 385 003e 13       		.uleb128 0x13
 386 003f 00       		.byte	0x0
 387 0040 00       		.byte	0x0
 388 0041 06       		.uleb128 0x6
 389 0042 2E       		.uleb128 0x2e
 390 0043 01       		.byte	0x1
 391 0044 3F       		.uleb128 0x3f
 392 0045 0C       		.uleb128 0xc
 393 0046 03       		.uleb128 0x3
 394 0047 0E       		.uleb128 0xe
 395 0048 3A       		.uleb128 0x3a
 396 0049 0B       		.uleb128 0xb
 397 004a 3B       		.uleb128 0x3b
 398 004b 0B       		.uleb128 0xb
 399 004c 27       		.uleb128 0x27
 400 004d 0C       		.uleb128 0xc
 401 004e 49       		.uleb128 0x49
 402 004f 13       		.uleb128 0x13
 403 0050 11       		.uleb128 0x11
 404 0051 01       		.uleb128 0x1
 405 0052 12       		.uleb128 0x12
 406 0053 01       		.uleb128 0x1
 407 0054 40       		.uleb128 0x40
 408 0055 06       		.uleb128 0x6
 409 0056 01       		.uleb128 0x1
 410 0057 13       		.uleb128 0x13
 411 0058 00       		.byte	0x0
 412 0059 00       		.byte	0x0
 413 005a 07       		.uleb128 0x7
 414 005b 05       		.uleb128 0x5
 415 005c 00       		.byte	0x0
 416 005d 03       		.uleb128 0x3
 417 005e 0E       		.uleb128 0xe
 418 005f 3A       		.uleb128 0x3a
ARM GAS  C:\Users\SUZUKI~1\AppData\Local\Temp\ccrMKzS4.s 			page 11


 419 0060 0B       		.uleb128 0xb
 420 0061 3B       		.uleb128 0x3b
 421 0062 0B       		.uleb128 0xb
 422 0063 49       		.uleb128 0x49
 423 0064 13       		.uleb128 0x13
 424 0065 02       		.uleb128 0x2
 425 0066 0A       		.uleb128 0xa
 426 0067 00       		.byte	0x0
 427 0068 00       		.byte	0x0
 428 0069 08       		.uleb128 0x8
 429 006a 2E       		.uleb128 0x2e
 430 006b 00       		.byte	0x0
 431 006c 3F       		.uleb128 0x3f
 432 006d 0C       		.uleb128 0xc
 433 006e 03       		.uleb128 0x3
 434 006f 0E       		.uleb128 0xe
 435 0070 3A       		.uleb128 0x3a
 436 0071 0B       		.uleb128 0xb
 437 0072 3B       		.uleb128 0x3b
 438 0073 0B       		.uleb128 0xb
 439 0074 27       		.uleb128 0x27
 440 0075 0C       		.uleb128 0xc
 441 0076 11       		.uleb128 0x11
 442 0077 01       		.uleb128 0x1
 443 0078 12       		.uleb128 0x12
 444 0079 01       		.uleb128 0x1
 445 007a 40       		.uleb128 0x40
 446 007b 06       		.uleb128 0x6
 447 007c 00       		.byte	0x0
 448 007d 00       		.byte	0x0
 449 007e 09       		.uleb128 0x9
 450 007f 34       		.uleb128 0x34
 451 0080 00       		.byte	0x0
 452 0081 03       		.uleb128 0x3
 453 0082 0E       		.uleb128 0xe
 454 0083 3A       		.uleb128 0x3a
 455 0084 0B       		.uleb128 0xb
 456 0085 3B       		.uleb128 0x3b
 457 0086 0B       		.uleb128 0xb
 458 0087 49       		.uleb128 0x49
 459 0088 13       		.uleb128 0x13
 460 0089 3F       		.uleb128 0x3f
 461 008a 0C       		.uleb128 0xc
 462 008b 02       		.uleb128 0x2
 463 008c 0A       		.uleb128 0xa
 464 008d 00       		.byte	0x0
 465 008e 00       		.byte	0x0
 466 008f 00       		.byte	0x0
 467              		.section	.debug_pubnames,"",%progbits
 468 0000 67000000 		.4byte	0x67
 469 0004 0200     		.2byte	0x2
 470 0006 00000000 		.4byte	.Ldebug_info0
 471 000a 0D010000 		.4byte	0x10d
 472 000e 8F000000 		.4byte	0x8f
 473 0012 444D415F 		.ascii	"DMA_ROW_CLEAR_DmaInitialize\000"
 473      524F575F 
 473      434C4541 
ARM GAS  C:\Users\SUZUKI~1\AppData\Local\Temp\ccrMKzS4.s 			page 12


 473      525F446D 
 473      61496E69 
 474 002e E5000000 		.4byte	0xe5
 475 0032 444D415F 		.ascii	"DMA_ROW_CLEAR_DmaRelease\000"
 475      524F575F 
 475      434C4541 
 475      525F446D 
 475      6152656C 
 476 004b FA000000 		.4byte	0xfa
 477 004f 444D415F 		.ascii	"DMA_ROW_CLEAR_DmaHandle\000"
 477      524F575F 
 477      434C4541 
 477      525F446D 
 477      6148616E 
 478 0067 00000000 		.4byte	0x0
 479              		.section	.debug_aranges,"",%progbits
 480 0000 24000000 		.4byte	0x24
 481 0004 0200     		.2byte	0x2
 482 0006 00000000 		.4byte	.Ldebug_info0
 483 000a 04       		.byte	0x4
 484 000b 00       		.byte	0x0
 485 000c 0000     		.2byte	0x0
 486 000e 0000     		.2byte	0x0
 487 0010 00000000 		.4byte	.LFB0
 488 0014 92000000 		.4byte	.LFE0-.LFB0
 489 0018 00000000 		.4byte	.LFB1
 490 001c 16000000 		.4byte	.LFE1-.LFB1
 491 0020 00000000 		.4byte	0x0
 492 0024 00000000 		.4byte	0x0
 493              		.section	.debug_ranges,"",%progbits
 494              	.Ldebug_ranges0:
 495 0000 00000000 		.4byte	.Ltext0
 496 0004 00000000 		.4byte	.Letext0
 497 0008 00000000 		.4byte	.LFB0
 498 000c 92000000 		.4byte	.LFE0
 499 0010 00000000 		.4byte	.LFB1
 500 0014 16000000 		.4byte	.LFE1
 501 0018 00000000 		.4byte	0x0
 502 001c 00000000 		.4byte	0x0
 503              		.section	.debug_str,"MS",%progbits,1
 504              	.LASF5:
 505 0000 6C6F6E67 		.ascii	"long long int\000"
 505      206C6F6E 
 505      6720696E 
 505      7400
 506              	.LASF14:
 507 000e 55707065 		.ascii	"UpperSrcAddress\000"
 507      72537263 
 507      41646472 
 507      65737300 
 508              	.LASF4:
 509 001e 756E7369 		.ascii	"unsigned int\000"
 509      676E6564 
 509      20696E74 
 509      00
 510              	.LASF1:
 511 002b 756E7369 		.ascii	"unsigned char\000"
ARM GAS  C:\Users\SUZUKI~1\AppData\Local\Temp\ccrMKzS4.s 			page 13


 511      676E6564 
 511      20636861 
 511      7200
 512              	.LASF12:
 513 0039 42757273 		.ascii	"BurstCount\000"
 513      74436F75 
 513      6E7400
 514              	.LASF10:
 515 0044 75696E74 		.ascii	"uint8\000"
 515      3800
 516              	.LASF8:
 517 004a 6C6F6E67 		.ascii	"long unsigned int\000"
 517      20756E73 
 517      69676E65 
 517      6420696E 
 517      7400
 518              	.LASF6:
 519 005c 6C6F6E67 		.ascii	"long long unsigned int\000"
 519      206C6F6E 
 519      6720756E 
 519      7369676E 
 519      65642069 
 520              	.LASF21:
 521 0073 444D415F 		.ascii	"DMA_ROW_CLEAR_DmaHandle\000"
 521      524F575F 
 521      434C4541 
 521      525F446D 
 521      6148616E 
 522              	.LASF16:
 523 008b 474E5520 		.ascii	"GNU C 4.4.1\000"
 523      4320342E 
 523      342E3100 
 524              	.LASF20:
 525 0097 444D415F 		.ascii	"DMA_ROW_CLEAR_DmaRelease\000"
 525      524F575F 
 525      434C4541 
 525      525F446D 
 525      6152656C 
 526              	.LASF9:
 527 00b0 63686172 		.ascii	"char\000"
 527      00
 528              	.LASF19:
 529 00b5 444D415F 		.ascii	"DMA_ROW_CLEAR_DmaInitialize\000"
 529      524F575F 
 529      434C4541 
 529      525F446D 
 529      61496E69 
 530              	.LASF17:
 531 00d1 2E5C4765 		.ascii	".\\Generated_Source\\PSoC5\\DMA_ROW_CLEAR_dma.c\000"
 531      6E657261 
 531      7465645F 
 531      536F7572 
 531      63655C50 
 532              	.LASF7:
 533 00fe 6C6F6E67 		.ascii	"long int\000"
 533      20696E74 
 533      00
ARM GAS  C:\Users\SUZUKI~1\AppData\Local\Temp\ccrMKzS4.s 			page 14


 534              	.LASF2:
 535 0107 73686F72 		.ascii	"short int\000"
 535      7420696E 
 535      7400
 536              	.LASF3:
 537 0111 73686F72 		.ascii	"short unsigned int\000"
 537      7420756E 
 537      7369676E 
 537      65642069 
 537      6E7400
 538              	.LASF0:
 539 0124 7369676E 		.ascii	"signed char\000"
 539      65642063 
 539      68617200 
 540              	.LASF13:
 541 0130 52657165 		.ascii	"ReqestPerBurst\000"
 541      73745065 
 541      72427572 
 541      737400
 542              	.LASF15:
 543 013f 55707065 		.ascii	"UpperDestAddress\000"
 543      72446573 
 543      74416464 
 543      72657373 
 543      00
 544              	.LASF18:
 545 0150 463A5C44 		.ascii	"F:\\Documents\\PSoC_Creator\\ledmatrix\\ledmatrixdm"
 545      6F63756D 
 545      656E7473 
 545      5C50536F 
 545      435F4372 
 546 017f 612E6379 		.ascii	"a.cydsn\000"
 546      64736E00 
 547              	.LASF11:
 548 0187 75696E74 		.ascii	"uint16\000"
 548      313600
 549              		.ident	"GCC: (Sourcery G++ Lite 2010q1-188) 4.4.1"
