ARM GAS  C:\Users\SUZUKI~1\AppData\Local\Temp\ccCDLpxE.s 			page 1


   1              		.syntax unified
   2              		.cpu cortex-m3
   3              		.fpu softvfp
   4              		.eabi_attribute 20, 1
   5              		.eabi_attribute 21, 1
   6              		.eabi_attribute 23, 3
   7              		.eabi_attribute 24, 1
   8              		.eabi_attribute 25, 1
   9              		.eabi_attribute 26, 1
  10              		.eabi_attribute 30, 6
  11              		.eabi_attribute 18, 4
  12              		.thumb
  13              		.file	"dmareq_out.c"
  14              		.section	.debug_abbrev,"",%progbits
  15              	.Ldebug_abbrev0:
  16              		.section	.debug_info,"",%progbits
  17              	.Ldebug_info0:
  18              		.section	.debug_line,"",%progbits
  19              	.Ldebug_line0:
  20 0000 BB000000 		.text
  20      02006300 
  20      00000201 
  20      FB0E0D00 
  20      01010101 
  21              	.Ltext0:
  22              		.cfi_sections	.debug_frame
  23              		.section	.text.dmareq_out_Write,"ax",%progbits
  24              		.align	2
  25              		.global	dmareq_out_Write
  26              		.thumb
  27              		.thumb_func
  28              		.type	dmareq_out_Write, %function
  29              	dmareq_out_Write:
  30              	.LFB0:
  31              		.file 1 ".\\Generated_Source\\PSoC5\\dmareq_out.c"
   1:.\Generated_Source\PSoC5/dmareq_out.c **** /*******************************************************************************
   2:.\Generated_Source\PSoC5/dmareq_out.c **** * File Name: dmareq_out.c  
   3:.\Generated_Source\PSoC5/dmareq_out.c **** * Version 1.70
   4:.\Generated_Source\PSoC5/dmareq_out.c **** *
   5:.\Generated_Source\PSoC5/dmareq_out.c **** * Description:
   6:.\Generated_Source\PSoC5/dmareq_out.c **** *  This file contains API to enable firmware control of a Pins component.
   7:.\Generated_Source\PSoC5/dmareq_out.c **** *
   8:.\Generated_Source\PSoC5/dmareq_out.c **** * Note:
   9:.\Generated_Source\PSoC5/dmareq_out.c **** *
  10:.\Generated_Source\PSoC5/dmareq_out.c **** ********************************************************************************
  11:.\Generated_Source\PSoC5/dmareq_out.c **** * Copyright 2008-2010, Cypress Semiconductor Corporation.  All rights reserved.
  12:.\Generated_Source\PSoC5/dmareq_out.c **** * You may use this file only in accordance with the license, terms, conditions, 
  13:.\Generated_Source\PSoC5/dmareq_out.c **** * disclaimers, and limitations in the end user license agreement accompanying 
  14:.\Generated_Source\PSoC5/dmareq_out.c **** * the software package with which this file was provided.
  15:.\Generated_Source\PSoC5/dmareq_out.c **** ********************************************************************************/
  16:.\Generated_Source\PSoC5/dmareq_out.c **** 
  17:.\Generated_Source\PSoC5/dmareq_out.c **** #include "cytypes.h"
  18:.\Generated_Source\PSoC5/dmareq_out.c **** #include "dmareq_out.h"
  19:.\Generated_Source\PSoC5/dmareq_out.c **** 
  20:.\Generated_Source\PSoC5/dmareq_out.c **** /* APIs are not generated for P15[7:6] */
  21:.\Generated_Source\PSoC5/dmareq_out.c **** #if !(CY_PSOC5A &&\
  22:.\Generated_Source\PSoC5/dmareq_out.c **** 	 dmareq_out__PORT == 15 && (dmareq_out__MASK & 0xC0))
ARM GAS  C:\Users\SUZUKI~1\AppData\Local\Temp\ccCDLpxE.s 			page 2


  23:.\Generated_Source\PSoC5/dmareq_out.c **** 
  24:.\Generated_Source\PSoC5/dmareq_out.c **** /*******************************************************************************
  25:.\Generated_Source\PSoC5/dmareq_out.c **** * Function Name: dmareq_out_Write
  26:.\Generated_Source\PSoC5/dmareq_out.c **** ********************************************************************************
  27:.\Generated_Source\PSoC5/dmareq_out.c **** * Summary:
  28:.\Generated_Source\PSoC5/dmareq_out.c **** *  Assign a new value to the digital port's data output register.  
  29:.\Generated_Source\PSoC5/dmareq_out.c **** *
  30:.\Generated_Source\PSoC5/dmareq_out.c **** * Parameters:  
  31:.\Generated_Source\PSoC5/dmareq_out.c **** *  prtValue:  The value to be assigned to the Digital Port. 
  32:.\Generated_Source\PSoC5/dmareq_out.c **** *
  33:.\Generated_Source\PSoC5/dmareq_out.c **** * Return: 
  34:.\Generated_Source\PSoC5/dmareq_out.c **** *  void 
  35:.\Generated_Source\PSoC5/dmareq_out.c **** *  
  36:.\Generated_Source\PSoC5/dmareq_out.c **** *******************************************************************************/
  37:.\Generated_Source\PSoC5/dmareq_out.c **** void dmareq_out_Write(uint8 value) 
  38:.\Generated_Source\PSoC5/dmareq_out.c **** {
  32              		.loc 1 38 0
  33              		.cfi_startproc
  34              		@ args = 0, pretend = 0, frame = 16
  35              		@ frame_needed = 1, uses_anonymous_args = 0
  36              		@ link register save eliminated.
  37 0000 80B4     		push	{r7}
  38              	.LCFI0:
  39              		.cfi_def_cfa_offset 4
  40 0002 85B0     		sub	sp, sp, #20
  41              	.LCFI1:
  42              		.cfi_def_cfa_offset 24
  43 0004 00AF     		add	r7, sp, #0
  44              		.cfi_offset 7, -4
  45              	.LCFI2:
  46              		.cfi_def_cfa_register 7
  47 0006 0346     		mov	r3, r0
  48 0008 FB71     		strb	r3, [r7, #7]
  39:.\Generated_Source\PSoC5/dmareq_out.c ****     uint8 staticBits = dmareq_out_DR & ~dmareq_out_MASK;
  49              		.loc 1 39 0
  50 000a 45F20013 		movw	r3, #:lower16:1073762560
  51 000e C4F20003 		movt	r3, #:upper16:1073762560
  52 0012 1B78     		ldrb	r3, [r3, #0]
  53 0014 DBB2     		uxtb	r3, r3
  54 0016 23F03F03 		bic	r3, r3, #63
  55 001a FB73     		strb	r3, [r7, #15]
  40:.\Generated_Source\PSoC5/dmareq_out.c ****     dmareq_out_DR = staticBits | ((value << dmareq_out_SHIFT) & dmareq_out_MASK);
  56              		.loc 1 40 0
  57 001c 45F20013 		movw	r3, #:lower16:1073762560
  58 0020 C4F20003 		movt	r3, #:upper16:1073762560
  59 0024 FA79     		ldrb	r2, [r7, #7]	@ zero_extendqisi2
  60 0026 02F03F02 		and	r2, r2, #63
  61 002a F97B     		ldrb	r1, [r7, #15]
  62 002c 42EA0102 		orr	r2, r2, r1
  63 0030 D2B2     		uxtb	r2, r2
  64 0032 1A70     		strb	r2, [r3, #0]
  41:.\Generated_Source\PSoC5/dmareq_out.c **** }
  65              		.loc 1 41 0
  66 0034 07F11407 		add	r7, r7, #20
  67 0038 BD46     		mov	sp, r7
  68 003a 80BC     		pop	{r7}
  69 003c 7047     		bx	lr
ARM GAS  C:\Users\SUZUKI~1\AppData\Local\Temp\ccCDLpxE.s 			page 3


  70              		.cfi_endproc
  71              	.LFE0:
  72              		.size	dmareq_out_Write, .-dmareq_out_Write
  73 003e 00BF     		.section	.text.dmareq_out_SetDriveMode,"ax",%progbits
  74              		.align	2
  75              		.global	dmareq_out_SetDriveMode
  76              		.thumb
  77              		.thumb_func
  78              		.type	dmareq_out_SetDriveMode, %function
  79              	dmareq_out_SetDriveMode:
  80              	.LFB1:
  42:.\Generated_Source\PSoC5/dmareq_out.c **** 
  43:.\Generated_Source\PSoC5/dmareq_out.c **** 
  44:.\Generated_Source\PSoC5/dmareq_out.c **** /*******************************************************************************
  45:.\Generated_Source\PSoC5/dmareq_out.c **** * Function Name: dmareq_out_SetDriveMode
  46:.\Generated_Source\PSoC5/dmareq_out.c **** ********************************************************************************
  47:.\Generated_Source\PSoC5/dmareq_out.c **** * Summary:
  48:.\Generated_Source\PSoC5/dmareq_out.c **** *  Change the drive mode on the pins of the port.
  49:.\Generated_Source\PSoC5/dmareq_out.c **** * 
  50:.\Generated_Source\PSoC5/dmareq_out.c **** * Parameters:  
  51:.\Generated_Source\PSoC5/dmareq_out.c **** *  mode:  Change the pins to this drive mode.
  52:.\Generated_Source\PSoC5/dmareq_out.c **** *
  53:.\Generated_Source\PSoC5/dmareq_out.c **** * Return: 
  54:.\Generated_Source\PSoC5/dmareq_out.c **** *  void
  55:.\Generated_Source\PSoC5/dmareq_out.c **** *
  56:.\Generated_Source\PSoC5/dmareq_out.c **** *******************************************************************************/
  57:.\Generated_Source\PSoC5/dmareq_out.c **** void dmareq_out_SetDriveMode(uint8 mode) 
  58:.\Generated_Source\PSoC5/dmareq_out.c **** {
  81              		.loc 1 58 0
  82              		.cfi_startproc
  83              		@ args = 0, pretend = 0, frame = 8
  84              		@ frame_needed = 1, uses_anonymous_args = 0
  85              		@ link register save eliminated.
  86 0000 80B4     		push	{r7}
  87              	.LCFI3:
  88              		.cfi_def_cfa_offset 4
  89 0002 83B0     		sub	sp, sp, #12
  90              	.LCFI4:
  91              		.cfi_def_cfa_offset 16
  92 0004 00AF     		add	r7, sp, #0
  93              		.cfi_offset 7, -4
  94              	.LCFI5:
  95              		.cfi_def_cfa_register 7
  96 0006 0346     		mov	r3, r0
  97 0008 FB71     		strb	r3, [r7, #7]
  59:.\Generated_Source\PSoC5/dmareq_out.c **** 	CyPins_SetPinDriveMode(dmareq_out_0, mode);
  98              		.loc 1 59 0
  99 000a 45F20003 		movw	r3, #:lower16:1073762304
 100 000e C4F20003 		movt	r3, #:upper16:1073762304
 101 0012 45F20002 		movw	r2, #:lower16:1073762304
 102 0016 C4F20002 		movt	r2, #:upper16:1073762304
 103 001a 1278     		ldrb	r2, [r2, #0]
 104 001c D2B2     		uxtb	r2, r2
 105 001e 1146     		mov	r1, r2
 106 0020 01F0F101 		and	r1, r1, #241
 107 0024 FA79     		ldrb	r2, [r7, #7]	@ zero_extendqisi2
 108 0026 02F00E02 		and	r2, r2, #14
ARM GAS  C:\Users\SUZUKI~1\AppData\Local\Temp\ccCDLpxE.s 			page 4


 109 002a 41EA0202 		orr	r2, r1, r2
 110 002e D2B2     		uxtb	r2, r2
 111 0030 1A70     		strb	r2, [r3, #0]
  60:.\Generated_Source\PSoC5/dmareq_out.c **** 	CyPins_SetPinDriveMode(dmareq_out_1, mode);
 112              		.loc 1 60 0
 113 0032 45F20103 		movw	r3, #:lower16:1073762305
 114 0036 C4F20003 		movt	r3, #:upper16:1073762305
 115 003a 45F20102 		movw	r2, #:lower16:1073762305
 116 003e C4F20002 		movt	r2, #:upper16:1073762305
 117 0042 1278     		ldrb	r2, [r2, #0]
 118 0044 D2B2     		uxtb	r2, r2
 119 0046 1146     		mov	r1, r2
 120 0048 01F0F101 		and	r1, r1, #241
 121 004c FA79     		ldrb	r2, [r7, #7]	@ zero_extendqisi2
 122 004e 02F00E02 		and	r2, r2, #14
 123 0052 41EA0202 		orr	r2, r1, r2
 124 0056 D2B2     		uxtb	r2, r2
 125 0058 1A70     		strb	r2, [r3, #0]
  61:.\Generated_Source\PSoC5/dmareq_out.c **** 	CyPins_SetPinDriveMode(dmareq_out_2, mode);
 126              		.loc 1 61 0
 127 005a 45F20203 		movw	r3, #:lower16:1073762306
 128 005e C4F20003 		movt	r3, #:upper16:1073762306
 129 0062 45F20202 		movw	r2, #:lower16:1073762306
 130 0066 C4F20002 		movt	r2, #:upper16:1073762306
 131 006a 1278     		ldrb	r2, [r2, #0]
 132 006c D2B2     		uxtb	r2, r2
 133 006e 1146     		mov	r1, r2
 134 0070 01F0F101 		and	r1, r1, #241
 135 0074 FA79     		ldrb	r2, [r7, #7]	@ zero_extendqisi2
 136 0076 02F00E02 		and	r2, r2, #14
 137 007a 41EA0202 		orr	r2, r1, r2
 138 007e D2B2     		uxtb	r2, r2
 139 0080 1A70     		strb	r2, [r3, #0]
  62:.\Generated_Source\PSoC5/dmareq_out.c **** 	CyPins_SetPinDriveMode(dmareq_out_3, mode);
 140              		.loc 1 62 0
 141 0082 45F20303 		movw	r3, #:lower16:1073762307
 142 0086 C4F20003 		movt	r3, #:upper16:1073762307
 143 008a 45F20302 		movw	r2, #:lower16:1073762307
 144 008e C4F20002 		movt	r2, #:upper16:1073762307
 145 0092 1278     		ldrb	r2, [r2, #0]
 146 0094 D2B2     		uxtb	r2, r2
 147 0096 1146     		mov	r1, r2
 148 0098 01F0F101 		and	r1, r1, #241
 149 009c FA79     		ldrb	r2, [r7, #7]	@ zero_extendqisi2
 150 009e 02F00E02 		and	r2, r2, #14
 151 00a2 41EA0202 		orr	r2, r1, r2
 152 00a6 D2B2     		uxtb	r2, r2
 153 00a8 1A70     		strb	r2, [r3, #0]
  63:.\Generated_Source\PSoC5/dmareq_out.c **** 	CyPins_SetPinDriveMode(dmareq_out_4, mode);
 154              		.loc 1 63 0
 155 00aa 45F20403 		movw	r3, #:lower16:1073762308
 156 00ae C4F20003 		movt	r3, #:upper16:1073762308
 157 00b2 45F20402 		movw	r2, #:lower16:1073762308
 158 00b6 C4F20002 		movt	r2, #:upper16:1073762308
 159 00ba 1278     		ldrb	r2, [r2, #0]
 160 00bc D2B2     		uxtb	r2, r2
 161 00be 1146     		mov	r1, r2
ARM GAS  C:\Users\SUZUKI~1\AppData\Local\Temp\ccCDLpxE.s 			page 5


 162 00c0 01F0F101 		and	r1, r1, #241
 163 00c4 FA79     		ldrb	r2, [r7, #7]	@ zero_extendqisi2
 164 00c6 02F00E02 		and	r2, r2, #14
 165 00ca 41EA0202 		orr	r2, r1, r2
 166 00ce D2B2     		uxtb	r2, r2
 167 00d0 1A70     		strb	r2, [r3, #0]
  64:.\Generated_Source\PSoC5/dmareq_out.c **** 	CyPins_SetPinDriveMode(dmareq_out_5, mode);
 168              		.loc 1 64 0
 169 00d2 45F20503 		movw	r3, #:lower16:1073762309
 170 00d6 C4F20003 		movt	r3, #:upper16:1073762309
 171 00da 45F20502 		movw	r2, #:lower16:1073762309
 172 00de C4F20002 		movt	r2, #:upper16:1073762309
 173 00e2 1278     		ldrb	r2, [r2, #0]
 174 00e4 D2B2     		uxtb	r2, r2
 175 00e6 1146     		mov	r1, r2
 176 00e8 01F0F101 		and	r1, r1, #241
 177 00ec FA79     		ldrb	r2, [r7, #7]	@ zero_extendqisi2
 178 00ee 02F00E02 		and	r2, r2, #14
 179 00f2 41EA0202 		orr	r2, r1, r2
 180 00f6 D2B2     		uxtb	r2, r2
 181 00f8 1A70     		strb	r2, [r3, #0]
  65:.\Generated_Source\PSoC5/dmareq_out.c **** }
 182              		.loc 1 65 0
 183 00fa 07F10C07 		add	r7, r7, #12
 184 00fe BD46     		mov	sp, r7
 185 0100 80BC     		pop	{r7}
 186 0102 7047     		bx	lr
 187              		.cfi_endproc
 188              	.LFE1:
 189              		.size	dmareq_out_SetDriveMode, .-dmareq_out_SetDriveMode
 190              		.section	.text.dmareq_out_Read,"ax",%progbits
 191              		.align	2
 192              		.global	dmareq_out_Read
 193              		.thumb
 194              		.thumb_func
 195              		.type	dmareq_out_Read, %function
 196              	dmareq_out_Read:
 197              	.LFB2:
  66:.\Generated_Source\PSoC5/dmareq_out.c **** 
  67:.\Generated_Source\PSoC5/dmareq_out.c **** 
  68:.\Generated_Source\PSoC5/dmareq_out.c **** /*******************************************************************************
  69:.\Generated_Source\PSoC5/dmareq_out.c **** * Function Name: dmareq_out_Read
  70:.\Generated_Source\PSoC5/dmareq_out.c **** ********************************************************************************
  71:.\Generated_Source\PSoC5/dmareq_out.c **** * Summary:
  72:.\Generated_Source\PSoC5/dmareq_out.c **** *  Read the current value on the pins of the Digital Port in right justified 
  73:.\Generated_Source\PSoC5/dmareq_out.c **** *  form.
  74:.\Generated_Source\PSoC5/dmareq_out.c **** *
  75:.\Generated_Source\PSoC5/dmareq_out.c **** * Parameters:  
  76:.\Generated_Source\PSoC5/dmareq_out.c **** *  void 
  77:.\Generated_Source\PSoC5/dmareq_out.c **** *
  78:.\Generated_Source\PSoC5/dmareq_out.c **** * Return: 
  79:.\Generated_Source\PSoC5/dmareq_out.c **** *  Returns the current value of the Digital Port as a right justified number
  80:.\Generated_Source\PSoC5/dmareq_out.c **** *  
  81:.\Generated_Source\PSoC5/dmareq_out.c **** * Note:
  82:.\Generated_Source\PSoC5/dmareq_out.c **** *  Macro dmareq_out_ReadPS calls this function. 
  83:.\Generated_Source\PSoC5/dmareq_out.c **** *  
  84:.\Generated_Source\PSoC5/dmareq_out.c **** *******************************************************************************/
ARM GAS  C:\Users\SUZUKI~1\AppData\Local\Temp\ccCDLpxE.s 			page 6


  85:.\Generated_Source\PSoC5/dmareq_out.c **** uint8 dmareq_out_Read(void) 
  86:.\Generated_Source\PSoC5/dmareq_out.c **** {
 198              		.loc 1 86 0
 199              		.cfi_startproc
 200              		@ args = 0, pretend = 0, frame = 0
 201              		@ frame_needed = 1, uses_anonymous_args = 0
 202              		@ link register save eliminated.
 203 0000 80B4     		push	{r7}
 204              	.LCFI6:
 205              		.cfi_def_cfa_offset 4
 206 0002 00AF     		add	r7, sp, #0
 207              		.cfi_offset 7, -4
 208              	.LCFI7:
 209              		.cfi_def_cfa_register 7
  87:.\Generated_Source\PSoC5/dmareq_out.c ****     return (dmareq_out_PS & dmareq_out_MASK) >> dmareq_out_SHIFT;
 210              		.loc 1 87 0
 211 0004 45F20113 		movw	r3, #:lower16:1073762561
 212 0008 C4F20003 		movt	r3, #:upper16:1073762561
 213 000c 1B78     		ldrb	r3, [r3, #0]
 214 000e DBB2     		uxtb	r3, r3
 215 0010 03F03F03 		and	r3, r3, #63
  88:.\Generated_Source\PSoC5/dmareq_out.c **** }
 216              		.loc 1 88 0
 217 0014 1846     		mov	r0, r3
 218 0016 BD46     		mov	sp, r7
 219 0018 80BC     		pop	{r7}
 220 001a 7047     		bx	lr
 221              		.cfi_endproc
 222              	.LFE2:
 223              		.size	dmareq_out_Read, .-dmareq_out_Read
 224              		.section	.text.dmareq_out_ReadDataReg,"ax",%progbits
 225              		.align	2
 226              		.global	dmareq_out_ReadDataReg
 227              		.thumb
 228              		.thumb_func
 229              		.type	dmareq_out_ReadDataReg, %function
 230              	dmareq_out_ReadDataReg:
 231              	.LFB3:
  89:.\Generated_Source\PSoC5/dmareq_out.c **** 
  90:.\Generated_Source\PSoC5/dmareq_out.c **** 
  91:.\Generated_Source\PSoC5/dmareq_out.c **** /*******************************************************************************
  92:.\Generated_Source\PSoC5/dmareq_out.c **** * Function Name: dmareq_out_ReadDataReg
  93:.\Generated_Source\PSoC5/dmareq_out.c **** ********************************************************************************
  94:.\Generated_Source\PSoC5/dmareq_out.c **** * Summary:
  95:.\Generated_Source\PSoC5/dmareq_out.c **** *  Read the current value assigned to a Digital Port's data output register
  96:.\Generated_Source\PSoC5/dmareq_out.c **** *
  97:.\Generated_Source\PSoC5/dmareq_out.c **** * Parameters:  
  98:.\Generated_Source\PSoC5/dmareq_out.c **** *  void 
  99:.\Generated_Source\PSoC5/dmareq_out.c **** *
 100:.\Generated_Source\PSoC5/dmareq_out.c **** * Return: 
 101:.\Generated_Source\PSoC5/dmareq_out.c **** *  Returns the current value assigned to the Digital Port's data output register
 102:.\Generated_Source\PSoC5/dmareq_out.c **** *  
 103:.\Generated_Source\PSoC5/dmareq_out.c **** *******************************************************************************/
 104:.\Generated_Source\PSoC5/dmareq_out.c **** uint8 dmareq_out_ReadDataReg(void) 
 105:.\Generated_Source\PSoC5/dmareq_out.c **** {
 232              		.loc 1 105 0
 233              		.cfi_startproc
ARM GAS  C:\Users\SUZUKI~1\AppData\Local\Temp\ccCDLpxE.s 			page 7


 234              		@ args = 0, pretend = 0, frame = 0
 235              		@ frame_needed = 1, uses_anonymous_args = 0
 236              		@ link register save eliminated.
 237 0000 80B4     		push	{r7}
 238              	.LCFI8:
 239              		.cfi_def_cfa_offset 4
 240 0002 00AF     		add	r7, sp, #0
 241              		.cfi_offset 7, -4
 242              	.LCFI9:
 243              		.cfi_def_cfa_register 7
 106:.\Generated_Source\PSoC5/dmareq_out.c ****     return (dmareq_out_DR & dmareq_out_MASK) >> dmareq_out_SHIFT;
 244              		.loc 1 106 0
 245 0004 45F20013 		movw	r3, #:lower16:1073762560
 246 0008 C4F20003 		movt	r3, #:upper16:1073762560
 247 000c 1B78     		ldrb	r3, [r3, #0]
 248 000e DBB2     		uxtb	r3, r3
 249 0010 03F03F03 		and	r3, r3, #63
 107:.\Generated_Source\PSoC5/dmareq_out.c **** }
 250              		.loc 1 107 0
 251 0014 1846     		mov	r0, r3
 252 0016 BD46     		mov	sp, r7
 253 0018 80BC     		pop	{r7}
 254 001a 7047     		bx	lr
 255              		.cfi_endproc
 256              	.LFE3:
 257              		.size	dmareq_out_ReadDataReg, .-dmareq_out_ReadDataReg
 258              		.text
 259              	.Letext0:
 260              		.section	.debug_loc,"",%progbits
 261              	.Ldebug_loc0:
 262              	.LLST0:
 263 0000 00000000 		.4byte	.LFB0
 264 0004 02000000 		.4byte	.LCFI0
 265 0008 0100     		.2byte	0x1
 266 000a 5D       		.byte	0x5d
 267 000b 02000000 		.4byte	.LCFI0
 268 000f 04000000 		.4byte	.LCFI1
 269 0013 0200     		.2byte	0x2
 270 0015 7D       		.byte	0x7d
 271 0016 04       		.sleb128 4
 272 0017 04000000 		.4byte	.LCFI1
 273 001b 06000000 		.4byte	.LCFI2
 274 001f 0200     		.2byte	0x2
 275 0021 7D       		.byte	0x7d
 276 0022 18       		.sleb128 24
 277 0023 06000000 		.4byte	.LCFI2
 278 0027 3E000000 		.4byte	.LFE0
 279 002b 0200     		.2byte	0x2
 280 002d 77       		.byte	0x77
 281 002e 18       		.sleb128 24
 282 002f 00000000 		.4byte	0x0
 283 0033 00000000 		.4byte	0x0
 284              	.LLST1:
 285 0037 00000000 		.4byte	.LFB1
 286 003b 02000000 		.4byte	.LCFI3
 287 003f 0100     		.2byte	0x1
 288 0041 5D       		.byte	0x5d
ARM GAS  C:\Users\SUZUKI~1\AppData\Local\Temp\ccCDLpxE.s 			page 8


 289 0042 02000000 		.4byte	.LCFI3
 290 0046 04000000 		.4byte	.LCFI4
 291 004a 0200     		.2byte	0x2
 292 004c 7D       		.byte	0x7d
 293 004d 04       		.sleb128 4
 294 004e 04000000 		.4byte	.LCFI4
 295 0052 06000000 		.4byte	.LCFI5
 296 0056 0200     		.2byte	0x2
 297 0058 7D       		.byte	0x7d
 298 0059 10       		.sleb128 16
 299 005a 06000000 		.4byte	.LCFI5
 300 005e 04010000 		.4byte	.LFE1
 301 0062 0200     		.2byte	0x2
 302 0064 77       		.byte	0x77
 303 0065 10       		.sleb128 16
 304 0066 00000000 		.4byte	0x0
 305 006a 00000000 		.4byte	0x0
 306              	.LLST2:
 307 006e 00000000 		.4byte	.LFB2
 308 0072 02000000 		.4byte	.LCFI6
 309 0076 0100     		.2byte	0x1
 310 0078 5D       		.byte	0x5d
 311 0079 02000000 		.4byte	.LCFI6
 312 007d 04000000 		.4byte	.LCFI7
 313 0081 0200     		.2byte	0x2
 314 0083 7D       		.byte	0x7d
 315 0084 04       		.sleb128 4
 316 0085 04000000 		.4byte	.LCFI7
 317 0089 1C000000 		.4byte	.LFE2
 318 008d 0200     		.2byte	0x2
 319 008f 77       		.byte	0x77
 320 0090 04       		.sleb128 4
 321 0091 00000000 		.4byte	0x0
 322 0095 00000000 		.4byte	0x0
 323              	.LLST3:
 324 0099 00000000 		.4byte	.LFB3
 325 009d 02000000 		.4byte	.LCFI8
 326 00a1 0100     		.2byte	0x1
 327 00a3 5D       		.byte	0x5d
 328 00a4 02000000 		.4byte	.LCFI8
 329 00a8 04000000 		.4byte	.LCFI9
 330 00ac 0200     		.2byte	0x2
 331 00ae 7D       		.byte	0x7d
 332 00af 04       		.sleb128 4
 333 00b0 04000000 		.4byte	.LCFI9
 334 00b4 1C000000 		.4byte	.LFE3
 335 00b8 0200     		.2byte	0x2
 336 00ba 77       		.byte	0x77
 337 00bb 04       		.sleb128 4
 338 00bc 00000000 		.4byte	0x0
 339 00c0 00000000 		.4byte	0x0
 340              		.file 2 ".\\Generated_Source\\PSoC5\\/cytypes.h"
 341              		.section	.debug_info
 342 0000 0E010000 		.4byte	0x10e
 343 0004 0200     		.2byte	0x2
 344 0006 00000000 		.4byte	.Ldebug_abbrev0
 345 000a 04       		.byte	0x4
ARM GAS  C:\Users\SUZUKI~1\AppData\Local\Temp\ccCDLpxE.s 			page 9


 346 000b 01       		.uleb128 0x1
 347 000c D9000000 		.4byte	.LASF16
 348 0010 01       		.byte	0x1
 349 0011 02010000 		.4byte	.LASF17
 350 0015 79000000 		.4byte	.LASF18
 351 0019 00000000 		.4byte	0x0
 352 001d 00000000 		.4byte	0x0
 353 0021 00000000 		.4byte	.Ldebug_ranges0+0x0
 354 0025 00000000 		.4byte	.Ldebug_line0
 355 0029 02       		.uleb128 0x2
 356 002a 01       		.byte	0x1
 357 002b 06       		.byte	0x6
 358 002c 41010000 		.4byte	.LASF0
 359 0030 02       		.uleb128 0x2
 360 0031 01       		.byte	0x1
 361 0032 08       		.byte	0x8
 362 0033 46000000 		.4byte	.LASF1
 363 0037 02       		.uleb128 0x2
 364 0038 02       		.byte	0x2
 365 0039 05       		.byte	0x5
 366 003a 28010000 		.4byte	.LASF2
 367 003e 02       		.uleb128 0x2
 368 003f 02       		.byte	0x2
 369 0040 07       		.byte	0x7
 370 0041 66000000 		.4byte	.LASF3
 371 0045 02       		.uleb128 0x2
 372 0046 04       		.byte	0x4
 373 0047 05       		.byte	0x5
 374 0048 38010000 		.4byte	.LASF4
 375 004c 02       		.uleb128 0x2
 376 004d 04       		.byte	0x4
 377 004e 07       		.byte	0x7
 378 004f 54000000 		.4byte	.LASF5
 379 0053 02       		.uleb128 0x2
 380 0054 08       		.byte	0x8
 381 0055 05       		.byte	0x5
 382 0056 00000000 		.4byte	.LASF6
 383 005a 02       		.uleb128 0x2
 384 005b 08       		.byte	0x8
 385 005c 07       		.byte	0x7
 386 005d BD000000 		.4byte	.LASF7
 387 0061 03       		.uleb128 0x3
 388 0062 04       		.byte	0x4
 389 0063 05       		.byte	0x5
 390 0064 696E7400 		.ascii	"int\000"
 391 0068 02       		.uleb128 0x2
 392 0069 04       		.byte	0x4
 393 006a 07       		.byte	0x7
 394 006b B0000000 		.4byte	.LASF8
 395 006f 02       		.uleb128 0x2
 396 0070 01       		.byte	0x1
 397 0071 08       		.byte	0x8
 398 0072 E5000000 		.4byte	.LASF9
 399 0076 04       		.uleb128 0x4
 400 0077 32010000 		.4byte	.LASF19
 401 007b 02       		.byte	0x2
 402 007c 60       		.byte	0x60
ARM GAS  C:\Users\SUZUKI~1\AppData\Local\Temp\ccCDLpxE.s 			page 10


 403 007d 30000000 		.4byte	0x30
 404 0081 05       		.uleb128 0x5
 405 0082 01       		.byte	0x1
 406 0083 4D010000 		.4byte	.LASF10
 407 0087 01       		.byte	0x1
 408 0088 25       		.byte	0x25
 409 0089 01       		.byte	0x1
 410 008a 00000000 		.4byte	.LFB0
 411 008e 3E000000 		.4byte	.LFE0
 412 0092 00000000 		.4byte	.LLST0
 413 0096 B7000000 		.4byte	0xb7
 414 009a 06       		.uleb128 0x6
 415 009b 0E000000 		.4byte	.LASF12
 416 009f 01       		.byte	0x1
 417 00a0 25       		.byte	0x25
 418 00a1 76000000 		.4byte	0x76
 419 00a5 02       		.byte	0x2
 420 00a6 91       		.byte	0x91
 421 00a7 6F       		.sleb128 -17
 422 00a8 07       		.uleb128 0x7
 423 00a9 14000000 		.4byte	.LASF20
 424 00ad 01       		.byte	0x1
 425 00ae 27       		.byte	0x27
 426 00af 76000000 		.4byte	0x76
 427 00b3 02       		.byte	0x2
 428 00b4 91       		.byte	0x91
 429 00b5 77       		.sleb128 -9
 430 00b6 00       		.byte	0x0
 431 00b7 05       		.uleb128 0x5
 432 00b8 01       		.byte	0x1
 433 00b9 EA000000 		.4byte	.LASF11
 434 00bd 01       		.byte	0x1
 435 00be 39       		.byte	0x39
 436 00bf 01       		.byte	0x1
 437 00c0 00000000 		.4byte	.LFB1
 438 00c4 04010000 		.4byte	.LFE1
 439 00c8 37000000 		.4byte	.LLST1
 440 00cc DF000000 		.4byte	0xdf
 441 00d0 06       		.uleb128 0x6
 442 00d1 D4000000 		.4byte	.LASF13
 443 00d5 01       		.byte	0x1
 444 00d6 39       		.byte	0x39
 445 00d7 76000000 		.4byte	0x76
 446 00db 02       		.byte	0x2
 447 00dc 91       		.byte	0x91
 448 00dd 77       		.sleb128 -9
 449 00de 00       		.byte	0x0
 450 00df 08       		.uleb128 0x8
 451 00e0 01       		.byte	0x1
 452 00e1 36000000 		.4byte	.LASF14
 453 00e5 01       		.byte	0x1
 454 00e6 55       		.byte	0x55
 455 00e7 01       		.byte	0x1
 456 00e8 76000000 		.4byte	0x76
 457 00ec 00000000 		.4byte	.LFB2
 458 00f0 1C000000 		.4byte	.LFE2
 459 00f4 6E000000 		.4byte	.LLST2
ARM GAS  C:\Users\SUZUKI~1\AppData\Local\Temp\ccCDLpxE.s 			page 11


 460 00f8 08       		.uleb128 0x8
 461 00f9 01       		.byte	0x1
 462 00fa 1F000000 		.4byte	.LASF15
 463 00fe 01       		.byte	0x1
 464 00ff 68       		.byte	0x68
 465 0100 01       		.byte	0x1
 466 0101 76000000 		.4byte	0x76
 467 0105 00000000 		.4byte	.LFB3
 468 0109 1C000000 		.4byte	.LFE3
 469 010d 99000000 		.4byte	.LLST3
 470 0111 00       		.byte	0x0
 471              		.section	.debug_abbrev
 472 0000 01       		.uleb128 0x1
 473 0001 11       		.uleb128 0x11
 474 0002 01       		.byte	0x1
 475 0003 25       		.uleb128 0x25
 476 0004 0E       		.uleb128 0xe
 477 0005 13       		.uleb128 0x13
 478 0006 0B       		.uleb128 0xb
 479 0007 03       		.uleb128 0x3
 480 0008 0E       		.uleb128 0xe
 481 0009 1B       		.uleb128 0x1b
 482 000a 0E       		.uleb128 0xe
 483 000b 11       		.uleb128 0x11
 484 000c 01       		.uleb128 0x1
 485 000d 52       		.uleb128 0x52
 486 000e 01       		.uleb128 0x1
 487 000f 55       		.uleb128 0x55
 488 0010 06       		.uleb128 0x6
 489 0011 10       		.uleb128 0x10
 490 0012 06       		.uleb128 0x6
 491 0013 00       		.byte	0x0
 492 0014 00       		.byte	0x0
 493 0015 02       		.uleb128 0x2
 494 0016 24       		.uleb128 0x24
 495 0017 00       		.byte	0x0
 496 0018 0B       		.uleb128 0xb
 497 0019 0B       		.uleb128 0xb
 498 001a 3E       		.uleb128 0x3e
 499 001b 0B       		.uleb128 0xb
 500 001c 03       		.uleb128 0x3
 501 001d 0E       		.uleb128 0xe
 502 001e 00       		.byte	0x0
 503 001f 00       		.byte	0x0
 504 0020 03       		.uleb128 0x3
 505 0021 24       		.uleb128 0x24
 506 0022 00       		.byte	0x0
 507 0023 0B       		.uleb128 0xb
 508 0024 0B       		.uleb128 0xb
 509 0025 3E       		.uleb128 0x3e
 510 0026 0B       		.uleb128 0xb
 511 0027 03       		.uleb128 0x3
 512 0028 08       		.uleb128 0x8
 513 0029 00       		.byte	0x0
 514 002a 00       		.byte	0x0
 515 002b 04       		.uleb128 0x4
 516 002c 16       		.uleb128 0x16
ARM GAS  C:\Users\SUZUKI~1\AppData\Local\Temp\ccCDLpxE.s 			page 12


 517 002d 00       		.byte	0x0
 518 002e 03       		.uleb128 0x3
 519 002f 0E       		.uleb128 0xe
 520 0030 3A       		.uleb128 0x3a
 521 0031 0B       		.uleb128 0xb
 522 0032 3B       		.uleb128 0x3b
 523 0033 0B       		.uleb128 0xb
 524 0034 49       		.uleb128 0x49
 525 0035 13       		.uleb128 0x13
 526 0036 00       		.byte	0x0
 527 0037 00       		.byte	0x0
 528 0038 05       		.uleb128 0x5
 529 0039 2E       		.uleb128 0x2e
 530 003a 01       		.byte	0x1
 531 003b 3F       		.uleb128 0x3f
 532 003c 0C       		.uleb128 0xc
 533 003d 03       		.uleb128 0x3
 534 003e 0E       		.uleb128 0xe
 535 003f 3A       		.uleb128 0x3a
 536 0040 0B       		.uleb128 0xb
 537 0041 3B       		.uleb128 0x3b
 538 0042 0B       		.uleb128 0xb
 539 0043 27       		.uleb128 0x27
 540 0044 0C       		.uleb128 0xc
 541 0045 11       		.uleb128 0x11
 542 0046 01       		.uleb128 0x1
 543 0047 12       		.uleb128 0x12
 544 0048 01       		.uleb128 0x1
 545 0049 40       		.uleb128 0x40
 546 004a 06       		.uleb128 0x6
 547 004b 01       		.uleb128 0x1
 548 004c 13       		.uleb128 0x13
 549 004d 00       		.byte	0x0
 550 004e 00       		.byte	0x0
 551 004f 06       		.uleb128 0x6
 552 0050 05       		.uleb128 0x5
 553 0051 00       		.byte	0x0
 554 0052 03       		.uleb128 0x3
 555 0053 0E       		.uleb128 0xe
 556 0054 3A       		.uleb128 0x3a
 557 0055 0B       		.uleb128 0xb
 558 0056 3B       		.uleb128 0x3b
 559 0057 0B       		.uleb128 0xb
 560 0058 49       		.uleb128 0x49
 561 0059 13       		.uleb128 0x13
 562 005a 02       		.uleb128 0x2
 563 005b 0A       		.uleb128 0xa
 564 005c 00       		.byte	0x0
 565 005d 00       		.byte	0x0
 566 005e 07       		.uleb128 0x7
 567 005f 34       		.uleb128 0x34
 568 0060 00       		.byte	0x0
 569 0061 03       		.uleb128 0x3
 570 0062 0E       		.uleb128 0xe
 571 0063 3A       		.uleb128 0x3a
 572 0064 0B       		.uleb128 0xb
 573 0065 3B       		.uleb128 0x3b
ARM GAS  C:\Users\SUZUKI~1\AppData\Local\Temp\ccCDLpxE.s 			page 13


 574 0066 0B       		.uleb128 0xb
 575 0067 49       		.uleb128 0x49
 576 0068 13       		.uleb128 0x13
 577 0069 02       		.uleb128 0x2
 578 006a 0A       		.uleb128 0xa
 579 006b 00       		.byte	0x0
 580 006c 00       		.byte	0x0
 581 006d 08       		.uleb128 0x8
 582 006e 2E       		.uleb128 0x2e
 583 006f 00       		.byte	0x0
 584 0070 3F       		.uleb128 0x3f
 585 0071 0C       		.uleb128 0xc
 586 0072 03       		.uleb128 0x3
 587 0073 0E       		.uleb128 0xe
 588 0074 3A       		.uleb128 0x3a
 589 0075 0B       		.uleb128 0xb
 590 0076 3B       		.uleb128 0x3b
 591 0077 0B       		.uleb128 0xb
 592 0078 27       		.uleb128 0x27
 593 0079 0C       		.uleb128 0xc
 594 007a 49       		.uleb128 0x49
 595 007b 13       		.uleb128 0x13
 596 007c 11       		.uleb128 0x11
 597 007d 01       		.uleb128 0x1
 598 007e 12       		.uleb128 0x12
 599 007f 01       		.uleb128 0x1
 600 0080 40       		.uleb128 0x40
 601 0081 06       		.uleb128 0x6
 602 0082 00       		.byte	0x0
 603 0083 00       		.byte	0x0
 604 0084 00       		.byte	0x0
 605              		.section	.debug_pubnames,"",%progbits
 606 0000 6E000000 		.4byte	0x6e
 607 0004 0200     		.2byte	0x2
 608 0006 00000000 		.4byte	.Ldebug_info0
 609 000a 12010000 		.4byte	0x112
 610 000e 81000000 		.4byte	0x81
 611 0012 646D6172 		.ascii	"dmareq_out_Write\000"
 611      65715F6F 
 611      75745F57 
 611      72697465 
 611      00
 612 0023 B7000000 		.4byte	0xb7
 613 0027 646D6172 		.ascii	"dmareq_out_SetDriveMode\000"
 613      65715F6F 
 613      75745F53 
 613      65744472 
 613      6976654D 
 614 003f DF000000 		.4byte	0xdf
 615 0043 646D6172 		.ascii	"dmareq_out_Read\000"
 615      65715F6F 
 615      75745F52 
 615      65616400 
 616 0053 F8000000 		.4byte	0xf8
 617 0057 646D6172 		.ascii	"dmareq_out_ReadDataReg\000"
 617      65715F6F 
 617      75745F52 
ARM GAS  C:\Users\SUZUKI~1\AppData\Local\Temp\ccCDLpxE.s 			page 14


 617      65616444 
 617      61746152 
 618 006e 00000000 		.4byte	0x0
 619              		.section	.debug_aranges,"",%progbits
 620 0000 34000000 		.4byte	0x34
 621 0004 0200     		.2byte	0x2
 622 0006 00000000 		.4byte	.Ldebug_info0
 623 000a 04       		.byte	0x4
 624 000b 00       		.byte	0x0
 625 000c 0000     		.2byte	0x0
 626 000e 0000     		.2byte	0x0
 627 0010 00000000 		.4byte	.LFB0
 628 0014 3E000000 		.4byte	.LFE0-.LFB0
 629 0018 00000000 		.4byte	.LFB1
 630 001c 04010000 		.4byte	.LFE1-.LFB1
 631 0020 00000000 		.4byte	.LFB2
 632 0024 1C000000 		.4byte	.LFE2-.LFB2
 633 0028 00000000 		.4byte	.LFB3
 634 002c 1C000000 		.4byte	.LFE3-.LFB3
 635 0030 00000000 		.4byte	0x0
 636 0034 00000000 		.4byte	0x0
 637              		.section	.debug_ranges,"",%progbits
 638              	.Ldebug_ranges0:
 639 0000 00000000 		.4byte	.Ltext0
 640 0004 00000000 		.4byte	.Letext0
 641 0008 00000000 		.4byte	.LFB0
 642 000c 3E000000 		.4byte	.LFE0
 643 0010 00000000 		.4byte	.LFB1
 644 0014 04010000 		.4byte	.LFE1
 645 0018 00000000 		.4byte	.LFB2
 646 001c 1C000000 		.4byte	.LFE2
 647 0020 00000000 		.4byte	.LFB3
 648 0024 1C000000 		.4byte	.LFE3
 649 0028 00000000 		.4byte	0x0
 650 002c 00000000 		.4byte	0x0
 651              		.section	.debug_str,"MS",%progbits,1
 652              	.LASF6:
 653 0000 6C6F6E67 		.ascii	"long long int\000"
 653      206C6F6E 
 653      6720696E 
 653      7400
 654              	.LASF12:
 655 000e 76616C75 		.ascii	"value\000"
 655      6500
 656              	.LASF20:
 657 0014 73746174 		.ascii	"staticBits\000"
 657      69634269 
 657      747300
 658              	.LASF15:
 659 001f 646D6172 		.ascii	"dmareq_out_ReadDataReg\000"
 659      65715F6F 
 659      75745F52 
 659      65616444 
 659      61746152 
 660              	.LASF14:
 661 0036 646D6172 		.ascii	"dmareq_out_Read\000"
 661      65715F6F 
ARM GAS  C:\Users\SUZUKI~1\AppData\Local\Temp\ccCDLpxE.s 			page 15


 661      75745F52 
 661      65616400 
 662              	.LASF1:
 663 0046 756E7369 		.ascii	"unsigned char\000"
 663      676E6564 
 663      20636861 
 663      7200
 664              	.LASF5:
 665 0054 6C6F6E67 		.ascii	"long unsigned int\000"
 665      20756E73 
 665      69676E65 
 665      6420696E 
 665      7400
 666              	.LASF3:
 667 0066 73686F72 		.ascii	"short unsigned int\000"
 667      7420756E 
 667      7369676E 
 667      65642069 
 667      6E7400
 668              	.LASF18:
 669 0079 463A5C44 		.ascii	"F:\\Documents\\PSoC_Creator\\ledmatrix\\ledmatrixdm"
 669      6F63756D 
 669      656E7473 
 669      5C50536F 
 669      435F4372 
 670 00a8 612E6379 		.ascii	"a.cydsn\000"
 670      64736E00 
 671              	.LASF8:
 672 00b0 756E7369 		.ascii	"unsigned int\000"
 672      676E6564 
 672      20696E74 
 672      00
 673              	.LASF7:
 674 00bd 6C6F6E67 		.ascii	"long long unsigned int\000"
 674      206C6F6E 
 674      6720756E 
 674      7369676E 
 674      65642069 
 675              	.LASF13:
 676 00d4 6D6F6465 		.ascii	"mode\000"
 676      00
 677              	.LASF16:
 678 00d9 474E5520 		.ascii	"GNU C 4.4.1\000"
 678      4320342E 
 678      342E3100 
 679              	.LASF9:
 680 00e5 63686172 		.ascii	"char\000"
 680      00
 681              	.LASF11:
 682 00ea 646D6172 		.ascii	"dmareq_out_SetDriveMode\000"
 682      65715F6F 
 682      75745F53 
 682      65744472 
 682      6976654D 
 683              	.LASF17:
 684 0102 2E5C4765 		.ascii	".\\Generated_Source\\PSoC5\\dmareq_out.c\000"
 684      6E657261 
ARM GAS  C:\Users\SUZUKI~1\AppData\Local\Temp\ccCDLpxE.s 			page 16


 684      7465645F 
 684      536F7572 
 684      63655C50 
 685              	.LASF2:
 686 0128 73686F72 		.ascii	"short int\000"
 686      7420696E 
 686      7400
 687              	.LASF19:
 688 0132 75696E74 		.ascii	"uint8\000"
 688      3800
 689              	.LASF4:
 690 0138 6C6F6E67 		.ascii	"long int\000"
 690      20696E74 
 690      00
 691              	.LASF0:
 692 0141 7369676E 		.ascii	"signed char\000"
 692      65642063 
 692      68617200 
 693              	.LASF10:
 694 014d 646D6172 		.ascii	"dmareq_out_Write\000"
 694      65715F6F 
 694      75745F57 
 694      72697465 
 694      00
 695              		.ident	"GCC: (Sourcery G++ Lite 2010q1-188) 4.4.1"
